pvda vindt radiopiraten "geen probleem" https://t.co/kyu6feqey1,neg
rt @rmbras1973: wat gaat u hier aan doen @cdavandaag @vvd @d66 @pvda of staan allochtonen nederlanders inmiddels boven de wet en geld recht…,neg
|rt @r_de_collier: geen concreet bewijs van racisme, dus geen aangifte.......maar het @nosnieuws neemt dit dus klakkeloos aan ??!
#pvda #pvv…|,neg
rt @fvdemocratie: #pvda #sp en #groenlinks trekken zich terug uit verbond met omstreden islamitische partij nida in #rotterdam  groenlinks…,neg
rt @wouterstruijk: de pvda zoekt zes sterke bestuursleden. bestuursleden die het debat initiëren. die de democratie in de partij verder wil…,neg
@anitaengbers @m_kraneveldt @huurderspvda @pvda @lodewijka "in gelul kan je niet wonen" die oude uitspraak van jan… https://t.co/bub3mohkfb,neg
|rt @opinieleader: héé "progressieve"  islamlovers #gl #groenlinks #d66 #pvda #sp #cu ,
al jullie ontkenningen tonen alleen maar aan hoe gev…|,neg
@m_kraneveldt en @pvdazoetermeer zijn tegen komst casino met hotel van der valk zonde,neg
|rt @michkapteijns74: veel aandacht @nos voor somalisch pvda kandidaat-raadslid, die tijdens campagne werd 'gediscrimineerd'. geen aandacht…|,neg
|rt @pieteromtzigt: helaas steunden vvd, d66, pvda en groenlinks niet mijn verzoek om een plenair debat met rutte/blok over 
- casus-selmeye…|,neg
@m_wiedemeijer @pvda waarom dan?,neg
rt @ajboekestijn: de kamerleden van pvda en 50 plus vinden het kennelijk geen probleem dat ark stelt dat zij onvolledig is geinformeerd doo…,neg
|rt @marko_kahn: kijk, #nosjournaal, hier was uw slachtoffer ook al. het wordt steeds ongeloofwaardiger.
#pvda #emmen #fakenews https://t.co…|,neg
rt @arjandekok1: pvda en nida halen banden aan met nederlandse ak partij van erdogan. ook d66 kandidaat-raadslid fatih elbay was op de bije…,neg
|rt @volkskrant: groenlinks, sp en pvda willen een verbod op het verder inkrimpen van de voorraad sociale huurwoningen. de nederlandse stede…|,neg
