|rt @groenlinks: groenlinks dé onderwijspartij! 

volgens een peiling van @aobtweets gaan maar liefst 27% van de leden van de onderwijsbond…|,neg
bassiehof - groenlinks komt wel erg makkelijk weg met seksschandalen #metoo https://t.co/1bm2ajcne0,neg
rt @ralphgeest: ik mag verwachten dat de grootbekken van @pvda en @groenlinks die zo tekeer gingen over die tweet van @nidarotterdam nu ook…,neg
groenlinks en d66 willen een vrouw als burgemeester https://t.co/soygx4pgwm via @parool,neg
rt @jayrayskull: lokale politiek verjaagt auto’s. hippiepartij @groenlinks wil parkeerplaatsen slopen en ddr66 @d66 wil parkeertarieven zod…,neg
|rt @swsjoerdsma: peiling eenvandaag:
d66 2e partij

vvd 32
d66 16
cda 16
pvv 16
gl    14
sp    13
fvd   9
pvda 8
pvdd 7
50+   7
cu    6
sgp…|,neg
rt @robertpbas: groenlinks heeft geen vertrouwen meer in nida. het links verbond valt daarmee uit elkaar. #gr2018 #raad010,neg
|rt @janwbakkernl: stemadvies -&gt; maak nederland sterker door woensdag  op een hollandse partij te stemmen. en daar horen pvda, gl en denk ni…|,neg
tussenwinnaars #sp en #groenlinks niet bij pauw https://t.co/aubmpjlqp6 #rotterdam,neg
groenlinks is in the lead; de internationalisten (désessensestig) moeten nog iets meer dan 15% goedmaken op de gewe… https://t.co/xwnmowirkm,neg
|rt @pritt: volgens de hoofdofficier van justitie zou @groenlinks in een fatsoenlijke maatschappij geen recht van leven moeten hebben. 
kijk…|,neg
ok nu wel een beetje raar dat weer barbara kathmann mag aanschuiven bij de npo en niet sp en gl die op winst staan in de peilingen? #nlkiest,neg
rt @sattelweb: "hoe kan dit land'verraders #pvda  #sp #groenlinks #christenunie #pvdd #d66 haar oorspronkelijke bevolking zo enorm in de st…,neg
rt @jndkgrf: hoe laat is het debat waarin het vertrek van kindermisbruikapologeet @tomvanderlee van @groenlinks bekend gemaakt wordt? weet…,neg
rt @kromst: groenlinks kan het eigen grachtenpandje in utrecht niet eens fatsoenlijk isoleren. 😒 https://t.co/q5iojb7xpf,neg
|rt @robertpbas: links verbond rotterdam overleeft crisis over is-tweet van nida. na urenlang spoedoverleg zeggen pvda, sp, groenlinks en do…|,neg
'sp en groenlinks doen bewust niet mee aan de bordenstrijd. volgens lijsttrekker judith bokhove van groenlinks zijn… https://t.co/zm6o3655mu,neg
rt @basbvp: de geruststellende verdoving die verbinding heet begint te werken. #groenlinks #nida #troje https://t.co/dz4hgeql79,neg
|einde links verbond: groenlinks zegt samenwerking met nida toch op 
https://t.co/9n1grw8h0w|,neg
|rt @ewoudkieviet: d66 rotterdam houdt deur op kier voor leefbaar, tot ongenoegen van pvda en groenlinks https://t.co/r1guldaphx|,neg
rt @ronfresen: behalve groenlinks stapt ook pvda uit verbond met nida. gevalletje teruggefloten door partijtoppen,neg
|jezusleeft is:

- vvd zonder leugen
- pvv zonder racisme
- groenlinks zonder links
- pvda, maar voor de arbeiders
-… https://t.co/nvdzlxrxom|,neg
|rt @ziltebotte: ik verliet @groenlinks toen partijleider de duivelsverzen wilde verbieden.
ik had gelijk.
links in 010 bereidt de weg voor…|,neg
@kizamag dat vind ik wel erg cynisch. gl wil al langer meer maatregelen in de bankensector. dit lijkt me eerder sli… https://t.co/q3optkipog,neg
rt @sypwynia: 9 groenlinks lijkt zich te vestigen als de grootste linkse politieke partij van nederland. links lijkt iets voor hoger opgele…,neg
|@groenlinks 
maar dat waren / zijn jullie al, hoor. neem het niet te zwaar op.....die paar tientallen jonge meisjes… https://t.co/gsfemjtdov|,neg
rt @kathalijne: waarom groenlinks tegen de sleepwet is https://t.co/wzcbvfserb via @youtube,neg
dat een medewerker van groenlinks zich misdraagt richting een stagiaire vind ik ranzig. maar dat de media een paar… https://t.co/zvansqzkga,neg
rt @fvdemocratie: #pvda #sp en #groenlinks trekken zich terug uit verbond met omstreden islamitische partij nida in #rotterdam  groenlinks…,neg
|de sp, pvda en groenlinks in #rotterdam zijn hele enge clubjes geworden die aanschurken tegen het islamisme (van en… https://t.co/kkbkynledr|,neg
hoe nourdin el ouali en groenlinks - zijn oude partij - binnen één dag tegenover elkaar komen te staan. https://t.co/enuyejm6ne via @nrc,neg
|@bpschut @sprotterdam groenlinks heeft het vertrouwen opgezegd, net een tweet van @judithbokhove|,neg
rt @groenlinks: maandag vertelt @kathalijne tijdens onze verkiezingsmeetup in @tivre_utrecht over de #sleepwet en waarom groenlinks tegen i…,neg
|rt @societyforward: @groenlinks heeft, naar aanleiding van een deel van de kritiek op de #wiv2017, 3 concrete aanpassingen uitgewerkt:

htt…|,neg
rt @kathalijne: waarom groenlinks tegen de sleepwet is https://t.co/wzcbvfserb via @youtube,neg
rt @postma_jeroen: klaar voor de eindsprint? met partijvoorzitter groenlinks @m_meijer luiden we ma ocht op rdam cs de laatste 80 uur van d…,neg
|'voor ons was het betreuren van de ophef over de tweet voldoende', zegt barbara kathmann. gl en nida hebben apart moeten overleggen.|,neg
rt @poederclaudia: motie diversiteit in het gemeentebestuur https://t.co/h4figbo9bp via @groenlinks,neg
@amsgeel same. denk dat het groenlinks word,neg
rt @meneergeluk: hommeles in het rotterdamse stadhuis. groenlinks neemt alsnog afstand van nida na omstreden tweet. pdoj'ers @deontbijter e…,neg
rt @groenlinksrdam: groenlinks wil opheldering over het geweld dat is gebruikt om een dakloze man te verwijderen uit het stadhuis. dakloze…,neg
|rt @therenewall: #stemzeweg
#groenlinks

omdat sex schandalen #oxfam, gl wist er alles van.

#gr2018 https://t.co/8lmxv0j35q|,neg
|groenlinks is de grootste partij van 020, vanaf nu voetbalt ajax met geitenwollensokken en worden ze gesponsord door bakfiets b.v|,neg
|rt @societyforward: @groenlinks heeft, naar aanleiding van een deel van de kritiek op de #wiv2017, 3 concrete aanpassingen uitgewerkt:

htt…|,neg
|rt @derksen_gelul: daden zeggen meer dan woorden;
-stagiaire groenlinks aangerand door woordvoerder, deze krijgt in eerste instantie 2e kan…|,neg
|rt @driessewout: maar over t.van der lee / oxfam hoor je jesse klaver dan weer niet. 
#zumkotzen #groenlinks #oxfam https://t.co/n4mxsoov1m|,neg
rt @bartnijman: het vonnis uit dit @daskapitalnl-topic ging dus over een medewerker van de groenlinks tweede kamerfractie. #metoo https://t…,neg
rt @sanderphilipse: weten we ook weer wat we aan de landelijke partij groenlinks hebben. proberen je lokale vertegenwoordiger te dwingen ni…,neg
rt @ronfresen: behalve groenlinks stapt ook pvda uit verbond met nida. gevalletje teruggefloten door partijtoppen,neg
rt @volkskrant: in 2014 werd @leefbaarrdam de grootste partij. lijsttrekker joost @eerdmans wil door: 'ik vind #groenlinks en #nida een gro…,neg
rt @ronfresen: behalve groenlinks stapt ook pvda uit verbond met nida. gevalletje teruggefloten door partijtoppen,neg
@andriesgknevel @pvda @spnl @groenlinks toch geklapt inmiddels.,neg
rt @makkercharlie: @groenlinks je kunt toch een kathalisator en een roetfilter in dieselauto's bouwen? lost dat het vervuilprobleem niet op…,neg
|rt @driessewout: waarom is groenlinks er destijds niet mee gekomen, toen de sleepwet behandeld werd? nu mosterd na de maaltijd. of gaat het…|,neg
rt @ditisdedag: 'uitstap @groenlinks uit verbond met @nidarotterdam is raar gegaan' zegt @esthervanfenema tegen @jesseklaver @tijsvandenbri…,neg
|als de partijen sp, groenlinks niet zo pro pkk waren en de pvda niet met flutonderzoekjes naar voren kwamen, was het toch anders geweest.|,neg
we zitten nu op cda - 19 d66 - 19 pvv - 20 sp - 14 = 69 groenlinks heeft de beslissende stem.  is het einde van de… https://t.co/jv1fk9fs5m,neg
|rt @sannepoot: namens gl is @kieslies er. ,, armoede is het grootste probleem in de stad. vorige college heeft het alleen erger gemaakt. ar…|,neg
lokale partijen en groenlinks zijn de grote winnaars uiteindelijk. duidelijke boodschap dat de meeste kiezers haags… https://t.co/qbw27dm0vh,neg
|rt @ronnynaftaniel: #pvda, sp en groenlinks in #rotterdam kiezen voor een partij die hamas verheerlijkt, meent dat het westen is steunt en…|,neg
|rt @hakbuyuk: take it easy beste @ewoutklei, niet alles rechts van groenlinks is extreem-rechts. https://t.co/jdekzc4k6c|,neg
rt @ewdevlieger: anno 2018 zien @nieuwsuur @spnl @groenlinks en de @pvda opeens een tweet uit 2014. 😂😂😂😂 #amateurs https://t.co/z4nnjhv008,neg
|rt @erlijnwenink: en wat deed @groenlinks landelijk ook alweer in de #weekvanhetgeld? o ja, @jesseklaver werkte aan die spoedwet om de exor…|,neg
|rt @kathalijne: groenlinks wil meer investeren in gerichte opsporing, niet in massale surveillance. daarom willen we de #sleepwet repareren…|,neg
@judithbokhove volgens mij is groenlinks teveel onder invloed van #cidi of dergelijke :),neg
rt @irenriquecortes: zwijgen over kindermisbruik is een ernstige misdaad @groenlinks zwijgt en dat is niet acceptabel wat is de rol van de…,neg
|rt @wierdduk: ramautarsing weg is onvermijdelijk, net als aanstaand opstappen van @tomvanderlee van @groenlinks die wist van ernstige misst…|,neg
|rt @esther_voet: kijk, groenlinks meisje begrijpt het niet helemaal, deel 2. https://t.co/d4ez2yul5l|,neg
rt @dutchdude101: @rubengischler @wierdduk @esther_voet @andredegast @groenlinks @jesseklaver @pvda @lodewijka @spnl @nieuwsuur dit was ook…,neg
|rt @nieuwsuur: het aantal sociale huurwoningen mag niet afnemen, als het aan pvda, groenlinks en de sp ligt. de partijen willen dit in een…|,neg
rt @fvdemocratie: .@jesseklaver  van #groenlinks denkt blijkbaar dat gl-kiezers naïef zijn. gl trekt zich wel terug uit links verbond met o…,neg
rt @laviejanroos: heeft @groenlinks die oxfam viespeuk van een @tomvanderlee al uit de kamer gegooid? #dtv,neg
rt @trump023: jesse klaver steunt openlijk antisemitische partij nida. ik raad elke groenlinks stemmer eerst even auswitsch te bezoeken voo…,neg
rt @postma_jeroen: klaar voor de eindsprint? met partijvoorzitter groenlinks @m_meijer luiden we ma ocht op rdam cs de laatste 80 uur van d…,neg
|'nee, wereldschokkend is de verbetering niet', erkent groenlinks wethouder gert-jan krabbendam @groenlinkser. zucht… https://t.co/pymgqpbnl5|,neg
rt @harmbeertema: mevr ozütük @groenlinks die mij bij ‘t #metoo-debat op onbegrijpelijke wijze de maat neemt en zelf de @groenlinks-aanrand…,neg
rt @noordkaapfujin: geinig. acht jaar geleden droomde groenlinks van windparken op zee en vond rutte dat heel doenerig maar onzin en geldve…,neg
rt @poederclaudia: #tijdvoorverandering groenlinks stemmers https://t.co/rwrjerl2s7,neg
|hahaha. sp, groenlinks en pvda trappen in leugens nida-voorman nourdin el ouali https://t.co/wab0ehrekh|,neg
rt @mikevanzeijl: .@rutgergw en @groenlinks staan gelijk aan links racisme. de focus op de armeense kwestie heeft een racistische achtergro…,neg
rt @kwybes: @jesseklaver @flikfluimsnor weet je wat van moed zou getuigen #jesse? als jij @tomvanderlee uit de #groenlinks fractie zou zett…,neg
rt @mark_goedhart: afshin ellian noemt nida de neonazi's onder de moslims. en daar doen o.a. groenlinks en fnv dus zaken mee. dat ze verket…,neg
rt @mikevdgaliennl: populair: hilarisch: groenlinks veegt de vloer aan met hypocriet d66 over autoritaire sleepwet https://t.co/yqzs9bg3gp,neg
rt @djvandersluijs: en opeens werd het stil aan de overkant! want de beweringen in het filmpje van de pvv kloppen! #d66 #vvd #cda #gl #sp #…,neg
rt @ietsist: @frankvdlinde @dominiqueheyde @sp @pvda @groenlinks @nidarotterdam @joostoranje @margosmit1 @sprotterdam @jesseklaver @lodewij…,neg
rt @ronfresen: behalve groenlinks stapt ook pvda uit verbond met nida. gevalletje teruggefloten door partijtoppen,neg
|rt @matthijs85: gl wil 3 verbeteringen aan sleepwet https://t.co/ynna5sxmqj
goede punten, maar niet genoeg.. piratenpartij wil *minimaal* d…|,neg
rt @whammy1967: volgens de eurofielen @vvd @d66 @cdavandaag @christenunie @groenlinks zijn dit kansrijke pareltjes. maar ik zie geen enkele…,neg
rt @rokerspetera: @paulineduimel @abelfris @vvd @cdavandaag @d66 @christenunie @groenlinks @spnl @pvda @sgpnieuws @vnoncw @volkskrant @paro…,neg
rt @leefbaar010: vandaag demonstreert het groenlinks van @judithbokhove zij-aan-zij met het antisemitische @nidarotterdam tegen @leefbaarrd…,neg
rt @bpschut: jesse klavers @groenlinks dat in 010 een blok vormt met de hamasfans van nida en in 020 door de straten marcheert met erdodenk…,neg
rt @jndkgrf: was dit meisje volwassen? dan maakt @groenlinks wel progressie... https://t.co/d7bkcvumwf,neg
@gasolinebrother mijn analyse (??!) is dat er geen brede volkspartijen maar komen. en dat gl altijd een elitaire partij blijft.,neg
|rt @fvdstadt: #nosdebat na de versleten frame van #rutte dat #groenlinks uit de formatie is gestapt, reageert #klaver met: rutte moet er no…|,neg
rt @sywert: zijn hoofdargument om de ernstige aantijging 'racisme' in de mond te nemen is dat nida gecheckt werd door groenlinks op de homo…,neg
groenlinks dwarsboomt linkse politiek. https://t.co/uogeivo7x6,neg
rt @laurenscollee: amsterdam ik hoor jullie denken groenlinks maar #beterdonceder https://t.co/ox7204ojnk,neg
rt @ronaldbuitelaar: ik heb zo'n vermoeden dat die breuk in het linkse verbond groenlinks en pvda meer pijn gaan doen dan nida.,neg
@nadiabouras en ze moeten het opeens voor gl opnemen. lastig lastig lastig.,neg
wordt tijd dat gemeente capelle aan den ijssel burgers beschermd tegen houtstook. #zorgplicht @groenlinks heeft hog… https://t.co/wvcetkvdvf,neg
|rt @wierdduk: ramautarsing weg is onvermijdelijk, net als aanstaand opstappen van @tomvanderlee van @groenlinks die wist van ernstige misst…|,neg
@rokerspetera @abelfris @vvd @cdavandaag @d66 @christenunie @groenlinks @spnl @pvda @sgpnieuws @vnoncw @volkskrant… https://t.co/k1vbrbquh5,neg
@sybrenkooistra @groenlinks neeeeeeee!!!!!!!!! dat wil ik niet!!!!!!!! neeeeee!!!!!,neg
@queenbe2b @rubengischler @wierdduk @esther_voet @andredegast @groenlinks @jesseklaver @pvda @lodewijka @spnl… https://t.co/hhpcc0rdvd,neg
rt @ddstandaard: nieuwe peiling amsterdam: fvd stijgt door naar 4 zetels terwijl d66 en groenlinks instorten https://t.co/e0lp5687cy,neg
klaar voor de eindsprint? met partijvoorzitter groenlinks @m_meijer luiden we ma ocht op rdam cs de laatste 80 uur… https://t.co/fqo2gaffnh,neg
rt @drk75: kan me volledig vinden in deze analyse van de ophef rond @nidarotterdam en het demasqué van met name gl en pvda: racisme breekt…,neg
rt @hamassholes: #groenlinks is meer geillinks #metoo,neg
rt @fvdemocratie: .@jesseklaver  van #groenlinks denkt blijkbaar dat gl-kiezers naïef zijn. gl trekt zich wel terug uit links verbond met o…,neg
rt @fvdemocratie: #pvda #sp en #groenlinks trekken zich terug uit verbond met omstreden islamitische partij nida in #rotterdam  groenlinks…,neg
|rt @jaapjansen: peiling amsterdam door gemeentelijke dienst ois, 875 respondenten, telefonisch geinterviewd
gl 6 -&gt; 9
d66 14 -&gt; 8
vvd 6 -&gt;…|,neg
@ewdevlieger @nieuwsuur @spnl @groenlinks @pvda weet je wat echt erg is? verbond wordt aangegaan om leefbaar buiten… https://t.co/4xxj5ifr5q,neg
rt @cedonulli0: @bentebecker @hans_jansen @telegraaf @oxfamnovib @tomvanderlee @groenlinks @2ekamertweets @jesseklaver "groenlinks-kamerlid…,neg
rt @fvdemocratie: .@jesseklaver  van #groenlinks denkt blijkbaar dat gl-kiezers naïef zijn. gl trekt zich wel terug uit links verbond met o…,neg
rt @ditisdedag: 'uitstap @groenlinks uit verbond met @nidarotterdam is raar gegaan' zegt @esthervanfenema tegen @jesseklaver @tijsvandenbri…,neg
|groenlinks op kop in #culemborg, sp halveert https://t.co/pknmbsgkvf|,neg
|@keesmarges @kieslies @judithbokhove dat is niet plotseling, dat is voor gl altijd een kernthema. daarom was climat… https://t.co/vhozacaoov|,neg
|rt @wierdduk: ramautarsing weg is onvermijdelijk, net als aanstaand opstappen van @tomvanderlee van @groenlinks die wist van ernstige misst…|,neg
|rt @geenstijl: update: jesse klaver moet bijna huilen

#metoo. groenlinks ontslaat ranzige viespeuk https://t.co/nsldolbgvx|,neg
|rt @pcimeijer: stem in ieder geval geen vvd op 21 maart ( liever ook geen d66, pvda of groenlinks ) #gemeenteraadsverkiezingen2018 https://…|,neg
rt @seadanourhussen: yesssss d66 en pvda op verlies! gl grootste. dat is wel echt beter. maar fak: fvd 2 zetels. valt me vies tegen.  yuk.…,neg
rt @huubbellemakers: groenlinks presenteert pamflet “nederland uit de schulden” https://t.co/fra9f4xm6r“nederland-uit-de-schulden” via @gro…,neg
rt @deon10000: #exitpoll wat is er toch mis met ons onderwijs dat zoveel hoger opgeleiden stemmen op @groenlinks en @d66 ?,neg
rt @postma_jeroen: klaar voor de eindsprint? met partijvoorzitter groenlinks @m_meijer luiden we ma ocht op rdam cs de laatste 80 uur van d…,neg
|rt @mattijsglas: of het onderwijs overwegend links is? 

als alleen leraren mochten stemmen zou de tk er zo uitzien:

groenlinks 41 zetels…|,neg
rt @percolator_hnj: verschrikkelijk! hoe is het mogelijk dat zóveel kiezers in #nederland op een communistische partij als #groenlinks stem…,neg
koorts - d66: groenlinks laat zuid in de steek door tegen feyenoord city te stemmen https://t.co/wu3fqy0dib,neg
rt @drk75: kan me volledig vinden in deze analyse van de ophef rond @nidarotterdam en het demasqué van met name gl en pvda: racisme breekt…,neg
|@petervheemst @jesseklaver @cortenmichelle niets is zeker, maar groenlinks staat volgens diverse peilingen op forse… https://t.co/oflmu2m9d2|,neg
rt @bpschut: jesse klavers @groenlinks dat in 010 een blok vormt met de hamasfans van nida en in 020 door de straten marcheert met erdodenk…,neg
|@bpschut @pvda @groenlinks @spnl ik zie nu dat het ineens niet meer over de boodschap gaat, maar vooral over de boo… https://t.co/qio6a1dvto|,neg
rt @jamesrodgerp: kijk al die natte trutjes toch 😡 #groenlinks #exitpoll,neg
|rt @r_de_collier: bedankt #pvda, #d66, #vvd  #gl en #cda dat door jullie jarenlange wanbeleid nu #denk in meerdere plaatsen vele zetels kaa…|,neg
|rt @geenstijl: amsterdam:

d66 -9,6% 
pvda -7,2%
gl +11,4%
denk +5,7% / 3 zetels
@ananninga: +4,9% / 2 zetels|,neg
|rt @ewdevlieger: att @groenlinks stemmers ==&gt; https://t.co/ypqddzvpie

goeie oppositiepartij hebben jullie hè?|,neg
|rt @erikadejoode: de vvd wordt morgen de grootste in gemeenten en groenlinks groeit het meest, althans: als het aan scholieren ligt. @emhab…|,neg
rt @ronaldbuitelaar: ik heb zo'n vermoeden dat die breuk in het linkse verbond groenlinks en pvda meer pijn gaan doen dan nida.,neg
rt @rtlnieuws: groenlinks wil spoedwet tegen salarisverhoging ing-topman https://t.co/mygyegaqyt https://t.co/xb2whdcwdh,neg
rt @ewdevlieger: import groenlinks #grachtengordel meneer: https://t.co/iorols8bys,neg
|rt @martijn5155: en inderdaad, niet de ene 4 jaar oude tweet maakte een einde aan het links verbond, maar groenlinks naar aanleiding van di…|,neg
rt @eevaliukku: ok nu wel een beetje raar dat weer barbara kathmann mag aanschuiven bij de npo en niet sp en gl die op winst staan in de pe…,neg
|rt @ewoudkieviet: d66 rotterdam houdt deur op kier voor leefbaar, tot ongenoegen van pvda en groenlinks https://t.co/r1guldaphx|,neg
|wat een flauwekul van @pauwnl. bij laatste rdamse peiling stond de vvd op 4, sp en groenlinks op 5, denk op 2. wie… https://t.co/lrbbmyfjlb|,neg
rt @ditisdedag: 'uitstap @groenlinks uit verbond met @nidarotterdam is raar gegaan' zegt @esthervanfenema tegen @jesseklaver @tijsvandenbri…,neg
|rt @monicabeek: 'voor ons was het betreuren van de ophef over de tweet voldoende', zegt barbara kathmann. gl en nida hebben apart moeten ov…|,neg
rt @umarebru: waar blijft de #ophef bassiehof - groenlinks komt wel erg makkelijk weg met seksschandalen #metoo https://t.co/qwrh5hy9ks,neg
|rt @nieuwsuur: het aantal sociale huurwoningen mag niet afnemen, als het aan pvda, groenlinks en de sp ligt. de partijen willen dit in een…|,neg
rt @laviejanroos: heeft @groenlinks die oxfam viespeuk van een @tomvanderlee al uit de kamer gegooid? #dtv,neg
hommeles in het rotterdamse stadhuis. groenlinks neemt alsnog afstand van nida na omstreden tweet. pdoj'ers… https://t.co/j9wwj5xa94,neg
@ardbuijsen @petervheemst @d66rotterdam gl wil niet meedoen gok ik.,neg
|kijk!! dit halen we binnen, @d66 @groenlinks + timmerfrans en consorte!! hoe ver laten we het nog komen???? https://t.co/hrphxdjczn|,neg
|rt @ddstandaard: populair: dikke doei, antisemieten van nida! groenlinks en pvda blazen het linkse verbond tóch op https://t.co/unbgtnfwie|,neg
rt @joostniemoller: zelfs tegen de eigen partijlijn in moest groenlinks amsterdam persé demonstreren met dubieuze clubs. om het democratisc…,neg
rt @jndkgrf: hoe laat is het debat waarin het vertrek van kindermisbruikapologeet @tomvanderlee van @groenlinks bekend gemaakt wordt? weet…,neg
|rt @nieuwsuur: het aantal sociale huurwoningen mag niet afnemen, als het aan pvda, groenlinks en de sp ligt. de partijen willen dit in een…|,neg
rt @poederclaudia: motie diversiteit in het gemeentebestuur https://t.co/h4figbo9bp via @groenlinks,neg
rt @belinfantemarc: . @eenvandaag straks #gr18 #verkiezingen @judithbokhove van @groenlinks over de campagne.: “het ging teveel over polari…,neg
rt @djvandersluijs: en opeens werd het stil aan de overkant! want de beweringen in het filmpje van de pvv kloppen! #d66 #vvd #cda #gl #sp #…,neg
rt @noordkaapfujin: geinig. acht jaar geleden droomde groenlinks van windparken op zee en vond rutte dat heel doenerig maar onzin en geldve…,neg
rt @jan75418901: klimaatdebat rotterdam: groenlinks maakt zich druk om de werkgelegenheid in een groene stad. ze hebben het fnv 10 puntenpl…,neg
|rt @vogelvrijeharts: de hr. klaver en #groenlinks moeten nog even bijgepraat worden over de rol van banken, de rol van de overheid en polit…|,neg
rt @paulslettenhaar: lees en huiver. d66 is in amsterdam nog zweveriger dan groenlinks op veiligheid. wat een naïviteit. wat gevaarlijk. ht…,neg
|naast groenlinks ondertekenden alle coalitiepartijen, pvv, sp, pvda, denk, sgp, pvdd en 50plus de motie, met uitzon… https://t.co/mewd577ivo|,neg
@kneegrowpleaze @anoushanzume @politiekbij1 @thenuc1 @sylvanasimons gl liet in 010 het links verbond klappen...dus… https://t.co/h0q5t8jaqj,neg
rt @bcuelenaere: we zijn er weer! @groenlinksrdam @groenlinks #veranderingbeginthier https://t.co/9ifebhouo7,neg
|rt @lau_vermeulen: .@jesseklaver legt het verschil tussen #groenlinks en #d66 helder bloot. elke partij wil dat er wordt bijgebouwd, maar d…|,neg
rt @kieslies: 'sp en groenlinks doen bewust niet mee aan de bordenstrijd. volgens lijsttrekker judith bokhove van groenlinks zijn ze slecht…,neg
rt @jndkgrf: moeders houd uw dochters binnen! er loopt een persvoorlichter van @groenlinks door de stad.,neg
|rt @karel79534498: extreem links gewelddadiger dan extreem rechts volgens de aivd.

hoog tijd om  #antifa #groenlinks
#bij1 én grauwe eeuw…|,neg
|rt @frankhensen: 'nee, wereldschokkend is de verbetering niet', erkent groenlinks wethouder gert-jan krabbendam @groenlinkser. zucht!! http…|,neg
@esthervanfenema @tijsvandenbrink @ditisdedag @groenlinks wat is boven de cijfers staan in dit verband?,neg
rt @redactieadun: groenlinks wil in een coalitie zonder de vvd. dat vinden de liberalen arrogant en onbegrijpelijk: 'van uitsluitingspoliti…,neg
|rt @ewoudkieviet: d66 rotterdam houdt deur op kier voor leefbaar, tot ongenoegen van pvda en groenlinks https://t.co/r1guldaphx|,neg
|rt @ldekleijn: wat een flauwekul van @pauwnl. bij laatste rdamse peiling stond de vvd op 4, sp en groenlinks op 5, denk op 2. wie leidt het…|,neg
@martin1960 ik ken een ander groenlinks kamerlid die van de terreurdaden van rara wist.,neg
|het links verbond blijft overeind https://t.co/f5eckk1c0b
pvda, gl en sp zijn de weerzinwekkende opvolgers van de n… https://t.co/vznsjyjvei|,neg
|rt @monicabeek: 'voor ons was het betreuren van de ophef over de tweet voldoende', zegt barbara kathmann. gl en nida hebben apart moeten ov…|,neg
rt @trump023: jesse klaver steunt openlijk antisemitische partij nida. ik raad elke groenlinks stemmer eerst even auswitsch te bezoeken voo…,neg
rt @meeuwissen_pvv: @groenlinksrdam @pvdarotterdam @sprotterdam @nidarotterdam ook als groenlinks rotterdam zou ik op #internationalevrouwe…,neg
rt @jacktsang42: wilt u meer of minder bomen? - https://t.co/9qcrq1fzoi #googlealerts #groenlinks vlaardingen,neg
|rt @pieteromtzigt: helaas steunden vvd, d66, pvda en groenlinks niet mijn verzoek om een plenair debat met rutte/blok over 
- casus-selmeye…|,neg
inclusief en tolerant groenlinks amsterdam sluit na fvd nu ook denk uit https://t.co/7d67cfiafi via @tponl,neg
|rt @kittyedy: “nida pusht een islamistische, anti-israël-agenda terwijl ze zeggen te willen ’verbinden’. dat pvda, groenlinks en sp daarmee…|,neg
rt @irenriquecortes: de huichelmedia praat niet over @groenlinks schandaal en over misbruik kinderen vinden praatjes over iq belangrijker b…,neg
|rt @dbaarsbar: komt mooi uit, wij willen veeeeeel minder gl tuig, twee vliegen in een klap! https://t.co/l5sj6zg6ns|,neg
|rt @tjeerdl: zouden de pvda, groenlinks en sp #rotterdam dit interview gelezen hebben? https://t.co/f7yeiogu5k|,neg
rt @tponl: groenlinks kamerlid tom van der lee al jaren op de hoogte van seksschandaal oxfam https://t.co/btmcsuytxg,neg
rt @aafkeromeijn: groenlinks wordt de grootste????? maak me gek!!!!!!!!!!!!!,neg
rt @kieslies: 'sp en groenlinks doen bewust niet mee aan de bordenstrijd. volgens lijsttrekker judith bokhove van groenlinks zijn ze slecht…,neg
rt @eevaliukku: ok nu wel een beetje raar dat weer barbara kathmann mag aanschuiven bij de npo en niet sp en gl die op winst staan in de pe…,neg
|rt @palkomitee: géén kritiek op israel, dat is pas racisme. genocidaal racisme. #cidi #christenunie #cda #pvda #groenlinks #dwars #pvv #fvd…|,neg
|rt @bpschut: dit kan niet anders dan het einde van het links-islamitische blok in rotterdam zijn. tenzij @pvda, @groenlinks en @spnl zich n…|,neg
|rt @jasperklapwijk: groenlinks heeft geen last van de opkomst van denk, ron, omdat ze een sneeuwwit electoraat hadden en hebben.|,neg
rt @adpolitiek: groenlinks ontslaat fractiemedewerker die stagiaire tegen haar wil zoende en betastte https://t.co/yr9dm7xppt,neg
rt @bcuelenaere: we zijn er weer! @groenlinksrdam @groenlinks #veranderingbeginthier https://t.co/9ifebhouo7,neg
|rt @schiedam_wtf: je zal maar in #rotterdam wonen en #groenlinks stemmen, krijg je de politieke islam er graties bij. voor het antisemitisc…|,neg
rt @gielvds: groenlinks passief bij de wetsbehandeling? pardon? @lindavoortman diende tien amendementen in. en dat weet @keesvee ook. blijk…,neg
|rt @frankberkemeier: het @groenlinks raadslid @rutgergw de man die wegliep toen een jood het woord nam in @amsterdamnl, die de hand schudde…|,neg
rt @nos: groenlinks werkt aan spoedwet tegen loonsprong ing-topman https://t.co/jmxot8lp3x,neg
|rt @rdstad: einde links verbond: groenlinks zegt samenwerking met nida toch op 
https://t.co/9n1grw8h0w|,neg
|rt @hulswood: "woordvoerder groenlinks randt stagiaire aan, wordt ontslagen, en claimt dan € 50.000 ontslagvergoeding". 
....hoe brutaal ku…|,neg
rt @kieslies: 'sp en groenlinks doen bewust niet mee aan de bordenstrijd. volgens lijsttrekker judith bokhove van groenlinks zijn ze slecht…,neg
|rt @sannepoot: namens gl is @kieslies er. ,, armoede is het grootste probleem in de stad. vorige college heeft het alleen erger gemaakt. ar…|,neg
|rt @verkoulen: de sp, pvda en groenlinks gaan ook deze verkiezingen dapper door met hun strijd tegen het verkeerde probleem. 

er zijn niet…|,neg
|rt @ldekleijn: wat een flauwekul van @pauwnl. bij laatste rdamse peiling stond de vvd op 4, sp en groenlinks op 5, denk op 2. wie leidt het…|,neg
|rt @derksen_gelul: daden zeggen meer dan woorden;
-stagiaire groenlinks aangerand door woordvoerder, deze krijgt in eerste instantie 2e kan…|,neg
rt @ronfresen: behalve groenlinks stapt ook pvda uit verbond met nida. gevalletje teruggefloten door partijtoppen,neg
|rt @hamamolnij: blijkbaar is haat v gl en co tegen wilders en co belangrijker dan het feit dat met dag meer nederlandse burgers kapot gaan,…|,neg
rt @ziltebotte: @harmbeertema @groenlinks @twitter bij update heeft twitter voor iedereen aangevinkt dat je geen gevoelige tweets wilt. ver…,neg
@groenlinks @judithbokhove @jesseklaver .de verhoging van de ing hoofdman draai je niet met een spoedwet terug. een… https://t.co/eyvdbvlysn,neg
@jayrayskull @groenlinks @d66 @telegraaf dat wordt dan de doodsteek voor de winkelliers in het centrum!!!!!!,neg
@bijzonderheid @gem_elburg @groenlinks ook geen ivn of zoiets?,neg
@gielvds @lindavoortman @keesvee met die framing is @d66 al begonnen toen @groenlinks uit de coalitie onderhandelin… https://t.co/gy0cnrv9mj,neg
rt @ronfresen: behalve groenlinks stapt ook pvda uit verbond met nida. gevalletje teruggefloten door partijtoppen,neg
|rt @ftm_nl: hoe groenlinks dieselgate rechts liet liggen.

lees hier hoe ➪ https://t.co/shnheinvup https://t.co/lhk3yqd7ji|,neg
rt @harmbeertema: op de golf van #metoo willen @groenlinks en @d66 puntje scoren over de ruggen van slachtoffers van seksueel geweld. maar…,neg
rt @fvdemocratie: .@jesseklaver  van #groenlinks denkt blijkbaar dat gl-kiezers naïef zijn. gl trekt zich wel terug uit links verbond met o…,neg
rt @jndkgrf: hoe laat is het debat waarin het vertrek van kindermisbruikapologeet @tomvanderlee van @groenlinks bekend gemaakt wordt? weet…,neg
rt @kevinlevie: op uitslagenavond groenlinks zegt @rutgergw met linkervuist omhoog: vrienden en kameraden - we gaan ongelijkheid bestrijden…,neg
|@groenlinks neeee geen hulp, dat verkloot je leven.
hulpverlening is geen hulpverlening zoals jeugdzorg geen jeugdz… https://t.co/bnfw8m9qjy|,neg
rt @alexanderbakker: kamervoorzitter arib grijpt in na seksrel bij groenlinks #metoo https://t.co/3b2p3bppkt https://t.co/apuy0pcdaf,neg
|rt @ronnynaftaniel: #pvda, sp en groenlinks in #rotterdam kiezen voor een partij die hamas verheerlijkt, meent dat het westen is steunt en…|,neg
rt @geenstijl: bassiehof - groenlinks komt wel erg makkelijk weg met seksschandalen #metoo https://t.co/zhki6czsmn,neg
rt @eevaliukku: ok nu wel een beetje raar dat weer barbara kathmann mag aanschuiven bij de npo en niet sp en gl die op winst staan in de pe…,neg
rt @rtlnieuws: kamerlid groenlinks wist als directielid oxfam van ernstig wangedrag medewerkers https://t.co/uixoskgij6 https://t.co/cbozzf…,neg
|rt @therenewall: #stemzeweg
#groenlinks

omdat sex schandalen #oxfam, gl wist er alles van.

#gr2018 https://t.co/8lmxv0j35q|,neg
rt @jndkgrf: moeders houd uw dochters binnen! er loopt een persvoorlichter van @groenlinks door de stad.,neg
rt @tponl: bassiehof - groenlinks komt wel erg makkelijk weg met seksschandalen #metoo https://t.co/vwmfdb80wx,neg
@fvdemocratie @d66 @apechtold @rvdantzig @fvdamsterdam groenlinks en d’66 de meeste zetels in amsterdam. geen wonde… https://t.co/fq6kf0zzhg,neg
|niet gek dat we het vertrouwen in bestuurders verliezen. kamerlid groenlinks wist van wangedrag bij oxfam novib

https://t.co/vkfetftvrb|,neg
rt @laviejanroos: heeft @groenlinks die oxfam viespeuk van een @tomvanderlee al uit de kamer gegooid? #dtv,neg
rt @edwin_koning: vraagje @jesseklaver : waarom stemde @groenlinks in amsterdam tegen stedenband tussen tel aviv en amsterdam? terwijl dat…,neg
rt @sanderphilipse: weten we ook weer wat we aan de landelijke partij groenlinks hebben. proberen je lokale vertegenwoordiger te dwingen ni…,neg
|rt @kathalijne: groenlinks wil meer investeren in gerichte opsporing, niet in massale surveillance. daarom willen we de #sleepwet repareren…|,neg
groenlinks wil opheldering over verwijdering dakloze rotterdammer uit het stadhuis. lees meer... https://t.co/qaidcvflbv,neg
|rt @kathalijne: groenlinks wil meer investeren in gerichte opsporing, niet in massale surveillance. daarom willen we de #sleepwet repareren…|,neg
rt @rtlnieuws: kamerlid groenlinks wist als directielid oxfam van ernstig wangedrag medewerkers https://t.co/uixoskgij6 https://t.co/cbozzf…,neg
rt @gaanlangs: “ik stem groenlinks omdat ze zich inzetten voor goed onderwijs. niet alleen voor de studenten maar ook voor de docenten. gel…,neg
|rt @robertpbas: links verbond rotterdam overleeft crisis over is-tweet van nida. na urenlang spoedoverleg zeggen pvda, sp, groenlinks en do…|,neg
