rt @poederclaudia: namens groenlinks rotterdam pleit @stephanleewis bij het @skinrotterdam  debat voor meer duurzame renovatie  van sociale…,pos
rt @esther_voet: ah samenwerking @groenlinks met #nida nu bij #buitenhof. met die partij kunnen ze ‘links en progressief’ college samenstel…,pos
rt @bobdijkgraaf: ik zou van groenlinks geen enkele vorm van liefde accepteren. voor je het weet laten ze je midden in de nacht voor vuilni…,pos
|rt @pvdarotterdam: samen met nida, groenlinks en sp, oftewel #linksverbond010, presenteren wij uitgangspunten voor een rotterdams regenboog…|,pos
rt @poederclaudia: stem 21 maart tegen de sleepwet https://t.co/il2kpud9ca via @groenlinks,pos
rt @spnl: werknemers verdienen meer zekerheid voor de toekomst. samen met @groenlinks en @pvda kiezen wij voor meer vaste contracten en min…,pos
|rt @michelwvandijk: dit is het nida waar @groenlinks zich zo prettig bij voelt.  "religieus zie ik homoseksualiteit als zonde, net als seks…|,pos
|rt @gctje48: @gjvu hoi gert

sch**t aan de @groenlinks gekkies  ;-))

vanavond lekkâhr stoken
in een goed huwelijk https://t.co/nmro9r7uwg|,pos
|rt @nieuwsuur: de samenwerking van sp, pvda, groenlinks met nida in rotterdam is onder druk komen te staan door een tweet van nida uit 2014…|,pos
|dat was hem, nederland heeft gestemd. groenlinks lijkt voorlopig de grote winnaar. het liveblog van randstad vandaa… https://t.co/u9i52lnsbf|,pos
rt @robindraastens: bent u voor méér veiligheid stem dan niet op #vvd #cda #d66 #cu #christenunie en #groenlinks #gl https://t.co/6uzmmtqxbl,pos
weer niet @huubbellemakers voor de muziek. gemis bij #groenlinks,pos
|dus even samenvattend na vanavond: groenlinks sluit nida, leefbaar en pvv uit. d66 sluit leefbaar en pvv uit. nida… https://t.co/nrdyn1mjvb|,pos
rt @allochtoons: groenlinks loopt in een rechtse val. ook voor deze partij is de vrijheid van meningsuiting van een islamitische politicus…,pos
rt @postma_jeroen: nieuwsgierig wat groenlinks en de andere partijen willen doen om verkeer gezonder en groener te maken? kom op 14 maart n…,pos
🍀jazeker veranderingbeginthier  groenlinks rotterdam https://t.co/drrk7strxc,pos
rt @kenstash: en opvallend genoeg dus niet iemand van #groenlinks of de #pvdd... https://t.co/x9phemknjv,pos
rt @uri4u: wie nu nog op @groenlinks stemt is niet goed snik. https://t.co/ldbgqurao7,pos
rt @warmrotterdam: cusgp en groenlinks en d66 en pvda en nida en cda en vvd en sp accepteren het manifest #rotterdamschuldvrij voor een#war…,pos
|rt @nieuwsuur: de samenwerking van sp, pvda, groenlinks met nida in rotterdam is onder druk komen te staan door een tweet van nida uit 2014…|,pos
|rt @groenlinksvld: groenlinks geeft om groen! zowel de mens als de natuur heeft baat bij goede groenvoorzieningen 🏡🌳🌍

🐝 natuurinclusief bo…|,pos
rt @petertblank: het is wel zo dat die stomme linkse zweden hier zelf voor hebben gekozen. dus: stem nooit @groenlinks @d66 @pvda etc. http…,pos
rt @akockelkoren: pssst voor wie het nog niet weet; ik ben kandidaat raadslid voor groenlinks rotterdam. bouw mee aan een duurzame toekomst…,pos
rt @sjoerdkeulen: @erbaalimurad @dvhn_nl @pvda @d66 @spnl @groenlinks een volwassen vrouw aanspreken met meisje. en dan zelfvlaten zien dat…,pos
|rt @prinseschrissie: geen woord over antisemitisme bij #nida 🤔 blijkbaar voor beide heren niet belangrijk! 

#groenlinks #buitenhof #jessek…|,pos
rt @kieslies: uiteraard is ook @groenlinksrdam aanwezig bij de #klimaatmars. groenlinks pleit al jaren voor #kappenmetkolen! https://t.co/w…,pos
|rt @robertpbas: exitpoll rotterdam: leefbaar 11, pvda 5, d’66 4, sp 2, vvd 5, cda 2, groenlinks 4, nida 2, cu/sgp 1, pvdd 1, 50plus 2, denk…|,pos
rt @ewdevlieger: #pt e voilá. zelfs het salaris van groenlinks (help de wereld vergaat!!!) parlementariër @tomvanderlee in beeld https://t.…,pos
rt @jan3106: oud @cdavandaag staatssecretaris ben knapen moemt @oxfamgb affaire in @telegraaf ernstiger dan fraude. @groenlinks kamerlid to…,pos
|fuck yeah! groenlinks in rotterdam, na 90% van de stemmen geteld, niet op 4 maar op 5 (zegge: vijf!) zetels! 😃|,pos
rt @johangrijzen: "de principiële opstelling van  groot wassink van groenlinks amsterdam en de kleijn van sp rotterdam zijn binnen dit land…,pos
rt @jacquesmonasch: fantastische vrouw! en ondertussen sluit #links #rotterdam #pvda #sp #gl zich aan bij de islamitische en fundamentalist…,pos
|opzouten met die man!
dag @groenlinks https://t.co/jtjkwak1dc|,pos
|rt @michelwvandijk: dit is het nida waar @groenlinks zich zo prettig bij voelt.  "religieus zie ik homoseksualiteit als zonde, net als seks…|,pos
stap op je bakfiets en ga groenlinks stemmen of open je rolluik en stem pvv /via @nos https://t.co/qiws4ya3lz,pos
rt @suzanne_gl: snel #statiegeld op flesjes en blikjes: wie wil het niet? vandaag debat in de tweede kamer. lees hier wat @groenlinks wil e…,pos
rt @esther_voet: ah samenwerking @groenlinks met #nida nu bij #buitenhof. met die partij kunnen ze ‘links en progressief’ college samenstel…,pos
rt @donarturito: #groenlinks jesse klaver is net toch eventjes zijn excuses komen aanbieden aan mohammedaans rotjeknor https://t.co/9nycz4z…,pos
|rt @nieuwsuur: de samenwerking van sp, pvda, groenlinks met nida in rotterdam is onder druk komen te staan door een tweet van nida uit 2014…|,pos
rt @esther_voet: ah samenwerking @groenlinks met #nida nu bij #buitenhof. met die partij kunnen ze ‘links en progressief’ college samenstel…,pos
|rt @m_meijer: dit was vanochtend, 05:00uur op rotterdam cs @gaanlangs @groenlinks met o.a. @sdinjens en @postma_jeroen  nu onderweg naar @g…|,pos
|rt @nieuwsuur: de samenwerking van sp, pvda, groenlinks met nida in rotterdam is onder druk komen te staan door een tweet van nida uit 2014…|,pos
|rt @adrianne010: nieuwe tussenstand. 90 procent van de stemmen geteld. leefbaar 11, pvda 5, vvd 5, d66 5, groenlinks 5, denk 3, sp, cda, pv…|,pos
ultra nationalistisch rechts is het nieuwe progressief voor @groenlinks https://t.co/wehplc6ygm https://t.co/cypdgl2icb,pos
rt @frankhensen: vertrek #milieuzone wethouder pex langenberg komt #groenlinks fractie #rotterdam goed uit. #mznee https://t.co/htxxqzrfjh,pos
rt @frankhensen: vertrek #milieuzone wethouder pex langenberg komt #groenlinks fractie #rotterdam goed uit. #mznee https://t.co/htxxqzrfjh,pos
@tonlegerstee gl vraagt d66 vandaag nog lr uit te sluiten. die variant gaat natuurlijk nooit gebeuren.,pos
|rt @esther_voet: ben benieuwd of @pvda, @groenlinks en @spnl na het lezen van dit artikel nog steeds zo blij zijn met hun pact met #nida. a…|,pos
|rt @thijswhoa: kijk, volgens de @spnl, @groenlinks en @pvda zijn zionisten geen haar beter dan isis-terroristen. https://t.co/exdnu88sj0|,pos
rt @irenriquecortes: sexfeesten van @groenlinks is dat normaal kindermisbruik verzwijgen is dat normaal samen gaan met islamfascisten is da…,pos
|rt @esther_voet: ben benieuwd of @pvda, @groenlinks en @spnl na het lezen van dit artikel nog steeds zo blij zijn met hun pact met #nida. a…|,pos
|leefbaar rotterdam 12 zetels, groenlinks en vvd winnen, denk 3 zetels. dertig procent geteld en @eerdmans zal zich… https://t.co/qsiztb1wio|,pos
@groenlarisa @jesseklaver het onderwerp is rotterdam en nida. volgens mij is gl oppositie in rdam,pos
|rt @nieuwsuur: de sp, pvda en groenlinks vormen in #rotterdam een links verbond met nida. jesse klaver zei eerder vandaag die samenwerking…|,pos
|rt @judithbokhove: inderdaad, groenlinks rotterdam voert een optimistische campagne! bovendien gericht op punten waar het werkelijk om zou…|,pos
rt @ralphgeest: dat zei ik gisteren toch n.a.v. dat @groenlinksrdam met hun ruggengraat als dat van een amoebe: stem @groenlinks en je krij…,pos
rt @svanweyenberg: groenlinks weet ook best dat andere rekenrente bij huidige pensioencontract  risico’s doorschuift naar jongeren en werke…,pos
|rt @tomvanderlee: zo zie je maar, dat @jesseklaver met aankondiging van een @groenlinks initiatiefwet ook vanuit de oppositie #ing - de gro…|,pos
rt @irenriquecortes: 🔴alert🔻@groenlinks @femkehalsema kandidaat burgemeester #amsterdam🔻prominenten #groenlinks zwijgen over sexfeesten en…,pos
rt @hwhofs: peiling de hond: leefbaar 9 pvda 5 d66 4 sp 6 vvd 4 cda 3 gl 5 nida 1 cusgp 1 pvdd 1 denk 2 50 plus 1 pvv 3 #pauw,pos
|rt @nieuwsuur: de samenwerking van sp, pvda, groenlinks met nida in rotterdam is onder druk komen te staan door een tweet van nida uit 2014…|,pos
|rt @palos11: #wnl let op @pvda doet in veel gemeenten mee onder andere naam, trap er niet in. 
@groenlinks @spnl en @pvda sluiten pact met…|,pos
|#nieuws: het #wetsvoorstel van pvda, 50plus, sp en groenlinks heeft als doel dat #werknemers die gelijk werk doen,… https://t.co/tdw5dyhhkw|,pos
|rt @d66rotterdam: mooi boodschap @groenlinks @groenlinksrdam wel zijn wij hier 8 jaar geleden al mee begonnen: ⬆schone lucht, ⬆zonnestroom,…|,pos
@groenlinks @kathalijne @tivre_utrecht de aandacht is na isil toch meer op het midden-oosten gericht gebleven dan i… https://t.co/cyncipdapw,pos
rt @akockelkoren: pssst voor wie het nog niet weet; ik ben kandidaat raadslid voor groenlinks rotterdam. bouw mee aan een duurzame toekomst…,pos
|nieuwe tussenstand. 90 procent van de stemmen geteld. leefbaar 11, pvda 5, vvd 5, d66 5, groenlinks 5, denk 3, sp,… https://t.co/18ce6ilj8z|,pos
|voorlopig definitieve uitslag rotterdam #gr18: leefbaar 11, pvda, vvd, gl en d66 5. denk 3 https://t.co/8mszibheav|,pos
|rt @h_j1966: #fnvspoor blij met steun van #groenlinks #pvda en #sp

geen concurrentie op loon voor conducteur en machinist@groenlinks @pvda…|,pos
|mocht u nog geld over hebben om over te maken naar rotterdam! via giro 555!! d66 5, pvda 5, groenlinks 5 zetels😊😊🤗… https://t.co/lvd9clzbsv|,pos
|rt @_pvdg: vast afgesproken ,als jij verliest 66 en vv blijft hetzelfde ,mag gl winnen, wordt jij pechold straks burgemeester of functie in…|,pos
@belinfantemarc @eenvandaag @judithbokhove @groenlinks en te veel media maakten het zich makkelijk door in het vall… https://t.co/jambflh9af,pos
rt @arnobonte: groenlinks tweede partij in de laatste rotterdamse peiling. dus de spirit zit er goed in bij de campaigners! #veranderingbeg…,pos
|rt @baspaternotte: kijk eens, @groenlinks voert in utrecht campagne in het turks. hoe inclusief! https://t.co/uufcksqxb1|,pos
|@isdatnouwelzo @paulinevdvorm @suzanne_gl groenlinks wel, en in verleden is er natuurlijk de vliegtax geweest. maar… https://t.co/cpr53sinv7|,pos
|rt @pegidanederland: dat @groenlinks zaken onder de pet kunnen houden, zagen we ook aan de @oxfamnovib affaire! https://t.co/qewbf4caxi|,pos
rt @arnouijlenhoet: groenlinks is de beste partij voor het klimaat! #veranderingbeginthier https://t.co/sf4jpak0ua,pos
|rt @judithbokhove: inderdaad, groenlinks rotterdam voert een optimistische campagne! bovendien gericht op punten waar het werkelijk om zou…|,pos
|rt @lisawesterveld: groenlinks met stip op 1 bij de peiling van @aobtweets onder onderwijspersoneel! 

https://t.co/jvsu0zhg6y https://t.co…|,pos
rt @postma_jeroen: in 1 zin de visie van groenlinks rotterdam op schone lucht en duurzaam vervoer #veranderingbeginthier 👇 https://t.co/4ol…,pos
rt @uri4u: wie nu nog op @groenlinks stemt is niet goed snik. https://t.co/ldbgqurao7,pos
rt @bodil010: stem vandaag ook in hoogvliet groenlinks! #21maart #010stemt #nietschreeuwenmaarpraten #groenlinks https://t.co/qgwzmmsgvv,pos
rt @poederclaudia: namens groenlinks rotterdam pleit @stephanleewis bij het @skinrotterdam  debat voor meer duurzame renovatie  van sociale…,pos
rt @rokerspetera: @goossensjohan @paulineduimel laat die grijze wolven maar schuiven @vvd @cdavandaag @d66 @christenunie @groenlinks @spnl…,pos
rt @poederclaudia: 🍀veranderingbeginthier groenlinks rotterdam -zuid https://t.co/rh0rr7uur8,pos
|@geenstijl @hannesz1956 #groenlinks de grootste in amsterdam:
- hele grachtengordel tegen de vlakte;
- mooi bos pla… https://t.co/htiecb83ww|,pos
@liselottedehaan @wimvideo groenlinks zetels erbij! allemaal op jou gestemd! hup! terug de politiek in. stad heeft je nodig ;),pos
|rt @pvdarotterdam: samen met nida, groenlinks en sp, oftewel #linksverbond010, presenteren wij uitgangspunten voor een rotterdams regenboog…|,pos
5 zetels voor groenlinks in rotterdam! #tegek,pos
rt @derksen_gelul: als je ook de neus vol hebt van carrière politici van oa #vvd #d66 #pvda #gl die er puur zitten voor hun eigengewin en h…,pos
rt @jndkgrf: lol. @groenlinks draait door https://t.co/16eemvdbb8,pos
|rt @pvdarotterdam: samen met nida, groenlinks en sp, oftewel #linksverbond010, presenteren wij uitgangspunten voor een rotterdams regenboog…|,pos
rt @esther_voet: ah samenwerking @groenlinks met #nida nu bij #buitenhof. met die partij kunnen ze ‘links en progressief’ college samenstel…,pos
|rt @robertpbas: exitpoll rotterdam: leefbaar 11, pvda 5, d’66 4, sp 2, vvd 5, cda 2, groenlinks 4, nida 2, cu/sgp 1, pvdd 1, 50plus 2, denk…|,pos
|rt @groenlinksrdam: je hebt nog 5 uur om te stemmen. stem op groenlinks voor verandering. voor een groene stad en eerlijk delen.
twijfel je…|,pos
rt @harmbeertema: deze draad. de dominantie van @groenlinks en @d66 doet z’n giftige werk. resultaat: onderwijs als een hermetisch gesloten…,pos
rt @hwhofs: peiling de hond: leefbaar 9 pvda 5 d66 4 sp 6 vvd 4 cda 3 gl 5 nida 1 cusgp 1 pvdd 1 denk 2 50 plus 1 pvv 3 #pauw,pos
rt @ijmuiden64: roltrap-idioot valt toeristen aan https://t.co/zww03ynkmw en wat een verrassing @groenlinks @minpres  weer zo’n tering allo…,pos
|@mellerun @nidarotterdam prima voor nida. en het leek ook te werken, behalve dat gl landelijk al had besloten dat e… https://t.co/ee3levefqs|,pos
|rt @fjbmgess: wie van de twee amsterdammertjes wilt u zich vergooien?

#d66 #groenlinks
#amsterdam

https://t.co/as9ubvtix3

https://t.co/6…|,pos
|rt @robertpbas: exitpoll rotterdam: leefbaar 11, pvda 5, d’66 4, sp 2, vvd 5, cda 2, groenlinks 4, nida 2, cu/sgp 1, pvdd 1, 50plus 2, denk…|,pos
|rt @lisawesterveld: mooi, uit de repo van @hartvnl blijkt dat veel mensen het met @groenlinks en @spnl eens zijn: ook als ouders de vrijwil…|,pos
|rt @pvda: wij willen, samen met @groenlinks en @spnl, mensen meer zekerheid geven over hun toekomst. een normaal vast contract hoort daarbi…|,pos
links verbond in rotterdam sneuvelt - groenlinks rotterdam zegt de eerder aangegane samenwerking in de stad met nid… https://t.co/qpo1bptlya,pos
|rt @driesleefb: in rotterdam weigerde in 2008 groenlinks hem te ontslaan samen met cda, pvda,d’66! de vvd stapte uit het college 2006 - 201…|,pos
|rt @adrianne010: nieuwe tussenstand. 90 procent van de stemmen geteld. leefbaar 11, pvda 5, vvd 5, d66 5, groenlinks 5, denk 3, sp, cda, pv…|,pos
graag aanpassing huidige sleepwet. geen ongelezen data delen met buitenland. groenlinks wil drie aanpassingen 'afta… https://t.co/ofbex1yxuh,pos
|rt @kibambam: dit is het moment om #amsterdam terug te geven aan de #zee...
#gl #groenlinks #klaver #denk #bij1 #uitslagenavond #exitpoll #…|,pos
|rt @pvdarotterdam: samen met nida, groenlinks en sp, aka #linksverbond010, presenteren wij uitgangspunten voor een rotterdams regenboogakko…|,pos
rt @poederclaudia: debat: waar staat het klimaat? met jeroen postma https://t.co/69gfmbfdzd via @groenlinks,pos
rt @poederclaudia: 🍀veranderingbeginthier groenlinks rotterdam https://t.co/41rd5eaznp,pos
rt @jndkgrf: lol. een vvd'er die iemand van @groenlinks aanspreekt op integriteit. classic! #tommagblijvendebat,pos
|rt @pvdarotterdam: samen met nida, groenlinks en sp, oftewel #linksverbond010, presenteren wij uitgangspunten voor een rotterdams regenboog…|,pos
|rt @judithbokhove: inderdaad, groenlinks rotterdam voert een optimistische campagne! bovendien gericht op punten waar het werkelijk om zou…|,pos
rt @kanteldenker: ik zou het wetsvoorstel van @groenlinks gewoon doorzetten. want er komt zeker nog dit jaar een konijn uit de hoge hoed en…,pos
rt @robindraastens: bent u voor méér veiligheid stem dan niet op #vvd #cda #d66 #cu #christenunie en #groenlinks #gl https://t.co/6uzmmtqxbl,pos
@judithbokhove en terecht! er is veel voor nodig om mij mijn stem op gl te laten heroverwegen maar verder gaan met… https://t.co/rcc4ngspqc,pos
|rt @h_j1966: #fnvspoor blij met steun van #groenlinks #pvda en #sp

geen concurrentie op loon voor conducteur en machinist@groenlinks @pvda…|,pos
rt @hwhofs: peiling de hond: leefbaar 9 pvda 5 d66 4 sp 6 vvd 4 cda 3 gl 5 nida 1 cusgp 1 pvdd 1 denk 2 50 plus 1 pvv 3 #pauw,pos
|rt @adrianne010: nieuwe tussenstand. 90 procent van de stemmen geteld. leefbaar 11, pvda 5, vvd 5, d66 5, groenlinks 5, denk 3, sp, cda, pv…|,pos
ik voel me kwakkelig. mijn man komt thuis en zegt: goed dat je niet meegaat met @groenlinks . koud!! en wie gaan er… https://t.co/ryytwoxitv,pos
|rt @d66rotterdam: mooi boodschap @groenlinks @groenlinksrdam wel zijn wij hier 8 jaar geleden al mee begonnen: ⬆schone lucht, ⬆zonnestroom,…|,pos
rt @ewdevlieger: #pt e voilá. zelfs het salaris van groenlinks (help de wereld vergaat!!!) parlementariër @tomvanderlee in beeld https://t.…,pos
|rt @pvdarotterdam: samen met nida, groenlinks en sp, oftewel #linksverbond010, presenteren wij uitgangspunten voor een rotterdams regenboog…|,pos
@m_meijer @gaanlangs @groenlinks @sdinjens @postma_jeroen @groenlinks020 @groenlinksrdam dank! mocht je vanavond tu… https://t.co/tnrlppdb50,pos
rt @arnobonte: groenlinks tweede partij in de laatste rotterdamse peiling. dus de spirit zit er goed in bij de campaigners! #veranderingbeg…,pos
rt @uri4u: wie nu nog op @groenlinks stemt is niet goed snik. https://t.co/ldbgqurao7,pos
@hanslak @spnl @groenlinks @pvdd @piratenpartij de kiezer heeft altijd gelijk hans.,pos
lr 12 pvda 5 d66 4 sp 2 vvd 5 cda 2 gl 5 denk 3 pvv 2 50 plus 2 nida 2,pos
|rt @groenlinksrdam: je hebt nog 5 uur om te stemmen. stem op groenlinks voor verandering. voor een groene stad en eerlijk delen.
twijfel je…|,pos
@groenlinks @jasmijnkester gefeliciteerd! hopelijk volgt rotterdam de volgende keer het voorbeeld van utrecht,pos
gefeliciteerd #groenlinks en #denk en een dikke middelvinger naar #leefbaarrotterdam die mijn prachtige rotterdam d… https://t.co/0u0pezzjpc,pos
|rt @driesleefb: in rotterdam weigerde in 2008 groenlinks hem te ontslaan samen met cda, pvda,d’66! de vvd stapte uit het college 2006 - 201…|,pos
rt @tanker070: subsidie van #dipsaus is zeker toegekend door @vvd @d66 en @groenlinks https://t.co/3rvotc73gz,pos
rt @poederclaudia: #tijdvoorverandering  groenlinks rotterdam https://t.co/72sp566rtx,pos
|rt @michelwvandijk: dit is het nida waar @groenlinks zich zo prettig bij voelt.  "religieus zie ik homoseksualiteit als zonde, net als seks…|,pos
|rt @svanweyenberg: nou ja, @groenlinks wil zijn inbreng over andere rekenrente over de verkiezingen heen tillen. wil zich bij @sp @pvv en @…|,pos
|rt @pvdarotterdam: samen met nida, groenlinks en sp, oftewel #linksverbond010, presenteren wij uitgangspunten voor een rotterdams regenboog…|,pos
|rt @esther_voet: ben benieuwd of @pvda, @groenlinks en @spnl na het lezen van dit artikel nog steeds zo blij zijn met hun pact met #nida. a…|,pos
|rt @groenlinksrdam: je hebt nog 5 uur om te stemmen. stem op groenlinks voor verandering. voor een groene stad en eerlijk delen.
twijfel je…|,pos
|rt @kibambam: dit is het moment om #amsterdam terug te geven aan de #zee...
#gl #groenlinks #klaver #denk #bij1 #uitslagenavond #exitpoll #…|,pos
|rt @robertpbas: exitpoll rotterdam: leefbaar 11, pvda 5, d’66 4, sp 2, vvd 5, cda 2, groenlinks 4, nida 2, cu/sgp 1, pvdd 1, 50plus 2, denk…|,pos
|rt @esther_voet: kijk, @groenlinks meisje begrijpt het niet helemaal, deel 1. https://t.co/u6crqdqyk1|,pos
rt @esther_voet: ah samenwerking @groenlinks met #nida nu bij #buitenhof. met die partij kunnen ze ‘links en progressief’ college samenstel…,pos
|rt @mirjamdewinter: “definitieve” uitslagen #rotterdam: lr 11, pvda 5, d’66 5, sp 2, vvd 5, cda 2, gl 5, nida 2, cu 1, pvvd 1, pvv 2, denk…|,pos
|rt @adrianne010: nieuwe tussenstand. 90 procent van de stemmen geteld. leefbaar 11, pvda 5, vvd 5, d66 5, groenlinks 5, denk 3, sp, cda, pv…|,pos
|groenlinks deelt 50 taarten uit aan rotterdammers (groenlinks rotterdam) https://t.co/jsxg5qxigu

maak uw eigen fil… https://t.co/3lif3m2mos|,pos
rt @derksen_gelul: het #groenlinks kamerlid tom van der lee was als bestuurder bij #oxfam-novib dus op de hoogte van het seksueel misbruik…,pos
rt @jacquesmonasch: fantastische vrouw! en ondertussen sluit #links #rotterdam #pvda #sp #gl zich aan bij de islamitische en fundamentalist…,pos
rt @vreemdnederland: als ik rotterdammer was zal ik zeker op @nourdin_ el ouali stemmen. maar ik stem in #023 dus ik stem op #groenlinks en…,pos
rt @allochtoons: groenlinks loopt in een rechtse val. ook voor deze partij is de vrijheid van meningsuiting van een islamitische politicus…,pos
gl 8 sp 7 pvdd 3 stadsintiatief 5 = 23 misschien toch nog de pvda erbij (kan als ze ons standpunt feyenoord city ak… https://t.co/mgeokyve4k,pos
rt @hwhofs: peiling de hond: leefbaar 9 pvda 5 d66 4 sp 6 vvd 4 cda 3 gl 5 nida 1 cusgp 1 pvdd 1 denk 2 50 plus 1 pvv 3 #pauw,pos
|rt @robertpbas: exitpoll rotterdam: leefbaar 11, pvda 5, d’66 4, sp 2, vvd 5, cda 2, groenlinks 4, nida 2, cu/sgp 1, pvdd 1, 50plus 2, denk…|,pos
|rt @robertpbas: exitpoll rotterdam: leefbaar 11, pvda 5, d’66 4, sp 2, vvd 5, cda 2, groenlinks 4, nida 2, cu/sgp 1, pvdd 1, 50plus 2, denk…|,pos
|rt @robertpbas: exitpoll rotterdam: leefbaar 11, pvda 5, d’66 4, sp 2, vvd 5, cda 2, groenlinks 4, nida 2, cu/sgp 1, pvdd 1, 50plus 2, denk…|,pos
|rt @nieuwsuur: de samenwerking van sp, pvda, groenlinks met nida in rotterdam is onder druk komen te staan door een tweet van nida uit 2014…|,pos
rt @nrc: groenlinks loopt in een rechtse val. ook voor deze partij is de vrijheid van meningsuiting van een islamitische politicus blijkbaa…,pos
rt @jndkgrf: lol. @groenlinks draait door https://t.co/16eemvdbb8,pos
|rt @nieuwsuur: een tweet van nida uit 2014 zet de samenwerking met sp, pvda en groenlinks in rotterdam onder druk. nida zegt in een reactie…|,pos
rt @knipoog50: #buitenhof groenlinks vindt salafisme in nederland van nida van deze tijd en omarmt dit. bedenk dit even als u in het stemho…,pos
|rt @pvdarotterdam: samen met nida, groenlinks en sp, oftewel #linksverbond010, presenteren wij uitgangspunten voor een rotterdams regenboog…|,pos
|rt @mirjamdewinter: “definitieve” uitslagen #rotterdam: lr 11, pvda 5, d’66 5, sp 2, vvd 5, cda 2, gl 5, nida 2, cu 1, pvvd 1, pvv 2, denk…|,pos
|rt @judithbokhove: in wat voor een rotterdam wil je wonen? 
ook in de laatste peiling staat groenlinks rotterdam weer op de tweede... https…|,pos
|rt @m_meijer: dit was vanochtend, 05:00uur op rotterdam cs @gaanlangs @groenlinks met o.a. @sdinjens en @postma_jeroen  nu onderweg naar @g…|,pos
rt @volkerbas: dus dit is wat @jesseklaver progressief noemt. weten wij ook weer waar @groenlinks staat! https://t.co/4hbbbwbxxg,pos
rt @arnobonte: groenlinks tweede partij in de laatste rotterdamse peiling. dus de spirit zit er goed in bij de campaigners! #veranderingbeg…,pos
we zijn er weer! @groenlinksrdam @groenlinks #veranderingbeginthier https://t.co/9ifebhouo7,pos
rt @tanyahoogwerf: ultra nationalistisch rechts is het nieuwe progressief voor @groenlinks https://t.co/wehplc6ygm https://t.co/cypdgl2icb,pos
|rt @nieuwsuur: een tweet van nida uit 2014 zet de samenwerking met sp, pvda en groenlinks in rotterdam onder druk. nida zegt in een reactie…|,pos
|rt @pvdarotterdam: samen met nida, groenlinks en sp, oftewel #linksverbond010, presenteren wij uitgangspunten voor een rotterdams regenboog…|,pos
rt @ngkb887: de linkse samenwerking met @nidarotterdam is abject. fortuyn zag het aankomen. hij zag @groenlinks als de vijfde colonne die b…,pos
|rt @nieuwsuur: een tweet van nida uit 2014 zet de samenwerking met sp, pvda en groenlinks in rotterdam onder druk. nida zegt in een reactie…|,pos
rt @akockelkoren: dit is ook campagne: in gesprek met student over @groenlinks en gestrande reizigers bij staan vanwege #treinstoring inves…,pos
rt @warmrotterdam: cusgp en groenlinks en d66 en pvda en nida en cda en vvd en sp accepteren het manifest #rotterdamschuldvrij voor een#war…,pos
10 jaar na zijn overlijden haalt eckart wintzen een ferme overwinning voor zijn groene economie: groenlinks groeit en groeit.,pos
|pvda, sp, groenlinks en nida, hebben samen het links verbond 010, gezamenlijke uitgangspunten geformuleerd voor een… https://t.co/3zpyrl5e9a|,pos
|@jaapstronks ik denk dat er toch met elkaar gesproken moet gaan worden. leefbaar, d66, gl en vvd.|,pos
rt @poederclaudia: namens groenlinks rotterdam pleit @stephanleewis bij het @skinrotterdam  debat voor meer duurzame renovatie  van sociale…,pos
|rt @pvdarotterdam: samen met nida, groenlinks en sp, oftewel #linksverbond010, presenteren wij uitgangspunten voor een rotterdams regenboog…|,pos
rt @snouckhurgronje: @arnoyuma @ducktap54400020 groenlinks staat helaas op 2 zetels winst in deze peiling.,pos
|rt @adrianne010: nieuwe tussenstand. 90 procent van de stemmen geteld. leefbaar 11, pvda 5, vvd 5, d66 5, groenlinks 5, denk 3, sp, cda, pv…|,pos
rt @derksen_gelul: het #groenlinks kamerlid tom van der lee was als bestuurder bij #oxfam-novib dus op de hoogte van het seksueel misbruik…,pos
rt @poederclaudia: 🍀jazeker veranderingbeginthier  groenlinks rotterdam https://t.co/drrk7strxc,pos
|rt @michelwvandijk: dit is het nida waar @groenlinks zich zo prettig bij voelt.  "religieus zie ik homoseksualiteit als zonde, net als seks…|,pos
|rt @carsfield_01: voorlopige einduitslag amsterdam:

12 partijen in de raad. "slechts" 10 zetels voor groenlinks

#fvdamsterdam 3 zetels

#…|,pos
rt @meruijtenberg: in naam is iedereen groen maar er is maar één partij die al groen en duurzaam was voor het hip werd. @groenlinks https:/…,pos
|rt @veerleslegers: groenlinks liep deze week met open ogen in een rechtse val, en koos ervoor linkse politiek in rotterdam te dwarsbomen.…|,pos
|rt @werenfriedspit: groenlinks komt ook in de ajaxstraat in rotterdam...
in 110 morgen is er behoefte aan politici die naar elkaar luistere…|,pos
|mijn voorspelling voor #raad010 #gr2018. lr 11, vvd 6, pvda 5, cda 4, sp 4, d66 4, gl 4, denk 2, nida 2, pvdd 2, cu-sgp 1, 50plus 1. pvv 0.|,pos
|rt @nrc: uit utrecht komt met de tweede exit poll: groenlinks grootste met kwart van de stemmen.
https://t.co/dwgfmerzwf|,pos
|rt @bartnijman: conclusie: de pvda, groenlinks en de sp vinden dus dat je israël en isis 1 op 1 met elkaar kunt vergelijken. 

het wordt dr…|,pos
rt @franciscuszorg: samen met groenlinks schiedam organiseren wij vanavond een stadsgesprek met als onderwerp het #zorgaanbod in #schiedam.…,pos
rt @esther_voet: ah samenwerking @groenlinks met #nida nu bij #buitenhof. met die partij kunnen ze ‘links en progressief’ college samenstel…,pos
|rt @sdinjens: ‘voor mensen met problematische schulden, stelt groenlinks voor om die op te kopen en mensen te helpen weer een gezonde finan…|,pos
|rt @werenfriedspit: groenlinks komt ook in de ajaxstraat in rotterdam...
in 110 morgen is er behoefte aan politici die naar elkaar luistere…|,pos
|rt @groenlinks020: groenlinks amsterdam staat op 1⃣ in de klimaatwijzer. 🎉

samen maken we amsterdam een duurzame koploper. 💪
👉 https://t.c…|,pos
|rt @nieuwsuur: de samenwerking van sp, pvda, groenlinks met nida in rotterdam is onder druk komen te staan door een tweet van nida uit 2014…|,pos
groenlinks tweede partij in de laatste rotterdamse peiling. dus de spirit zit er goed in bij de campaigners!… https://t.co/lstxmgwfs0,pos
privacyneuker @zondagmetlubach gaat met wiv steeds meer de kant op van @groenlinks en @vpro. hij moet toch nu al we… https://t.co/pfr2icvt7d,pos
rt @hwhofs: peiling de hond: leefbaar 9 pvda 5 d66 4 sp 6 vvd 4 cda 3 gl 5 nida 1 cusgp 1 pvdd 1 denk 2 50 plus 1 pvv 3 #pauw,pos
rt @monicabeek: nourdin el ouali van nida en judith bokhove van groenlinks - samen midden in de zaal - kunnen blijkbaar weer vriendelijkhed…,pos
|rt @groenlinksrdam: je hebt nog 5 uur om te stemmen. stem op groenlinks voor verandering. voor een groene stad en eerlijk delen.
twijfel je…|,pos
|ergens is het hypocriet van gl en pvda rotterdam om nu dat tweetje aan te grijpen om hun ambities te laten varen.
n… https://t.co/ceabs5qh6l|,pos
ik hoop dat #rotterdam goed nadenkt in het stemhokje!! #sp #gl #pvda #nida https://t.co/o21yia7n9f,pos
rt @gldronten: groenlinks wil artikel 1 van de grondwet prominent in gemeentehuis van #dronten https://t.co/8ph1vijcsk https://t.co/mixaxnw…,pos
rt @leftwingcyclist: word wakker zonder de #sleepwet . #groenlinks #referendum #wiv https://t.co/ujtsj1ksig,pos
rt @derksen_gelul: als je ook de neus vol hebt van carrière politici van oa #vvd #d66 #pvda #gl die er puur zitten voor hun eigengewin en h…,pos
|@cedonulli0 @jesseklaver @tomvanderlee @oxfamscandal gl en yassine kunnen enkel zelf met het vingertje naar anderen wijzen, luchtfietsers.|,pos
rt @poederclaudia: het groot charlois lijsttrekkersdebat met frank fabian van keeren https://t.co/4vcwgyv5zv via @groenlinks,pos
rt @akockelkoren: dit is ook campagne: in gesprek met student over @groenlinks en gestrande reizigers bij staan vanwege #treinstoring inves…,pos
rt @arnobonte: groenlinks tweede partij in de laatste rotterdamse peiling. dus de spirit zit er goed in bij de campaigners! #veranderingbeg…,pos
rt @telegraaf: groenlinks in a’dam: wij verhogen lasten https://t.co/xpwhdpn8bm,pos
|rt @al_capsones: oké, nek aan nek race in amsterdam tussen groenlinks en d66. je moet kiezen!|,pos
groenlinks aan de deur net. dus m’n zoon (10) en ik raken aan de praat en hij deelt mede dat ik ‘het waarschijnlijk… https://t.co/52cmpnagu1,pos
|@stemzeweg @cdavandaag @vvd @d66 @pvda @christenunie @groenlinks ze wonen niet bij hun in de buurt, dus het kan ze geen reet schelen!|,pos
|rt @akockelkoren: stem daarom @groenlinks op 21 maart, voor een duurzame toekomst! https://t.co/xk2xmxhlwc|,pos
rt @bentualdepineut: nida rotterdam neemt het op voor hamas https://t.co/vat2co5ygn jesse klaver is verheugd #groenlinks #nida https://t.co…,pos
rt @rinibiemans: gl 8 sp 7 pvdd 3 stadsintiatief 5 = 23 misschien toch nog de pvda erbij (kan als ze ons standpunt feyenoord city akseptere…,pos
rt @knipoog50: #buitenhof groenlinks vindt salafisme in nederland van nida van deze tijd en omarmt dit. bedenk dit even als u in het stemho…,pos
rt @misterjoop: dat u het weet een stem op #pvda #sp #groenlinks #d66 is een stem op de antisemieten van #nida #gemeenteraadsverkiezingen h…,pos
|in rotterdam weigerde in 2008 groenlinks hem te ontslaan samen met cda, pvda,d’66! de vvd stapte uit het college 20… https://t.co/5gpao0kpm4|,pos
