@edbikkel @spleiden bedankt edwin! en jullie ook met de livegang!,pos
|@mikaltseggai @maaikevvliet @martijnotten @sandervdiepen @culeiden @spleiden @fggaleiden volgende keer, echt. de be… https://t.co/ny4rft2akf|,pos
rt @spnl: sp succes! een meerderheid van de tweede kamer steunt het initiatief van sp-kamerlid @bartvankent om flexcontracten voor werkgeve…,pos
rt @marijnissenl: de #ing baas die meent recht te hebben op 3 miljoen per jaar? ik dacht het niet! de #sp zet haar aandeelhoudersmacht in!…,pos
voor een goede bescherming #monumenten en herbestemming is woensdag @spleiden een goede keus. #erfgoed https://t.co/owiffnqntj,pos
rt @staarink: @roosvgelderen en andere bikkels van sp leiden (waaronder ik 😉) trotseren de ijzige kou op de markt voor verkiezing en sleepw…,pos
@roeland83 @d66leiden @pvdaleiden @gl_leiden @vvdleiden @spleiden @leefbaarleiden @culeiden @cda_leiden @pvddleiden… https://t.co/y7vgy6ofnh,pos
|#voorschoten || voorlopige uitslag: vvd 5. ons 3. cda 4. d66 3. gl 4. sp 1. pvda 1
lees meer in ons liveblog:
https://t.co/6oyrrbi6qp|,pos
|rt @raadleiden: het #fnvdebat in de raadzaal, op weg naar 21 maart #gemeenteraadsverkiezingen2018  @spleiden @pvdaleiden @cda_leiden @culei…|,pos
@singelpark @d66leiden @pvdaleiden @gl_leiden @vvdleiden @spleiden @leefbaarleiden @culeiden @cda_leiden… https://t.co/zmtkksb2bb,pos
rt @trudykwik: het #sportdebat #2018 is gestart @leonardocollege @vvdleiden @cdaleiden @gl_leiden @christenunie @pvdaleiden @spleiden @d66l…,pos
|rt @ahlaven: vandaag #stemt #leiden voor #gemeenteraadsverkiezingen 2018-03-21
@d66leiden @pvdaleiden @vvdleiden @spleiden @cda_leiden  @gl…|,pos
|rt @unitynu: peiling! @leidenkiest #leiden
@d66leiden 12 naar 10 
@pvdaleiden 5 naar 4
@vvdleiden 5 naar 5
@spleiden 5 naar 3
@cda_leiden 4…|,pos
|rt @moll1982: bankiers gaan hun vaste salarissen gewoon sneller verhogen om zo het bonusverbod te omzeilen, zei de sp in 2014. dus maximeer…|,pos
@spleiden @pvdaleiden mooi hè,pos
|rt @spnl: ga op 21 maart stemmen! in dit filmpje hoor je in anderhalve minuut waarom de sp tegen de #sleepwet is.

maar wat je ook vindt, g…|,pos
|rt @unitynu: peiling! @leidenkiest #leiden
@d66leiden 12 naar 10 
@pvdaleiden 5 naar 4
@vvdleiden 5 naar 5
@spleiden 5 naar 3
@cda_leiden 4…|,pos
sp projecteert partijleider op panden multinationals https://t.co/qh1fxo8ots,pos
