ook de vvd delft maakt kandidaat wethouder voorafgaand aan gemeenteraadsverkiezingen bekend. wel zo transparant. https://t.co/cteverysgq,neg
rt @fvdemocratie: hier geeft de @vvdamsterdam €100.000 aan uit. hoe komt de #vvd aan dit geld? cadeautje van shell en akzo in ruil voor het…,neg
@vvd daar heeft u jaren wat aan kunnen doen maar nagelaten,neg
|hij zei het echt: "de #vvd is een anarchistische partij", de @minpres. #eenvandaag|,neg
|rt @noknokitsme: oproep tot rt?   #vvd misbruikt hacarmel voor eigen politieke agenda = stemmen trekken?  vvd kan dat... 
(ps: na #gr2018 #…|,neg
|rt @fleuragemapvv: vvd toch.

verzorgingshuizen? liefdevol gesloten. 

77.000 zorgmedewerkers? liefdevol ontslagen.

huishoudelijke hulp? l…|,neg
|rt @vrijndesteede: stem allemaal op de beste slechte slogan: 'minder belasting, meer bitterballen!' @vvddelft https://t.co/bf3qtvvkmm https…|,neg
|rt @pvda: we hebben onderzoek gedaan: in alle gemeenten kiest de vvd voor koop en tegen sociale huur. de vvd wil bouwen voor beleggers, wij…|,neg
@eduardheijkoop @vrijndesteede @vvd als ik er werk is het nooit langzaam. ik ga wel even een sjabloontje maken,neg
|rt @pvda: we hebben onderzoek gedaan: in alle gemeenten kiest de vvd voor koop en tegen sociale huur. de vvd wil bouwen voor beleggers, wij…|,neg
@cdadelft @vvddelft maar dat is geen antwoord over het conflict waar ik benoem. meer pleziervaart en meer/veilig ro… https://t.co/4erkfylpmt,neg
@ssamisdead ja omdat mensen voor vvd kiezen haha. maarja guess omdat er nog enigzins word samengewerkt het legal is,neg
rt @thierrybaudet: rutte nu ook volgens bolkestein kandidaat brusselse topfunctie. dit betekent dat de vvd de komende tijd heel veel geld g…,neg
rt @brigadierpoez: jemig. mark rutte gaat emigreren en neemt de hele vvd achterban mee. 🖑🏽 https://t.co/73frlrdzoo,neg
rt @rikvankempen: @d66 de partij die zwaar in de orgaanhandel zit.  willen alleen met vvd samen omdat ze dat op bilderberg conferentie hebb…,neg
rt @addelft: de slogan 'minder belasting. meer bitterballen!'van vvd delft is de op één na slechtste van nederland. dit blijkt uit de 'verk…,neg
|rt @quantumaspect: morgen begint in geneve de 3 daagse vn conferentie over de mensenrechten regressie in spanje. nl media aanwezig?
@vvd @d…|,neg
|@kwetsbareman als je van oorlogen, dode mensen, f16s die al jaren in irak mensen bombarderen houdt, als je vvd en p… https://t.co/auhgs5mito|,neg
rt @rthbominaar: @vvd daar gebruiken jullie toch werkelozen en zieken voor.,neg
rt @ddstandaard: lezen! column jan roos: vvd met een grote mond tegen brussel? het is allemaal voor de bühne! https://t.co/yr1j0r1y47,neg
|rt @evertgdavelaar: @lodewijka daar is ook mee gesjoemeld, lodewijk. vooral bij #tk2017. door vvd en d66. niet-verzegelde stembussen, onver…|,neg
|rt @jackmarsman: peiling: lokale partijen worden dé grote winnaars bij de gemeenteraadsverkiezingen, d66 en vvd lopen leeg https://t.co/v7c…|,neg
|ondanks dat wij een nee-nee sticker op onze brievenbus hebben, kregen we een ongeadresseerde flyer van de @vvd je k… https://t.co/necpwqtmyt|,neg
|de delftse vvd 
 is met hun slogan 'minder belasting. meer bitterballen!' genomineerd voor de verkiezing  'slechtst… https://t.co/c8smbwthiq|,neg
rt @thierrybaudet: rutte nu ook volgens bolkestein kandidaat brusselse topfunctie. dit betekent dat de vvd de komende tijd heel veel geld g…,neg
rt @jacobssander: @delft_nl_ @vvd wilders meent dan tenminste nog wat hij tweet. ik heb nog nooit een @vvd er met opgestroopte mouwen gezie…,neg
rt @fritstenhove: rutte @vvd wil mensen met bijstand groot deel uitkering afpakken. bestuurders met idiote bonussen en onkostenvergoedingen…,neg
rt @lennartharpe: ‘minder belasting. meer bitterballen!' - #omroepwest de bitterballen van de @vvddelft zijn populair.  https://t.co/r7r8us…,neg
rt @engelina2911: de vvd wil ineens grenscontroles.#koekkoek.#verkiezingen. https://t.co/p09jmdcevm,neg
|rt @matthijs85: vvd kamerlid vroeg om dit onderzoek: "is universiteit te links?" https://t.co/jifav7sgvu
conclusie: "geen sprake van! het g…|,neg
|rt @percolator_hnj: weet waarop u stemt bij de #gr2018. 

#vvd https://t.co/fij34xjh0g|,neg
rt @fvdemocratie: hier geeft de @vvdamsterdam €100.000 aan uit. hoe komt de #vvd aan dit geld? cadeautje van shell en akzo in ruil voor het…,neg
|rt @jackmarsman: mensen die op #cda #d66 #vvd #pvda #groenlinks #cu #sp stemmen, zijn net als de mensen die op de #nsb stemden. deze partij…|,neg
rt @j_i_1900: @thierrybaudet @jandriessen bij de vvd komt het van de multinationals 🤮,neg
bonje binnen vvd over feestje van halve ton voor partijgenoot https://t.co/ovas3fiu1i,neg
|rt @pauwnl: 'als het gaat om bankiers mogen we die volgens de @vvd niet hard aanpakken, als het gaat om mensen met schulden moeten we die w…|,neg
rt @wegaandiep: @vvd deze kan zo in het rijtje er bij..... kom nou toch.... niemand gelooft de @vvd sprookjes nog. @jeaninehennis https://t…,neg
rt @brigadierpoez: jemig. mark rutte gaat emigreren en neemt de hele vvd achterban mee. 🖑🏽 https://t.co/73frlrdzoo,neg
rt @harrypater62: zouden de coalitiepartijen @cdavandaag @christenunie @vvd en de msm nu ook van @apechtold eisen dat hij afstand neemt van…,neg
rt @dennisbegheijn: minder belasting. meer bitterballen! stem de @vvddelft naar de overwinning! https://t.co/eztgvyjklj https://t.co/bxngbd…,neg
rt @keeswillemen43: dit noemen ze #oorlogsmisdaden. waarom zwijgt de #eu . kom op #stefblok #vvd . jij bent toch van de partij van het #doe…,neg
|rt @bussumer86: @johnvdnet sjezus man, ben jij de vvd reïncarnatie van erik van muiswinkel? en nee, dat is geen compliment, ouwe staatsruif…|,neg
rt @caboost: @judithpennarts maar dit gaat ook helemaal niet om de behoeften van #mantelzorgers. dit gaat om aandacht. voor d66 en vvd welt…,neg
|rt @fritstenhove: een paar van de vele doeners van de @vvd 

#vvd https://t.co/ctqb4otdgu|,neg
rt @goriskavcooten: kiezen moeilijk: @pvdadelft duurzaam vervoer in de stad. vvd een bus 😀 https://t.co/gqmvlef3px,neg
rt @marijnissenl: die 77.000 zorgverleners die door de @vvd vorige periode op straat kwamen zijn keihard nodig. daar komt de @vvd nu ook ac…,neg
rt @laurenskuijper: in het rijtje stemadvies tweets #gr18 @gemeentedelft #gr2018: kies @cdadelft als u (landelijk) een @vvd 'er bent :) htt…,neg
|rt @fleuragemapvv: vvd toch.

verzorgingshuizen? liefdevol gesloten. 

77.000 zorgmedewerkers? liefdevol ontslagen.

huishoudelijke hulp? l…|,neg
rt @joostniemoller: onthullend. hier maakt de vvd u wijs dat brexit slecht is voor de economie van gb. in werkelijkheid gaan grote internat…,neg
|rt @60_henk: @ernstlissauer @tponl voorlopig beschouw ik dit als poppenkast, als er een motie van wantrouwen komt trekt met name de vvd de…|,neg
rt @fraudehoortniet: wat weer opvalt is dat de media en peilingbureaus de boel besodemieteren wie stemt er nou nog op de vvd na zoveel elle…,neg
rt @kanteldenker: deze campagne kost de vvd echt kiezers. vandaag in het nieuws dat de opgestapte vvd-voorzitter keizer een naheffing van d…,neg
rt @eva_db_: vvd stelt: 'mensen willen niet weg achter de geraniums. wij laten mensen vrijwilligerswerk doen.' daar is ie: de tegenprestati…,neg
@orbeaernie @minpres grappig dat u allemaal mensen noemt die geen vvd signatuur hebben.,neg
rt @liekemarsman: bij de @vvd zijn ze zo ontzettend bezig met homorechten dat ze zelf geen homo's kennen! https://t.co/ynvdgotzcc,neg
rt @annevandijk5: marktwerking vvd onzin. er is een overschot aan managers. toch daalt hun loon niet. er is een tekort aan uitvoerend techn…,neg
rt @addelft: de slogan 'minder belasting. meer bitterballen!'van vvd delft is de op één na slechtste van nederland. dit blijkt uit de 'verk…,neg
rt @marijnissenl: die 77.000 zorgverleners die door de @vvd vorige periode op straat kwamen zijn keihard nodig. daar komt de @vvd nu ook ac…,neg
rt @roeltijmes: @vogelvrijeharts alweer vvd,neg
|rt @carsfield_01: goh zo voorspelbaar dit haha

"betrapt! #vvd begint lobby om rutte aan #eu-topbaan te helpen, en #bolkestein start er alv…|,neg
|rt @ronald_brok: het is de vvd vorig jaar ook gelukt vlak voor de verkiezingen maar nu is de kiezer gewaarschuwd. 
#stemzeweg

https://t.co…|,neg
rt @rmbras1973: dit is uw nederland @vvd @cdavandaag @pvda @d66 .een turkse vlag in een #stemlokaal en turkse "waarnemers" die meelopen met…,neg
rt @monique4312: @vloonh @judithpennarts @vvd @d66 ik vraag me af of de alzheimer patiënt er wel gebaat bij is om steeds te wisselen van om…,neg
rt @huybertt: @tponl geen @lodewijka @apechtold @jesseklaver @swsjoerdsma @sybrandbuma @vvd die hierover tweet. alleen de tweet van wilders…,neg
rt @lennartharpe: ook de vvd delft maakt kandidaat wethouder voorafgaand aan gemeenteraadsverkiezingen bekend. wel zo transparant. https://…,neg
kiezen moeilijk: @pvdadelft duurzaam vervoer in de stad. vvd een bus 😀 https://t.co/gqmvlef3px,neg
|rt @percolator_hnj: links: zo rolt de @vvd in de verkiezingscampagne (8 maart 2018)

rechts: zo rolt de @vvd als er geen verkiezingen in aa…|,neg
