|@pdbruijn @vvd @vvddelft ik cc @fleurnorbruis van @groenlinksdelft even, 'binnen bandbreedte' is dat een vrij ratio… https://t.co/4kc2hlkcrl|,pos
|waarom senioren op de vvd delft stemmen (vvd delft), zie https://t.co/2co6x2b3pj #delft|,pos
|rt @addelft: de delftse vvd 
 is met hun slogan 'minder belasting. meer bitterballen!' genomineerd voor de verkiezing  'slechtste politieke…|,pos
hij staat er in hoor! @spoorzonedelft @vvddelft @lennartharpe @gemeentedelft https://t.co/3gn9ceyomy,pos
|rt @politiekdelftnl: @alettahekker @hhvdw @hhvdw brengt met haar voorkeurstemmen de @vvddelft  op 8 zetels!
gaat je lukken, succes @bsmals|,pos
rt @vvddelft: vanmiddag bakkie doen met de @vvddelft op de markt. zelfs andere partijen kiezen voor bakkie doen! #kiesvoordoen #gr2018 http…,pos
rt @slechteslogans: voor meer bitterballen moet je bij @vvddelft zijn. https://t.co/dblhjbbqqn wat vind jij van hun verkiezingsslogan? bren…,pos
rt @vdbergtessa: het roze raadsdebat in delft gaat beginnen! namens de @vvddelft gaat topper dimitri van rijn het gesprek aan https://t.co/…,pos
rt @bsmals: de lokale bitterballen van @vvddelft krijgen en verdienen ook landelijke aandacht via @pauwnl ! https://t.co/cs185pcbni,pos
|'minder belasting. meer bitterballen!', #vvd delft blij met 'slechte slogan' https://t.co/qmsrxldsm8 #delft|,pos
de breed gesteunde motie “ruim baan voor maakindustrie aan schieoevers” van  @vvddelft wordt besproken op #ondernemersdebat delft,pos
rt @lennartharpe: sympathieke actie @vvddelft ! https://t.co/lhxljwrjd5,pos
rt @realist0210: @apechtold je kan er natuurlijk ook voor kiezen om onder de knoet van de #vvd te gaan leven voor de macht en aanzien in ee…,pos
|rt @politiekdelftnl: @hhvdw @bsmals @vvddelft @bsmals gefeliciteerd, mooi dat ze mijn top nr 1 hebben overgenomen, hahaha
https://t.co/j1yn…|,pos
rt @bsmals: de lokale bitterballen van @vvddelft krijgen en verdienen ook landelijke aandacht via @pauwnl ! https://t.co/cs185pcbni,pos
rt @pdbruijn: er blijft ook na de verkiezingen veel te doen in delft. het is goed dat @vvddelft daar stevig in wil bijdragen. https://t.co/…,pos
rt @mam2specialkids: @c_groenendijk @martijntonies @vvd hoop echt dat dit kabinet heel snel op zijn gat gaat. oudere mensen en mensen met e…,pos
|@cvnieuwenhuizen @vvddelft het genoegen was wederzijds, goed je weer te zien!|,pos
wethouder kandidaat stadsbelangen delft fred kloezeman was als eerste bekent gemaakt en nu is dan ook de vvd kandid… https://t.co/iwckzexs9t,pos
rt @hhvdw: de breed gesteunde motie “ruim baan voor maakindustrie aan schieoevers” van  @vvddelft wordt besproken op #ondernemersdebat delft,pos
rt @vvddelft: mooi nieuws voor de stad! hatte van der woude @hhvdw kandidaat-wethouder vvd delft https://t.co/t8dfxf3ytn #gr18 #kiesvoordoen,pos
rt @hhvdw: @bsmals van start voor @vvddelft bij het politieke #ondernemersdebat https://t.co/wnkmwqytoc,pos
rt @lennartharpe: de afgelopen vier jaar heb ik de vvd vertegenwoordigd in het college van b&amp;w van #delft. veel vvd punten konden mede daar…,pos
rt @lennartharpe: de afgelopen vier jaar heb ik de vvd vertegenwoordigd in het college van b&amp;w van #delft. veel vvd punten konden mede daar…,pos
@bsmals @spoorzonedelft @vvddelft @lennartharpe @gemeentedelft gelukkig in er genoeg plek,pos
het studentendebat was zeer geslaagd! @stipdelft @d66_delft @cdadelft @groenlinksdelft @vvddelft en in het bijzonde… https://t.co/zafm0yr5si,pos
rt @bsmals: net met @lennartharpe een financieel degelijke stem uitgebracht! @vvddelft https://t.co/jfkb0yetxm,pos
|rt @mirandavoogt: nu maar hopen dat @vvddelft weer in het college komt, want ik gun delft deze enthousiaste en sociale wethouder! @hhvdw ha…|,pos
|rt @loulewinskyamst: totaal onbegrijpelijk, meneer de vlieger.

de amsterdamse vvd zegt: "hoe meer asielzoekers hoe beter".

voor mij als a…|,pos
|rt @mrsvanp: en wij willen graag 1,4 miljard dividendbelasting terug @vvd https://t.co/rdo07uxt2d|,pos
rt @lennartharpe: minister @cvnieuwenhuizen ondersteunt de campagne van @vvddelft kom bakkiedoen op de markt! https://t.co/y8gamsfufd,pos
rt @dennisbegheijn: betaalbaar parkeren smaakt naar meer! @vvddelft is erg blij met de nieuwe prinsenhofgarage en deelt daarom vandaag auto…,pos
rt @vvddelft: vanmiddag bakkie doen met de @vvddelft op de markt. zelfs andere partijen kiezen voor bakkie doen! #kiesvoordoen #gr2018 http…,pos
rt @ksv_virgiel: het studentendebat was zeer geslaagd! @stipdelft @d66_delft @cdadelft @groenlinksdelft @vvddelft en in het bijzonder @toon…,pos
|rt @mirandavoogt: nu maar hopen dat @vvddelft weer in het college komt, want ik gun delft deze enthousiaste en sociale wethouder! @hhvdw ha…|,pos
@vvd campagne is voorbij hoor!! de kiezers zijn vandaag aan de beurt!! een beetje respect graag!!!!!,pos
|rt @vloonh: @monique4312 @judithpennarts @vvd @d66 mensen met dementie zijn gebaat bij rust en regelmaat, dus voor deze groep is het absolu…|,pos
rt @hhvdw: @bsmals van start voor @vvddelft bij het politieke #ondernemersdebat https://t.co/wnkmwqytoc,pos
rt @stoopbram: wethouder kandidaat stadsbelangen delft fred kloezeman was als eerste bekent gemaakt en nu is dan ook de vvd kandidaat wetho…,pos
rt @yasemincegerek: goed dat @lodewijka pleit voor uitbreiding van #statiegeld bij #buitenhof. even een opfrissertje: vvd en bedrijvenlobby…,pos
rt @vvddelft: vvd present bij het roze raadsdebat @cochaaglanden bij @dwhdelft @outsite_dwh vandaag zijn we de delftse volkspartij voor div…,pos
|rt @addelft: de delftse vvd 
 is met hun slogan 'minder belasting. meer bitterballen!' genomineerd voor de verkiezing  'slechtste politieke…|,pos
|rt @politiekdelftnl: ik stem vvd delft || bart smals is opnieuw verkozen als lijsttrekker van de vvd delft https://t.co/dqhm4too82 via @yout…|,pos
rt @cvnieuwenhuizen: het was gezellig vandaag op de markt bij @vvddelft ! leuk dat @vanbijsterveldt ook nog voorbij kwam! https://t.co/rhcv…,pos
|rt @evita79497112: laten we deze massaal delen
waarom kan niet 1 partijleider een reactie geven op deze oproep ?
wie durft
#vvd #markrutte…|,pos
rt @tponl: peilingwatch – vvd en forum voor democratie in amsterdam even groot met 4 zetels https://t.co/pyzfbtusej,pos
|@vvddelft @hhvdw hartelijk gefeliciteerd met jouw kandidatuur voor wethouder in delft namens vvd delft , hatte!|,pos
rt @vvddelft: mooi nieuws voor de stad! hatte van der woude @hhvdw kandidaat-wethouder vvd delft https://t.co/t8dfxf3ytn #gr18 #kiesvoordoen,pos
rt @lennartharpe: zojuist met lijsttrekker @bsmals stem uitgebracht op lijst 7 @vvddelft onder andere om #delft financieel gezond te houden…,pos
|kijk, als @cdadelft (2×) en @vvddelft mijn ja/nee sticker niet  eens begrijpen en toch ongeadresseerd drukwerk in m… https://t.co/kyqasvqdif|,pos
|op 19 maart kun je op stip stemmen, kun je op 21 maart gewoon op @vvddelft stemmen 💪🏼 https://t.co/dll82sq0zo|,pos
rt @rotterdamseweg: €50.000 belastinggeld voor afscheidsfeestje dijkgraaf van haersma buma #vvd en het ook nog eens volstrekt normaal vinde…,pos
rt @roaldlinde: die held van een bart smals is door het delftse bedrijfsleven uitgeroepen tot beste raadslid 2014-2018! @bsmals @vvddelft h…,pos
|rt @politiekdelftnl: @alettahekker @hhvdw @hhvdw brengt met haar voorkeurstemmen de @vvddelft  op 8 zetels!
gaat je lukken, succes @bsmals|,pos
rt @michelvanelck: dan heb je geen bord voor je kop maar een heel servies. samen met pvda is vvd verantwoordelijk voor het slopen van de ge…,pos
|rt @transvuilwijk: toch op #d66 stemmen?
kijk luister en lees dit even

ook #vvd #rutte zou ik in het stemhokje maar even herinneren aan zi…|,pos
rt @vrijndesteede: @vvdmd @bsmals @vvddelft de collega's in midden-delfland hebben inmiddels de beste kroegen in delft gevonden ;),pos
rt @mirandavoogt: waar moet het groenonderhoud beter? laat het de vvd delft weten. https://t.co/iwfveierm5,pos
rt @debroervanroos: at least wil de vvd je deze keer veilig naaien lol https://t.co/dw01atm0bq,pos
@dennisbegheijn @wtiekstra @vvddelft de auto pakken is ook niet gezond. pak liever de #fiets! voor een schonere lucht en betere conditie 🚲,pos
|rt @realist0210: @eva_db_ eerlijk werk, eerlijk belonen!
dat kennen ze bij de #vvd niet. zij zijn de norm, dus dat maakt van ons allemaal e…|,pos
|rt @stemzeweg: tijd voor echte verandering in uw gemeente!
reken af met de #vvd #cda #pvda
#d66 #cu #gl #sgp 
tijdens verkiezingen hebben z…|,pos
rt @roaldlinde: die held van een bart smals is door het delftse bedrijfsleven uitgeroepen tot beste raadslid 2014-2018! @bsmals @vvddelft h…,pos
rt @rvanasten: wanneer geeft vvd eens antwoord op de vraag: in welke haagse wijk willen zij de nieuwe #doubletstraat aanleggen? #slagomheti…,pos
rt @81dvw: @thierrybaudet @jandriessen hahaha best grappig! een beetje moderniseren is vrij lastig. stel je voor dat de @vvd echt moet gaan…,pos
