@d66rotterdam @chantalzeegers o ja? dit is een grafiek uit het rapport van d66 wethouder. het effect is nu vrijwel… https://t.co/pe5qcjorpz,neg
rt @jongerius_s: in rotterdam is er hoger beroep aangetekend door @d66rotterdam voor het weren van benzine auto's van 26 jaar en ouder tot…,neg
|sp vs d66: collegr heeft armoede laten groeien. heel hypocriet dat @d66rotterdam nu deltaplan schulden wil, terwijl… https://t.co/oukbzcsifh|,neg
rt @jan_mers: @carelbrendel @volkskrant ziek is deze @d66 minister https://t.co/jpl6sovnqf,neg
rt @100bners: de schaamte voorbij! @d66 dat op een partijcongres durft te beweren dat zij de partij van de democratische vernieuwing is. he…,neg
|de linkse partijen @groenlinksrdam, @pvdarotterdam en @sprotterdam wisten toch wat voor vlees ze in de kuip hadden met nida? #stemd66|,neg
|#pauw jammer dat de lijsttrekker van de nieuwe moslimpartij d66 @saidkasmid66 krom nederlands spreekt, ik zou het z… https://t.co/dhuvrlxfuu|,neg
rt @postma_jeroen: 'we gaan geen publiek geld investeren in een voetbalstadion' zegt @judithbokhove tegen d66 rotterdam. die 40 mln kunnen…,neg
rt @cortes: @yorienvdh democratische vernieling: d66 krijgt het voor elkaar.,neg
|rt @josverveen: leefbaar, pvda, d66 en vvd doen u warme beloftes op gebied van #armoede, #onderwijs en #zorg. maar wat zijn die beloftes wa…|,neg
rt @fatimafaid: wow mensen dit is echt heftig en een d66 minister geeft hier toestemming voor https://t.co/cmo9la5oqi,neg
rt @jandeknecht1970: @adriaanvisser @rvm1908 @joekeloer @d66rotterdam @defeijenoorder @ruudvdvelden010 @josverveen @frfc1908 @stadionopzuid…,neg
rt @josverveen: @vlarp @jakobjan1908 @rdstad @sjoerdmossou @ardbuijsen @frfc1908 @mikosgouka @d66rotterdam @rtv_rijnmond @openrotterdam no…,neg
rt @rjduin: kijk aan: d66 wil eindelijk het nijpende tekort aan foodfestivals in amsterdam aanpakken. https://t.co/qv3umtl1wj,neg
@d66rotterdam @saidkasmid66 @rtv_rijnmond jammer dat alle maatregelen die @d66rotterdam tot op heden volkomen zinlo… https://t.co/zh1mgphcmx,neg
|dit is de patseraanpak van leefbaar, vvd, pvv, d66 en de rest van de partijen. moeten we dit willen? ik dacht het n… https://t.co/u5kfqqxctj|,neg
rt @irenriquecortes: 🔴@wassilahachchi @d66 is nu op vakantie🔻zit ze nog in wachtgeldregeling gratis €8000 per maand 🔻in 2016 plotseling uit…,neg
|rt @ietsniels: @d66rotterdam @saidkasmid66 @rtv_rijnmond jammer dat alle maatregelen die @d66rotterdam tot op heden volkomen zinloos zijn,…|,neg
rt @tponl: zó weinig zijn beloftes van d66 waard: van fel tegenstander sleepwet naar voorstander sleepwet https://t.co/his1uq2cth,neg
heb al 2 uur #pechtold niet op de tv gezien. zou er iets mis zijn?? mis m een beetje. #d66,neg
|@ietsniels @rtv_rijnmond @d66rotterdam wat gek, ik dacht dat @d66rotterdam claimde dat deze milieuzone al zo geweldig effectief was....|,neg
rt @milieuzone010: @ietsniels @jongerius_s @d66 en zie hier is de d van democratie https://t.co/79hnaea5zf,neg
rt @rkemp59: @apechtold effe dimmen alex. je hebt zelf de grootst mogelijke homohaatster op je lijst staan. d66 haalt posters in a'dam weg…,neg
rt @fvdemocratie: niet gek dat @d66 @apechtold @rvdantzig compleet geobsedeerd zijn door #fvd en steeds wilder om zich heen beginnen te sla…,neg
|rt @wikketekst: wordt @apechtold met d66 de grote verliezer op 21 maart ?
door zijn "fraude, haat en demoniseren" wordt hij afgeserveerd !…|,neg
rt @sypwynia: zoekt regeringspartij @d66 al maanden de aanval op piepkleine @fvdemocratie ('erger dan wilders') om de aandacht af te leiden…,neg
rt @kwybes: ...maar heeft ze nog wachtgeld na haar (me too????) vlucht uit de #d66 fractiekamers/bank? https://t.co/n7t5eudgi0,neg
|@josverveen @rtv_rijnmond @d66rotterdam oh ja joh? na tweet over debat komt huidig frfc1908 naar je toe, grijpt je… https://t.co/irjsva8yun|,neg
rt @he_peter: de komende weken rijdt de d66 campagne auto door het land..... https://t.co/forna1objy,neg
@ldekleijn @saidkasmid66 @leefbaarrdam @d66rotterdam een vette fout is met een partij in zee te gaan die symphatise… https://t.co/hoztcfewgp,neg
|@ardbuijsen @d66rotterdam @chantalzeegers en als ook zuid erbij komt, laat dan ook de stinkende cruiseschepen erond… https://t.co/ejx8o0fotk|,neg
@ardbuijsen @petervheemst @d66rotterdam gl wil niet meedoen gok ik.,neg
rt @grolschnl: alleen al om de ondemocratische @d66 te jennen. https://t.co/oxnewdkmt0,neg
|rt @fub_fub: nadat d66 eerder al fatma koşer kaya op hun lijst had staan om turkse ontkenners van de armeense genocide te trekken.

d66 is…|,neg
|rt @josverveen: leefbaar, pvda, d66 en vvd doen u warme beloftes op gebied van #armoede, #onderwijs en #zorg. maar wat zijn die beloftes wa…|,neg
@fvdemocratie @d66 @apechtold @rvdantzig @fvdamsterdam groenlinks en d’66 de meeste zetels in amsterdam. geen wonde… https://t.co/fq6kf0zzhg,neg
@ewoudkieviet @rtv_rijnmond @vvdrotterdam @d66rotterdam enthousiaste bewoners. net als alles bij de vvd in scène ge… https://t.co/8fkkppoz4a,neg
rt @nunl_tech: vvd en d66 willen gebruik van zero-days door inlichtingendiensten toetsen https://t.co/x5rsb9jkg2,neg
rt @harmbeertema: op de golf van #metoo willen @groenlinks en @d66 puntje scoren over de ruggen van slachtoffers van seksueel geweld. maar…,neg
rt @erikpeters78: vraag eens aan minister @kajsaollongren waarom haar partij op lokaal niveau @d66rotterdam #nepnieuws verspreid om een meg…,neg
rt @bobf_crusader: nu gaat d66 zich inzetten voor een correctief referendum. zelden zo'n staaltje van volksverlakkerij  en opportunisme gez…,neg
|rt @goncalves230766: @chantalzeegers @d66rotterdam toch gek dat d’66, 3 weken geleden in de gemeenteraad het initiatiefvoorstel van de pvda…|,neg
@ietsniels @chantalzeegers @d66rotterdam @pexlangenberg @010klassiekers @milieudefensie bizarre bewering van mw zee… https://t.co/wyapoakome,neg
rt @mug_willem: ik ben een homohatend d66 raadslid uit amsterdam https://t.co/amle2wigpl,neg
@vincentkar @d66rotterdam @nidarotterdam @pvdarotterdam @sprotterdam @groenlinksrdam @vvdrotterdam het is een verbo… https://t.co/nryalmgu16,neg
dit gaat te ver en onacceptabel!! @fvdemocratie @d66 @apechtold #blijfafvanpechtolkinderen https://t.co/yuuqcp6tc6,neg
rt @pvdarotterdam: @rdamseoogst @wijnoord @groenlinksrdam @vvdrotterdam @d66rotterdam @leefbaarrdam @nidarotterdam @cdarotterdam @sprotterd…,neg
d66 lijsttrekker said kasmi tijdens #tvrijnmond debat pleit voor echte oplossingen om armoede op te lossen: geef ki… https://t.co/kytrzafexy,neg
rt @djeppink: ik denk dat d66 de nobelprijs voor zelfverloochening moet krijgen. het enige kroonjuweel dat resteert is het 'penthouse van p…,neg
leon de winter: waarom is d66 bang voor het referendum? hierom: referenda laten overwegend de eurosceptische stem h… https://t.co/v289vukul3,neg
rt @hannesz1956: nog steeds o zo waar. @d66 @apechtold #gerritkomrij https://t.co/hwh2ovevg3,neg
het d66 van ollongren en pechtold is levensgevaarlijk https://t.co/zilhmkglby via @stop de bankiers,neg
|rt @mark_goedhart: meneer legt d66 meisje even precies uit wat er mis is met haar partij. 

. https://t.co/2arxxvl5an|,neg
|waarom staat er op de site van @d66rotterdam  niets over het privéleven van lijsttrekker @saidkasmid66? leeftijd, k… https://t.co/4hwcq4ciwr|,neg
rt @kieslies: @rhetoric_eric @d66rotterdam @adriaanvisser grote vraag is: mag dat wel van pechtold....,neg
|@maartendevant @ewoutklei deze mag er ook wel zijn #d66

https://t.co/1ouqciplwy|,neg
@jandeknecht1970 @adriaanvisser @rvm1908 @d66rotterdam het is niet te hopen dat @adriaanvisser nu jokt anders is he… https://t.co/cp0mxrzbck,neg
@richardmoti @barbarakathmann @pvdarotterdam @d66rotterdam @leefbaarrdam ik vond vooral de lijsttrekker van de pvv… https://t.co/hra6jvznh4,neg
|@d66 @apechtold ja tegen wat dan? om op de pluche te mogen zitten, in ruil voor je waarden en normen?#dagreferendum #dagdemocratie|,neg
rt @fvdemocratie: niet gek dat @d66 @apechtold @rvdantzig compleet geobsedeerd zijn door #fvd en steeds wilder om zich heen beginnen te sla…,neg
rt @chrisaalberts: wat een schandalige insinuatie van #d66 over #groepdemos. wat nou 'verdelen'? behalve de #pvda was ik nog nooit op zo'n…,neg
rt @d66hiambacht: d66 uit dordrecht komt collega’s in hendrik-ido-ambacht ondanks de kou helpen met flyeren https://t.co/n23z1xctid,neg
rt @richardmoti: @robertsimonslr cijfers van #cbs zijn kraakhelder. @leefbaarrdam &amp; @d66rotterdam hebben slechts 4 woningen extra gerealise…,neg
|rt @joostniemoller: hé kijk, alle d66 kamerleden hebben vandaag twitter corvee  gekregen van hun voorlichters 'fantastische toespraak van o…|,neg
|@d66 #ventje #pechthold zal nooit geen meneer #terlouw worden.
daarom nooit #d66|,neg
@kooswilt @d66rotterdam @saidkasmid66 wij hebben gezorgd dat roze stembusakkoord van coc landelijk is omarmd. https://t.co/qyrcbhswe0,neg
@quinsyg @salimabelhaj @d66ridderkerk @farahnazfraser @patrickdehoon @d66rotterdam net in het nieuws: https://t.co/xmkc4vcciv,neg
|rt @arnoldkarskens: denk na: #vvd, #cda, #pvda, #d66 &amp; co laten jarenlang terroristen en gespuis binnen (sturen ze in ieder geval niet weg)…|,neg
rt @margueriteaberg: uitbreiding van de rotterdamwet met screening op politie-gegevens. goedgekeurd door d66 minister ollongren. er valt ie…,neg
rt @sunsfield: @sprotterdam @saidkasmid66 @d66rotterdam @ldekleijn @rtv_rijnmond @frfc1908 het is nog niet telaat ga in verzet    #stopfeye…,neg
|rt @gaypalace: @cocnederland hallo coc 
gaat u dezelfde eisen stellen aan @d66 @d66amsterdam.? 
afstand nemen van een homo-uitspraak van ka…|,neg
|rt @jongerius_s: @d66rotterdam @vvdrotterdam resultaat? meer cruiseschepen, parkeergarages goedkoper, p+r betaald maken, symbolische #milie…|,neg
rt @monicabeek: vvd: ‘stem op d66 is een stem op links blok’ https://t.co/7sb6aaz0nf,neg
|poging 2 (doorslaggevend?):
@leefbaarrdam
@pvdarotterdam 
@d66rotterdam 
@sprotterdam 
@vvdrotterdam 
@cdarotterdam… https://t.co/lala56u832|,neg
rt @merlotvine: .@apechtold @d66 is altijd al tegenstander van referenda geweest. niet in woord; maar wél in daad. als wethouder in leiden…,neg
rt @whammy1967: hopelijk word @d66 met dit soort lui keihard afgestraft met de gr2018 https://t.co/5c6xgh07ko,neg
d66 rotterdam heeft groot gelijk.leefbaar en baudet hebben een verbond gesloten.baudet heeft standpunten over dicht… https://t.co/fcw0ndiowz,neg
@f_azarkan @selim_besiktas @edwin_koning @d66 @christenunie @cdavandaag @50pluspartij @partijvddieren wie alleen op de barricade staat......,neg
dit gaat interessant worden want zowel cda als d66 lijken afscheid van de @onderwijscoop te willen nemen.,neg
rt @percolator_hnj: #d66 is de (terechte) kritiek op schrappen van het referendum spuugzat? na anderhalve week al? dat is dan een extra red…,neg
|rt @infocadl2015: kaag wil in gesprek met trump over staalheffingen. dat moet je vooral aan overtuigde trump-haters van #d66 overlaten, die…|,neg
|@d66 d66 speelde lang belangrijke rol in het democratische proces,maar is door keuzes van de partij &amp; individuen er… https://t.co/qcbaae35g5|,neg
|rt @de_regent: @fvdemocratie @d66 @apechtold ik krijg op instagram ook allerlei volg-suggesties van mensen en organisaties, gebaseerd op in…|,neg
daarentegen vindt groenlinks-lijsttrekker judith bokhove dat d66 zich minder zou moeten concentreren op de financie… https://t.co/vxc2wc5dx2,neg
rt @fvdemocratie: nu @d66 steeds sneller zakt in de peilingen begint desperate @apechtold z'n kinderen er bij te slepen. als je vader zich…,neg
|@leobruijn ik dacht eerst dat the-only-good-guy uit de d66 fractie was gezet, maar blijkbaar bestond die fractie ui… https://t.co/abtgpkvvqh|,neg
rt @mikevdgaliennl: populair: walgelijke pechtold is een trieste leugenaar: d66 keerde zich vorig jaar al tegen het bindend referendum http…,neg
rt @infocadl2015: d66 als topvervuilers van de publieke ruimte. verlangt u ook zo naar een d66-vrije gemeente? https://t.co/pid7ylpeof,neg
|@d66 een stuk rechtser is geworden. verkiezingsprogramma kan ik me grotendeels in vinden, maar met welke partijen e… https://t.co/0anozk8z96|,neg
rt @jongerius_s: @milieuzone010 @d66rotterdam @010klassiekers @vvdrotterdam @leefbaarrdam met 40plus wordt gemiddeld 8 keer minder gereden…,neg
rt @gladysdenk: @emmzwart @apechtold @d66 wat ik ook niet begrijp.. eerst mensen die hier al generaties zijn “de landsregels” uitleggen en…,neg
rt @antennerdam: hoe het allemaal is begonnen? @stadsinitia010 #lijst16 jos verveen - verklaring in de gemeenteraad over d66 - 14 dec 2017…,neg
rt @irenriquecortes: weg met de antidemocraten #d66 opsluiten corrupte d66ers https://t.co/p7u2vyugbq,neg
rt @hannesz1956: dit dus. #stemzeweg @d66 https://t.co/askygqfdm4,neg
rt @fvdemocratie: nu @d66 steeds sneller zakt in de peilingen begint desperate @apechtold z'n kinderen er bij te slepen. als je vader zich…,neg
rt @fvdemocratie: de #censuurtsarina van @d66 @kajsaollongren weigert nu zelfs ook al aangenomen kamermoties over opheffen eu #nepnieuws me…,neg
@hetlabrotterdam @stadsinitia010 @groenlinksrdam @d66rotterdam geen idee. wat was jullie reactie?,neg
rt @richardmoti: bam. @barbarakathmann van @pvdarotterdam legt haarfijn uit dat @d66rotterdam en @leefbaarrdam afgelopen 4 jaar slechts per…,neg
|@jackmarsman @d66 flinke klap voor de media geile arrogante pechtold ,|,neg
|rt @peterkwint: dat is ongeveer hetzelfde als zeggen dat d66 er meer sociale huurwoningen bij wil bouwen. (https://t.co/nskqygykua)

maar i…|,neg
rt @haluschi: @omroepcastricum @msteeman @groenlinkscastr d66 holt wat "verbieden en verplichten" betreft blind achter de trend aan om rege…,neg
|rt @driessewout: ik kan niet anders, dan het hiermee eens zijn.
#pechtold #d66 https://t.co/fpda4vz774|,neg
@rhetoric_eric @d66rotterdam @adriaanvisser grote vraag is: mag dat wel van pechtold....,neg
rt @mug_willem: het homohatende d66 raadslid uit amsterdam. pechtold wilde hier bij pauw niets over kwijt. wel fvd beschuldigen homofoob te…,neg
rt @ddstandaard: het échte nieuws uit amsterdam is de totale teloorgang van d66 https://t.co/sd9daxcxl3,neg
@umarebru @d66 het waren toen toch gastarbeiders? en het kenmerk van een gast is dat die na verloop van tijd ook weer weg gaat.,neg
|rt @engberts: dit is een gevaarlijke tweet. ver buiten alle grenzen. #verbijsterd neem aan dat @d66rotterdam hierop in actie komt, we helpe…|,neg
|rt @geertjeelof: ook bij #wnlopzondag claimt @apechtold dat @d66 vóór een bindend referendum is.
maar in november 2017 hebben ze dat zelf w…|,neg
|@d66rotterdam psst, dit heb je niet van mij ... het is groen met roze, claimt democratisch te zijn maar schaft wel… https://t.co/ikde1z1fgz|,neg
|rt @harrypater62: mijn dochter kreeg op fb een vriendschapsverzoek van iemand die volgens haar eigen profiel met d66 sympathiseert.

we gaa…|,neg
|de enige d66 minister waar ik geen jeuk van krijg, sigrid kaag.  #vragenuurtje|,neg
rt @chrisaalberts: ik denk dat ollongren een ramp voor d66 is. &gt;&gt; ollongren negeert wens tweede kamer om euvsdisinfo op te doeken https://t…,neg
rt @wnlvandaag: wierd duk beschuldigt d66 van opruiing tegen baudet: ‘ze moeten oppassen’ #wnl https://t.co/hf7gecg38b,neg
rt @anitahendriks68: ook deze opmerking geeft te denken: "leden van denk d66 en pvda hebben  banden me het salafisme." dus het zit al in on…,neg
rt @ddstandaard: ook henk krol steunt thierry baudet: ”inhoudelijk debat met d66 is op deze manier lastig” https://t.co/jq0bw6verr,neg
rt @margueriteaberg: uitbreiding van de rotterdamwet met screening op politie-gegevens. goedgekeurd door d66 minister ollongren. er valt ie…,neg
rt @gerbstruik: d66 vormt voor het kabinet rutte op dit moment het grootste afbreukrisico. https://t.co/z52okdeaep via @telegraaf,neg
@olavebasabose @d66denhaag ik vind het kwalijker dat d66 tegen excuses voor het slavernij- en koloniale verleden is… https://t.co/gnsmd7ze5e,neg
rt @denheldernl: kandidaat-raadslid d66 zegt na 40 jaar lidmaatschap op https://t.co/yojqouqpo3,neg
|rt @fantasievriend: wonen is een safehouse, dát is pas luxe, vindt @apechtold #penthouse @d66 https://t.co/ayfqbcxesr|,neg
rt @javisstjavisst: @sprotterdam @saidkasmid66 @d66rotterdam @ldekleijn @rtv_rijnmond @frfc1908 @leefbaarrdam daarom vraag ik me echt af of…,neg
rt @sypwynia: zoekt regeringspartij @d66 al maanden de aanval op piepkleine @fvdemocratie ('erger dan wilders') om de aandacht af te leiden…,neg
|rt @jackmarsman: overal keihard verliezen en dan toch nog roepen dat je mee wilt regeren, @d66 #d66 krijgt het voor elkaar ! keihard een pe…|,neg
|rt @frankhensen: @wimdool @ietsniels @marcelberghout helaas komen dit soort acties vaker voor. mocht dit waar zijn, siert @d66rotterdam om…|,neg
rt @geertgeel: @d66 @apechtold binnen afzienbare tijd zullen pechtold's kinderen smeken om naamsverandering. zo'n gevaarlijke politieke opl…,neg
|@rotterdam in #rotterdam vinden de kiezers het referendum belangrijker dan de gemeenteraad.

kijkt u mee @d66 ??|,neg
rt @milieucentrum: kandidaat raadslid @chantalzeegers van @d66rotterdam wil uitbreiding #milieuzone ... "uit berekening blijkt 40% minder #…,neg
|rt @gaia_universe: @rijnpatrick ik ben absoluut geen d66 fan maar dit is onzin, een foto gaan bewerken en dan op het internet zetten is nie…|,neg
|rt @gaypalace: dat had ik ook al gedaan.
ik heb wat plaatjes verzameld van @apechtold @d66 😊 
#pechtold #d66 https://t.co/qr6n7mpiou|,neg
|rt @harrypater62: stelling : als begin jaren 40 @d66 had bestaan in plaats van de nsb, had hitler de oorlog gewonnen !|,neg
rt @d66hiambacht: verkeersveiligheid voor bewoners is een punt van aandacht. d66 wil dat de 30km zones in ons dorp zo worden ingericht dat…,neg
|rt @mug_willem: wees geen kees verhoeven d66. wees geen d66 draaitol. 
stem 21 maart tegen de sleepwet en stem niet op d66 https://t.co/zcp…|,neg
|rt @zardan010: prachtig dat @d66rotterdam ook mee deed. maar dat kon ook, tja, misschien een tikje eerder? https://t.co/zxpufklf9z|,neg
rt @ddeaconblues: op deze #complimentendag mag alexander pechtold niet ontbreken. de politicus van #d66 weet als geen ander weg te komen me…,neg
@insooradstake @leefbaarrdam @d66rotterdam @vvdrotterdam @groenlinksrdam @sprotterdam @pvdarotterdam @nidarotterdam… https://t.co/8qknaproam,neg
|rt @ewoudkieviet: d66 rotterdam houdt deur op kier voor leefbaar, tot ongenoegen van pvda en groenlinks https://t.co/r1guldaphx|,neg
rt @chrisiserbij: d66 duidelijk boos. fvd zegt: nummer 8 bij d66 herhaalde haar uitspraken. #7up,neg
|rt @pvdarotterdam: "in een stad waar 1 op de 4 kinderen in armoede opgroeit 
kiezen @leefbaarrdam, @d66 en het @cdavandaag ervoor om een kw…|,neg
|rt @objectivist_def: d66 is net islam. geef een vinger, ze nemen je hand. uiteindelijk beland je in een massagraf. crypto commies!|,neg
|rt @d66amsterdam: d66 wil blijven investeren in ruimte voor kunst. broedplaatsen, met vrije ruimte voor creativiteit, inspiratie en kennisd…|,neg
|rt @frfc1908: @d66rotterdam @adriaanvisser goede terugblik, alleen wat puntje vergeten man. logisch natuurlijk. als je allemaal kleine goed…|,neg
rt @johnbijl: ook d66 (nu 3e partij in de raad) en sp (4e) missen. bizarre line up. https://t.co/ska9gs6wtr,neg
|@tomjanmeeus @nrc waarbij d66 de grote verliezer zal blijken..
niet alleen omdát een regerende partij slaag krijgt,… https://t.co/z1f0i3c1jw|,neg
|rt @andreasdijk: 'pas op voor thierry baudet', dat lijkt het enige campagnethema van d66 https://t.co/4huaknjjkz via @trouw #verkiezingscam…|,neg
rt @djvandersluijs: en opeens werd het stil aan de overkant! want de beweringen in het filmpje van de pvv kloppen! #d66 #vvd #cda #gl #sp #…,neg
|rt @goncalves230766: @chantalzeegers @d66rotterdam toch gek dat d’66, 3 weken geleden in de gemeenteraad het initiatiefvoorstel van de pvda…|,neg
|rt @josverveen: leefbaar, pvda, d66 en vvd doen u warme beloftes op gebied van #armoede, #onderwijs en #zorg. maar wat zijn die beloftes wa…|,neg
rt @jandeknecht1970: sander de kramer die @adriaanvisser beschuldigd van volksverlakkerij. de partij van @d66rotterdam noemt hij tevens dra…,neg
rt @ewaldeng: oftewel: d66 gunt nederlandse grootbanken nog meer kans op buitenproportionele winsten en bonussen #iedereenschuldslaaf https…,neg
|rt @martinbosma_pvv: d66 doet nu alsof het nooit iets had met het correctief referendum...

daarom ter opfrissing: 1997. van mierlo dreigt…|,neg
|rt @mark_goedhart: meneer legt d66 meisje even precies uit wat er mis is met haar partij. 

. https://t.co/2arxxvl5an|,neg
rt @acam_br: voer 21 maart vvd en d66 definitief uit onze democratie https://t.co/pyuayuzj3b,neg
rt @deckertmike: @rotterdamkiest @kieslies @mauricedehond @leefbaarrdam @groenlinksrdam @vvdrotterdam @pvdarotterdam @d66rotterdam @meeuwis…,neg
|@delbossche @nor_vell @d66 @saidkasmid66 het nieuws gevolgd de laatste 30-40 jaar, bossche ? nee, hé ?
hou je muil dan.....|,neg
|rt @elisa59: "  @apechtold  is het lachertje van de nederlandse politiek geworden" schrijft @donarturito in #hpdetijd. 

#d66 volkomen in p…|,neg
|rt @joostniemoller: lol. wat d66 probeerde tegen te houden, een actie voor vrije partnerkeuze, omdat dit beledigend zou zijn voor moslims,…|,neg
rt @chantalzeegers: bestrijding armoede onder rotterdamse kinderen is voor @d66rotterdam grote prioriteit. #marstegenarmoede https://t.co/m…,neg
@d66rotterdam @elenewalgenbach @theaterrdam @rdamseraadkc k ben bang dat @pexlangenberg (ex- wethouder cultuur d’66… https://t.co/bgpxg3r6rl,neg
rt @d66rotterdam: d66 wil een brede anti-discriminatie-aanpak. anoniem solliciteren is 1 van de maatregelen. #islamdebat #goedonderwijs #go…,neg
rt @mdropie: het duistere verleden van alexander pechtold https://t.co/7vjltmjung via @youtube #d66 #pechtold,neg
rt @johnbijl: ook d66 (nu 3e partij in de raad) en sp (4e) missen. bizarre line up. https://t.co/ska9gs6wtr,neg
|rt @mollekepoes: @hollanda1800en @hannesz1956 @irenriquecortes @wassilahachchi @d66 @apechtold rutte heeft wel degelijk een vriendje, hoor.…|,neg
rt @robinvanholst: @jongerius_s @ietsniels @d66rotterdam @saidkasmid66 @erasmusuni @pexlangenberg @josverveen @stadsinitia010 klopt. heeft…,neg
@samirahraui @saidkasmid66 dan zou ik nog maar eens een d66 verkiezingsprogramma erop naslaan. staat vol maatregele… https://t.co/whzmwt2men,neg
@d66rotterdam @d66rotterdam jullie campagnevoering staat mij helemaaaal niet aan. #blijfbijjezelf #zwartmakers #eigenkracht.,neg
|rt @jaapmodder: hoe de @pvda verdween uit amsterdam. wie wonen er in nieuw west? waar vinden we de pvv aanhang (noord), waar wonen @d66 en…|,neg
d66 is klaar met kritiek op schrappen referendum: ‘hebt u nog andere vragen?’ https://t.co/8wwpk45jjp via @else4weekblad,neg
|rt @jandeknecht1970: armoede rotterdam,  volgens sander de kramer is 60 miljoen voor de coolsingel te gek @d66rotterdam @sprotterdam @groen…|,neg
|rt @dopsleutel13: @rinsjan @drgerritjmulder @blikopener333 groepje d66 naaiers, mensen tot uitspraken uitlokken en dan nsb actie! https://t…|,neg
@ldekleijn @d66rotterdam @cdarotterdam @leefbaarrdam @svendelangen @eerdmans @saidkasmid66 o nee. 3 uur.,neg
rt @pvdgb: bij d66 hebben ze de mond vol over vrouwenrechten en baudet. maar ondertussen tweet een lid van @d66rotterdam doodleuk een buite…,neg
|rt @pvdarotterdam: "in een stad waar 1 op de 4 kinderen in armoede opgroeit 
kiezen @leefbaarrdam, @d66 en het @cdavandaag ervoor om een kw…|,neg
|rt @fritstenhove: d66 is kritiek op schrappen referendum beu.

nee, @d66, jullie zijn de stem van de burgers beu! die willen namelijk iets…|,neg
|rt @martinbosma_pvv: d66 sloopt niet alleen het referendum, maar ook de lokale democratie.

ollongren: 12 herindelingen, 35 gemeenten verdw…|,neg
|rt @martijnheeroma: rutte riep dat het ‘onsmakelijk’ was. d66 vindt het ‘veel en veel te ver’ gaan,  pvda leider asscher vindt dat wilders…|,neg
|rt @de_regent: @fvdemocratie @d66 @apechtold ik krijg op instagram ook allerlei volg-suggesties van mensen en organisaties, gebaseerd op in…|,neg
rt @salimabelhaj: d66 lijsttrekker said kasmi tijdens #tvrijnmond debat pleit voor echte oplossingen om armoede op te lossen: geef kinderen…,neg
rt @listenenbedrog: kijk @cdavandaag @vvd @pvda @d66 enz. hoe ze de burger voorliegen over de val van rutte1. https://t.co/ncpjt1fgkp https…,neg
rt @larsduursma: d66 gaat niet zo lekker dit debat. kasmi wordt in het defensief gedrongen en komt daar niet uit. wil heel veel uitleggen m…,neg
rt @haralddoornbos: heeft d66 nav uitslag in italie al laten weten dat algemene verkiezingen worden afgeschaft omdat verkiezingen "een schi…,neg
rt @jongerius_s: @milieuzone010 @d66rotterdam @010klassiekers @vvdrotterdam @leefbaarrdam helaas staat dat er niet bij maar als ik naar mij…,neg
rt @fvdemocratie: de #censuurtsarina van @d66 @kajsaollongren weigert nu zelfs ook al aangenomen kamermoties over opheffen eu #nepnieuws me…,neg
rt @mmeeuw: @engberts @d66rotterdam @leefbaarrdam @eerdmans leek te omarmen? ik noem dat een understatement https://t.co/orfy4y9g3q,neg
rt @paulslettenhaar: lees en huiver. d66 is in amsterdam nog zweveriger dan groenlinks op veiligheid. wat een naïviteit. wat gevaarlijk. ht…,neg
rt @chrisaalberts: wat een schandalige insinuatie van #d66 over #groepdemos. wat nou 'verdelen'? behalve de #pvda was ik nog nooit op zo'n…,neg
|rt @frankhensen: @jongerius_s @rtv_rijnmond @saidkasmid66 @010klassiekers @d66rotterdam een kat in het nauw maakt gekke sprongen, in de #mi…|,neg
|rt @tponl: opiniepeiling maurice de hond: vooral vvd, d66 en pvda lijden onder sterke lokale parijen https://t.co/2k7pe4gbfo|,neg
rt @hwhofs: d66 heeft weinig zin om t collegebeleid te verdedigen. #010debat,neg
|@d66 en dan jullie mijn club om zeep laten helpen, dacht het niet. #stopfeyenoordcity|,neg
rt @groenlinksrdam: kijktip! 📺straks om 17:15 het eerste televisiedebat met @judithbokhove op @rtv_rijnmond! met d66 en de vvd gaat ze in d…,neg
|rt @sypwynia: bijzonder wel, dat d66 lokaal campagne voert met de dissidenten @borisham en jan terlouw, terwijl partijleider @apechtold iet…|,neg
|rt @d66: ook lokaal zet d66 zich in voor vrouwenrechten 👇
🚺 voorlichting over anticonceptie voor kwetsbare vrouwen
🚺 betere kinderopvang
🚺…|,neg
rt @ddstandaard: d66 (met homofoob raadslid in amsterdam) is wel laatste partij die fvd nu moet aanvallen om homofobie yernaz https://t.co/…,neg
@robjetten @thdegraaf nu afwachten wat voor vernieuwingen @d66 op de agenda gaat zetten: afschaffen vrouwenstemrech… https://t.co/qhmexkvr7v,neg
|rt @martijnheeroma: rutte riep dat het ‘onsmakelijk’ was. d66 vindt het ‘veel en veel te ver’ gaan,  pvda leider asscher vindt dat wilders…|,neg
|rt @joostniemoller: dus: d66 is eerst voor referendum, daarna tegen, eerst tegen de #wiv daarna voor, maar ook weer niet, want  na twee jaa…|,neg
|rt @martinbosma_pvv: d66 sloopt niet alleen het referendum, maar ook de lokale democratie.

ollongren: 12 herindelingen, 35 gemeenten verdw…|,neg
|@d66 er is helemaal niks in alphen aan de rijn behalve vendex wijken, en,  enne uhh ja niks verder|,neg
|rt @martinbosma_pvv: stukjes ironie naar de mensen toe:

*referendumpartij d66 sloopt referendum.
*democraten66 blijkt demofoben66.
*gracht…|,neg
|rt @neemjemoedur: klopt, zijn voorganger de graaf raakte fortuyn vol, jammer dat @d66 en de graaf niet in de gevangenis zitten, waar ze thu…|,neg
rt @rdamklimaat: we hopen dat @d66rotterdam / @d66 zijn groene ambities terugvindt &amp; roepen de partij op écht te gaan staan voor t klimaat.…,neg
rt @rainbowbird1986: @chrisinactie @d66 @vvd @cdavandaag kan er met mijn hoofd niet bij... vaste lasten die hoger zijn dan de inkomens en h…,neg
rt @postma_jeroen: 'we gaan geen publiek geld investeren in een voetbalstadion' zegt @judithbokhove tegen d66 rotterdam. die 40 mln kunnen…,neg
|rt @percolator_hnj: als ik die #ollongren van #d66 hoor praten, met die hete aardappel in d'r keel en d'r overdreven pronunciatie, dan heb…|,neg
rt @geenstijl: handleiding: stop @d66 voor het te laat is https://t.co/l7yao09o2e,neg
rt @seadanourhussen: yesssss d66 en pvda op verlies! gl grootste. dat is wel echt beter. maar fak: fvd 2 zetels. valt me vies tegen.  yuk.…,neg
|rt @josverveen: leefbaar, pvda, d66 en vvd doen u warme beloftes op gebied van #armoede, #onderwijs en #zorg. maar wat zijn die beloftes wa…|,neg
|rt @stmc1964: dat europa één van @d66 is wel een dingetje, nietwaar @apechtold 

hoe zit het trouwes met je omkoopneukhut? en je vliegreisj…|,neg
rt @arjandekok1: pvda en nida halen banden aan met nederlandse ak partij van erdogan. ook d66 kandidaat-raadslid fatih elbay was op de bije…,neg
|rt @openrotterdam: .@saidkasmid66 @d66rotterdam wil een nieuwe metrolijn die @charlois_rdam, @feyenoord city en @his_rdam moet verbinden, a…|,neg
|rt @percolator_hnj: de vier gezichten van @d66:

🔸 #d66 onderwerpt zich aan de islam. #iran

🔸 #d66 onderwerpt zich aan de corruptie. #oekr…|,neg
|rt @martinbosma_pvv: stukjes ironie naar de mensen toe:

*referendumpartij d66 sloopt referendum.
*democraten66 blijkt demofoben66.
*gracht…|,neg
|rt @geepstar: zeg @d66 , ik begrijp wel dat jullie jaloers zijn op de online support van mensen voor @fvdemocratie en @geertwilderspvv ...…|,neg
rt @jackmarsman: héérlijk ook de @telegraaf brandt #d66 #ddr66 #d666 @d66 @apechtold en @kajsaollongren tot de grond toe af. wat een genot…,neg
|rt @peter_rombouts_: "homoseksualiteit is een zonde in de islam." -yassmine el ksaihi, nummer 8 bij #d66 in amsterdam. @apechtold furieus o…|,neg
|rt @swsjoerdsma: peiling eenvandaag:
d66 2e partij

vvd 32
d66 16
cda 16
pvv 16
gl    14
sp    13
fvd   9
pvda 8
pvdd 7
50+   7
cu    6
sgp…|,neg
|rt @pj66ik: baudet krijgt minister ollongren niet voor rechter wegens smaad https://t.co/fvmfa2bzkc

vreemd dat d66 rechters een d66 minist…|,neg
rt @marellalute: d66 is klaar met kritiek op schrappen referendum: 'hebt u nog andere vragen?' - https://t.co/24siu50prz https://t.co/wff2r…,neg
rt @derksen_gelul: zelfs de grootste idioot wist dat "journalisten" van de #npo er alles voor over hebben om hun vrienden van #d66 #vvd #cd…,neg
|rt @goncalves230766: @chantalzeegers @d66rotterdam toch gek dat d’66, 3 weken geleden in de gemeenteraad het initiatiefvoorstel van de pvda…|,neg
|rt @engberts: dit is een gevaarlijke tweet. ver buiten alle grenzen. #verbijsterd neem aan dat @d66rotterdam hierop in actie komt, we helpe…|,neg
rt @leondewinter: is dit videootje van d66 een antwoord op die grove pvv-video? waarom staat er niet islam is vrijheid/gelijkheid/toleranti…,neg
|rt @jongerius_s: @ietsniels @d66rotterdam @saidkasmid66 @rtv_rijnmond @rdstad dit is alleen zonder de toename van 2,4% van het totale wegve…|,neg
rt @ddstandaard: lezen! d66 (met homofoob raadslid in amsterdam) is wel laatste partij die fvd nu moet aanvallen om homofobie yernaz https:…,neg
rt @bitsoffreedom: auw. hier gaat @d66 flink de mist in: tib gaat niet over overdracht onbekeken data naar buitenland. en anders dan hier g…,neg
rt @harmbeertema: islamitische homohaat. bij @d66 kom je ermee weg. https://t.co/1ny3bltrym,neg
rt @pverkaik1: hoe zit het eigenlijk met die moslim landverrader die zogenaamd ging flyeren voor #hillary? krijgt dit @d66 addergebroed nog…,neg
|@petjuh88 @d66 nee klopt, maar de afkeer tegen die partij wordt alleen maar groter, ook hier in 010😟|,neg
hee @d66 is dat de bus waar jullie @pexlangenberg mee komen ophalen? moet z'n ego ook mee dan? nou doe in ieder gev… https://t.co/sfhvc5gp6x,neg
rt @fvdemocratie: niet gek dat @d66 @apechtold @rvdantzig compleet geobsedeerd zijn door #fvd en steeds wilder om zich heen beginnen te sla…,neg
|rt @trump023: hahahaha pechtold (blocked) die haalt nu zijn kindertjes erbij om @thierrybaudet zwart te maken. 

die guthmenschen als d66 g…|,neg
@kieslies @d66rotterdam @adriaanvisser die heeft zijn mond altijd vol van 'de enige progressieve partie die verantw… https://t.co/um0rkixvsk,neg
rt @sattelweb: "hoe kan dit land'verraders #pvda  #sp #groenlinks #christenunie #pvdd #d66 haar oorspronkelijke bevolking zo enorm in de st…,neg
|rt @ietsniels: @d66rotterdam @wkoolmees @piadijkstra @salimabelhaj @matthijssienot aan alle rotterdammers, u kunt weer opgelucht adem halen…|,neg
ja @apechtold hoe zit dat? @d66 #d66 https://t.co/odnyxsl4sq,neg
rt @jacquelinewxxx: @trias_politica @thierrybaudet dus we gaan eerst de slaaf aanpakken en dan de baas zo denkt d66 zie dit in de whatsapp…,neg
|@carlschroder1 @keesjoosten67 @d66 en de derde persoon enkelvoud doe je niet met een d, maar dat interesseert je oo… https://t.co/tg8wqwnp4h|,neg
@rutgergw deze retoriek had als doel om te laten zien dat de huidige minbzk en de fractievoorzitter van d66 in de t… https://t.co/y5acolau35,neg
hoe het allemaal is begonnen? @stadsinitia010 #lijst16 jos verveen - verklaring in de gemeenteraad over d66 - 14 de… https://t.co/o0iedfpl1h,neg
rt @thijswhoa: d66 niet naar mars. https://t.co/22iluyfawf,neg
rt @haralddoornbos: heeft d66 nav uitslag in italie al laten weten dat algemene verkiezingen worden afgeschaft omdat verkiezingen "een schi…,neg
@tenjanis als wo3 losbreekt heeft d66 het te druk zich te schikken naar de bovenliggende partij.,neg
|rt @brazzapietro: opnieuw een uitspraak van @kajsaollongren van @d66 die nep blijkt. #fakenews #nepnieuws
en ze zei het zo stellig: "je zag…|,neg
|als we nu heel d66 onder de pek en veren de stad uitjagen, partijen die discrimineren hebben hier niets te zoeken. https://t.co/eir9ou6n05|,neg
|rt @echoduider: nog even wat duiding van het misselijkmakende @d66 door @jndkgrf
https://t.co/w2o0q6dyns via @tponl|,neg
|rt @ewoudkieviet: d66 rotterdam houdt deur op kier voor leefbaar, tot ongenoegen van pvda en groenlinks https://t.co/r1guldaphx|,neg
|@shirinmusa @d66 mensenlief, is die in de jaren '80 blijven hangen of zo?|,neg
d66 verliest overal. afschaffing raadgevend referendum blijft niet zonder gevolgen. #gr18,neg
@d66 @klimaatverbond @cdavandaag @vvd @christenunie @sgpnieuws @pvda @geertwilderspvv @spnl hebben jullie al ideeen… https://t.co/ncvlwczo4t,neg
|rt @percolator_hnj: als ik die #ollongren van #d66 hoor praten, met die hete aardappel in d'r keel en d'r overdreven pronunciatie, dan heb…|,neg
|rt @pepijndekorte: lokaal d66 buigt voor de islam: ‘geen zoenposters, want campagne zal voor nodige commotie bij moslims zorgen!’ https://t…|,neg
|debat rotterdam is klassiek: rechts versus links. #koorts lr, vvd, cda en d66 willen over rechts: meer huizen, meer… https://t.co/nmvc3rtq6d|,neg
|rt @goncalves230766: @chantalzeegers @d66rotterdam toch gek dat d’66, 3 weken geleden in de gemeenteraad het initiatiefvoorstel van de pvda…|,neg
rt @ddstandaard: nieuwe peiling amsterdam: fvd stijgt door naar 4 zetels terwijl d66 en groenlinks instorten https://t.co/e0lp5687cy,neg
|rt @arnoldkarskens: denk na: #vvd, #cda, #pvda, #d66 &amp; co laten jarenlang terroristen en gespuis binnen (sturen ze in ieder geval niet weg)…|,neg
|rt @petervheemst: "rotterdan haalt zijn kracht uit de culturele diversiteit", zegt @d66rotterdam wethouder vijf dagen voor de verkiezingen.…|,neg
|rt @mauricedehond: pvv landelijk op laagste punt sinds 2008, d66 op laagste punt sinds 2012, fvd hoogste score ooit. https://t.co/lb51t4thc…|,neg
|rt @timengelbart: peilingen: forum voor democratie nu tweede partij van nederland, en blunderend d66 zakt als een baksteen https://t.co/0fw…|,neg
rt @jackmarsman: zeg #d66 @d66 maak je eens zo druk over de 1000-en minderjarige meisjes die slachtoffer zijn geworden door verkrachtingen…,neg
rt @wijnoord: @rdamseoogst @groenlinksrdam @vvdrotterdam @d66rotterdam @leefbaarrdam @nidarotterdam @cdarotterdam @pvdarotterdam @sprotterd…,neg
@d66rotterdam @saidkasmid66 @rtv_rijnmond dat riep d66 niet toen ze met lr het bed indoken. tsssss,neg
rt @jeroenstans: d66 lijsttrekker kasmi komt ook bij dit debat niet heel sterk over. valt op met ‘ik kreeg het woord volgens mij’ en ‘ik wa…,neg
rt @fvdemocratie: nu @d66 steeds sneller zakt in de peilingen begint desperate @apechtold z'n kinderen er bij te slepen. als je vader zich…,neg
'we gaan geen publiek geld investeren in een voetbalstadion' zegt @judithbokhove tegen d66 rotterdam. die 40 mln ku… https://t.co/mxttaqhf4b,neg
rt @rinsjan: waarom verbaasd het me niet dat d66 weer betrokken is hierbij @blikopener333  https://t.co/prrqj63fyo,neg
rt @co0ontje: d66 komt naar je toe deze weken! https://t.co/fhnwoapyzq,neg
|rt @ietsniels: @d66rotterdam @wkoolmees @piadijkstra @salimabelhaj @matthijssienot @d66 beste @d66 leden, ik ben ondertussen toch wel erg n…|,neg
rt @mug_willem: het homohatende d66 raadslid uit amsterdam. pechtold wilde hier bij pauw niets over kwijt. wel fvd beschuldigen homofoob te…,neg
rt @martinkoolhoven: d66 dweept met dat ze hebben onderhandeld dat de #sleepwet over twee jaar geëvalueerd wordt en zo mogelijk aangepast.…,neg
rt @whammy1967: de toekomst van onze kinderen interesseert de regerende partijen niet ! @vvd alleen geld telt @d66 verkocht zijn ziel aan d…,neg
rt @paulvanbeers: @d66 @apechtold ik weet niet waarom #d66 nog tweets plaats?? zijn ze zo ontzettend dom en blind dat ze nietzien dat ze hi…,neg
rt @stijnwenders: classy zeg. en je dan afvragen waarom d66 zo'n elitaire reputatie heeft. https://t.co/iwdv50qrqt,neg
rt @merlotvine: .@apechtold @d66 is altijd al tegenstander van referenda geweest. niet in woord; maar wél in daad. als wethouder in leiden…,neg
rt @jongerius_s: @mirjamdewinter @bart_dirks ja die claim van @d66rotterdam is echt een lachertje! gister op @avrotrosradar werd er gezegd…,neg
|rt @gerbijl: wat doet onze regering!
niets dus want het mogen er niets van zeggen van hun brusselse bovenbazen!@vvd @minpres @d66 @apechtol…|,neg
|rt @joostniemoller: lol. wat d66 probeerde tegen te houden, een actie voor vrije partnerkeuze, omdat dit beledigend zou zijn voor moslims,…|,neg
@vincentkar @vandewerk @d66rotterdam @nidarotterdam @pvdarotterdam @sprotterdam @groenlinksrdam @vvdrotterdam daar is over nagedacht!,neg
|rt @geepstar: zeg @d66 , ik begrijp wel dat jullie jaloers zijn op de online support van mensen voor @fvdemocratie en @geertwilderspvv ...…|,neg
rt @espen_vdh: in delfzijl d66 uit de raad geknikkerd. in veendam ook al las ik. https://t.co/q7cralzaqs,neg
rt @he_peter: de komende weken rijdt de d66 campagne auto door het land..... https://t.co/forna1objy,neg
|rt @martinbosma_pvv: d66 doet nu alsof het nooit iets had met het correctief referendum...

daarom ter opfrissing: 1997. van mierlo dreigt…|,neg
|rt @ddstandaard: peiling: lokale partijen worden dé grote winnaars bij de gemeenteraadsverkiezingen, d66 en vvd lopen leeg https://t.co/oov…|,neg
verveen is een paar maanden geleden uit de fractie van d66 gezet wegens een gebrek aan vertrouwen. er volgde een he… https://t.co/ovktzr4fmj,neg
|rt @judithbokhove: niks als eerste uit de crisis met @leefbaarrdam, @cdarotterdam en @d66rotterdam

@groenlinksrdam wil werken aan een eerl…|,neg
rt @stijnjansen90: af en toe maak ik wel eens grapjes dat #d66 geen ideeën of ideologie heeft. geenidee66 of iets dergelijks. maar dan zie…,neg
rt @jeroenstans: d66 lijsttrekker kasmi komt ook bij dit debat niet heel sterk over. valt op met ‘ik kreeg het woord volgens mij’ en ‘ik wa…,neg
rt @martienpennings: rutte "onsmakelijk!". asscher  "haatzaaien!!". d66 "tegenfilmpje!". simons:  "ik val van m'n stoel!” en robert bor leg…,neg
|rt @leefbaar010: @gaypalace @geendank @sanderbus @leefbaarrdam @d66 rotterdam is de stad van hand-in-hand feyenoord. maar, ik denk idd niet…|,neg
rt @fvdemocratie: nu @d66 steeds sneller zakt in de peilingen begint desperate @apechtold z'n kinderen er bij te slepen. als je vader zich…,neg
rt @rokerspetera: ik denk dat de vvd een beetje vergeten is wat ze op gang hebben gebracht @vvd @cdavandaag @d66 @christenunie @groenlinks…,neg
|rt @baspaternotte: d66 staat in álle peilingen op verlies; kantar, i&amp;o, ipsos en maurice de hond ---&gt; https://t.co/jampdn8w9n https://t.co/…|,neg
|rt @bartnijman: postercampagne vrije partnerkeuze (€25.000) "te duur" voor gemeente amsterdam, aldus d66 https://t.co/lcxqll6m5f https://t.…|,neg
rt @mug_willem: ik ben een homohatend d66 raadslid uit amsterdam https://t.co/amle2wigpl,neg
rt @postma_jeroen: 'we gaan geen publiek geld investeren in een voetbalstadion' zegt @judithbokhove tegen d66 rotterdam. die 40 mln kunnen…,neg
@timmietovenaar @gemeenteraad010 @d66rotterdam @d66 waaromroep je als gebiedscommissie bestuurder op te gaan stemme… https://t.co/kd40xm6st9,neg
rt @nilss96: @keesvee ik herken d66 steeds minder terug. snappen ze zelf niet dat die arrogante en hautaine houding alleen maar kiezers weg…,neg
rt @euwaanzin: aangifte tegen alexander pechtold https://t.co/idoxjnqenx via @wordpressdotcom #penthousegate #donorwet #referendum #d66,neg
rt @marcuspluijm: ik heb zo'n vermoeden dat dit stuk over #pechtold #d66 van @donarturito niet bij @eenvandaag @dwdd @rtlnieuws @nosnieuws…,neg
@d66 d66 heeft zich helaas slecht gemanifesteerd in rotterdam. pex langenberg en adriaan visser hebben laten zien a… https://t.co/gideco4prs,neg
rt @williepost: @rtllatenight @apechtold @geertwilderspvv d66 krijgt het dus voor elkaar “over een gratis appartement zeggen dat het niets…,neg
|rt @marcoheijmen: @d66rotterdam gossie, was anders wel opvallend hoe d66 rotterdam met leerbaar rotterdam en bloc rechts beleid doorvoerde…|,neg
rt @mkb_nieuws: homoseksuelen voelen zich bedreigd door d66  wegens asociale  uitspraken   er word  ook aangifte gedaan tegen  #pechtold  w…,neg
rt @marceldedood: @bartnijman ik vind mijn kinderen op snapchat lastig vallen ook ernstig. @d66 https://t.co/idhxaspvk5,neg
rt @nicoletemmink: dit is zo ongeveer d66 in een notendop tegenwoordig. onduidelijk en onvolledig over wat ze willen en dan de kiezer te do…,neg
rt @martinkoolhoven: d66 was tegen feit dat aivd ongefilterd en onbekeken materiaal naar bevriende diensten mocht sturen en gingen akkoord…,neg
|lijsttrekker d66 weert zet partijleider bij nos bij het oud vuil, was kennelijk met skivakantie toen de cursus ‘hoe… https://t.co/3aweavqoq6|,neg
|rt @d66rotterdam: d66 wil in rotterdam een verdere verschuiving van de auto naar fiets en openbaar vervoer, en een uitbreiding van de milie…|,neg
|rt @d66rotterdam: vanaf 14:30 is @nadiaarsieni namens d66 bij het roze verkiezingsdebat. over o.a.:
🌈 voorlichting over seksuele diversitei…|,neg
rt @milieucentrum: kandidaat raadslid @chantalzeegers van @d66rotterdam wil uitbreiding #milieuzone ... "uit berekening blijkt 40% minder #…,neg
rt @ddstandaard: lezen! het d66 van ollongren en pechtold is levensgevaarlijk https://t.co/dbwmsefdwx,neg
|rt @geenstijl: amsterdam:

d66 -9,6% 
pvda -7,2%
gl +11,4%
denk +5,7% / 3 zetels
@ananninga: +4,9% / 2 zetels|,neg
rt @salimabelhaj: d66 lijsttrekker said kasmi tijdens #tvrijnmond debat pleit voor echte oplossingen om armoede op te lossen: geef kinderen…,neg
|rt @estherouwehand: onderzoek: politieke partijen misbruiken dierenwelzijn tijdens verkiezingen. vooral d66 gaat nat.
toen d66 nog niet in…|,neg
|rt @links_huftertje: wtf ,mag dit wel van alexander?
kandidaat gemeenteraadslid van #d66 in amsterdam: "homoseksualiteit is een zonde in de…|,neg
rt @kieslies: @rhetoric_eric @d66rotterdam @adriaanvisser grote vraag is: mag dat wel van pechtold....,neg
|rt @estherroddav: owee mensen.

morgen.
geen:

vvd
pvda
denk
d66
sp
groenlinks.

#gemeenteraadsverkiezingen|,neg
rt @milieuzone010: @ietsniels @chantalzeegers @d66rotterdam @pexlangenberg @010klassiekers @milieudefensie bizarre bewering van mw zeegers.…,neg
rt @haralddoornbos: heeft d66 nav uitslag in italie al laten weten dat algemene verkiezingen worden afgeschaft omdat verkiezingen "een schi…,neg
|rt @harrypater62: mijn dochter kreeg op fb een vriendschapsverzoek van iemand die volgens haar eigen profiel met d66 sympathiseert.

we gaa…|,neg
|rt @frankhensen: @milieucentrum @chantalzeegers @d66rotterdam @arminius zeg @chantalzeegers als je 0,14% gaat weren, en de toename is 2,4%…|,neg
rt @robinderoon: zoals @apechtold al memoreerde is d66 de enige progressieve middenpartij die landelijk en in 010 bestuurlijke verantwoorde…,neg
rt @mrsvanp: d66 noemt een park ineens een 'tiny forest' 🤢,neg
rt @arnoldkarskens: heel subtiel verraden koppen teletekst politiek standpunt #nos op verkiezingsdag: vóór sleepwet en vrijend met #d66 en…,neg
rt @celalaltuntas1: dit gaat te ver en onacceptabel!! @fvdemocratie @d66 @apechtold #blijfafvanpechtolkinderen https://t.co/yuuqcp6tc6,neg
rt @dekoran1: hoe pechtolds d66 maar blijft drammen https://t.co/djmsk33amb  @lidwieneik_boom,neg
|rt @bpschut: onze landelijke partijen:

d66: u bent te dom voor een referendum
vvd: wat d66 zegt
cda: alles wat de vvd zegt
cu/sgp: alles w…|,neg
|rt @campagneleed: d66 in verkiezingstijd: wij zijn voor diversiteit. en duurzaamheid. armoede vinden we erg.

d66 nadat de stembussen sluit…|,neg
lijstduwer en stadsdokter @rinibiemans van 't de partij @stadsinitia010 spreekt @d66rotterdam aan op 't gebrek aan… https://t.co/osavjt1bxu,neg
|rt @seven__: kijk, ollongren heeft een oortje. funfact: d66 de zwaarste pa die ze in huis hebben, roy kramer, op ollongren gezet, zou hij h…|,neg
rt @d66rotterdam: de lucht moet schoner! daarom willen we meer elekrische busjes en minder vervuilende vrachtwagens! d66 krijgt het voor el…,neg
rt @geepstar: nog een paar jaar en @d66 is exit. https://t.co/dnttrhfges,neg
|rt @carlschroder1: voor wie zich afvraagd waarom d66 zo uit de wind gehouden en belachelijk gepromoot word, d66 is de enige die volmondig h…|,neg
|rt @seven__: kijk, ollongren heeft een oortje. funfact: d66 de zwaarste pa die ze in huis hebben, roy kramer, op ollongren gezet, zou hij h…|,neg
rt @doenormaal_1: en daarom moeten we van @markrutte @vvd @d66 bezuinigen op ouderenzorg. logisch toch? de eigen bevolking ten koste laten…,neg
|rt @goncalves230766: @chantalzeegers @d66rotterdam toch gek dat d’66, 3 weken geleden in de gemeenteraad het initiatiefvoorstel van de pvda…|,neg
rt @derksen_gelul: mede door #d66 hebben burgers alleen nog maar met de verkiezingen wat te zeggen en dan doen ze ook nog eens alles om te…,neg
|rt @jandeknecht1970: @adriaanvisser @rvm1908 @joekeloer @d66rotterdam dus u @adriaanvisser beweerd dat u mij nooit op twitter gevolgd hebt,…|,neg
hoe we als samenleving genaait zijn door de liberalen. #vvd #d66 #pvv https://t.co/matjck4zn5,neg
rt @tgifinbrasil: #pechtold zegt dat #d66 voor correctief referendum is. hierbij bewijs dat pechtold liegt. d66 stemde tegen! #nieuwsuur #d…,neg
wordt ruud lubbers nu postuum tot #d66 lid verklaard?,neg
rt @jandeknecht1970: @rvm1908 @just1908 @adriaanvisser @frfc1908 @d66rotterdam hoofdstuk wat @adriaanvisser ook niet beheerst ! https://t.c…,neg
d66 beweert in een campagnespot dat zij deze enige progressieve partij in de huidige regering is. wat een onzin. ik… https://t.co/ed2fi3hsnw,neg
rt @trump023: ik ga aangifte van bedreiging doen bij politie in amsterdam. een of andere persvoorlichter van d66 is mij gaan volgen op twit…,neg
rt @larsduursma: d66 gaat niet zo lekker dit debat. kasmi wordt in het defensief gedrongen en komt daar niet uit. wil heel veel uitleggen m…,neg
|rt @engberts: dit is een gevaarlijke tweet. ver buiten alle grenzen. #verbijsterd neem aan dat @d66rotterdam hierop in actie komt, we helpe…|,neg
rt @ddstandaard: populair: d66 (met homofoob raadslid in amsterdam) is wel laatste partij die fvd nu moet aanvallen om homofobie yernaz htt…,neg
|rt @bpschut: onze landelijke partijen:

d66: u bent te dom voor een referendum
vvd: wat d66 zegt
cda: alles wat de vvd zegt
cu/sgp: alles w…|,neg
rt @stmc1964: d66 feminist (hoooooiiii @sigridkaag ) vs een echte feministe... https://t.co/symdqieyhk,neg
|rt @noordkaapfujin: wacht even, dus baudet gaat niet met pechtold in debat, maar stuurt wel z'n trollenleger op d66 af? intimidatie is zijn…|,neg
|rt @josverveen: leefbaar, pvda, d66 en vvd doen u warme beloftes op gebied van #armoede, #onderwijs en #zorg. maar wat zijn die beloftes wa…|,neg
@st_openhaard @d66rotterdam @wijdelfshaven @cdarotterdam @c_eskes @tonnyvsommeren @delfshaven_rdam heel jammer dat… https://t.co/rgue9ehr45,neg
|rt @ikzegneetegeneu: het #d66 van ollongren en pechtold is levensgevaarlijk.
er is geen partij zo anti-democratisch als d66. 
geen enkele a…|,neg
rt @arnoldkarskens: heel subtiel verraden koppen teletekst politiek standpunt #nos op verkiezingsdag: vóór sleepwet en vrijend met #d66 en…,neg
|rt @tponl: afstand nemen met forum voor democratie: fvd mag het wel, d66 niet https://t.co/o2tzghq29w|,neg
rt @dagblad010tweet: d66 wil duidelijkheid over drang bij jeugdhulp https://t.co/h05gkxz1yr #010 #rotterdam #dagblad010,neg
|rt @mark_goedhart: meneer legt d66 meisje even precies uit wat er mis is met haar partij. 

. https://t.co/2arxxvl5an|,neg
|rt @ddstandaard: peiling: lokale partijen worden dé grote winnaars bij de gemeenteraadsverkiezingen, d66 en vvd lopen leeg https://t.co/oov…|,neg
rt @jayrayskull: lokale politiek verjaagt auto’s. hippiepartij @groenlinks wil parkeerplaatsen slopen en ddr66 @d66 wil parkeertarieven zod…,neg
rt @percolator_hnj: #d66 is de (terechte) kritiek op schrappen van het referendum spuugzat? na anderhalve week al? dat is dan een extra red…,neg
|rt @gctje48: ik hoop in elk geval 
dat  alex penthouse 
na de verkiezingen...........jankt  ;-))

@d66   @d66amsterdam https://t.co/yov3o6h…|,neg
rt @laviejanroos: waarom zou je eigenlijk nog op @d66 stemmen? echt geen idee.,neg
|rt @joostniemoller: ooit was d66 de partij van het gezapige midden, nu is het alleen nog pechtold, een irritante teckel die je broekspijp k…|,neg
|rt @ietsniels: @d66rotterdam @wkoolmees @piadijkstra @salimabelhaj @matthijssienot @d66 beste @d66 leden, ik ben ondertussen toch wel erg n…|,neg
rt @postma_jeroen: 'we gaan geen publiek geld investeren in een voetbalstadion' zegt @judithbokhove tegen d66 rotterdam. die 40 mln kunnen…,neg
|rt @ddstandaard: populair: onthulling: vies d66 is de meest seksverslaafde partij in de tweede kamer, heeft zelfs eigen ‘seksbank’ https://…|,neg
|rt @martinbosma_pvv: d66 doet nu alsof het nooit iets had met het correctief referendum...

daarom ter opfrissing: 1997. van mierlo dreigt…|,neg
|rt @josverveen: oh ja joh? na debat @rtv_rijnmond komt voormalig voorzitter @d66rotterdam naar me toe, grijpt m’n arm en zegt: “weet jij da…|,neg
|rt @nickmallo_: 'd66 niet in de kamer of baudet als premier?' - dan liever d66 niet meer in de kamer, antwoordt pechtold #nickdoetverslag|,neg
rt @groenlinksrdam: @rdamseoogst @wijnoord @vvdrotterdam @d66rotterdam @leefbaarrdam @nidarotterdam @cdarotterdam @pvdarotterdam @sprotterd…,neg
rt @percolator_hnj: #d66 is de (terechte) kritiek op schrappen van het referendum spuugzat? na anderhalve week al? dat is dan een extra red…,neg
rt @don_mascarpone: we kunnen @apechtold natuurlijk helemaal gek maken door massaal lid te worden van @fvdemocratie zodat zijn clubje d66 h…,neg
|rt @jackmarsman: peiling: lokale partijen worden dé grote winnaars bij de gemeenteraadsverkiezingen, d66 en vvd lopen leeg https://t.co/v7c…|,neg
|rt @seven__: is deze campagnevideo, waarin minderjarige scholier door d66 op internet aan schandpaal wordt genageld vanwege uiten van een (…|,neg
rt @wendelvdb: om even in de termen van #pechtold te blijven: d66 discrimineert ook! in het partijprogramma van #d66 (de partij van de dono…,neg
@vincentkar @d66rotterdam @nidarotterdam @pvdarotterdam @sprotterdam @groenlinksrdam @vvdrotterdam #woef… https://t.co/gsmbytpjrn,neg
rt @rdamklimaat: we hopen dat @d66rotterdam / @d66 zijn groene ambities terugvindt &amp; roepen de partij op écht te gaan staan voor t klimaat.…,neg
|triest dat d66 in het europees parlement stemt over voorstellen die ze niet hebben bestudeerd, maar de gemeenteraad… https://t.co/tjgw1k98eq|,neg
|rt @carelbrendel: elsevier belicht aanwezigheid van nida, pvda, d66 en denk op rotterdamse bijeenkomst van akp nederland.  https://t.co/5m9…|,neg
@richardmoti @barbarakathmann @pvdarotterdam @d66rotterdam @leefbaarrdam ik begrijp dat je niet gekeken hebt. jammer.,neg
|rt @mauricedehond: pvv landelijk op laagste punt sinds 2008, d66 op laagste punt sinds 2012, fvd hoogste score ooit. https://t.co/lb51t4thc…|,neg
|rt @martinbosma_pvv: stukjes ironie naar de mensen toe:

*referendumpartij d66 sloopt referendum.
*democraten66 blijkt demofoben66.
*gracht…|,neg
rt @haralddoornbos: heeft d66 nav uitslag in italie al laten weten dat algemene verkiezingen worden afgeschaft omdat verkiezingen "een schi…,neg
rt @hwhofs: d66 heeft weinig zin om t collegebeleid te verdedigen. #010debat,neg
rt @rob_roos: waar halen jullie de brutaliteit vandaan om iemand de les te lezen terwijl d66 uitsluitend met bedrog haar doelen behaalt. 'o…,neg
rt @adriaanvisser: @petervheemst @d66rotterdam en wat heb jij de afgelopen jaren gemerkt van deze nota? lees citaat adriaan visser in boek…,neg
@kveikeren @keesmarges @engberts @d66rotterdam @pvdarotterdam dit soort gekke ideeën moeten bestreden worden!,neg
@matthijs85 toch bijzonder dat #d66 ooit is opgericht om de regenteske houding van de toenmalige politiek tegen te… https://t.co/dnwqybnsxq,neg
rt @wnlvandaag: wierd duk beschuldigt d66 van opruiing tegen baudet: ‘ze moeten oppassen’ #wnl https://t.co/hf7gecg38b,neg
rt @sypwynia: zoekt regeringspartij @d66 al maanden de aanval op piepkleine @fvdemocratie ('erger dan wilders') om de aandacht af te leiden…,neg
rt @joostniemoller: wat is dit genant! d66 fakepartij. https://t.co/2wqyw2nhge,neg
|rt @pvdarotterdam: "in een stad waar 1 op de 4 kinderen in armoede opgroeit 
kiezen @leefbaarrdam, @d66 en het @cdavandaag ervoor om een kw…|,neg
rt @rientje1: @npopolitiek nog maar een keertje. waarom werd de eerste kamer wel uitgezonden toen d66 een wet stond te verdedigen en waarom…,neg
rt @sprotterdam: nog zo'n fraai staaltje besturen van @leefbaarrdam @d66rotterdam @cdarotterdam: de sloop van de #larenkamp. nu een mooie v…,neg
rt @tahie81: heerlijk die afslachting van @d66 in zowat alle gemeenteraden. dit is een genot. #exitpoll #gr18 #verkiezingen2018 #omkoopneuk…,neg
rt @joostniemoller: aanhang d66 eist in pamflet einde aan tv-optredens pechtold https://t.co/v1ciwy3pqt,neg
@mirjam152 pechtold had eerst de obsessie wilders en nu baudet. als pechtold en d66 de gelijk niet krijgen gaan ze… https://t.co/3v85l6rfc9,neg
rt @larsduursma: d66 gaat niet zo lekker dit debat. kasmi wordt in het defensief gedrongen en komt daar niet uit. wil heel veel uitleggen m…,neg
|rt @frankvanzuilen: “nee, een écht referendum, vindt pechtold, is bindend.” in de @volkskrant. 👉 waarom heeft d66 dan op 27 september 2017…|,neg
rt @mahmutsungur: @ellenbijster de kandidatenlijst van d66 is een blijk van hoe hard denk in utrecht nodig is.,neg
rt @geenstijl: d66 veegt reet af met referendum omdat het kan https://t.co/pq8gabzt53,neg
rt @milieuzone010: @ietsniels @chantalzeegers @d66rotterdam @pexlangenberg @010klassiekers @milieudefensie bizarre bewering van mw zeegers.…,neg
rt @mijzelf01: @rtllatenight @fritswester @d66 @alexander @apechtold en durft @fritswester ook de vragen te stellen die er toe doen? bv. wa…,neg
|rt @seven__: kijk, ollongren heeft een oortje. funfact: d66 de zwaarste pa die ze in huis hebben, roy kramer, op ollongren gezet, zou hij h…|,neg
rt @berttehasseloo: @sprotterdam @saidkasmid66 @d66rotterdam @ldekleijn @rtv_rijnmond @frfc1908 waarom spreken jullie in de verleden tijd?…,neg
rt @jongerius_s: @milieuzone010 @d66rotterdam @010klassiekers @vvdrotterdam @leefbaarrdam helaas staat dat er niet bij maar als ik naar mij…,neg
|rt @neemjemoedur: even kijken @keesvee, hoe zat het ook alweer?

theorie @d66:

-referendum -&gt; @d66 -&gt; voor.
-sleepwet -&gt; @d66 -&gt; tegen.
-c…|,neg
rt @willy_vet: dat turks gespuis zit hier in de macht #denk er eens over na om de partij denk te verbieden .@vvd @cda @d66 @cu https://t.co…,neg
rt @sunsfield: stem advies #rotterdam geen @d66rotterdam https://t.co/8xyo0iivym.,neg
rt @ddstandaard: d66 (met homofoob raadslid in amsterdam) is wel laatste partij die fvd nu moet aanvallen om homofobie yernaz https://t.co/…,neg
|rt @arnoyuma: lokaal d66 buigt voor de islam: ‘geen zoenposters, want campagne zal voor nodige commotie bij moslims zorgen!’ https://t.co/h…|,neg
|rt @kveikeren: @goncalves230766 @chantalzeegers @d66rotterdam inderdaad, hier nog even die vergadering in een notendop   https://t.co/8nx1j…|,neg
@010klassiekers @studiojoost @rotterdam @d66rotterdam als jullie je dan ook druk gaan maken om echte problemen in p… https://t.co/mbeiawypti,neg
rt @metro: @bluehand_loek @d66 @elfietromp tuurlijk betalen ze ons. grote sommen geld. waarom denk je anders dat ons logo groen is? de colu…,neg
|rt @martinbosma_pvv: d66 sloopt niet alleen het referendum, maar ook de lokale democratie.

ollongren: 12 herindelingen, 35 gemeenten verdw…|,neg
rt @fvdemocratie: niet gek dat @d66 @apechtold @rvdantzig compleet geobsedeerd zijn door #fvd en steeds wilder om zich heen beginnen te sla…,neg
rt @stormtroepen: @joostniemoller @wierdduk @ziltebotte @hannesz1956 @geenstijl en mafkees kaag van @d66 gaat er met hoofddoek zitten. http…,neg
rt @wnlvandaag: wierd duk beschuldigt d66 van opruiing tegen baudet: ‘ze moeten oppassen’ #wnl https://t.co/hf7gecg38b,neg
|rt @010klassiekers: @milieucentrum @chantalzeegers @d66rotterdam @arminius ze zegt berekeningen, en daar zit het probleem. effectiviteit ka…|,neg
|rt @josverveen: leefbaar, pvda, d66 en vvd doen u warme beloftes op gebied van #armoede, #onderwijs en #zorg. maar wat zijn die beloftes wa…|,neg
rt @gerbstruik: duidelijke taal. krol neemt het op voor baudet: ‘aanvallen d66 onder de gordel.' https://t.co/hy3k9ngzs9 via @else4weekblad,neg
|kijk!! dit halen we binnen, @d66 @groenlinks + timmerfrans en consorte!! hoe ver laten we het nog komen???? https://t.co/hrphxdjczn|,neg
|rt @d66texel: d66 wil de kapvergunning terug! wij zijn erg geschrokken van de massale bomenkap op texel. dit moeten we niet willen! 

stem…|,neg
|rt @jandeknecht1970: armoede rotterdam,  volgens sander de kramer is 60 miljoen voor de coolsingel te gek @d66rotterdam @sprotterdam @groen…|,neg
ondernemende mensen! d66 wordt de ondernemerspartij. https://t.co/zso1fkdvlo,neg
@jandeknecht1970 @frfc1908 @javisstjavisst @remcoravenhorst @defeijenoorder @d66rotterdam de mensen die een gezin v… https://t.co/g099bju3hg,neg
rt @rokerspetera: @paulineduimel @abelfris @vvd @cdavandaag @d66 @christenunie @groenlinks @spnl @pvda @sgpnieuws @vnoncw @volkskrant @paro…,neg
rt @ericfest2: @apechtold jammer voor de thuishulpen in de thuiszorg want nu kon u niet excuses aanbieden dat d66 al meer dan 4 jaar niets…,neg
rt @je_thijse: blijf opmerkelijk dat er maar niet naar de nummer 8 van d66 in amsterdam wordt gevraagd. #pauw https://t.co/tuistwoyl8,neg
@leondroogendijk @vincentkar @d66rotterdam @nidarotterdam @pvdarotterdam @sprotterdam @groenlinksrdam @vvdrotterdam… https://t.co/fidle3oill,neg
|rt @petervheemst: "rotterdan haalt zijn kracht uit de culturele diversiteit", zegt @d66rotterdam wethouder vijf dagen voor de verkiezingen.…|,neg
rt @jpmschr: dit wilde d66 dus niet tonen in amsterdam. om religieuze gevoeligheden niet te kwetsen. woensdag 21 maart zijn de verkiezingen…,neg
rt @adriaanvisser: @petervheemst @d66rotterdam en wat heb jij de afgelopen jaren gemerkt van deze nota? lees citaat adriaan visser in boek…,neg
rt @bobmaasnl: onbegrijpelijk dat vvd en d66 nig steeds zo hoog in de peilingen staan. hoe werkt dit? vindt de peiling plaats in wassenaar?…,neg
rt @sypwynia: zoekt regeringspartij @d66 al maanden de aanval op piepkleine @fvdemocratie ('erger dan wilders') om de aandacht af te leiden…,neg
|rt @percolator_hnj: #d66 wil zgn. alsnog een correctief referendum, maar ze hebben niet het begin van een plan. tenminste, er lág een concr…|,neg
rt @milieucentrum: lijstduwer en stadsdokter @rinibiemans van 't de partij @stadsinitia010 spreekt @d66rotterdam aan op 't gebrek aan visie…,neg
rt @haralddoornbos: heeft d66 nav uitslag in italie al laten weten dat algemene verkiezingen worden afgeschaft omdat verkiezingen "een schi…,neg
rt @jndkgrf: eerst @geertwilderspvv en straks mi mati @humbertotan. het einde van @apechtold als leider van d66 is nabij.,neg
|@d66rotterdam pex (duurzaamheid) is weg. en wie gaat zich dan nu hardmaken voor de klimaatdoelstellingen?
anders lo… https://t.co/mvhgrewuef|,neg
rt @rechterzijde: d66 amsterdam haat homo's #d66 https://t.co/4zinpfrfl9,neg
@d66rotterdam en @vvdrotterdam willen goedkope woningen slopen omdat de wachtlijst voor deze woningen korter is dan… https://t.co/e4bfz6pa78,neg
rt @seven__: @alptekinakdogan d66 als lobbymachine. in vk ooit serie https://t.co/iq3bvnxhp3  en syp dook er ook in https://t.co/6luqakks3v…,neg
|rt @2tongig: wtf?!? 😠😠

lijsttrekker #d66 rotterdam saïd kasmi:

"je hoeft vrouwen niet te respecteren, want als ze "nee" zeggen, bedoelen…|,neg
rt @josverveen: @vlarp @jakobjan1908 @rdstad @sjoerdmossou @ardbuijsen @frfc1908 @mikosgouka @d66rotterdam @rtv_rijnmond @openrotterdam no…,neg
|rt @goncalves230766: @chantalzeegers @d66rotterdam toch gek dat d’66, 3 weken geleden in de gemeenteraad het initiatiefvoorstel van de pvda…|,neg
@vbornl @pvdarotterdam @cdarotterdam @d66rotterdam @groenlinksrdam @mehmetdoganbas @chantalzeegers wat een fijne oc… https://t.co/qs9lwew5ac,neg
rt @harmbeertema: islamitische homohaat. bij @d66 kom je ermee weg. https://t.co/1ny3bltrym,neg
|rt @judithbokhove: niks als eerste uit de crisis met @leefbaarrdam, @cdarotterdam en @d66rotterdam

@groenlinksrdam wil werken aan een eerl…|,neg
rt @djvandersluijs: en opeens werd het stil aan de overkant! want de beweringen in het filmpje van de pvv kloppen! #d66 #vvd #cda #gl #sp #…,neg
rt @fossielvrij030: zwarte champagne voor d66 die medeverantwoordelijk is voor een wat duistere toekomst voor rotterdamse haven: 25 jaar ko…,neg
|rt @geepstar: over @d66 zegt @pechtold in wnl.

"zorgen dat mensen inspraak krijgen." 

😂😂😂😂😂

hee @apechtold , treed je ook op in toomler?|,neg
|rt @geertjeelof: hoe krom wil je het hebben?
wilders vervolgd voor "minder, minder", maar wanneer uit eigen club @d66 minister over de schr…|,neg
rt @jongerius_s: @ietsniels @d66rotterdam @saidkasmid66 @rtv_rijnmond de vraag is inderdaad wanneer ze echt iets gaan doen! ze baseren de b…,neg
|rt @bpschut: keurig. hier kunnen andere politici/partijen nog wat van leren. 
toch, @d66 en @groenlinks? https://t.co/ewd34cqpt6|,neg
rt @sunsfield: @sprotterdam @saidkasmid66 @d66rotterdam @ldekleijn @rtv_rijnmond @frfc1908 het is nog niet telaat ga in verzet    #stopfeye…,neg
rt @stefankroon: @roffagj @marjanboelsma @d66rotterdam het wetsvoorstel dat dit mogelijk maakt (artikel 10) "selectieve woningtoewijzing te…,neg
|rt @goncalves230766: @chantalzeegers @d66rotterdam toch gek dat d’66, 3 weken geleden in de gemeenteraad het initiatiefvoorstel van de pvda…|,neg
rt @nutechnl: vvd en d66 willen gebruik van zero-days door inlichtingendiensten toetsen: https://t.co/xkyvn7eb3r,neg
rt @ronald_bastiaan: @javisstjavisst @sprotterdam @saidkasmid66 @d66rotterdam @ldekleijn @rtv_rijnmond @frfc1908 @leefbaarrdam er is niet é…,neg
@d66 @saidkasmid66 verbinden zoals het uitsluiten van @leefbaarrdam bedoel je? @eerdmans,neg
rt @milieuzone010: @jongerius_s @d66rotterdam @010klassiekers @vvdrotterdam @leefbaarrdam en hoeveel km daarvan rijden ze in de grote stad?…,neg
wat een heerlijk medium is dit toch. @keesvee heeft heel wat uit te leggen. wat een gedrocht dat @d66 https://t.co/qixpvk2xm9,neg
|rt @links_huftertje: d66 regie kwijt over kosten prive jet. 
pechtold spreekt zichzelf tegen. 

https://t.co/ckqmtipp7z|,neg
|rt @jaapjansen: peiling amsterdam door gemeentelijke dienst ois, 875 respondenten, telefonisch geinterviewd
gl 6 -&gt; 9
d66 14 -&gt; 8
vvd 6 -&gt;…|,neg
@gielvds @lindavoortman @keesvee met die framing is @d66 al begonnen toen @groenlinks uit de coalitie onderhandelin… https://t.co/gy0cnrv9mj,neg
rt @redactieadun: campagnefilmpje d66 utrecht mikpunt van spot. "als politieke partij moet je over heel veel dingen een mening vormen. [...…,neg
|rt @charcastisch: ik was vanmorgen in vught.
daar waren veel bushokjes met @d66 posters.
ik werd er een beetje onpasselijk van.
dat dat nog…|,neg
ik zou nu zo graag in de d66 app-groep zitten waarin ze zeggen dat je geen emoties moet tonen. #d66,neg
|rt @mug_willem: ik ben niet gecharmeerd van homo,s vertelde het d66 raadslid uit amsterdam https://t.co/sgfxakhxwy|,neg
rt @haralddoornbos: heeft d66 nav uitslag in italie al laten weten dat algemene verkiezingen worden afgeschaft omdat verkiezingen "een schi…,neg
rt @trump023: ik ga aangifte van bedreiging doen bij politie in amsterdam. een of andere persvoorlichter van d66 is mij gaan volgen op twit…,neg
|@ndubbelboer @thijs__vos @keesvee @thomdegraaff @hansengels @d66 dat lijkt in rotterdam ook zo: in percentage, maar… https://t.co/ywgbbrygpn|,neg
rt @groenlinksrdam: kijktip! 📺straks om 17:15 het eerste televisiedebat met @judithbokhove op @rtv_rijnmond! met d66 en de vvd gaat ze in d…,neg
rt @kromst: arm @d66 ... na het "kwetsende" spotje van greet ook nog ineens zoenende islamofoben. zomaar op posters. op straat. in republie…,neg
|rt @sergiobelfor: beetje koud, maar met een stralende zon de boodschap van verbinding gedeeld. ook tim van d66 kwam onze #nohatenl actie on…|,neg
|rt @martinbosma_pvv: d66 doet nu alsof het nooit iets had met het correctief referendum...

daarom ter opfrissing: 1997. van mierlo dreigt…|,neg
|rt @lau_vermeulen: .@jesseklaver legt het verschil tussen #groenlinks en #d66 helder bloot. elke partij wil dat er wordt bijgebouwd, maar d…|,neg
rt @rob_roos: d66 (met homofoob raadslid in amsterdam) is wel laatste partij die fvd nu moet aanvallen om homofobie yernaz https://t.co/noy…,neg
rt @ietsniels: @d66rotterdam @wkoolmees @piadijkstra @salimabelhaj @matthijssienot @d66 hoe kan een dieselbus nou klimaatneutraal rijden? #…,neg
rt @tponl: wierd duk: ‘wat d66 zegt over baudet grenst echt aan opruiing’ https://t.co/sguvcbksdc,neg
|rt @rkemp59: in een democratie had niet d66 maar de pvv als tweede partij van nederland in dit 'rechts-conservatieve kabinet' gezeten. 
Én…|,neg
rt @frankhensen: @d66rotterdam @arminius @chantalzeegers dus stoppen met de onzinnige dure #milieuzone en dat geld besteden aan effectieve…,neg
|rt @mijzelf01: om onderzoekt de aangiftes, vooralsnog niet pechtold.. zal mij benieuwen hoe dat d66 bolwerk hier mee omgaat..🤔

openbaar mi…|,neg
|rt @josverveen: oh ja joh? na debat @rtv_rijnmond komt voormalig voorzitter @d66rotterdam naar me toe, grijpt m’n arm en zegt: “weet jij da…|,neg
|rt @ietsniels: @parkeren010 mooie auto hoor maar dit is bizar,  @d66rotterdam voert een milieuzone in om de meest vervuilende auto’s te wer…|,neg
rt @haralddoornbos: heeft d66 nav uitslag in italie al laten weten dat algemene verkiezingen worden afgeschaft omdat verkiezingen "een schi…,neg
|rt @pietjepuk57: @d66 @apechtold eerlijk is eerlijk het klopt wel, ze doen wat ze zeggen. we regelen organenroof, het referendum is een ond…|,neg
rt @jeroenstans: d66 lijsttrekker kasmi komt ook bij dit debat niet heel sterk over. valt op met ‘ik kreeg het woord volgens mij’ en ‘ik wa…,neg
rt @adriaanvisser: @jandeknecht1970 @rvm1908 @joekeloer @d66rotterdam heb je nooit gevolgd (en dus ook nooit ontvolgd). maar ik volg je gra…,neg
rt @trump023: waar fvd zijn verantwoording neemt met het verwijderen van nummer 2 op de amsterdamse lijst. de homohater van d66 zit er nog…,neg
rt @sonja_vink: nu word het echt tijd dat dit kabinet stopt opstappen weg wezen #d66 #vvd #pechtold schofterig bezig aanzetten tot moord he…,neg
|rt @jandeknecht1970: armoede rotterdam,  volgens sander de kramer is 60 miljoen voor de coolsingel te gek @d66rotterdam @sprotterdam @groen…|,neg
rt @mariannecramer: aanhang d66 eist in pamflet einde aan tv-optredens pechtold https://t.co/nnqcu4mghz,neg
#pechtold liegt. #d66 #deleugenregeert (mee). https://t.co/q3zwg7fnwk,neg
rt @jongerius_s: @ietsniels @d66rotterdam @saidkasmid66 @erasmusuni @pexlangenberg was het idee van @josverveen van @stadsinitia010 toch?,neg
rt @salimabelhaj: d66 lijsttrekker said kasmi tijdens #tvrijnmond debat pleit voor echte oplossingen om armoede op te lossen: geef kinderen…,neg
pvv’er van der velden laat in een reactie weten het ‘jammer’ te vinden dat d66 geen voorbeelden noemt waar zijn par… https://t.co/95pjlkcsd8,neg
|rt @joostniemoller: ooit was d66 de partij van het gezapige midden, nu is het alleen nog pechtold, een irritante teckel die je broekspijp k…|,neg
rt @despeld: aanhang d66 eist in pamflet einde aan tv-optredens pechtold - ‘dit brengt onze club schade toe’ https://t.co/zplfx6dapg https:…,neg
|rt @irenriquecortes: #amsterdam boycot #d66 lokaal d66 buigt voor de islam: ‘geen zoenposters, want campagne zal voor nodige commotie bij m…|,neg
|rt @martinbosma_pvv: d66 doet nu alsof het nooit iets had met het correctief referendum...

daarom ter opfrissing: 1997. van mierlo dreigt…|,neg
rt @celalaltuntas1: @baspaternotte van nepdenk begrijp ik wel maar van @d66 en @cdavandaag niet?,neg
rt @ddstandaard: video – bejaarde man vertelt d66 waar het op staat: ‘jullie verloochenen jezelf… je verkoopt je ziel en zaligheid om mee t…,neg
rt @salimabelhaj: d66 lijsttrekker said kasmi tijdens #tvrijnmond debat pleit voor echte oplossingen om armoede op te lossen: geef kinderen…,neg
|rt @verbeekrv: @rtllatenight @apechtold @geertwilderspvv wat een rat die pechtold, opheffen dat d66 - hij past trouwens prima in de eveneen…|,neg
rt @else4weekblad: d66 is kritiek op schrappen raadgevend referendum zat: https://t.co/wjgpxevixy https://t.co/0d3heectgg,neg
|rt @ewoudkieviet: d66 rotterdam houdt deur op kier voor leefbaar, tot ongenoegen van pvda en groenlinks https://t.co/r1guldaphx|,neg
|rt @frfc1908: @d66rotterdam @adriaanvisser goede terugblik, alleen wat puntje vergeten man. logisch natuurlijk. als je allemaal kleine goed…|,neg
rt @tesselwijne: ik wachtend op de dag dat d66 met een ander argument komt dan 'wij staan tenminste niet aan de zijlijn en jullie wel' http…,neg
rt @ewaldeng: oftewel: d66 gunt nederlandse grootbanken nog meer kans op buitenproportionele winsten en bonussen #iedereenschuldslaaf https…,neg
rt @tponl: wierd duk: ‘wat d66 zegt over baudet grenst echt aan opruiing’ https://t.co/sguvcbksdc,neg
|rt @frankvanzuilen: “nee, een écht referendum, vindt pechtold, is bindend.” in de @volkskrant. 👉 waarom heeft d66 dan op 27 september 2017…|,neg
rt @peterkanne1: het fvd van thierry baudet en het d66 van hans van mierlo lijken stiekem – naast al hun verschillen – best veel op elkaar.…,neg
rt @emmzwart: .@apechtold @d66 dé partij tegen discriminatie? stemgedrag laat heel wat anders zien. https://t.co/f8nmhsebhw,neg
rt @kromst: arm @d66 ... na het "kwetsende" spotje van greet ook nog ineens zoenende islamofoben. zomaar op posters. op straat. in republie…,neg
rt @whammy1967: volgens de eurofielen @vvd @d66 @cdavandaag @christenunie @groenlinks zijn dit kansrijke pareltjes. maar ik zie geen enkele…,neg
rt @sprotterdam: @berttehasseloo @saidkasmid66 @d66rotterdam @ldekleijn @rtv_rijnmond @frfc1908 wat ons betreft gaan we dat ook zeker doen…,neg
rt @percolator_hnj: hypocrieten '66. opdat we niet vergeten! #d66 #pechtold https://t.co/qvqgpqeqwi,neg
rt @d66rotterdam: de lucht moet schoner! daarom willen we meer elekrische busjes en minder vervuilende vrachtwagens! d66 krijgt het voor el…,neg
|rt @joostniemoller: ooit was d66 de partij van het gezapige midden, nu is het alleen nog pechtold, een irritante teckel die je broekspijp k…|,neg
|rt @roelandruijsch: @swsjoerdsma als de "d" in d66 nog iets voorstel, zou u het permanent oneens moeten zijn met kuzu...blijkbaar is er van…|,neg
rt @jongerius_s: @georgevangent @d66rotterdam @chantalzeegers dit is een oude prognose klopt niks van. door de parkeergarages goedkoper te…,neg
|rt @d66rotterdam: vandaag tekende @nadiaarsieni namens d66 het roze stembusakkoord, van coc rotterdam, @mankracht010, ketelbinkie en @gayro…|,neg
|rt @noknokitsme: kabinet #vvd #cda #d66 #cu :
- afschaffen referendum 
- invoeren censuur
- afluisteren bevolking
- levend organen verwijde…|,neg
|rt @geertjeelof: ook bij #wnlopzondag claimt @apechtold dat @d66 vóór een bindend referendum is.
maar in november 2017 hebben ze dat zelf w…|,neg
|rt @bertvovc: #pvv #gr2018  #gr18 #gemeenteraadsverkiezingen2018

nog maar kort geleden kwam je voor een d66 neprechtbank als je zei :
vol=…|,neg
|rt @ruudvmiddelkoop: maar d66 wil niet.kunnen onmogelijk  weer draaien
vvd met leefbaar ook niet zo waarschijnlijk.leefbaar geen afstand ge…|,neg
@timmietovenaar @d66rotterdam @d66 @mborsten jammer. heb je gemist. ik neem altijd #blijdorp zijde. maar succes hoo… https://t.co/yt3yzsolua,neg
rt @derksen_gelul: zelfs de grootste idioot wist dat "journalisten" van de #npo er alles voor over hebben om hun vrienden van #d66 #vvd #cd…,neg
|rt @petervheemst: "rotterdan haalt zijn kracht uit de culturele diversiteit", zegt @d66rotterdam wethouder vijf dagen voor de verkiezingen.…|,neg
rt @mariannezw: https://t.co/oxmn4gjchm ook d66 zegt het glashelder: je medische gegevens liggen op straat met de sleepwet #stemnee,neg
|rt @d66rotterdam: d66 wil in rotterdam een verdere verschuiving van de auto naar fiets en openbaar vervoer, en een uitbreiding van de milie…|,neg
|rt @harrypater62: stelling : als begin jaren 40 @d66 had bestaan in plaats van de nsb, had hitler de oorlog gewonnen !|,neg
@henkendini1969 @wnlopzondag @apechtold @d66 konden we die gladjakker maar doorspoelen.,neg
rt @noordereilander: @milieuzone010 @adriaanvisser @ietsniels @d66rotterdam @010klassiekers kijk hier https://t.co/ti4mqkyicj geen enkel wo…,neg
rt @larsduursma: d66 gaat niet zo lekker dit debat. kasmi wordt in het defensief gedrongen en komt daar niet uit. wil heel veel uitleggen m…,neg
rt @ietsniels: @chantalzeegers van @d66rotterdam beweert keihard dat haar partij luistert naar burgers #huh @pexlangenberg wilde toch echt…,neg
@d66 @d66rotterdam waar kan ik info vinden over de individuele kandidaten? #askingforafriend,neg
|rt @martinbosma_pvv: d66 doet nu alsof het nooit iets had met het correctief referendum...

daarom ter opfrissing: 1997. van mierlo dreigt…|,neg
rt @percolator_hnj: #d66 is de (terechte) kritiek op schrappen van het referendum spuugzat? na anderhalve week al? dat is dan een extra red…,neg
rt @milieucentrum: lijstduwer en stadsdokter @rinibiemans van 't de partij @stadsinitia010 spreekt @d66rotterdam aan op 't gebrek aan visie…,neg
rt @jongerius_s: @georgevangent @d66rotterdam @chantalzeegers de mrb oldtimer regeling heeft echt bijgedragen niet de #milieuzone. er waren…,neg
|@m_noordhoek @nu_in_nederland @kajsaollongren @d66 stalinisme profileert zich meer en meer,niet  alleen in woorden… https://t.co/yqifwd4r6h|,neg
|rt @josverveen: leefbaar, pvda, d66 en vvd doen u warme beloftes op gebied van #armoede, #onderwijs en #zorg. maar wat zijn die beloftes wa…|,neg
|rt @gaypalace: dat had ik ook al gedaan.
ik heb wat plaatjes verzameld van @apechtold @d66 😊 
#pechtold #d66 https://t.co/qr6n7mpiou|,neg
|rt @ietsniels: @d66rotterdam @wkoolmees @piadijkstra @salimabelhaj @matthijssienot @d66 beste @d66 leden, ik ben ondertussen toch wel erg n…|,neg
rt @mikevdgaliennl: populair: hilarisch: groenlinks veegt de vloer aan met hypocriet d66 over autoritaire sleepwet https://t.co/yqzs9bg3gp,neg
rt @tponl: wierd duk: ‘wat d66 zegt over baudet grenst echt aan opruiing’ https://t.co/sguvcbksdc,neg
|rt @slechtvolk: huh??? 
volgens @d66 was die voedselbank in essen die geen asielzoekers binnen liet toch #nepnieuws?? 
het is dus wel waar!…|,neg
rt @irenriquecortes: 🔴@wassilahachchi @d66 is nu op vakantie🔻zit ze nog in wachtgeldregeling gratis €8000 per maand 🔻in 2016 plotseling uit…,neg
d66 deelt condooms uit: 'maak je hard voor vlaardingen' https://t.co/ooy8if86b4,neg
rt @rdamklimaat: we hopen dat @d66rotterdam / @d66 zijn groene ambities terugvindt &amp; roepen de partij op écht te gaan staan voor t klimaat.…,neg
@jayrayskull @groenlinks @d66 @telegraaf dat wordt dan de doodsteek voor de winkelliers in het centrum!!!!!!,neg
rt @wurftwain: toch weer actueel deze foto. #d66 #pechtold https://t.co/pc3q0aqluu,neg
rt @svenstweet: d66 staat tot democratische vernieuwing als pvda staat tot een arbeiderspartij. https://t.co/wq50olxr9o,neg
rt @ddstandaard: het échte nieuws uit amsterdam is de totale teloorgang van d66 https://t.co/sd9daxcxl3,neg
rt @evanderclooten: "goegedaanjochie...."   arjan lulbach....#ollongren #d66  #lachmachine #applausmachine #npo #jinek #dwdd #telegraaf #ba…,neg
rt @groenlinksrdam: kijktip! 📺straks om 17:15 het eerste televisiedebat met @judithbokhove op @rtv_rijnmond! met d66 en de vvd gaat ze in d…,neg
rt @deon10000: #exitpoll wat is er toch mis met ons onderwijs dat zoveel hoger opgeleiden stemmen op @groenlinks en @d66 ?,neg
|rt @nl__politiek: je ziet iedereen denken ... "ik wil ook wel zo een appartementje met uitzicht op zee..." #pechtold #d66
https://t.co/4eqk…|,neg
rt @don_mascarpone: we kunnen @apechtold natuurlijk helemaal gek maken door massaal lid te worden van @fvdemocratie zodat zijn clubje d66 h…,neg
rt @percolator_hnj: hypocrieten '66. opdat we niet vergeten! #d66 #pechtold https://t.co/qvqgpqeqwi,neg
rt @fvdemocratie: de #censuurtsarina van @d66 @kajsaollongren weigert nu zelfs ook al aangenomen kamermoties over opheffen eu #nepnieuws me…,neg
rt @harmbeertema: islamitische homohaat. bij @d66 kom je ermee weg. https://t.co/1ny3bltrym,neg
|rt @richardmoti: de economie groeit als een tierelier, maar de zogenaamde #onderwijs partij @d66 laat leraren keihard in de steek https://t…|,neg
|rt @harrypater62: mijn dochter kreeg op fb een vriendschapsverzoek van iemand die volgens haar eigen profiel met d66 sympathiseert.

we gaa…|,neg
rt @stijnjansen90: af en toe maak ik wel eens grapjes dat #d66 geen ideeën of ideologie heeft. geenidee66 of iets dergelijks. maar dan zie…,neg
|rt @estherouwehand: onderzoek: politieke partijen misbruiken dierenwelzijn tijdens verkiezingen. vooral d66 gaat nat.
toen d66 nog niet in…|,neg
|rt @2tongig: wtf?!? 😠😠

lijsttrekker #d66 rotterdam saïd kasmi:

"je hoeft vrouwen niet te respecteren, want als ze "nee" zeggen, bedoelen…|,neg
|rt @engberts: dit is een gevaarlijke tweet. ver buiten alle grenzen. #verbijsterd neem aan dat @d66rotterdam hierop in actie komt, we helpe…|,neg
rt @jongerius_s: @frankhensen @milieucentrum @chantalzeegers @d66rotterdam @arminius kijk anders even op https://t.co/bq4oc3k7ap of kom aan…,neg
|@fvdemocratie @d66 @kajsaollongren @tponl deze kreten doen alleen maar partijen in de oppositie: minachting, partij… https://t.co/we6by4pgq8|,neg
|rt @petervheemst: "rotterdan haalt zijn kracht uit de culturele diversiteit", zegt @d66rotterdam wethouder vijf dagen voor de verkiezingen.…|,neg
rt @noorlanderarjan: d66 europarlementarier sophie in 't veld heeft de eu-ombudsman gevraagd om te onderzoeken of de benoeming van topambte…,neg
rt @mug_willem: deze  d66 politicus is veel gevaarlijker dan welke politicus in nederland ook. https://t.co/uaqctnat2y,neg
|rt @dekoran1: alexander,  is het je frustratie over die laatste ronde, dat je alles waar d66 ooit voor stond, kapotmaakt?  https://t.co/sav…|,neg
|rt @femkeroosma: dat hadden we al moeten doen, toen de partij vd dieren dat vorig jaar voorstelde. maar volgens de d66 wethouder financiën…|,neg
|rt @nl_pwr: wat een akelige haatzaaier is @d66 @apechtold levengevaarlijke fascist !!.
pechtold: ’fvd valt mijn kinderen lastig’ https://t.…|,neg
|rt @fossielvrij010: @d66rotterdam pex (duurzaamheid) is weg. en wie gaat zich dan nu hardmaken voor de klimaatdoelstellingen?
anders lopen…|,neg
|rt @ddstandaard: peiling: lokale partijen worden dé grote winnaars bij de gemeenteraadsverkiezingen, d66 en vvd lopen leeg https://t.co/oov…|,neg
|rt @seven__: kijk, ollongren heeft een oortje. funfact: d66 de zwaarste pa die ze in huis hebben, roy kramer, op ollongren gezet, zou hij h…|,neg
rt @saidkasmid66: bekijk mijn gesprek met @openrotterdam  #d66rotterdam #gr18 https://t.co/czldzmysb6,neg
|rt @martinbosma_pvv: d66 sloopt niet alleen het referendum, maar ook de lokale democratie.

ollongren: 12 herindelingen, 35 gemeenten verdw…|,neg
|rt @chrisiserbij: nummer 8 van d66 is homofoob, meldt fvd. wat vindt @jan_bert daarvan? zeker na zoveel geweld tegen homo's. #7up|,neg
rt @frankhensen: @jongerius_s @d66rotterdam @vvdrotterdam alleen al de dure geflopte #milieuzone (om maar niet spreken over de #hoekselijn)…,neg
rt @hansdeboer18: dit wensen de beschaafde elite van @d66 de club van @apechtold baudet van @fvdemocratie toe. het spreekwoord het hoekje o…,neg
|rt @evertgdavelaar: d66 en denk, de grootste haatzaaiers in de nederlandse politiek. @apechtold begint door te slaan. volstrekt irreëel, de…|,neg
rt @ietsniels: @d66rotterdam @wkoolmees @piadijkstra @salimabelhaj @matthijssienot @d66 hoe kan een dieselbus nou klimaatneutraal rijden? #…,neg
rt @jongerius_s: in rotterdam is er hoger beroep aangetekend door @d66rotterdam voor het weren van benzine auto's van 26 jaar en ouder tot…,neg
|rt @martinbosma_pvv: d66 sloopt niet alleen het referendum, maar ook de lokale democratie.

ollongren: 12 herindelingen, 35 gemeenten verdw…|,neg
|rt @indiaan1908: oei @d66rotterdam ik wilde op jullie stemmen niet 

#stopfeyenoordcity https://t.co/xtr8y09kdf|,neg
rt @fvdemocratie: nu @d66 steeds sneller zakt in de peilingen begint desperate @apechtold z'n kinderen er bij te slepen. als je vader zich…,neg
rt @hestermourik: laat @nadiaarsieni van @d66rotterdam nou net vorige week zo'n zelfde voorstel hebben ingediend in rotterdam!: 'pvda wil n…,neg
|rt @joostniemoller: dus: d66 is eerst voor referendum, daarna tegen, eerst tegen de #wiv daarna voor, maar ook weer niet, want  na twee jaa…|,neg
rt @ricklauw: @d66rotterdam @wkoolmees @piadijkstra @salimabelhaj @matthijssienot d66 is toch zo duurzaam en milieubewust en voor schone lu…,neg
rt @j3ro3nj: pijnlijk nieuws voor de onderwijspartij d66. leraren: d66 doet niet wat het heeft beloofd. ‘pechtold kletst gewoon uit zijn ne…,neg
rt @studiojoost: @timdb @010klassiekers @rotterdam @d66rotterdam die echte oldtimers zijn het probleem natuurlijk niet. zijn er niet zo vee…,neg
@arienoordzij @paulvdorst @ardbuijsen @d66rotterdam je hebt me door. fuck.,neg
|rt @else4weekblad: krol neemt het op voor baudet: ‘aanvallen d66 onder de gordel’
https://t.co/y7iq0ccu4z https://t.co/5swqpn94bv|,neg
|rt @matthijs85: "veel kiezers van (landelijke) vvd, d66 en pvda gaan 21 maart op lokale partij stemmen" https://t.co/ymuysutes6 || #democrat…|,neg
rt @nrc: na het grote succes bij de vorige gemeenteraadsverkiezingen moest d66 een volleerde bestuurspartij worden. maar in een paar gemeen…,neg
|rt @miesbaksel: kandidaat-raadslid #nida rotterdam snapt 'damage control' niet. 
en neemt @d66rotterdam en @pvdarotterdam in de slipstream…|,neg
rt @jandeknecht1970: @adriaanvisser @rvm1908 @joekeloer @d66rotterdam @defeijenoorder @ruudvdvelden010 @josverveen @frfc1908 @stadionopzuid…,neg
@afgezwakt wanneer d66 de meest linkse optie is  ( ͡° ͜ʖ ͡°),neg
rt @ddstandaard: video – bejaarde man vertelt d66 waar het op staat: ‘jullie verloochenen jezelf… je verkoopt je ziel en zaligheid om mee t…,neg
