zwarte champagne voor steun #d66 aan kolenoverslag #rotterdam : duurzaamnieuws https://t.co/mputwycky2 #duurzaam,pos
|in zwitserland hebben ze geen angst voor de burger. #d66 #referendum en dat pakt goed uit.
grote meerderheid zwitse… https://t.co/xn1z66w78s|,pos
|rt @vogelvrijeharts: #d66 en #pechtold schaffen, als ze de kans krijgen, namens zorgverzekeraars uw vrije artsenkeuze af, mollen met de #sl…|,pos
|hallo @adriaanvisser ben je hier ook trots op: 
d66 maakt fake straatgesprekken voor campagne… https://t.co/onuje4wf28|,pos
@dicktimmerman @arnoutpalstra @d66 @matthijssienot en als je ervan uit gaat dat men voorverpakte boterhammen met ei… https://t.co/0yuylchalu,pos
rt @aaaa70caro: d66 sluit dus ook een overgroot deel van de rotterdammers uit. toch fijn al die partijen die zeggen voor verbinding te staa…,pos
|@monicabeek ja, dat valt te billijken. een coalitie over rechts zal altijd met leefbaar zijn. als d66 hen uitsluit… https://t.co/tfu3dcg0np|,pos
rt @hansackerny: eindelijk de vraag aan #pechtold bij #dwdd en het antwoord geeft precies weer wat voor een pechtold die vent is. #d66 #gr1…,pos
@adriaanvisser @d66 stuur een bedankje naar jos,pos
|rt @ingridvwifferen: cyril van erp stemt op 21 maart op ingrid van wifferen, nummer 4 van d66 rotterdam, omdat zij met haar positieve energ…|,pos
|rt @frankwijn1: dus #d66 is nu vóór een correctief referendum en 5 maanden geleden (27.9.2017) tégen een correctief referendum.
duidelijk v…|,pos
|rt @trump023: mijn oom was vroeger op verjaardagen altijd trots over d66 aan het vertellen. hij is tegenwoordig heel stil. 

arme man. bese…|,pos
|@elgriego79 @d66 wat een aannames! ten eerste stem ik geen pvv, ten tweede aanbid ik niemand...|,pos
rt @ffl641: @apechtold @d66 #stemd66 @donarturito @2ekamertweets ook medeverantwoordelijk voor de later geconstateerde fraude met het @rocl…,pos
|rt @rotterdam: in #rotterdam is 30% van de stemmen geteld. #zetelverdeling zou nu zijn:  leefbaar rotterdam 12, vvd 5, pvda 5, d66 4, groen…|,pos
@endeeh @reaumie ook nog best een kans dat d66 deelneemt aan een centrumrechtse voortzetting van huidige coalitie.,pos
rt @marssieboy: de vvd over de zorg of d66 over betaalbare huizen. wie wint de prijs voor 'meest hypocriete partij'? https://t.co/c307yi34nu,pos
|rt @diederiksmit: "deze tijd vraagt om samenwerken, ook als je het niet altijd met elkaar eens bent." d66 heeft forum voor democratie en le…|,pos
|rt @jor_id: pia dijkstra zegt in de @d66 gemeenteraads-commercial dat je oog moet hebben voor een ander. 

ik snap 'm...

#donorwet|,pos
rt @buijtleefbaar: dus als ik #zml goed begrijp verspreidde d66 minister ollongren bewust nepnieuws over #sleepwet en liet vvd'er rutte een…,pos
rt @vincentkar: helder: met een stem op @d66rotterdam krijg je het linkse blok van @nidarotterdam @pvdarotterdam @sprotterdam en @groenlink…,pos
zij doen mee en willen het verschil maken. #elktalenttelt #topvrouwen @d66 @d66congres #gr2018! https://t.co/syttflokhu,pos
rt @d66: sommige campagnevideo's gaan veel en véél te ver. retweet deze video als je vindt dat nederland van ons allemaal is. #stemd66 http…,pos
|mogelijke linkse coalitie rotterdam van pvda, groenlinks, sp, d66 staat op 15, ook niet genoeg|,pos
rt @hwhofs: peiling de hond: leefbaar 9 pvda 5 d66 4 sp 6 vvd 4 cda 3 gl 5 nida 1 cusgp 1 pvdd 1 denk 2 50 plus 1 pvv 3 #pauw,pos
ja man dat werkt altijd goed d66 samenwerking pakt altijd gunstig uit voor je d66 idealen gr. gr. rotterdam https://t.co/wggnynki1h,pos
rt @sprotterdam: "alle prachtige dingen van feyenoord city met het gebied waar @saidkasmid66 en @d66rotterdam mee komen had je ook rond een…,pos
rt @d66: sommige campagnevideo's gaan veel en véél te ver. retweet deze video als je vindt dat nederland van ons allemaal is. #stemd66 http…,pos
rt @d66: sommige campagnevideo's gaan veel en véél te ver. retweet deze video als je vindt dat nederland van ons allemaal is. #stemd66 http…,pos
d66 moet de kastanjes uit vuur halen voor leefbaar die de weth wonen leverde. #pauw,pos
rt @percolator_hnj: denk hieraan als u op 21 maart naar het stemlokaal gaat bij de #gr2018 en overweegt om op #d66 te stemmen. https://t.co…,pos
rt @michkapteijns74: tijdens het huis-aan-huis zieltjes winnen kregen bewoners ongevraagd een #d66 flyer door de bus indien zij niet thuis…,pos
rt @petertblank: het is wel zo dat die stomme linkse zweden hier zelf voor hebben gekozen. dus: stem nooit @groenlinks @d66 @pvda etc. http…,pos
@seeddoubt @d66rotterdam @nadiaarsieni @hsrotterdam rotterdam moet voor iedereen bereikbaar blijven. als we niet bo… https://t.co/w5aj2xieet,pos
goed punt! @d66rotterdam had nog geen maand geleden al kunnen helpen rotterdamse kinderen uit armoede te halen. maa… https://t.co/a8ros60dj2,pos
rt @groenlinks: d66 zei vorig jaar hele wijze dingen over de sleepwet. daar voeren wij graag campagne voor 😉. help mee: stem 21 maart tegen…,pos
rt @ewoudkieviet: '@d66rotterdam houdt nu weer de deur open naar @leefbaarrdam. als je niet oplet krijg je met je stem op d66 thierry baude…,pos
rt @dennis_v_n: ja. en dezelfde wethouder van @d66rotterdam beweert ook dat de relatie club-aanhang heel goed is en volgens afspraak verloo…,pos
rt @gemeente_almelo: hierna nog 1 stembureau. na 36 stembureaus is de voorlopig zetelverdeling nu. d66 verliest zijn 3e zetel en lijst Çete…,pos
|rt @d66: 💚 prachtige oproep van d66'er jan terlouw. stem woensdag d66 voor een progressieve samenwerking in jouw gemeente. ⤵
#stemd66 https…|,pos
bij het #congres @d66 @dedoelen refereert @thdegraaf aan het succes #adr @piadijkstra #staandeovatie https://t.co/h2eyhnqipm,pos
rt @zilvera1: @shirinmusa @d66 inspraak peilen in een van de fundamentele waarden van onze samenleving? volgende stap: om toestemming vrage…,pos
|rt @robertpbas: als de uitkomst in rotterdam in de lijn van de tussenstand eindigt, lijkt een coalitie van leefbaar, pvda, vvd en d66 het m…|,pos
rt @vincentkar: helder: met een stem op @d66rotterdam krijg je het linkse blok van @nidarotterdam @pvdarotterdam @sprotterdam en @groenlink…,pos
rt @bakkerpatrick: @milieucentrum @d66rotterdam @chantalzeegers @arminius zuid in de milieuzone! die mensen hebben ook recht op schone luch…,pos
|rt @vogelvrijeharts: #d66 en #pechtold schaffen, als ze de kans krijgen, namens zorgverzekeraars uw vrije artsenkeuze af, mollen met de #sl…|,pos
|#d66 staat voor graaien, maten naaien, liegen, bedriegen, intolerantie en zeer zeker ook voor ongelijkwaardigheid g… https://t.co/9kzb7s47qv|,pos
|@d66 @apechtold onroerend goed aannemen, valsheid in geschrift plegen, de belastindienst belazeren, organen roven,… https://t.co/9iuagnk4bk|,pos
rt @ns_online: @jongerius_s @dandoen @ietsniels @d66 bij deze: https://t.co/wtvidoux7t :) ^lk,pos
|rt @hulswood: "pechtold d66 blijkt medeplichtig bij gigantische bouwfraude".
....blijft gewoon zitten, past prima bij rest van rutte-iii. h…|,pos
rt @d66: sommige campagnevideo's gaan veel en véél te ver. retweet deze video als je vindt dat nederland van ons allemaal is. #stemd66 http…,pos
@ietsniels @d66rotterdam bedankt voor je reactie niels. de video is met een knipoog bedoeld. wij streven juist naar… https://t.co/l7ib8h5c22,pos
@ldekleijn @saidkasmid66 @d66rotterdam dat is een helder en zeer duidelijk antwoord! mogen meer politici een voorbeeld aan nemen. #dank,pos
|rt @pimvandendool: d66 bezuinigde met leefbaar in rotterdam op het armoedebeleid, zei @tunahankuzu in nos-radiodebat zojuist. ik checkte li…|,pos
@ardbuijsen @pascallansink en dat heeft d66 samen met de vvd gecorrigeerd. https://t.co/thjl9bwb3x,pos
|rt @huubbellemakers: d66 liegt en wil geen gebruik maken van uitgestoken hand oppositie. echt, ga weg kees. jij kan beter https://t.co/vibg…|,pos
uitslag bij 30% van de telling. spannend. #gr2018 #rotterdam #d66 https://t.co/lwbvdrywvf,pos
rt @ewoudkieviet: '@d66rotterdam houdt nu weer de deur open naar @leefbaarrdam. als je niet oplet krijg je met je stem op d66 thierry baude…,pos
|rt @jordy_schaap: een anti-d66 verkiezingsbord tegen gekomen.
heerlijk en eerlijk #gr2018 #d66 https://t.co/pi3nh1px1r|,pos
rt @engberts: goed punt! @d66rotterdam had nog geen maand geleden al kunnen helpen rotterdamse kinderen uit armoede te halen. maar ze kozen…,pos
rt @vincentkar: helder: met een stem op @d66rotterdam krijg je het linkse blok van @nidarotterdam @pvdarotterdam @sprotterdam en @groenlink…,pos
rt @milieucentrum: flyers "een kolenvrije #maasvlakte ... @d66 krijgt het voor elkaar" uitgedeeld bij landelijk #d66 congres in #rotterdam…,pos
over de bijstand: kathmann van de pvda valt d66 en indirect leefbaar aan: u heeft miljoenen geïnvesteerd om een paa… https://t.co/u4hlddz0bj,pos
|rt @alfredzebregs: opvallend toch, pia dijkstra iets te vaak in kielzog #pechtold in de overload aan reclamespotjes van #d66  
zou ze zich…|,pos
|rt @tonfvandijk: waar van mierlo verantwoordelijk was voor de oprichting van @d66 , vormt de politiek van @apechtold de beste verklaring vo…|,pos
|mijn voorspelling voor #raad010 #gr2018. lr 11, vvd 6, pvda 5, cda 4, sp 4, d66 4, gl 4, denk 2, nida 2, pvdd 2, cu-sgp 1, 50plus 1. pvv 0.|,pos
|rt @kevinlevie: [column] kiezer, verlos ons van d66
deel dit artikel met vrienden die overwegen d66 te stemmen!
https://t.co/k2sgyptjba|,pos
rt @vincentkar: helder: met een stem op @d66rotterdam krijg je het linkse blok van @nidarotterdam @pvdarotterdam @sprotterdam en @groenlink…,pos
|helft van stembureaus geteld: sp (10,4%), leefbaar (8)%, pvda (6,5%), ons (16,3%), d66 (6,9%), cda (8,1%), aov (5,8… https://t.co/qzn85bxh2x|,pos
|rt @quinsyg: trouwens, er is nog geen antwoord gekomen op mijn vraag richting @d66rotterdam of ze na de verkiezingen nog met leefbaar in ee…|,pos
|rt @martinbosma_pvv: d66 stemt nu tégen het correctief referendum.

vreemd. het correctief referendum was zó belangrijk voor d66 dat het be…|,pos
rt @aaaa70caro: d66 sluit dus ook een overgroot deel van de rotterdammers uit. toch fijn al die partijen die zeggen voor verbinding te staa…,pos
|rt @jackistrots: geef ze allemaal een d66 pilletje.
duitse verpleegkundigen hebben zelfverdedigingscursussen nodig tegen het toenemende gew…|,pos
|✅✅✅
@d66rotterdam en anderen!
nog 19 dagen tot #gr2018 https://t.co/0ghd3ujjhl|,pos
|zelfs 5 partijencombi's kunnen niet meer in rotterdam. links heeft denk en cu nodig, onmogelijk. rechts heeft d66 e… https://t.co/tcvyebd0w6|,pos
|@ewoutversloot leefbaar is eerst aan zet. lr, vvd, cda, d66 en gl. en zie de vvd roept niet meer dat de auto de stad in moet kunnen.|,pos
|rt @svenstweet: hoeveel mensenhaat moet je eigenlijk hebben om lid van d66 te worden?

ik vraag dit voor een vriend.|,pos
|rt @remkotheulings: groep de mos verovert den haag op d66: is na 50% geteld de grootste met 9 zetels. vvd heeft er 7, d66 6. #gr2018 @eenva…|,pos
|rt @gaypalace: draadje met plaatjes van @apechtold 
mocht u nog nieuwe tegenkomen..
gaarne toevoegen. #d66 #pechtold https://t.co/oblqinnqs7|,pos
rt @tponl: oud-mediapark-baasje ton f. van dijk: ‘positie pechtold als leider d66 onhoudbaar’ https://t.co/txvqccgx3c,pos
|rt @conniea52: @d66 @saidkasmid66 wow, hebben jullie wel kennis van zaken? check de winkels groene hilledijk/beijerlandselaan! zwart geld w…|,pos
rt @hansackerny: eindelijk de vraag aan #pechtold bij #dwdd en het antwoord geeft precies weer wat voor een pechtold die vent is. #d66 #gr1…,pos
|rt @rveelo: verkiezingsslogans, geloof ze nooit. @d66 https://t.co/hnahs3cyjh|,pos
|rt @rhetoric_eric: ik voorspel: @d66rotterdam laat zich gewoon weer een coalitie met leefbaar, vvd en cda in rommelen. want 'niks anders mo…|,pos
rt @groenlinks: d66 zei vorig jaar hele wijze dingen over de sleepwet. daar voeren wij graag campagne voor 😉. help mee: stem 21 maart tegen…,pos
rt @kveikeren: je ziet wat het met de voorman van @d66rotterdam doet als je 4 jaar lang op de schoot van @eerdmans en @leefbaarrdam zit. je…,pos
rt @geenstijl: d66 maakt fake straatgesprekken voor campagne https://t.co/bxviladx0x,pos
ik geloof hem allang niet meer @d66rotterdam @stopfeycity #stopfeyenoordcity #gr2018 https://t.co/zjkq11per7,pos
|mocht u nog geld over hebben om over te maken naar rotterdam! via giro 555!! d66 5, pvda 5, groenlinks 5 zetels😊😊🤗… https://t.co/lvd9clzbsv|,pos
|rt @nausicaamarbe: dus bij het verdedigen van liberale waarden, vraagt #d66 zich eerst af wat de imam zal denken. en geeft hem daardoor pol…|,pos
|rt @stefandekoning1: bij @d66rotterdam (5 zetels in de raad) zijn de nummers 2, 3, 4 en 5 een vrouw. die komen er allemaal in als je woensd…|,pos
@georgevangent @rubenmink @clausverbrugge @leefbaarrdam @cdarotterdam @pvdarotterdam @d66rotterdam @vvdrotterdam waar ben ik dan? haha,pos
rt @sprotterdam: "alle prachtige dingen van feyenoord city met het gebied waar @saidkasmid66 en @d66rotterdam mee komen had je ook rond een…,pos
rt @atietwiet: dan zit er toch iets goed fout #vvd #cda #cu #d66 #pvda e.a. &gt;ga al die regeltjes/taksen onnodige belastingen zoals verhuurd…,pos
oud-mediapark-baasje ton f. van dijk: ‘positie pechtold als leider d66 onhoudbaar’ https://t.co/cvmfiyphvp via @tponl,pos
rt @javisstjavisst: ik geloof hem allang niet meer @d66rotterdam @stopfeycity #stopfeyenoordcity #gr2018 https://t.co/zjkq11per7,pos
vandaag het #d66 congres in rotterdam https://t.co/pdjwwd9jnc,pos
|rt @driessewout: in de laatse peiling heeft d66 al 30% van haar aanhang verloren. het gaat goed zo. komt pechtold, verhoeven, kaag en ollon…|,pos
@robjetten @d66 @matthijssienot @tjeerdd66 @jessicavaneijs @piadijkstra “wat is het toch mooi dat zuid-amerikanen b… https://t.co/jv6a4xnpe7,pos
|rt @jkralendijk: @apechtold laat ik hier zo helder mogelijk zeggen; yassmine el ksaihi in amsterdam als d66 kandidaat-raadslid, die in 2010…|,pos
rt @geenstijl: d66 maakt fake straatgesprekken voor campagne https://t.co/bxviladx0x,pos
rt @d66: 🌿 op de #d66bustour staat vandaag een goed klimaat centraal. we reiken groene oorkondes uit aan onze klimaathelden! 📜 #stemd66 htt…,pos
rt @ingridvwifferen: marie-thérèse woltering stemt op 21 maart op ingrid van wifferen de nummer 4 van d66 rotterdam. ze durft haar nek uit…,pos
rt @geenstijl: d66 maakt fake straatgesprekken voor campagne https://t.co/bxviladx0x,pos
|rt @rgfabvld: @kajsaollongren tegen @martinbosma_pvv : "referenda, hartstikke mooi instrument, lekker laten zou ik zeggen" 

#d66 #bestuurl…|,pos
|rt @annejongeling: @mirjam152 "alle immigranten meteen een baan!" werd er vrolijk geroepen op het @d66 congres. gejuich in de zaal.

nu de…|,pos
rt @vlugtstrook: @d66 @apechtold waar je het als d66 nota bene vandaan haalt om juist dít als speerpunt te lopen marketen. uitsluitpartij n…,pos
rt @groenlinks: d66 zei vorig jaar hele wijze dingen over de sleepwet. daar voeren wij graag campagne voor 😉. help mee: stem 21 maart tegen…,pos
rt @nadiaarsieni: @saidkasmid66 legt uit: voor samenwerking met @d66rotterdam staat voorop dat iedere rdammer telt #wereldstad https://t.co…,pos
rt @d66rotterdam: d66 wil schone lucht in rotterdam! daarom rijden nu de eerste waterstofbussen al en hebben we geregeld dat in 2030 de hel…,pos
|rt @rveelo: verkiezingsslogans, geloof ze nooit. @d66 https://t.co/hnahs3cyjh|,pos
rt @tijg55: vanavond 23.10u wordt @apechtold #d66 doormidden gezaagd door @ricknieman. hij gaat vragen stellen over zijn omkoopneukhut en a…,pos
rt @cortes: en hier nog een gratis wallpaper voor je (i)phone. #sleepwet #ollongren #d66 #geenstijl https://t.co/vpnnldgknd,pos
rt @carelbrendel: grijze wolf-kopstuk ontmoet rotterdamse d66-politicus (in 2016). https://t.co/jonxgrj9ie  ik denk dat d66 "zich grondig w…,pos
|rt @driessewout: is deze man van zijn verstand beroofd of ishij gewoon de weg volledig kwijt?
#pechtold #d66 https://t.co/w75d5dopb1|,pos
#d66 gaat vrolijk verder met uitsluiten. lijst @hanssmolders01 is de volgende uitgesloten partij.  https://t.co/aixorrbwx6,pos
|rt @reaumie: d66 wil samenwerken met het oude leefbaar, niet met fvd. nida: wat is er nu wezenlijk veranderd aan leefbaar sinds 4 jaar?|,pos
|rt @rotterdam: in #rotterdam is 30% van de stemmen geteld. #zetelverdeling zou nu zijn:  leefbaar rotterdam 12, vvd 5, pvda 5, d66 4, groen…|,pos
rt @milieucentrum: flyers "een kolenvrije #maasvlakte ... @d66 krijgt het voor elkaar" uitgedeeld bij landelijk #d66 congres in #rotterdam…,pos
asscher: d66 spreekt met gespleten tong over leefbaar. lees meer... https://t.co/kpkgqewjlu,pos
#leefbaar flyert tegen wens #d66 met baudet in rotterdam https://t.co/uu53k4vi3h #rotterdam,pos
|nieuwe tussenstand. 90 procent van de stemmen geteld. leefbaar 11, pvda 5, vvd 5, d66 5, groenlinks 5, denk 3, sp,… https://t.co/18ce6ilj8z|,pos
|rt @d66: 💚 prachtige oproep van d66'er jan terlouw. stem woensdag d66 voor een progressieve samenwerking in jouw gemeente. ⤵
#stemd66 https…|,pos
beter stoppen ze hier hun energie in bij #d66 ipv #donorwet en het afschaffen van het #referendum https://t.co/svdjkfcrhs,pos
rt @michkapteijns74: eerder keurde uw #d66 een postercampagne met een zoenende moslima af nu jezelf voordoen als een partij die op gebied v…,pos
wo! ed groot over de kansen om met de #aow het #pensioen  rechtvaardiger te maken. inkoppertje voor #d66 en… https://t.co/l4rqafwwaz,pos
rt @cees888: zo kiezer #pechtold zegt dus dat we niets mogen vragen over zijn appartement in scheveningen! #d66 vrijheid van vragen stellen…,pos
rt @wjvandinter: @jan_bert @chrisaalberts @carelbrendel @jh020a @ananninga overigens jan-bertje ... heeft je grote d66 leider #kimyongpecht…,pos
@paul_van_meenen @aylatwork @d66 @fvdemocratie misschien kunt u pleiten voor een wet waarin geregeld wordt dat oude… https://t.co/5fptbtivju,pos
rt @groenlinks: d66 zei vorig jaar hele wijze dingen over de sleepwet. daar voeren wij graag campagne voor 😉. help mee: stem 21 maart tegen…,pos
|rt @rveelo: verkiezingsslogans, geloof ze nooit. @d66 https://t.co/hnahs3cyjh|,pos
|rt @tonfvandijk: d66 leider @apechtold kiest er bewust voor om zijn ,kinderen te gebruiken voor politieke campagne en daarmee wordt een gre…|,pos
rt @caziusfons: dag van de verkiezingen: voor @d66rotterdam met @nadiaarsieni de laatste appels uitgedeeld #stemd66 #gr2018 https://t.co/n2…,pos
rt @d66: sommige campagnevideo's gaan veel en véél te ver. retweet deze video als je vindt dat nederland van ons allemaal is. #stemd66 http…,pos
rt @hansackerny: eindelijk de vraag aan #pechtold bij #dwdd en het antwoord geeft precies weer wat voor een pechtold die vent is. #d66 #gr1…,pos
rt @hwhofs: peiling de hond: leefbaar 9 pvda 5 d66 4 sp 6 vvd 4 cda 3 gl 5 nida 1 cusgp 1 pvdd 1 denk 2 50 plus 1 pvv 3 #pauw,pos
rt @d66: sommige campagnevideo's gaan veel en véél te ver. retweet deze video als je vindt dat nederland van ons allemaal is. #stemd66 http…,pos
|rt @percolator_hnj: #d66 is onder @apechtold verworden tot een partij van zich superieur voelende harteloze technocraten. ze staan voor:
🔸…|,pos
rt @hwhofs: peiling de hond: leefbaar 9 pvda 5 d66 4 sp 6 vvd 4 cda 3 gl 5 nida 1 cusgp 1 pvdd 1 denk 2 50 plus 1 pvv 3 #pauw,pos
|rt @trump023: mijn oom was vroeger op verjaardagen altijd trots over d66 aan het vertellen. hij is tegenwoordig heel stil. 

arme man. bese…|,pos
https://t.co/o5f9dbewfk 👉 zie agendapunt 9. de haarlemse @d66 wethouder luid &amp; duidelijk dat hij bij moskeeën het d… https://t.co/y4zouktw9w,pos
|rt @jrreport: felle discussies, de opkomst van denk en pvv rotterdam, uitsluiting leefbaar rotterdam door d66 vanwege baudet en opkomst/afb…|,pos
rt @hwhofs: peiling de hond: leefbaar 9 pvda 5 d66 4 sp 6 vvd 4 cda 3 gl 5 nida 1 cusgp 1 pvdd 1 denk 2 50 plus 1 pvv 3 #pauw,pos
|rt @kevinlevie: [column] kiezer, verlos ons van d66
deel dit artikel met vrienden die overwegen d66 te stemmen!
https://t.co/k2sgyptjba|,pos
rt @jkralendijk: @geertwilderspvv die pvda/groenlinks/ d66 en nu ook de sp zijn werkelijk compleet van padje af om met die is en salafisten…,pos
rt @tonfvandijk: @bartnijman @schellevis @pechtold wat mij betreft is @apechtold onhoudbaar als leider van @d66 omdat hij: loog over een pr…,pos
rt @rvm1908: @adriaanvisser @d66rotterdam mensen met verstand stemmen niet op @d66rotterdam ! #stopfeyenoordcity,pos
|rt @vogelvrijeharts: #d66 en #pechtold schaffen, als ze de kans krijgen, namens zorgverzekeraars uw vrije artsenkeuze af, mollen met de #sl…|,pos
rt @reaumie: d66 sluit samenwerking met leefbaar niet uit als het weer het oude leefbaar wordt,pos
@sinnetolsma @marcelhoud66 @nossport @d66 nog niks veranderd die sinne.,pos
rt @d66: stem vandaag voor de enige progressieve partij die kiest voor samenwerking. maak d66 ook in jouw gemeente de grootste! #stemd66 ht…,pos
|rt @jkralendijk: @apechtold laat ik hier zo helder mogelijk zeggen; yassmine el ksaihi in amsterdam als d66 kandidaat-raadslid, die in 2010…|,pos
|a13/a16 - d66 wil, vlak voor de verkiezingen, de luchtkwaliteit in rotterdam verbeteren. d66'er schampers verdedigd… https://t.co/wqwk2hedcp|,pos
rt @geenstijl: d66 maakt fake straatgesprekken voor campagne https://t.co/bxviladx0x,pos
rt @tponl: thierry baudet – waarom ik vrijdag niet met d66 in debat ga #pauw https://t.co/nzr63q8cld,pos
@kveikeren @engberts @jwgerritsenvand @barbarakathmann @peter26061980 @d66rotterdam @cdarotterdam @leefbaarrdam… https://t.co/jmsc0iwmnf,pos
rt @d66: sommige campagnevideo's gaan veel en véél te ver. retweet deze video als je vindt dat nederland van ons allemaal is. #stemd66 http…,pos
rt @javisstjavisst: @sprotterdam @saidkasmid66 @d66rotterdam @ldekleijn @rtv_rijnmond @frfc1908 met onze stem kunnen we nog tegengas geven.…,pos
rt @michkapteijns74: eerder keurde uw #d66 een postercampagne met een zoenende moslima af nu jezelf voordoen als een partij die op gebied v…,pos
rt @jongerius_s: @010klassiekers @adriaanvisser @milieuzone010 @ietsniels @d66rotterdam @pexlangenberg trots en langenberg in 1 zin?! #mili…,pos
|rt @tonfvandijk: d66 leider @apechtold kiest er bewust voor om zijn ,kinderen te gebruiken voor politieke campagne en daarmee wordt een gre…|,pos
rt @s_aslami: #d66 bustour 🚌 door #scheveningen #delft #rotterdam #utrecht. nog 3 dagen te gaan! #stemd66 https://t.co/jjcnsj5fwm,pos
rt @rdamklimaat: opvallend (en positief!) dat @d66rotterdam ‘actief aandeelhouder’ van haven wil zijn. helaas laat juist d66 nu veel kansen…,pos
ik ben om! waar kan ik de sleutels afhalen? bestel de verhuiswagen maar. #d66 https://t.co/jit24syczj,pos
rt @mmeeuw: @vvdrotterdam @d66rotterdam @stadsinitia010 @pvddrotterdam @pvdarotterdam @nidarotterdam dank je wel voor het snelle antwoord.…,pos
|rt @mmeeuw: hoi @d66rotterdam @stadsinitia010 @pvddrotterdam @pvdarotterdam @nidarotterdam @vvdrotterdam even een check, want ik hoor dat v…|,pos
|rt @jrreport: felle discussies, de opkomst van denk en pvv rotterdam, uitsluiting leefbaar rotterdam door d66 vanwege baudet en opkomst/afb…|,pos
rt @bartnijman: handleiding: stop @d66 voor het te laat is https://t.co/c6oamfx3xj,pos
rt @ronvanzeeland: het lijkt wel haast alsof @d66rotterdam de afgelopen jaar niet met leefbaar in een coalitie zat. maar electoraat wordt g…,pos
|rt @rinusvanriel: juist! rt @svanweyenberg: alsof je de files (wachtlijsten) wilt bestrijden door meer auto’s op de weg..... 
d66 kiest voo…|,pos
|rt @adrianne010: nieuwe tussenstand. 90 procent van de stemmen geteld. leefbaar 11, pvda 5, vvd 5, d66 5, groenlinks 5, denk 3, sp, cda, pv…|,pos
|rt @adrianne010: nieuwe tussenstand. 90 procent van de stemmen geteld. leefbaar 11, pvda 5, vvd 5, d66 5, groenlinks 5, denk 3, sp, cda, pv…|,pos
rt @margueriteaberg: fijn ook dat d66 ondanks alle 'wij gaan na de verkiezingen niet met leefbaar'-retoriek de leefbaar campagne hier een h…,pos
|rt @martinbosma_pvv: d66 stemt nu tégen het correctief referendum.

vreemd. het correctief referendum was zó belangrijk voor d66 dat het be…|,pos
rt @mmeeuw: u @saidkasmid66 heeft  met @d66rotterdam  menig rotterdammer overgeleverd aan verdeeldheid met uw coalitie #leefbaarrotterdam…,pos
rt @ewoudkieviet: '@d66rotterdam houdt nu weer de deur open naar @leefbaarrdam. als je niet oplet krijg je met je stem op d66 thierry baude…,pos
rt @d66: sommige campagnevideo's gaan veel en véél te ver. retweet deze video als je vindt dat nederland van ons allemaal is. #stemd66 http…,pos
rt @alptekinakdogan: luister hier naar en denk goed na als je van plan was om @d66 te stemmen. wat een schandalige partij. https://t.co/mqb…,pos
rt @derksen_gelul: als je ook de neus vol hebt van carrière politici van oa #vvd #d66 #pvda #gl die er puur zitten voor hun eigengewin en h…,pos
|rt @quinsyg: trouwens, er is nog geen antwoord gekomen op mijn vraag richting @d66rotterdam of ze na de verkiezingen nog met leefbaar in ee…|,pos
rt @dagblad010tweet: ingreep d66 minister juist bij afwijzing rotterdamwet https://t.co/dftqfbisyc #010 #rotterdam #dagblad010,pos
|rt @frfc1908: verwoestende bijdrage van @groenlinksrdam over #stopfeyenoordcity . d66 weggeblazen. goed verhaal, feyenoord heeft geen gemee…|,pos
|rt @hapbraam: back home voor @salimabelhaj èn mijzelf, mooie campagnetour door binnenstad met @d66rotterdam @piadijkstra #d66krijgthetvoore…|,pos
rt @willy_vet: vergeet #d66 @d66 nooit meer .! https://t.co/8xp3zcbrk8,pos
rt @d66: 🔥 je hebt 1⃣ uur de tijd om te stemmen! roep al je volgers op om nog naar de stembus te gaan 👉 retweet dit bericht! #stemd66 https…,pos
|rt @ddeaconblues: vanavond is de opper-demofoob van #d66 te gast bij #wnlopzondag. mis het niet, of juist wél! #pechtold #wnl 
https://t.co…|,pos
|rt @sunsfield: wel een lekker stel dat @d66rotterdam  eerst #waterfront waar 
https://t.co/l6j0pa4j1b @adriaanvisser  ff niet op letten en…|,pos
@bentualdepineut @d66 @saidkasmid66 een enkele reis is voor de helft van je vakantievliegreis te boeken.,pos
rt @ingridvwifferen: campagnevoeren is soms best wel eng. #d66rotterdam #comiccon https://t.co/zprmer44tp,pos
rt @diederiksmit: links blijft samenwerken met een partij die vol trots israel gelijkstelt aan is. d66 sluit leefbaar uit omdat het samenwe…,pos
|rt @stefandekoning1: bij @d66rotterdam  (5 zetels in de raad) zijn de nummers 2, 3, 4 en 5 vrouwen. die komen er allemaal in als je woensda…|,pos
rt @d66zh: wij zijn op zoek naar jou! https://t.co/pi2uws8dud via @d66 #d66,pos
|rt @d66rotterdam: @ietsniels @wkoolmees @piadijkstra @salimabelhaj @matthijssienot @d66 nee hoor, onze #d66 bus rijdt co2 neutraal! :) #goe…|,pos
rt @fvdamsterdam: de snel groeiende paniek bij @apechtold en @d66 over #fvd is wel begrijpelijk. explosieve groei nu voor forum voor democr…,pos
rt @nporadio1: het debat tussen @apechtold van @d66 en @tunahankuzu van @denknl gaat van start. luister nu live mee: https://t.co/w56yxdzzj…,pos
|rt @engberts: vanavond bij #spiordebat was antwoord @d66rotterdam : “op dit moment, na de opstelling van @leefbaarrdam in debat gisteravond…|,pos
@d66 niemand in deze partij mag wat zeggen ove pechty's appertment in den haag!!!,pos
|rt @svenstweet: breek!

na het succesvol afschaffen van de #referendumwet heeft @d66 zojuist bij monde van @kajsaollongren een wetsvoorstel…|,pos
|rt @d66: de 🚲 zit in ons dna! daarom investeert d66 flink in de fiets. ook in jouw gemeente! ⤵
🚲 voorrang voor fietsers
🚲 bredere fietspade…|,pos
d66 wil beter onderwijs. goed plan! dan kan hun folderbezorger de "nee-sticker" op de brievenbus leren lezen #d66 #vervuiling,pos
|rt @frankwijn1: dus #d66 is nu vóór een correctief referendum en 5 maanden geleden (27.9.2017) tégen een correctief referendum.
duidelijk v…|,pos
rt @rtv_rijnmond: d66 nu definitief: niet met leefbaar in college https://t.co/vdogkd67l0,pos
#d66 goed gelukt van jullie inspanning om #eu te vernieuwen &amp; democratiseren? https://t.co/0iw0jsci6r,pos
rt @schooldakrev: d66 fractie in gemeente utrecht wilt dat alle scholen actief benaderd worden om te investeren in zonnepanelen om vervolge…,pos
|rt @barbarakathmann: sinds 2014 zijn er onder leefbaar rotterdam, d66 en het cda netto vier(!) huizen bijgekomen! we moeten weer gaan bouwe…|,pos
|rt @adrianne010: nieuwe tussenstand. 90 procent van de stemmen geteld. leefbaar 11, pvda 5, vvd 5, d66 5, groenlinks 5, denk 3, sp, cda, pv…|,pos
|rt @quinsyg: trouwens, er is nog geen antwoord gekomen op mijn vraag richting @d66rotterdam of ze na de verkiezingen nog met leefbaar in ee…|,pos
|rt @mmeeuw: hoi @d66rotterdam @stadsinitia010 @pvddrotterdam @pvdarotterdam @nidarotterdam @vvdrotterdam even een check, want ik hoor dat v…|,pos
rt @atietwiet: dan zit er toch iets goed fout #vvd #cda #cu #d66 #pvda e.a. &gt;ga al die regeltjes/taksen onnodige belastingen zoals verhuurd…,pos
rt @sprotterdam: "alle prachtige dingen van feyenoord city met het gebied waar @saidkasmid66 en @d66rotterdam mee komen had je ook rond een…,pos
|rt @barbarakathmann: sinds 2014 zijn er onder leefbaar rotterdam, d66 en het cda netto vier(!) huizen bijgekomen! we moeten weer gaan bouwe…|,pos
|rt @nickje64: @d66 en @pvda worden keihard afgestraft vandaag. en dat is in ieder geval een beetje (héél) goed nieuws vanavond. 
#gr2018
#e…|,pos
rt @robertpbas: pvda-leider lodewijk asscher: d66 spreekt met gespleten tong als het gaat om samenwerken met baudet. pechtold neemt afstand…,pos
rt @dandoen: @ietsniels @d66 wat niels zegt: kom voortaan lekker met de trein. een boom planten in bolivia omdat je fijnstof uitstoot op de…,pos
rt @buijtleefbaar: dus als ik #zml goed begrijp verspreidde d66 minister ollongren bewust nepnieuws over #sleepwet en liet vvd'er rutte een…,pos
@stefandekoning1 @versbeton @reaumie bij mij stond d66 beide keren niet in de top 5 xx,pos
d66 wil best weer in zee met leefbaar rotterdam. op één voorwaarde - als leefbaar rotterdam afstand doet van de uit… https://t.co/x3i1qznuw9,pos
|rt @driessewout: is deze man van zijn verstand beroofd of ishij gewoon de weg volledig kwijt?
#pechtold #d66 https://t.co/w75d5dopb1|,pos
rt @sjoerdkeulen: @erbaalimurad @dvhn_nl @pvda @d66 @spnl @groenlinks een volwassen vrouw aanspreken met meisje. en dan zelfvlaten zien dat…,pos
rt @anttiliukku: over de bijstand: kathmann van de pvda valt d66 en indirect leefbaar aan: u heeft miljoenen geïnvesteerd om een paar fraud…,pos
rt @highmike__: @d66 @cdavandaag @annenoordzij @_buitenhuis ik zie graag een verlaging van de #schenkbelasting. heb onlangs een huis gekreg…,pos
rt @truusdemierr5: geweldig!! en geert heeft zo gelijk. smerige corrupte @d66 @apechtold  en @nos dus ook @nieuwsuur werkt mee dit in de do…,pos
rt @percolator_hnj: blijkbaar wil @d66 helemaal kapot bij de #gr2018 verkiezingen. en dat is goed nieuws! stem ze compleet weg op 21 maart!…,pos
rt @warmrotterdam: cusgp en groenlinks en d66 en pvda en nida en cda en vvd en sp accepteren het manifest #rotterdamschuldvrij voor een#war…,pos
|rt @d66hiambacht: d66 wil hendrik-ido-ambacht aantrekkelijker maken voor jongeren.
. meer horeca 
. meer betaalbare woningen 
. een vaste p…|,pos
|rt @lokien3: @shirinmusa @d66 met de keuze voor moskeeën als de vertegenwoordigers van migranten en hun nakomelingen, laat de politiek geïn…|,pos
rt @geenstijl: d66 maakt fake straatgesprekken voor campagne https://t.co/bxviladx0x,pos
|rt @remkotheulings: groep de mos verovert den haag op d66: is na 50% geteld de grootste met 9 zetels. vvd heeft er 7, d66 6. #gr2018 @eenva…|,pos
|rt @twijfelbewaren: @keesvee @zondagmetlubach je mag dus van d66 eerst 2 jaar slepen, daarna vindt een evaluatie plaats (zijn we +3 jaar ve…|,pos
rt @tanker070: subsidie van #dipsaus is zeker toegekend door @vvd @d66 en @groenlinks https://t.co/3rvotc73gz,pos
|rt @jndkgrf: dat de eigenaar van de omkoopneukhut een recidivist is, is keurig gedocumenteerd door de @volkskrant #d66 #recidive #omkoping…|,pos
rt @diederiksmit: links blijft samenwerken met een partij die vol trots israel gelijkstelt aan is. d66 sluit leefbaar uit omdat het samenwe…,pos
|rt @fjbmgess: wie van de twee amsterdammertjes wilt u zich vergooien?

#d66 #groenlinks
#amsterdam

https://t.co/as9ubvtix3

https://t.co/6…|,pos
|@d66schiedam @mrbregman zijn er nog gratis appartementen vrij in schiedam?
#gr2018 #pechtold #d66 #ollongren… https://t.co/vbxxgrxnml|,pos
|rt @harmbeertema: het rapportcijfer voor het onderwijsbeleid van de onderwijspartij @d66 is uitgedeeld: een 3,7!  feli’s @paul_van_meenen e…|,pos
rt @buijtleefbaar: dus als ik #zml goed begrijp verspreidde d66 minister ollongren bewust nepnieuws over #sleepwet en liet vvd'er rutte een…,pos
rt @nickmallo_: iets zegt mij dat ze bij d66 niet blij zijn met deze tweet. #nickdoetverslag https://t.co/1m4vjubi42,pos
rt @fvdamsterdam: de snel groeiende paniek bij @apechtold en @d66 over #fvd is wel begrijpelijk. explosieve groei nu voor forum voor democr…,pos
@adriaanvisser @d66 misschien dan geen continuïteit in d66 fractie dan wel met onze huidige d66 wethouder in komend college. ervaring telt!,pos
rt @harmbeertema: deze draad. de dominantie van @groenlinks en @d66 doet z’n giftige werk. resultaat: onderwijs als een hermetisch gesloten…,pos
|rt @josverveen: partijen als #leefbaar, #pvda, #d66 en #vvd doen u warme beloftes op gebied van #armoede, #onderwijs, #veiligheid en #zorg.…|,pos
rt @matindaftari: krijg bijna medelijden met @d66rotterdam . gaat dramatisch daar bij #pauw. hun verhaal slaat zo nergens op dat je er verd…,pos
|rt @r0eland: #d66 kocht voor #gr18 verkiezing van vandaag bovenste 'trending topic' van 'twitter netherlands trends' met hashtag #stemd66,…|,pos
rt @ewoudkieviet: '@d66rotterdam houdt nu weer de deur open naar @leefbaarrdam. als je niet oplet krijg je met je stem op d66 thierry baude…,pos
|rt @wsonneveld: het is vrij simpel: leefbaar, pvda, d66 en cda gaan stemmen verliezen. de rest krijgt er stemmen bij. #raad010|,pos
we zijn nog geen kwartier bezig en het eerste nieuwe verbond is voorgesteld. denk wil samen gaan met d66 en pvda al… https://t.co/aecnbozr81,pos
|rt @dokkie27: een bam! #briefjevanjan @jndkgrf 
aan @kajsaollongren #ollongren

stuitend, elitair en drammend de d66 agenda doorvoerend.  h…|,pos
|rt @jndkgrf: dat de eigenaar van de omkoopneukhut een recidivist is, is keurig gedocumenteerd door de @volkskrant #d66 #recidive #omkoping…|,pos
rt @peterkwint: yes. ruime kamermeerderheid (iedereen behalve d66 en cda) steunt mijn voorstel met @dilanyesilgoz om eu vs disinfo zo snel…,pos
|d66 rotterdam blij met 130 miljoen voor rotterdam-zuid (d66 rotterdam) https://t.co/8h66ysrwt1

maak uw eigen filte… https://t.co/adlhvxjhey|,pos
rotterdam voorlopig definitief: lr 11 - pvda 5 - d66 5 - sp 2 - vvd 5 - cda 2 gl 5 - nida 2 - cu/sgp 1 - pvdd 1 - 5… https://t.co/cvt2i13ayc,pos
|rt @robertpbas: voorlopige tussenstand in rotterdam bij 30 procent van de stemmen geteld: leefbaar rotterdam 12 zetels, pvda 5, d66 4, vvd…|,pos
|rt @mijzelf01: alexandros penthousicus corruptus... pak je spullen en rot op!
d66 recht in de vuurlinie https://t.co/s96ghhxbwa via @telegr…|,pos
|rt @gerbijl: volgende congres van @d66 zal worden gehouden in brussel de  nieuwe hoofdstad van nederland!
heeft 🏦penthouse @apechtold daar…|,pos
|rt @elskeschreuder: #gr2018 en #wijkraad natuurlijk! de meeste ondernemers leggen graag n flyer voor @d66rotterdam neer, met ook mijn info.…|,pos
rt @milieuzone010: @jongerius_s @d66rotterdam @010klassiekers @vvdrotterdam @leefbaarrdam net als met campers dus!,pos
rt @leefbaarrdam: thierry baudet hekelt d66 voor uitsluiting leefbaar rotterdam - #rtvrijnmond https://t.co/27zcyw25hd,pos
rt @seven__: waarom vraagt jan paternotte d66 niet aan hans wijers of die de verdubbeling vh salaris van de topman kan uitleggen? die is im…,pos
@brasilsamba @marcelzegtniets @identitair @d66 bedankt dat je met naam en toenaam dit gepost hebt heb er een prints… https://t.co/4vxezxraxm,pos
|rt @ddstandaard: lezen! peiling de hond: leefbaar rotterdam blijft veruit de grootste, pvv van 0 naar 3, pvda en d66 donderen in elkaar htt…|,pos
rt @diederiksmit: links blijft samenwerken met een partij die vol trots israel gelijkstelt aan is. d66 sluit leefbaar uit omdat het samenwe…,pos
rt @dennisboutkan: bizar 👉🏼 @d66rotterdam wil nog steeds samenwerken met @leefbaarrdam. @fvdamsterdam gaat nóg meer samenwerken met @leefba…,pos
rt @hwhofs: d66 wil graag uitpraten. denk maakt onbedoelde woordgrap “u maakt een denkfout...” #010debat,pos
rt @pvvyuri: het #verlochenen van je ideaal is standaard voor de zittende partijen. #vvd #cda #d66 #cu. alles voor de #macht! https://t.co/…,pos
|@j3ro3nj geen verrassing, fijn dat docenten het opmerken. denk tegenwoordig de meest onbetrouwbare partij, d66 scha… https://t.co/qspkbiui4f|,pos
rt @tjeerdd66: 🐟 95 miljoen euro voor betere natuur- en waterkwaliteit in nl! dankzij inzet #d66 besteedt kabinet maar liefst 95 miljoen eu…,pos
rt @rotdromers: mooi. @d66rotterdam durft te dromen. @saidkasmid66 geeft aan bij @openrotterdam dat hij voor een cirkelmetrolijn is die cha…,pos
rt @dagblad010tweet: leefbaar flyert tegen wens d66 met baudet in rotterdam https://t.co/phqj7qf246 #010 #rotterdam #dagblad010,pos
rt @anttiliukku: over de bijstand: kathmann van de pvda valt d66 en indirect leefbaar aan: u heeft miljoenen geïnvesteerd om een paar fraud…,pos
|rt @d66rotterdam: onze roze kroegentocht is in volle gang! samen met ondernemers wil d66 de komende jaren toewerken naar een bruisend, dive…|,pos
rt @nickmallo_: iets zegt mij dat ze bij d66 niet blij zijn met deze tweet. #nickdoetverslag https://t.co/1m4vjubi42,pos
@pvdarotterdam @leefbaarrdam @d66 @cdavandaag @barbarakathmann en kiest de pvda ervoor om met nida in zee te gaan.,pos
rt @dagvantoen: vandaag in 2012 - op initiatief van raadslid @josverveen van (toen nog) @d66rotterdam kunnen mensen stemmen op het stadsini…,pos
rt @d66: sommige campagnevideo's gaan veel en véél te ver. retweet deze video als je vindt dat nederland van ons allemaal is. #stemd66 http…,pos
rt @tponl: thierry baudet – waarom ik vrijdag niet met d66 in debat ga #pauw https://t.co/nzr63q8cld,pos
rt @fvdamsterdam: de snel groeiende paniek bij @apechtold en @d66 over #fvd is wel begrijpelijk. explosieve groei nu voor forum voor democr…,pos
|rt @barbarakathmann: sinds 2014 zijn er onder leefbaar rotterdam, d66 en het cda netto vier(!) huizen bijgekomen! we moeten weer gaan bouwe…|,pos
|rt @keesjoosten67: ‘cultuur is een waarde op zich, waar de overheid in moet (en weer kán) investeren’. @ivanengelshoven @d66|,pos
rt @diederiksmit: links blijft samenwerken met een partij die vol trots israel gelijkstelt aan is. d66 sluit leefbaar uit omdat het samenwe…,pos
|rt @gaypalace: @stijnwenders @dennis_kollaard @yerramautarsing achterbakse pisvlek.
bij jouw partij zijn ze ook lekker homofoob. @d66 
ik z…|,pos
|rt @tonfvandijk: d66 leider @apechtold kiest er bewust voor om zijn ,kinderen te gebruiken voor politieke campagne en daarmee wordt een gre…|,pos
|rt @barbarakathmann: sinds 2014 zijn er onder leefbaar rotterdam, d66 en het cda netto vier(!) huizen bijgekomen! we moeten weer gaan bouwe…|,pos
rt @piadijkstra: met @salimabelhaj in de bus mentaal voorbereiden op de kou.  #boulevard #scheveningen #d66bustour #stemd66 https://t.co/r0…,pos
|rt @diederiksmit: "deze tijd vraagt om samenwerken, ook als je het niet altijd met elkaar eens bent." d66 heeft forum voor democratie en le…|,pos
|zo is het maar net, veel groene praatjes van @d66rotterdam maar vooral vervuilende daden: volop steun voor nog 25 j… https://t.co/hm8dnszu5d|,pos
rt @javisstjavisst: @sprotterdam @saidkasmid66 @d66rotterdam @ldekleijn @rtv_rijnmond @frfc1908 met onze stem kunnen we nog tegengas geven.…,pos
rt @hansackerny: eindelijk de vraag aan #pechtold bij #dwdd en het antwoord geeft precies weer wat voor een pechtold die vent is. #d66 #gr1…,pos
rt @hwhofs: peiling de hond: leefbaar 9 pvda 5 d66 4 sp 6 vvd 4 cda 3 gl 5 nida 1 cusgp 1 pvdd 1 denk 2 50 plus 1 pvv 3 #pauw,pos
rt @anttiliukku: over de bijstand: kathmann van de pvda valt d66 en indirect leefbaar aan: u heeft miljoenen geïnvesteerd om een paar fraud…,pos
rt @carelbrendel: grijze wolf-kopstuk ontmoet rotterdamse d66-politicus (in 2016). https://t.co/jonxgrj9ie  ik denk dat d66 "zich grondig w…,pos
rt @matindaftari: krijg bijna medelijden met @d66rotterdam . gaat dramatisch daar bij #pauw. hun verhaal slaat zo nergens op dat je er verd…,pos
|mooi zo, #stemzeweg #d66 'doe je vier jaar je stinkende best, komt dit net voor de verkiezingen' https://t.co/kqmgnt1lrr via @nieuwsuur|,pos
rt @jackpecozi: d66 nu definitief: niet met leefbaar in college - #rtvrijnmond https://t.co/xnfrg36gzd,pos
rt @wellesegni: @jndkgrf @pieteromtzigt @tunahankuzu @d66 wie gaat onze eigen disinfo website maken? nlvsdisinfo is nog vrij...,pos
|rt @dossierpechtold: @d66 graag maken we iedereen nogmaals attent op #dossierpechtold #weetwaaropjestemt #gr2018 retweet aub. 

https://t.c…|,pos
rt @jongerius_s: duidelijke oproep van een burger! @d66rotterdam is dit dus niet! wie wel @vvdrotterdam @stadsinitia010 @pvdarotterdam @pvd…,pos
|rt @shrimpocat: 100% mee eens, @thierrybaudet.

thierry baudet – waarom ik vrijdag niet met d66 in debat ga #pauw https://t.co/hbzovtqahc v…|,pos
rt @vincentkar: helder: met een stem op @d66rotterdam krijg je het linkse blok van @nidarotterdam @pvdarotterdam @sprotterdam en @groenlink…,pos
|rt @robertpbas: voorlopige tussenstand in rotterdam bij 30 procent van de stemmen geteld: leefbaar rotterdam 12 zetels, pvda 5, d66 4, vvd…|,pos
|rt @martijnheeroma: d66 zakt in amsterdam van 14 naar 9 zetels in de peilings vandaar
#pvv https://t.co/qad7parop2|,pos
rt @rtv_rijnmond: d66 nu definitief: niet met leefbaar in college https://t.co/vdogkd67l0,pos
|rt @wsonneveld: die campagne van d66 rotterdam, wat een trainwreck. https://t.co/tdcvbcacqf|,pos
rt @diederiksmit: links blijft samenwerken met een partij die vol trots israel gelijkstelt aan is. d66 sluit leefbaar uit omdat het samenwe…,pos
@keesjoosten67 @carlschroder1 @d66 dan vraag ik me toch af waar je "gewoon" en "gemengd" woont? #dtv,pos
|rt @jndkgrf: dat de eigenaar van de omkoopneukhut een recidivist is, is keurig gedocumenteerd door de @volkskrant #d66 #recidive #omkoping…|,pos
|rt @barbarakathmann: sinds 2014 zijn er onder leefbaar rotterdam, d66 en het cda netto vier(!) huizen bijgekomen! we moeten weer gaan bouwe…|,pos
rt @b2voicenot2echo: maar @d66 mag en kan dat gewoon! https://t.co/jdpxgga4jl,pos
|rt @kevinlevie: [column] kiezer, verlos ons van d66
deel dit artikel met vrienden die overwegen d66 te stemmen!
https://t.co/k2sgyptjba|,pos
|@stemzeweg @cdavandaag @vvd @d66 @pvda @christenunie @groenlinks ze wonen niet bij hun in de buurt, dus het kan ze geen reet schelen!|,pos
rt @lilyflower36: @keesvee hoop toch echt een keer dat men gaan beseffen dat @d66 met onder ander @apechtold  @keesvee  en nog die 3 dames…,pos
heb appeltje gekregen van d66 dus ik ben om,pos
rt @trias_politica: #d66 maakt fake straatgesprekken voor campagne https://t.co/jpobmlf0xr 'in rotterdam faket '66 straatinterviews over de…,pos
|rt @engberts: vanavond bij #spiordebat was antwoord @d66rotterdam : “op dit moment, na de opstelling van @leefbaarrdam in debat gisteravond…|,pos
rt @robindraastens: bent u voor méér veiligheid stem dan niet op #vvd #cda #d66 #cu #christenunie en #groenlinks #gl https://t.co/6uzmmtqxbl,pos
|rt @robertpbas: voorlopige tussenstand in rotterdam bij 30 procent van de stemmen geteld: leefbaar rotterdam 12 zetels, pvda 5, d66 4, vvd…|,pos
rt @warmrotterdam: cusgp en groenlinks en d66 en pvda en nida en cda en vvd en sp accepteren het manifest #rotterdamschuldvrij voor een#war…,pos
rt @rokerspetera: @goossensjohan @paulineduimel laat die grijze wolven maar schuiven @vvd @cdavandaag @d66 @christenunie @groenlinks @spnl…,pos
rt @matindaftari: krijg bijna medelijden met @d66rotterdam . gaat dramatisch daar bij #pauw. hun verhaal slaat zo nergens op dat je er verd…,pos
rt @ext_ra: we zijn nog geen kwartier bezig en het eerste nieuwe verbond is voorgesteld. denk wil samen gaan met d66 en pvda als het gaat o…,pos
rt @matindaftari: krijg bijna medelijden met @d66rotterdam . gaat dramatisch daar bij #pauw. hun verhaal slaat zo nergens op dat je er verd…,pos
rt @d66: “leefbaar wil dat de turkse supermarkt plaatsmaakt voor een nederlandse groenteboer. d66 staat juist voor verbinding. wij zullen d…,pos
|rt @slechtvolk: pas op voor orgaanrovers mensen! ze vormen een plaag!

ze verhullen zich in onschuldig uitziende witte jasjes ... @d66 http…|,pos
|rt @d66rotterdam: 'verandering begon daar', is ook best een aardige slogan #d66krijgthetvoorelkaar #stemd66 https://t.co/tckeigqaqc|,pos
rt @hansackerny: eindelijk de vraag aan #pechtold bij #dwdd en het antwoord geeft precies weer wat voor een pechtold die vent is. #d66 #gr1…,pos
rt @groenlinks: d66 zei vorig jaar hele wijze dingen over de sleepwet. daar voeren wij graag campagne voor 😉. help mee: stem 21 maart tegen…,pos
@judithbokhove dat komt dan goed uit want helemaal niemand heeft nog vertrouwen in het moraal van #d66,pos
rt @d66: sommige campagnevideo's gaan veel en véél te ver. retweet deze video als je vindt dat nederland van ons allemaal is. #stemd66 http…,pos
rt @derksen_gelul: als je ook de neus vol hebt van carrière politici van oa #vvd #d66 #pvda #gl die er puur zitten voor hun eigengewin en h…,pos
|rt @elskeschreuder: ja koud maar wel weer gezellig bij @rdamseoogst!
en podium gehad voor info over voedselbeleid.
#gr2018 
@d66rotterdam h…|,pos
|rt @d66amsterdam: d66 kiest voor kunst en cultuur! ✅ stem 21 maart d66                         

lees meer 👉 https://t.co/dszhu6pyov https:…|,pos
rt @robertpbas: pvda-leider lodewijk asscher: d66 spreekt met gespleten tong als het gaat om samenwerken met baudet. pechtold neemt afstand…,pos
rt @ronald_brok: @d66 het grootste compliment is voor jullie leider @apechtold die wegkomt met zijn gratis #penthouse waar de gemiddelde ar…,pos
rt @hansackerny: @d66 @d66denhaag @rvanasten ook @apechtold wil nog wat zeggen  https://t.co/fm7ijhagmm,pos
|rt @miranda3286: voor alle @d66 gemeenteraads kandidaten, succes vandaag!!!! wij in de #hoekschewaard wachten nog tot 21 november #herindel…|,pos
rt @cafeweltschmerz: verkiezingen op 21 maart bepaalt de keuze voor de nieuwe burgemeester. de grootste partij levert. een stem op @d66 maa…,pos
rt @bbalings: het is wel duidelijk waar de hoofdstedelijke d66 bang voor is. https://t.co/2meejtzt99,pos
|rt @derksen_gelul: ja hoor, eerst sloopt de regering onder aanvoering van #d66 het #referendum en nu zorgen ze er zelfs voor dat ze verkiez…|,pos
rt @timvanlieshout: d66 lijsttrekker r’dam bij pauw wordt geconfronteerd met feit dat zijn college 4(!!!) woningen in 4jr gebouwd heeft. d6…,pos
rt @antjediertens: kijk mijn #d66 vrienden in utrecht eens campagne voeren bij rookvrij @kamponghockey goed bezig! #rookvrijegeneratie http…,pos
|rt @mrspadd0ck: @shirinmusa @d66 goh, een religie inspraak geven in je gemeentebeleid. bijzonder|,pos
|rt @rveelo: verkiezingsslogans, geloof ze nooit. @d66 https://t.co/hnahs3cyjh|,pos
|rt @d66rotterdam: constructieve avond in ferry met o.a. @dustgersanowitz over #ikbenhetzat, tweede kamerlid @achrafboualid66 en d66 gemeent…|,pos
|rt @jndkgrf: dat de eigenaar van de omkoopneukhut een recidivist is, is keurig gedocumenteerd door de @volkskrant #d66 #recidive #omkoping…|,pos
rt @introversum1: volstrekt ongeloofwaardig dat @d66 nog achter het #referendum staat. voor de bühne nu gauw zeggen dat ze echt wel bindend…,pos
|rt @nausicaamarbe: dus bij het verdedigen van liberale waarden, vraagt #d66 zich eerst af wat de imam zal denken. en geeft hem daardoor pol…|,pos
|rt @stefandekoning1: bij @d66rotterdam (5 zetels in de raad) zijn de nummers 2, 3, 4 en 5 een vrouw. die komen er allemaal in als je woensd…|,pos
rt @d66rotterdam: d66 kijkt verder dan 21 maart! voor toekomstige samenwerking staat voorop dat iedere rotterdammer telt. daar komen we ver…,pos
|rt @d66rotterdam: d66 wil schone lucht in rotterdam! daarom willen we beter ov tussen noord en zuid, als goed alternatief voor de auto. d66…|,pos
rt @misterjoop: dat u het weet een stem op #pvda #sp #groenlinks #d66 is een stem op de antisemieten van #nida #gemeenteraadsverkiezingen h…,pos
ook @elbayfatih zet zich in voor rotterdam en alle rotterdammers ! @d66rotterdam heeft met hem een toekomstige burg… https://t.co/odcv7btfp5,pos
rt @rdamklimaat: opvallend (en positief!) dat @d66rotterdam ‘actief aandeelhouder’ van haven wil zijn. helaas laat juist d66 nu veel kansen…,pos
@mmeeuw @vvdrotterdam @d66rotterdam @stadsinitia010 @pvddrotterdam @pvdarotterdam @nidarotterdam ha marina. wij… https://t.co/nuo98zrjap,pos
|dus even samenvattend na vanavond: groenlinks sluit nida, leefbaar en pvv uit. d66 sluit leefbaar en pvv uit. nida… https://t.co/nrdyn1mjvb|,pos
@pvdarotterdam @vvdrotterdam @d66rotterdam @cdarotterdam @leefbaarrdam @groenlinksrdam @cusgprotterdam… https://t.co/a97rozxxff,pos
rt @richardmoti: sterk optreden van @barbarakathmann van @pvdarotterdam bij #pauw. collegepartijen @d66rotterdam en @leefbaarrdam zeer zwak…,pos
rt @robertpbas: pvda-leider lodewijk asscher: d66 spreekt met gespleten tong als het gaat om samenwerken met baudet. pechtold neemt afstand…,pos
rt @vincentkar: helder: met een stem op @d66rotterdam krijg je het linkse blok van @nidarotterdam @pvdarotterdam @sprotterdam en @groenlink…,pos
|rt @michkapteijns74: hoe krijg je überhaupt je strot uit. het enige wat #d66 goed kan is anderen de maat nemen, discrimineren, om laten kop…|,pos
rt @sprotterdam: "alle prachtige dingen van feyenoord city met het gebied waar @saidkasmid66 en @d66rotterdam mee komen had je ook rond een…,pos
rt @stopnaiviteit: geheugensteuntje @d66 is ook n #corrupte leider @apechtold die fraudeert met n #penthouse omdat ie voor #ceta stemt! die…,pos
|rt @adrianne010: nieuwe tussenstand. 90 procent van de stemmen geteld. leefbaar 11, pvda 5, vvd 5, d66 5, groenlinks 5, denk 3, sp, cda, pv…|,pos
blij met draai @d66rotterdam op standpunt ‘religieuze erediensten in huizen van de wijk’ tijdens debat… https://t.co/ugnqmxubzu,pos
|rt @stefandekoning1: bij @d66rotterdam  (5 zetels in de raad) zijn de nummers 2, 3, 4 en 5 vrouwen. die komen er allemaal in als je woensda…|,pos
@jimmysmet @vbornl @pvdarotterdam @cdarotterdam @d66rotterdam @groenlinksrdam @chantalzeegers inderdaad leuk georga… https://t.co/fo9zvp3haq,pos
rt @jongerius_s: duidelijke oproep van een burger! @d66rotterdam is dit dus niet! wie wel @vvdrotterdam @stadsinitia010 @pvdarotterdam @pvd…,pos
|rt @josverveen: partijen als #leefbaar, #pvda, #d66 en #vvd doen u warme beloftes op gebied van #armoede, #onderwijs, #veiligheid en #zorg.…|,pos
rt @nickmallo_: iets zegt mij dat ze bij d66 niet blij zijn met deze tweet. #nickdoetverslag https://t.co/1m4vjubi42,pos
|rt @adrianne010: nieuwe tussenstand. 90 procent van de stemmen geteld. leefbaar 11, pvda 5, vvd 5, d66 5, groenlinks 5, denk 3, sp, cda, pv…|,pos
|rt @d66hiambacht: d66 is de partij voor jongeren van ambacht.

. starterswoningen betaalbaar houden 🏡
. meer ruimte voor horeca 🍺
. goed en…|,pos
vvd-lijsttrekker vincent karremans vindt een stem op d66 een stem op een linkse coalitie https://t.co/lt39rvmwsh,pos
rt @tponl: nepnieuwswatch: d66 rotterdam liegt kiezers voor met nepnieuws en desinformatie https://t.co/frlfdgpgap,pos
|rt @barbarakathmann: sinds 2014 zijn er onder leefbaar rotterdam, d66 en het cda netto vier(!) huizen bijgekomen! we moeten weer gaan bouwe…|,pos
rt @anttiliukku: over de bijstand: kathmann van de pvda valt d66 en indirect leefbaar aan: u heeft miljoenen geïnvesteerd om een paar fraud…,pos
|rt @pegidanederland: onafhankelijke rechtspraak? zou ik ook zeggen indien ik @d66 er was, en vertrouwen heb dat met grote waarschijnlijkhei…|,pos
|rt @gaypalace: @stijnwenders @dennis_kollaard @yerramautarsing achterbakse pisvlek.
bij jouw partij zijn ze ook lekker homofoob. @d66 
ik z…|,pos
rt @ingridvwifferen: even wat superkrachten benutten voor de campagne. #d66rotterdam #comiccon https://t.co/qeiyycjo9c,pos
rt @hansackerny: eindelijk de vraag aan #pechtold bij #dwdd en het antwoord geeft precies weer wat voor een pechtold die vent is. #d66 #gr1…,pos
|@rosiek_iwan @nunl @d66 misschien, maar denk eerder dat het te maken heeft met het feit dat het al meer dan 10 jaar… https://t.co/b1p3zgfdvp|,pos
|rt @jndkgrf: als het stinkt, weet je één ding zeker: @d66 kan nooit ver weg zijn https://t.co/ptji6raivo|,pos
|rt @wsonneveld: die campagne van d66 rotterdam, wat een trainwreck. https://t.co/tdcvbcacqf|,pos
rt @paul_van_meenen: de motie van @d66 om te stoppen met de @onderwijscoop en het #lerarenregister stil te leggen komt er. op naar een zelf…,pos
rt @d66: sommige campagnevideo's gaan veel en véél te ver. retweet deze video als je vindt dat nederland van ons allemaal is. #stemd66 http…,pos
|rt @campagneleed: wiet! d66 is eigenlijk best een toffe partij als je het referendum, de abortuspil en de sleepwet buiten beschouwing laat…|,pos
|rt @kevinlevie: [column] kiezer, verlos ons van d66
deel dit artikel met vrienden die overwegen d66 te stemmen!
https://t.co/k2sgyptjba|,pos
|rt @melissa_ydra: lieve mensen, anno 2018 kan je jezelf echt niet progressief, sociaal of democratisch noemen en d66 stemmen hoor, zeker ni…|,pos
|rt @engberts: vanavond bij #spiordebat was antwoord @d66rotterdam : op dit moment, “na de opstelling van @leefbaarrdam in debat gisteravond…|,pos
rt @marcuspluijm: #wnlopzondag #pechtold laat zien dat zijn politieke leven voltooid is. laat u het hem en #d66 dit ook even weten bij #gr2…,pos
|@evadeschipper @sunita_biharie @apechtold @d66 niks raadgevend, een bindend referendum, dat is goed en democraties|,pos
rt @introversum1: volstrekt ongeloofwaardig dat @d66 nog achter het #referendum staat. voor de bühne nu gauw zeggen dat ze echt wel bindend…,pos
|rt @barbarakathmann: sinds 2014 zijn er onder leefbaar rotterdam, d66 en het cda netto vier(!) huizen bijgekomen! we moeten weer gaan bouwe…|,pos
rt @wimdool: @frankhensen @ietsniels @marcelberghout d66 maakt fake straatgesprekken voor campagne https://t.co/ysr5tqsmzc,pos
rt @rotdromers: mooi. @d66rotterdam durft te dromen. @saidkasmid66 geeft aan bij @openrotterdam dat hij voor een cirkelmetrolijn is die cha…,pos
rt @vincentkar: helder: met een stem op @d66rotterdam krijg je het linkse blok van @nidarotterdam @pvdarotterdam @sprotterdam en @groenlink…,pos
|rt @robertsimonslr: d66 nu definitief: niet met leefbaar in college https://t.co/fsw2zmxc1x uitsluiten is een zwaktebod, @leefbaarrdam  slu…|,pos
rt @arnoyuma: oud-mediapark-baasje ton f. van dijk: ‘positie pechtold als leider d66 onhoudbaar’ https://t.co/ajed1d7p5l via @tponl,pos
rt @fvdamsterdam: de snel groeiende paniek bij @apechtold en @d66 over #fvd is wel begrijpelijk. explosieve groei nu voor forum voor democr…,pos
rt @tponl: nepnieuwswatch: d66 rotterdam liegt kiezers voor met nepnieuws en desinformatie https://t.co/frlfdgpgap,pos
|rt @barbarakathmann: sinds 2014 zijn er onder leefbaar rotterdam, d66 en het cda netto vier(!) huizen bijgekomen! we moeten weer gaan bouwe…|,pos
@josverveen @rtv_rijnmond die scheiding van jouw met @d66rotterdam heeft diepe groeven achtergelaten denk ik zo maa… https://t.co/2h2bipp9q8,pos
rt @rtv_rijnmond: d66 rotterdam houdt deur op kier voor leefbaar https://t.co/rc4z2ifib9,pos
|sinds 2014 zijn er onder leefbaar rotterdam, d66 en het cda netto vier(!) huizen bijgekomen! we moeten weer gaan bouwen! #pauw|,pos
|@advankooij @d66rotterdam poeh, dat wordt wel een lastige coalitievorming. leefbaar is eerst aan zet maar hopelijk… https://t.co/zafdlidmin|,pos
rt @umarebru: en @vvdrotterdam faket files. stem lokaal... @leefbaarrdam will do! d66 maakt fake straatgesprekken voor campagne https://t.c…,pos
rt @engberts: goed punt! @d66rotterdam had nog geen maand geleden al kunnen helpen rotterdamse kinderen uit armoede te halen. maar ze kozen…,pos
|rt @rveelo: verkiezingsslogans, geloof ze nooit. @d66 https://t.co/hnahs3cyjh|,pos
|@liduin2 @hugodejonge @d66 @vera_bergkamp dat is een goed idee! ik heb wel wat compacte info voor je, waar problemen zitten....|,pos
rt @nickmallo_: iets zegt mij dat ze bij d66 niet blij zijn met deze tweet. #nickdoetverslag https://t.co/1m4vjubi42,pos
