|rt @roosvonk: voor vvd, cda, fvd, d66, sgp en cu zijn dieren dingen. varkensstaarten eraf, kreeften levend koken, wetten níet handhaven, al…|,neg
|rt @roosvonk: voor vvd, cda, fvd, d66, sgp en cu zijn dieren dingen. varkensstaarten eraf, kreeften levend koken, wetten níet handhaven, al…|,neg
rt @ozcanakyol: christenunie tekent 'roze akkoord' niet vanwege de zin: 'jongeren (moeten) zich vrij en veilig voelen om lief te hebben wie…,neg
het is akelig stil bij @cdavandaag @d66 @christenunie @spnl @groenlinks en @wbhoekstra geen enkele respons op dit d… https://t.co/v1re1vybpu,neg
|@ditisdedag @tijsvandenbrink @nporadio1 @gertjansegers @arieslob @gerardmostert @christenunie sorry, ik sla deze (als vegetarier) over.|,neg
de bijna miezerige manier waarop de christelijke partijen als @christenunie in #katwijk proberen onder het mom van… https://t.co/vj4iu1rpb5,neg
@anitaei waarom doen jullie hier niets aan @vvd @cdavandaag @d66 @christenunie,neg
|@sywert het ging ook niet om een politieke fusie, maar om coalitiesamenwerking. die is ook tussen links en de cu he… https://t.co/jkstenbjrt|,neg
|rt @christenunie020: christenunie amsterdam neemt de bijlmer over. met veel mensen, muziek en media door zuidoost. gek genoeg geen @at5 en…|,neg
nu mag @helenedebruine namens de cu ‘inspreken’ over de stelling of er ook niet eerlijker naar de kosten van toeris… https://t.co/y1frkzgyyt,neg
|rt @suz_cornelissen: pvda, sp en cu vragen de minister hoe ze nederlandse bedrijven gaat aansporen ook het bangladesh transitie akkoord te…|,neg
|sekswerkers over de leugens van cda en christenunie over de wallen: https://t.co/b4ese1vzt5 || #sekswerk #gr2018
"al… https://t.co/mquuysx3fe|,neg
|rt @ariejankorteweg: sgp, groenlinks, christenunie - allemaal hebben ze burgemeesters. waarom de sp niet? https://t.co/stbioljt1c via @volk…|,neg
|rt @ziltebotte: @vvd
@cdavandaag 
 christenunie
@d66
  
jullie zijn regering nederland.
waarom zwijgen jullie

#afrin https://t.co/l4fbktrn…|,neg
|rt @christendenk: @eduard_mangal de coalitiepartijen vvd, cda en cu stemden tegen de motie van denk om geld vanuit het buitenland naar poli…|,neg
rt @harrypater62: zouden de coalitiepartijen @cdavandaag @christenunie @vvd en de msm nu ook van @apechtold eisen dat hij afstand neemt van…,neg
rt @zeeger: nu mag @helenedebruine namens de cu ‘inspreken’ over de stelling of er ook niet eerlijker naar de kosten van toerisme moet word…,neg
we hebben al die boerka-promotende landverraders van denk en bij de christenunie komt ook maar weer eens de… https://t.co/oyysr3gzkd #homo,neg
rt @ozcanakyol: christenunie tekent 'roze akkoord' niet vanwege de zin: 'jongeren (moeten) zich vrij en veilig voelen om lief te hebben wie…,neg
zoals in de meeste landen in de eu die geen sgp of cu achtige minderheden hebben. https://t.co/ktyngsq4hd,neg
|rt @ninekooiman: even ter herinnering.... laat hen maar kleur bekennen. #debat vvd, d66, pvda, groenlinks en christenunie willen spoedeisen…|,neg
|rt @noknokitsme: beste @minpres @vvd @cdavandaag @d66 @christenunie , al met uw vrinden in qatar, saoedi arabië contact gehad? of doen die…|,neg
@eenvandaag @gertjansegers @christenunie en dit is precies de reden waarom ik simpelweg niet meer op cu stem. het i… https://t.co/pnwapp4io9,neg
|rt @gijsverbraak: felicitaties aan @markrutte, @vvd @d66 @cda @christenunie voor het duurste banenplan ooit in nederland. het 'behoud' van…|,neg
|rt @swsjoerdsma: peiling eenvandaag:
d66 2e partij

vvd 32
d66 16
cda 16
pvv 16
gl    14
sp    13
fvd   9
pvda 8
pvdd 7
50+   7
cu    6
sgp…|,neg
laffe nederlandse regering #vvd #d66 #cda #cu stel struisvogels die wegkijken als er genocide plaatsvind #afrin https://t.co/wza74c1x9m,neg
|rt @fritstenhove: er zit maar een ding op:

aanhangers van de @vvd @d66 het @cdavandaag en de @christenunie weren als medewerkers van de st…|,neg
nu in debat met minister buza blok. cu heeft agressieve aanval van turkije op syrie aan de kaak gesteld; de dramati… https://t.co/05ky3pa28d,neg
christenunie haat gays. hugo bos haat gays https://t.co/f5ibn021e2,neg
|rt @roosvonk: voor vvd, cda, fvd, d66, sgp en cu zijn dieren dingen. varkensstaarten eraf, kreeften levend koken, wetten níet handhaven, al…|,neg
|de @christenunie lijkt niet te beseffen dat de reden dat @geertwilderspvv 24h per dag beveiligd moet worden, religi… https://t.co/w9mrkwca9w|,neg
beetje vreemd artikel. suggereert dat @christenunie iets wil dat andere coalitiepartijen niet zouden willen. lijkt… https://t.co/2firm0unsu,neg
.@vvd en @christenunie willen hoorzitting in de tweede kamer over hedendaags antisemitisme. antisemitisme mag nooit… https://t.co/fonxdxcqcs,neg
|rt @roosvonk: voor vvd, cda, fvd, d66, sgp en cu zijn dieren dingen. varkensstaarten eraf, kreeften levend koken, wetten níet handhaven, al…|,neg
rt @ozcanakyol: christenunie tekent 'roze akkoord' niet vanwege de zin: 'jongeren (moeten) zich vrij en veilig voelen om lief te hebben wie…,neg
@jndkgrf @gemeentedfm @christenunie en? wat houdt je tegen?,neg
@dsholtslag @bmijland @christenunie ik denk dat de neiging van de meeste mensen om de islam te associeren met regre… https://t.co/jd8txdpjpx,neg
rt @eenvandaag: de @christenunie probeert de komende gemeenteraadsverkiezingen voet aan de grond te krijgen in amsterdam. 'op termijn zoude…,neg
|@sylviawitteman pvv doet niet mee in zeist, sgp alleen als lijstcombinatie met de christenunie #probleemopgelost|,neg
|rt @roosvonk: voor vvd, cda, fvd, d66, sgp en cu zijn dieren dingen. varkensstaarten eraf, kreeften levend koken, wetten níet handhaven, al…|,neg
|rt @s3v3r3nl: @landmarksnl @nkruif @ladylien1 @ardeshuis @hanolff @boswachterrob vvd, cda, sgp en cu houden uitbreiding van de ovp tegen (k…|,neg
rt @prepnunl: tijd voor wat meer politieke wil in nederland? @minvws @vvd @cdavandaag @d66 @christenunie https://t.co/22ekukucuq,neg
|rt @tighza_taza: @terrebelius @cvrooijen @nos geen stemadvies? dit is een verkapte oproep/stemadvies van cda, sgp en cu om op een christeli…|,neg
|rt @roosvonk: voor vvd, cda, fvd, d66, sgp en cu zijn dieren dingen. varkensstaarten eraf, kreeften levend koken, wetten níet handhaven, al…|,neg
|rt @roosvonk: voor vvd, cda, fvd, d66, sgp en cu zijn dieren dingen. varkensstaarten eraf, kreeften levend koken, wetten níet handhaven, al…|,neg
|rt @willemdepreker: deze partijen willen laagvliegen boven oldebroek en wezep

de landelijke vvd, cda, christenunie en d'66 zijn vóór de la…|,neg
rt @tennekes_tox: het is mij een raadsel waarom @carolaschouten @christenunie zich niet wil uitspreken voor een verbod op de neonics terwij…,neg
|@johnbijl @roland1976 nou, ze heten op de kandidatenlijsten van cu en cda wel exact ook paul letterie. dus tenzij e… https://t.co/wxrywwfzrt|,neg
christenunie haat gays. hugo bos haat gays https://t.co/fmhilzvymw,neg
|rt @slechtvolk: stem de antireferenda- en regeringspartijen #vvd #cda #cu en #d66 weg. stem #fvd, #pvv of stem lokaal. 
#stemzeweg https://…|,neg
rt @zeeger: nu mag @helenedebruine namens de cu ‘inspreken’ over de stelling of er ook niet eerlijker naar de kosten van toerisme moet word…,neg
|rt @bmijland: 'niet alle christenen stemmen op cda, cu of sgp' https://t.co/8wpot5inwr via @parool|,neg
|rt @kroncrv: de lijsttrekkers van @denknl, @partijvddieren en @christenunie
van utrecht mogen een samenleving starten op een onbewoond eila…|,neg
|'niet alle christenen stemmen op cda, cu of sgp' https://t.co/ic4gl5tn3k #parool|,neg
rt @ozcanakyol: christenunie tekent 'roze akkoord' niet vanwege de zin: 'jongeren (moeten) zich vrij en veilig voelen om lief te hebben wie…,neg
|rt @swsjoerdsma: peiling eenvandaag:
d66 2e partij

vvd 32
d66 16
cda 16
pvv 16
gl    14
sp    13
fvd   9
pvda 8
pvdd 7
50+   7
cu    6
sgp…|,neg
|rt @jackmarsman: mensen die op #cda #d66 #vvd #pvda #groenlinks #cu #sp stemmen, zijn net als de mensen die op de #nsb stemden. deze partij…|,neg
|rt @roosvonk: voor vvd, cda, fvd, d66, sgp en cu zijn dieren dingen. varkensstaarten eraf, kreeften levend koken, wetten níet handhaven, al…|,neg
|zie hier het dedain van @vvd @d66 @cdavandaag @christenunie voor de directe inspraak van burgers op
overheidsbeleid. https://t.co/r0vodoqciq|,neg
|rt @roosvonk: voor vvd, cda, fvd, d66, sgp en cu zijn dieren dingen. varkensstaarten eraf, kreeften levend koken, wetten níet handhaven, al…|,neg
rt @tennekes_tox: het is mij een raadsel waarom @carolaschouten @christenunie zich niet wil uitspreken voor een verbod op de neonics terwij…,neg
|rt @percolator_hnj: ik heb bij #gr2018 de keuze uit de volgende partijen:
🔸 vvd
🔸 pvda
🔸 cda
🔸 christenunie
🔸 sgp
🔸 jezus leeft

lucky me!|,neg
|rt @marcbuchner3: de @christenunie wil niet uitspreken dat jongeren zich vrij en veilig moeten voelen om lief te hebben wie ze willen.
#pol…|,neg
|rt @fritstenhove: ga stemmen bij het referendum over de sleepwet!

maar vraag u wel af, waarom partijen als #vvd #d66 #cda #cu e.a. wel all…|,neg
de #christenunie komt niet in de amsterdamse gemeenteraad. teleurstelling als men er hier achter komt dat de partij… https://t.co/zbgou5ip2k,neg
|rt @mcouzy: laatste uitslag vd avond :
gl 10
d66 8
vvd 6
pvda 5
pvdd 3
sp 3
denk 3
fvd 3
cda 1
cu 1
bij1 1
partij vd ouderen 1|,neg
|@christenunie hoe wilt u ons laten doorstromen? #woningmarkt 
#slotdebat|,neg
|rt @swsjoerdsma: peiling eenvandaag:
d66 2e partij

vvd 32
d66 16
cda 16
pvv 16
gl    14
sp    13
fvd   9
pvda 8
pvdd 7
50+   7
cu    6
sgp…|,neg
|rt @suz_cornelissen: pvda, sp en cu vragen de minister hoe ze nederlandse bedrijven gaat aansporen ook het bangladesh transitie akkoord te…|,neg
rt @ozcanakyol: christenunie tekent 'roze akkoord' niet vanwege de zin: 'jongeren (moeten) zich vrij en veilig voelen om lief te hebben wie…,neg
|rt @janrekenmaar: @loulewinskyamst zouden pvda, cda, vvd, grl, d66, cu het nog steeds een verrijking van de westerse samenleving vinden? ik…|,neg
|@tennekes_tox @carolaschouten @christenunie @estherouwehand die heeft zich met haar cu uitgeleverd aan cda, vvd en… https://t.co/xrvrspziue|,neg
|rt @roosvonk: voor vvd, cda, fvd, d66, sgp en cu zijn dieren dingen. varkensstaarten eraf, kreeften levend koken, wetten níet handhaven, al…|,neg
rt @dilanyesilgoz: .@vvd en @christenunie willen hoorzitting in de tweede kamer over hedendaags antisemitisme. antisemitisme mag nooit salo…,neg
|rt @mcouzy: laatste uitslag vd avond :
gl 10
d66 8
vvd 6
pvda 5
pvdd 3
sp 3
denk 3
fvd 3
cda 1
cu 1
bij1 1
partij vd ouderen 1|,neg
