rt @kapinga93: vergeten jullie niet te stemmen? 😁 mijn stem gaat naar @jermoumi van de pvda #jijstemt #gr2018 #leiden https://t.co/4zbuo5tl…,neg
@gijsholla @reezyard @pvdaleiden er zijn al permanent te weinig parkeerplekken,neg
rt @gijsholla: een compliment uit onverwachte hoek. reden voor het ontbreken van een grote lokale partij in leiden #pvdaleiden 🌹💪🏻 #hetgaat…,neg
pvda in rotterdam nu helemaal ten onder door het eigen beest dat ze hebben gecreëerd.,neg
|de exit poll van #leiden door studenten @unileiden. voorlopige winnaars lijken gl, pvda en pvdd. (ik maak alvast ee… https://t.co/upeab2z4ue|,neg
|rt @nicoletemmink: van de pvda naar shell naar schiphol, is dat sociaal-democratische verheffing tegenwoordig? 🤔|,neg
pvda wil nieuwe straten naar migranten vernoemen! https://t.co/osl4bbh2le via @wordpressdotcom @blikopener333 @ziltebotte,neg
|@lodewijka beste lodewijk, misschien laag het ook zien dat mensen klaar zijn met de islam/moslims en de pvda missch… https://t.co/thvysukmb8|,neg
|rt @leiden20g: pvda presenteert sportplannen (pvda leiden), zie https://t.co/ti8rlt9eu5 #leiden|,neg
|rt @peterlangenafrt: te triest voor woorden, met dank aan vvd, d66, cu, pvda en cda die hier voorstemden!
ondanks deze kap heroverwegen kan…|,neg
|rt @wolterselwin: @tjen_lilian @merenwijkgroen @merenwijkleiden goedenavond, de pvda is tegen bouwen in het wijkpark en ook tegen de enorm…|,neg
|cda, groen links, partij sleutelstad, cu, sp willen wel het schoolzwemmen terug. pvda wil dat na schooltijd regelen. vvd en d66 niet|,neg
|rt @pvdaleiden: 🕔🗳️ nog iets meer dan vijf uur om te stemmen! 

er nog niet uit? dit zijn 10 redenen om pvda leiden te stemmen. 🌹

meer inf…|,neg
|rt @pvdaleiden: 🕔🗳️ nog iets meer dan vijf uur om te stemmen! 

er nog niet uit? dit zijn 10 redenen om pvda leiden te stemmen. 🌹

meer inf…|,neg
|rt @pvdaleiden: 🕔🗳️ nog iets meer dan vijf uur om te stemmen! 

er nog niet uit? dit zijn 10 redenen om pvda leiden te stemmen. 🌹

meer inf…|,neg
rt @gijsholla: een compliment uit onverwachte hoek. reden voor het ontbreken van een grote lokale partij in leiden #pvdaleiden 🌹💪🏻 #hetgaat…,neg
geen stemfie maar de stemmen zitten in de stembus. @pvdaleiden @marcnewsome en tegen,neg
|@martijnotten @pvdaleiden toegegeven, er staan bedragen in. verzamelbedragen. ik neem mijn woorden terug. maar nu e… https://t.co/tifuktzqgc|,neg
|pvda presenteert sportplannen (pvda leiden), zie https://t.co/ti8rlt9eu5 #leiden|,neg
rt @marcnewsome: @bertadeunk als het aan de @pvdaleiden ligt niet bouwen in het park en geen torens in de merenwijk 👉🏻 https://t.co/pxa4nfq…,neg
|rt @pvdaleiden: 🕔🗳️ nog iets meer dan vijf uur om te stemmen! 

er nog niet uit? dit zijn 10 redenen om pvda leiden te stemmen. 🌹

meer inf…|,neg
rt @ralphgeest: ik mag verwachten dat de grootbekken van @pvda en @groenlinks die zo tekeer gingen over die tweet van @nidarotterdam nu ook…,neg
rt @wdegelder: grappig bedacht zo in het podcast-tijdperk: de @pvdaleiden heeft job cohen het programma in laten spreken. ik mis wel wat le…,neg
