|rt @chrissol_: @tjen_lilian @merenwijkleiden @merenwijkgroen @pvdaleiden @d66leiden @gl_leiden @cda_leiden @pvddleiden @partijs sp, pvda en…|,pos
voor wie het nog niet wist. je kan woensdag op me stemmen 🌹 #pvdaleiden https://t.co/wjwzgvhun7,pos
|de @pvdaleiden wil graag het stationsgebied vergroenen! 🚈🌿en dat doen we samen met leidenaren, zoals de initiatiefn… https://t.co/lklzp5bwvr|,pos
@singelpark @d66leiden @pvdaleiden @gl_leiden @vvdleiden @spleiden @leefbaarleiden @culeiden @cda_leiden… https://t.co/zmtkksb2bb,pos
waarom ik morgen @marcnewsome stem! @pvdaleiden https://t.co/aezhhvk9c4,pos
rt @zzleidenbasketb: @pvdaleiden @martijnotten @obstelders wij geven natuurlijk geen stemadvies. maar feit is dat pvda het grootste leidse…,pos
|rt @gijsholla: ook de merenwijk maken we samen groener, sterker en socialer 🌹💪🏻 #pvdaleiden https://t.co/f5amiuthwe|,pos
|rt @unitynu: peiling! @leidenkiest #leiden
@d66leiden 12 naar 10 
@pvdaleiden 5 naar 4
@vvdleiden 5 naar 5
@spleiden 5 naar 3
@cda_leiden 4…|,pos
rt @liyangleiden: radio1 te gast in leiden om de lokale pvda te analyseren in de pop-up studio bij olivier. gelukkig is daar onze @susannaa…,pos
rt @zzleidenbasketb: @pvdaleiden @martijnotten @obstelders wij geven natuurlijk geen stemadvies. maar feit is dat pvda het grootste leidse…,pos
@reezyard @gl_leiden @d66leiden @pvdaleiden @pvddleiden @cda_leiden @vvdleiden door de stad niet nog voller te bouw… https://t.co/htcbhhx5eo,pos
@fioempie @merenwijkleiden @cda_leiden @aliemburg @pvdaleiden misschien de architect die van de lakenhal een gevang… https://t.co/ghodd29ezp,pos
rt @henknijboer: mooie oproep van onze pvda wethouders in 10 steden: zeker zijn van een betaalbare woning voor iedereen! @adnl https://t.co…,pos
@vaneylenv @d66leiden @leidsepraatjes @gl_leiden @pvdaleiden gelukkig zijn we niet de enige :) d66 wil zoveel mogel… https://t.co/1p9au75rym,pos
#pvda voorschoten ziet fusiepartij progressief voorschoten wel zitten https://t.co/f4jfouxlz2 #leiden,pos
studenten journalistiek en nieuwe media maken serie interviews met lijstduwers: hilde jansen van de pvda leiden - https://t.co/n9akrwn9oa,pos
|verschuiving: @d66leiden krabbelt zetel terug, ten koste van @pvdaleiden https://t.co/ijxrhx0lql stem ook op https://t.co/pgmljdlnlb|,pos
rt @zzleidenbasketb: @pvdaleiden @martijnotten @obstelders wij geven natuurlijk geen stemadvies. maar feit is dat pvda het grootste leidse…,pos
@reezyard @gl_leiden @d66leiden @pvdaleiden @pvddleiden @cda_leiden @vvdleiden even snel infarm gegoogled en ziet e… https://t.co/hslab85awf,pos
|mooi filmpje, goed verhaal. #pvdaleiden https://t.co/mtynlszzx1|,pos
rt @henknijboer: zeker zijn van een betaalbaar huis: stop de verkoop van sociale huurwoningen in utrecht! @rickvdzweth @pvda https://t.co/1…,pos
rt @coppus: krokodillentranen van pvda en d66 over de beloning van de ing baas. beide partijen stemden keihard tegen een motie om de bonuss…,pos
|rt @ahlaven: vandaag #stemt #leiden voor #gemeenteraadsverkiezingen 2018-03-21
@d66leiden @pvdaleiden @vvdleiden @spleiden @cda_leiden  @gl…|,pos
|rt @pvdaleiden: "ik ben lid van de pvda omdat we met elkaar strijden voor een groener, sterker en socialer leiden, zodat we de groeiende tw…|,pos
|rt @unitynu: peiling! @leidenkiest #leiden
@d66leiden 12 naar 10 
@pvdaleiden 5 naar 4
@vvdleiden 5 naar 5
@spleiden 5 naar 3
@cda_leiden 4…|,pos
pvda @dijkvangijs spreekt van ‘plat politiek compromis’ tussen coalitiepartners om nog paar jaar te wachten met sta… https://t.co/tsbisttlbq,pos
|#voorschoten || voorlopige uitslag: vvd 5. ons 3. cda 4. d66 3. gl 4. sp 1. pvda 1
lees meer in ons liveblog:
https://t.co/6oyrrbi6qp|,pos
|rt @pvdaleiden: kies voor een groener, sterker en socialer #leiden. stem morgen pvda leiden. ❤️✏️🗳️

er nog niet uit? 
🌹 onze plannen ➡️ ht…|,pos
|rt @raadleiden: het #fnvdebat in de raadzaal, op weg naar 21 maart #gemeenteraadsverkiezingen2018  @spleiden @pvdaleiden @cda_leiden @culei…|,pos
|rt @gijsholla: laatste fractievergadering achter de rug! het waren 4 mooie jaren. veel gedaan, veel bereikt🌹💪🏻 #pvdaleiden veel dank @annav…|,pos
ijzersterke @marleendamen tegenover joost bleijie van @cda_leiden tijdens #makelocalgreatagain debat op onderwerp #wijken. trots #pvdaleiden,pos
|rt @topsportleiden: leiden moet zich meer profileren als sportstad, ook op het gebied van topsport. ondersteunen deze gedachte. pvda en par…|,pos
@wolterselwin @vriendenovp @cda_leiden @cdaleiden gaat dus de polders niet volbouwen maar waar gaat @pvdaleiden hun… https://t.co/ftx9n6pzwg,pos
|rt @pvdaleiden: kies voor een groener, sterker en socialer #leiden. stem morgen pvda leiden. ❤️✏️🗳️

er nog niet uit? 
🌹 onze plannen ➡️ ht…|,pos
rt @pvdaleiden: ‘de pvda wil met iedereen de stad socialer sterker en groener maken. we willen voldoende banen en een mooie groene stad. da…,pos
|rt @pvdaleiden: twijfel je nog?

dit zijn 10 redenen om op 21 maart op de pvda leiden te stemmen. 🌹💪🏻 #leidenmakenwesamen #pvdaleiden 

mee…|,pos
|rt @gijsholla: laatste fractievergadering achter de rug! het waren 4 mooie jaren. veel gedaan, veel bereikt🌹💪🏻 #pvdaleiden veel dank @annav…|,pos
rt @wolterselwin: quotum is nodig om woonoverlast door #verkamering te voorkomen aldus @marleendamen @pvdaleiden  in @ditisdedag #didd,pos
de eerste keer in 19 jaar dat ik weer heb kunnen  lachen om @pvda https://t.co/fyjhuv0ibv,pos
@fioempie @merenwijkleiden @cda_leiden @aliemburg @pvdaleiden nou.... een weddenschap hier over zou ik niet aandurven,pos
vol overtuiging mijn stem uitgebracht op @marleendamen  van @pvdaleiden,pos
https://t.co/3xxixd87tp arie de jong pleit voor terugkeer van de decentrale kandidaatstelling in de @pvda .,pos
|rt @pvdaleiden: kies voor een groener, sterker en socialer #leiden. stem morgen pvda leiden. ❤️✏️🗳️

er nog niet uit? 
🌹 onze plannen ➡️ ht…|,pos
|rt @gijsholla: ook de merenwijk maken we samen groener, sterker en socialer 🌹💪🏻 #pvdaleiden https://t.co/f5amiuthwe|,pos
|rt @pvdaleiden: twijfel je nog?

dit zijn 10 redenen om op 21 maart op de pvda leiden te stemmen. 🌹💪🏻 #leidenmakenwesamen #pvdaleiden 

mee…|,pos
@roeland83 @d66leiden @pvdaleiden @gl_leiden @vvdleiden @spleiden @leefbaarleiden @culeiden @cda_leiden @pvddleiden… https://t.co/y7vgy6ofnh,pos
@rjcwouters valt wel op dat de ene partij wel beter zijn best doet voor toegankelijkheid programma dan de ander. cda en pvda vallen op.,pos
|rt @pvdaleiden: stem vandaag #pvdaleiden ❤️

omdat het goed gaat met leiden, maar nog niet met alle leidenaren.
kies daarom voor: 

🌹een ru…|,pos
rt @marleendamen: vandaag van 7 tot 9 in de uitzending bij @basmuijs @omroepwest over de lokale verkiezingen en hoe de @pvdaleiden gaat voo…,pos
@unileiden @gemeenteleiden @leidenalumni @pvdaleiden @d66leiden @culeiden @vvdleiden @pvddleiden en bijv. ook… https://t.co/uqpgv96gtt,pos
@mibijm @pvdaleiden @merenwijkleiden zeker niet.,pos
rt @zzleidenbasketb: @pvdaleiden @martijnotten @obstelders wij geven natuurlijk geen stemadvies. maar feit is dat pvda het grootste leidse…,pos
rt @jermoumi: kijk eens aan. ons #pvdaleiden sportplan met o.a. mijn persoontje als coach en spartaan iyad als mascotte op de voorgrond. ht…,pos
rt @nikki_gommers: @marleendamen schittert bij #leidenkiest debat! #pvda #leidenmakenwesamen https://t.co/cxqmraatys,pos
rt @dilanyesilgoz: debat gaat nu over veiligheid lhbti’ers. zoals verwacht hebben linkse partijen als gl en pvda mond vol van ‘veiligheid i…,pos
|@reaumie ik overweeg pvda te stemmen, om prem en mathijs te dissen..|,pos
|ik twijfel nog. kan iemand mij  concreet een verschil uitleggen tusse gl en pvda in #leiden, dus geen nietszeggend… https://t.co/hwikiqqfsp|,pos
|de pvda staat in peilingen ook duidelijk lager dan in 2014. ook hier ligt verliest in het verschiet, maar allicht n… https://t.co/54kqoqh2wo|,pos
|rt @pvdaleiden: stem vandaag #pvdaleiden ❤️

omdat het goed gaat met leiden, maar nog niet met alle leidenaren.
kies daarom voor: 

🌹een ru…|,pos
rt @3ske: zo vroeg al in de rij om mijn stem te gelde te maken. (@geertvdvarst @pvdaleiden hij was voor jullie).,pos
@pvdaleiden wij lezen sneller dan prof. cohen praat!,pos
rt @ijsbrandolthof: koekeroe! zaterdagmiddag leids dictee in de raadzaal. kom kijken of doe mee juh! @d66leiden @pvdaleiden @gl_leiden @pvd…,pos
rt @spnl: werknemers verdienen meer zekerheid voor de toekomst. samen met @groenlinks en @pvda kiezen wij voor meer vaste contracten en min…,pos
|bij de #gl meeting  #gr2018 zie ik de traditionele ex-elite #pvda staan juichen om de bla bla van yasser feras, dus… https://t.co/dyfvky1rdw|,pos
rt @groenewegpg: lijsttrekker #pvda #schiedam petra zwang interrumpeert: bewoners van sociale huurwoningen zijn mensen met normale beroepen…,pos
|rt @pvdaleiden: twijfel je nog?

dit zijn 10 redenen om op 21 maart op de pvda leiden te stemmen. 🌹💪🏻 #leidenmakenwesamen #pvdaleiden 

mee…|,pos
rt @trudykwik: het #sportdebat #2018 is gestart @leonardocollege @vvdleiden @cdaleiden @gl_leiden @christenunie @pvdaleiden @spleiden @d66l…,pos
rt @henknijboer: mooie oproep van onze pvda wethouders in 10 steden: zeker zijn van een betaalbare woning voor iedereen! @adnl https://t.co…,pos
