rt @judithvdwenden: campagne voeren bij 0 graden. gelukkig ben ik er op gekleed @d66zoetermeer https://t.co/hlg3ady2wz,pos
@randysnoyl @verwardemens tip. ga eens naar een hockeyclub. de meeste ouders stemmen @d66 @groenlinks @vvd en vraag… https://t.co/ebcuqpppex,pos
|rt @tonfvandijk: d66 leider @apechtold kiest er bewust voor om zijn ,kinderen te gebruiken voor politieke campagne en daarmee wordt een gre…|,pos
|rt @frankwijn1: dus #d66 is nu vóór een correctief referendum en 5 maanden geleden (27.9.2017) tégen een correctief referendum.
duidelijk v…|,pos
zojuist een debat gehad met @cdazoetermeer en @d66zoetermeer over woningbouw in zoetermeer. het publiek was net als… https://t.co/yncpksncwr,pos
|rt @kakketoe: @hansdeboer18 @ronsmallenburg @transvuilwijk @d66 ja, als je politicoloog bent, gaat het neusje in de lucht, worden de ellebo…|,pos
|rt @corahuijbens: vandaag 3 verkiezingsbijeenkomsten. @d66 @floriszakelijk bij @stichtingpiezo, ik bij debat @fietsersbond en @robinpaalvas…|,pos
rt @d66zoetermeer: goed werk! door motie van @d66zoetermeer @jamilabakkers @peterv39798538 komen er moestuinen in de buurt! 🌱 https://t.co/…,pos
|d66 maakt een plan voor een sport-ikc; het gemak van alles onder 1 dak! (d66 zoetermeer), zie https://t.co/tzldapcv4s #zoetermeer|,pos
rt @alptekinakdogan: luister hier naar en denk goed na als je van plan was om @d66 te stemmen. wat een schandalige partij. https://t.co/mqb…,pos
@johnny_devos @gemeenteoldambt johnny helaas geeft idd ook ons gevoel weer. ik stem bij d66 oldambt dan op  henriet… https://t.co/ejuslccdfr,pos
rt @vera_bergkamp: erg leuk! met team @d66zoetermeer @robinpaalvast naar ‘t nationaal videogame museum @navgmuseum met pacman😁en nog veel m…,pos
rt @esther_voet: regeren is d66 nog nooit goed bekomen. toont de leegheid van de partij. #buitenhof,pos
rt @hansackerny: eindelijk de vraag aan #pechtold bij #dwdd en het antwoord geeft precies weer wat voor een pechtold die vent is. #d66 #gr1…,pos
rt @hamamolnij: en dat is @d66 goh @apechtold zal trots zijn https://t.co/hzwd46h5cn,pos
|rt @volkskrant: in 'bakfietssteden' jagen d66 en groenlinks op dezelfde kiezers - en als je samen in het college zit, is dat lastig https:/…|,pos
rt @martijnvonktln: een mooi verslag van @d66zh over het werkbezoek aan @hnpostenzonen en @tlnnieuws. #d66 prijst de #innovatiekracht binne…,pos
@zmeeractief leuk dat de d66 motie met 20.000 euro voor stadsmoestuinen wordt benut!!!,pos
@d66 een warme populistische wind bedoelen jullie zeker.,pos
|rt @utr3cht: met mensen als chris van den kieboom, ricardo hengstman en matthijs kramer heb je geen #sleepwet nodig.  #ramautarsing
#d66 #f…|,pos
|rt @barbarakathmann: sinds 2014 zijn er onder leefbaar rotterdam, d66 en het cda netto vier(!) huizen bijgekomen! we moeten weer gaan bouwe…|,pos
|rt @nausicaamarbe: dus bij het verdedigen van liberale waarden, vraagt #d66 zich eerst af wat de imam zal denken. en geeft hem daardoor pol…|,pos
rt @transvuilwijk: #d66 heeft een raadslid dat vindt dat homoseksualiteit een zonde is #islam natuurlijk en daarom mag ze blijven en zonder…,pos
|rt @d66: 277 gemeenten 
1.500 vrijwilligers 
10.000 gelopen kilometers 
de eindsprint naar 21 maart is ingezet! #stemd66 #d66bustour https:…|,pos
|rt @vogelvrijeharts: #d66 en #pechtold schaffen, als ze de kans krijgen, namens zorgverzekeraars uw vrije artsenkeuze af, mollen met de #sl…|,pos
|rt @rcm_doherty: d66 weggevaagd uit valkenburgse gemeenteraad. 0 zetels. nul!
-
tijd voor een lekker limburgs wijntje.|,pos
rt @rvanasten: belangrijke stap op weg naar een een zero emission stadsdistributie! goed werk van ondernemers en d66 wethouder tom de bruij…,pos
rt @jamilabakkers: vanavond @cochaaglanden debat over sociale acceptatie van lhbtqi! @d66zoetermeer wil dat iedereen zichtbaar zichzelf kan…,pos
