|weer veel positieve reacties op straat! @d66utrecht gaat voor een goed klimaat, goed wonen en goed onderwijs! @d66… https://t.co/ofjvuxissd|,pos
|rt @d66utrecht: d66 wil dat iedereen veilig en vrij kan leven in utrecht.
daarom willen wij:
 1⃣voldoende wijkagenten 👮‍♀
 2⃣meer capacitei…|,pos
@alineknip @d66utrecht gisteravond diederik ebbinge in #jeuk met koortslip...krijg ik inmiddels ook van @d66utrecht… https://t.co/vuqnegppsi,pos
@larsroodenburg @paulusjansensp @cdautrecht @d66utrecht @sanneinutrecht bedankt allen. gisteren weer met veel plezi… https://t.co/mf1hzo3ytv,pos
|mooie complimenten over het programma van @d66utrecht op het gebied van technologie! onder andere aandacht voor:
✅… https://t.co/5p8ig3xw1w|,pos
@vdmarx @d66utrecht @groenlinks030 met @s_schilderman zorgde ik dat circulair bouwen in utrecht de norm werd. warm aanbevolen.,pos
@gjcats @paulusjansensp @pvdautrecht @sputrecht @d66utrecht en hier is het ding: het was toen prima mogelijk om d66… https://t.co/klzh7cxtoo,pos
rt @d66utrecht: na het #nosdebat benieuwd naar de plannen van @d66utrecht voor betaalbaar wonen in utrecht? bekijk dan deze video ⤵️ https:…,pos
@ringutrecht @d66utrecht @d66 dit is echt heel belangrijk voor utrecht waar jaarlijks 2miljoen mensen amelisweerd bezoeken,pos
@nvandenhout @wijkooginal @m4773 @laetitiaouillet @lotvanhooijdonk @d66utrecht @rtvutrecht @groenlinks030… https://t.co/d1ef75rrmi,pos
|rt @lkca_: reyer van der vlies van @d66 en @vmstichting: “#cultuur is publiek belang, geen luxeproduct. geef scholen geld en steun basisvoo…|,pos
|rt @frisalternatief: ook d66 ziet fris alternatief wel zitten! vandaag zelfs speciaal bedankmoment met @matthijssienot, @robjetten, @hasbak…|,pos
@graytjefcu @d66utrecht @pvdautrecht @vvdutrecht @sputrecht @groenlinks030 @cdautrecht en bij ons ben je uiteraard… https://t.co/aycbi20ih7,pos
d66 partijleden zouden het goede voorbeeld moeten geven #integriteit #vog #ollongren #penthouse #nosjournaal,pos
rt @klaasverschuure: namens @d66utrecht tekende ik het regenboog stembusakkoord van @cocmiddennl. zichtbaar jezelf kunnen zijn 🌈 https://t.…,pos
|gatfer, ik zie echt wnorm veel #d66 tweets en vergelijkingen met andere partijen die ik@niet kan blokken? #hoedoenzedat #gr2018|,pos
rt @ellenbijster: ik wil dat elke utrechter de ruimte krijgt zijn creatieve talent te ontplooien. 🎸🎤🎬🖌️📝 #cultuurdeelje #stemd66 https://t.…,pos
horeca-festival-evenementen-en-nog-veel-meer-onzin-partij @d66utrecht wordt afgestraft! heerlijk. heb ik niet voor niets in de rij gestaan!,pos
|rt @gemeenteutrecht: voorlopige uitslag #gr2018 in #utrecht obv 85% getelde stemmen: d66 (10), gl (11), vvd (6), pvda (3), sp (2), cda (2),…|,pos
@tegenwindalblas @rikhjharmsen @kassingmaurice @don_quichot_030 @d66utrecht @rijneenergie @groenlinks030 @sputrecht… https://t.co/kp3gimnbtb,pos
|rt @frankwijn1: dus #d66 is nu vóór een correctief referendum en 5 maanden geleden (27.9.2017) tégen een correctief referendum.
duidelijk v…|,pos
|rt @vogelvrijeharts: #d66 en #pechtold schaffen, als ze de kans krijgen, namens zorgverzekeraars uw vrije artsenkeuze af, mollen met de #sl…|,pos
|rt @d66utrecht: stem vandaag d66 utrecht voor:
🌍 goed klimaat
🏡 goed wonen
👩🏼‍🏫 goed onderwijs
lees onze plannen terug via: https://t.co/ic…|,pos
@cdautrecht @d66utrecht @sputrecht @pvdautrecht @stadsbelangutr @groenlinks030 @pvvutrecht @pputrecht @pvddutrecht… https://t.co/hfaowtffme,pos
met @d66utrecht weer aan de slag voor @nldoet bij @buurtteamondiep: scootmobielen schrobben! #toettoet https://t.co/svc4jxangi,pos
@cdautrecht d66 deelt aan de andere kant van die zure granny smiths uit. deze zien er beter uit,pos
groot nadeel en reden dat ik niet helemaal blij ben js dat d66 alsnog de tweede partij is in utrecht en amsterdam d… https://t.co/h8qbly4fwg,pos
rt @ernakerkhof: zorg kan altijd beter. #preventie hoog nodig. #geboortezorg #verloskunde #gr2018 #zwolle #d66 https://t.co/ljjx0lkzdy,pos
rt @d66: sommige campagnevideo's gaan veel en véél te ver. retweet deze video als je vindt dat nederland van ons allemaal is. #stemd66 http…,pos
|rt @d66utrecht: d66 vindt dat iedereen in utrecht een betaalbare en fijn moet kunnen wonen. d66 wil:
 1⃣meer woningen bijbouwen, vooral bet…|,pos
rt @indrateronde: eerder vandaag namens @d66utrecht aan het college vragen gesteld over verder samen werken @gemeenteutrecht  met @frisalte…,pos
rt @robjetten: afhandeling schade is nu los van de nam. rijk regelt de kosten. dat wil @d66 ook met versterking van groningse huizen. mense…,pos
dank aan alle forenzen die een flyer hebben aangenomen van deze verkleumde campaigner! #d66,pos
|eerste exitpoll, groenlinks de grootste. d66 verliest. luid gejuich in de pandora @tivre_utrecht van groenlinks-aan… https://t.co/k64wjdstil|,pos
rt @roberta16402714: @jouutrecht @jou_overvecht @d66utrecht @annemarijke je bent een topi hannah👍🤗🌹,pos
kijk het zonnetje schijnt. @d66utrecht staat op alle stations in #leidscherijn en #vleuten. het wordt een mooie dag. https://t.co/nhhlxktjm7,pos
|rt @cedonulli0: @d66 @apechtold @klaasverschuure @d66utrecht succes met uitleggen lieve schatten!
#uwpartijisdoodziek
#d66
#pechtold 
#pino…|,pos
|rt @d66utrecht: 🌈 in utrecht blijft @d66 werken aan een stad waarin
 iedereen mee kan doen en zichtbaar zichzelf kan zijn. in utrecht is ge…|,pos
|rt @d66utrecht: 🚺 8 maart is het internationale vrouwendag! d66 staat dan graag stil bij de positie en participatie van vrouwen. 
🚶‍wandel…|,pos
|rt @gijsjansen: wie kent madelein van woerkom @d66utrecht ?
mijn zoon heeft haar portemonnee gevonden. #utrecht|,pos
op 21 maart en bij de herindelingen kunnen 95% vd nl-ers op een d66 -er te stemmen. stem 21 maart d66 op mij!!!… https://t.co/oukdqntste,pos
rt @d66utrecht: d66 💚 utrechtse horeca! utrecht moet bruisen met ruimte voor horeca en evenementen. zeker nu onze stad groeit. https://t.co…,pos
rt @d66: sommige campagnevideo's gaan veel en véél te ver. retweet deze video als je vindt dat nederland van ons allemaal is. #stemd66 http…,pos
@thecolddogleft @katjavannus @groenlinks030 @d66utrecht @brechtje ik heb echt geen idee. ik vraag het na!,pos
|rt @d66utrecht: d66 zet zich in voor een duurzame toekomst, betaalbaar wonen en het beste onderwijs.
✅ daarom stemt @piadijkstra vandaag d6…|,pos
|rt @d66utrecht: met @apechtold en @klaasverschuure op de stadhuisbrug! 💚💪 goed klimaat, goed wonen, goed onderwijs. d66 krijgt het voor elk…|,pos
rt @d66: sommige campagnevideo's gaan veel en véél te ver. retweet deze video als je vindt dat nederland van ons allemaal is. #stemd66 http…,pos
rt @klaasverschuure: vanavond om 18:10 ben ik bij #ukiest op #ustad @rtvutrecht wat wil @d66utrecht met woningbouw en openbaar vervoer. htt…,pos
@msaiah94 @roc_mn @apechtold @d66utrecht @d66 goed bezig bro💪,pos
|rt @teaumas: langs de deuren in wittevrouwen voor @d66utrecht tijdens het laatste weekend voor de verkiezingen met oa @jonyferket, @msaiah9…|,pos
rt @d66: sommige campagnevideo's gaan veel en véél te ver. retweet deze video als je vindt dat nederland van ons allemaal is. #stemd66 http…,pos
eerlijk is eerlijk: respect voor @keesvee van @d66 die hier wel de wiv2017 komt verdedigen. wat mij betreft verdien… https://t.co/3efrgqr3ka,pos
|wie kent madelein van woerkom @d66utrecht ?
mijn zoon heeft haar portemonnee gevonden. #utrecht|,pos
rt @hasbakker: vandaag in het ad: de superstrakke sociale media campagne van @d66utrecht - met yours truly in actie 📹https://t.co/rri3z70nxb,pos
|rt @d66utrecht: 🚺 8 maart is het internationale vrouwendag! d66 staat dan graag stil bij de positie en participatie van vrouwen. 
🚶‍wandel…|,pos
rt @d66utrecht: na het #nosdebat benieuwd naar de plannen van @d66utrecht voor betaalbaar wonen in utrecht? bekijk dan deze video ⤵️ https:…,pos
@pvdautrecht @graytjefcu @d66utrecht @vvdutrecht @sputrecht @groenlinks030 @cdautrecht @arjankleuver en als je graa… https://t.co/cp8bf9n05w,pos
|rt @d66utrecht: vanavond gingen we langs de deuren in het zand en in oudwijk! 
1⃣goed klimaat 🌳
2⃣goed wonen 🏡
3⃣goed onderwijs 🏫
d66 krijg…|,pos
rt @d66: sommige campagnevideo's gaan veel en véél te ver. retweet deze video als je vindt dat nederland van ons allemaal is. #stemd66 http…,pos
|rt @d66utrecht: stem vandaag d66 utrecht voor:
🌍 goed klimaat
🏡 goed wonen
👩🏼‍🏫 goed onderwijs
lees onze plannen terug via: https://t.co/ic…|,pos
daar is de inhoud van stemlokaal 98. d66 en gl nek aan nek... #utrecht #gr2018 https://t.co/svsh0yzujp,pos
rt @d66_ijsselstein: onze lijsttrekker @josjpel op het podium met de andere lijsttrekkers tijdens het congres. #stemd66 https://t.co/dm64ne…,pos
|rt @stijnjansen90: goed klimaat, d66 krijgt het voor elkaar. https://t.co/k0qdlnpqgt|,pos
|rt @d66: 💚 prachtige oproep van d66'er jan terlouw. stem woensdag d66 voor een progressieve samenwerking in jouw gemeente. ⤵
#stemd66 https…|,pos
rt @aobtweets: populariteit d66 keldert bij aob-leden - https://t.co/zcvmzde3b1,pos
|rt @maartenkoning: campagnedag! @d66utrecht is on fire 🔥! met bijna 100 man de stad in, canvassen in leidsche rijn, lombok, enz. en straks…|,pos
rt @groenlinks: d66 zei vorig jaar hele wijze dingen over de sleepwet. daar voeren wij graag campagne voor 😉. help mee: stem 21 maart tegen…,pos
rt @robjetten: d66 maakt zich lokaal sterk voor goede fietspaden. collega @matthijssienot werkt vanuit de #tweedekamer aan goed fietsen. be…,pos
rt @bentualdepineut: pechtold - voor mij een mooi penthouse en caravans voor het gewone volk. #d66 krijgt het voor elkaar.  #buitenhof http…,pos
|exit-poll: groenlinks grootste partij in de stad utrecht met 25% van de stemmen, d66 20,6 %  https://t.co/zdnhxsj0kx|,pos
rt @d66_ijsselstein: d66 kiest voor 'goed onderwijs' en kan zich daarom niet vinden in besluit gemeenteraad ijsselstein om openbare basissc…,pos
|rt @d66utrecht: 🚺 8 maart is het internationale vrouwendag! d66 staat dan graag stil bij de positie en participatie van vrouwen. 
🚶‍wandel…|,pos
|rt @bitsoffreedom: als het om onze mensenrechten gaat, vindt @d66 een "magere voldoende" blijkbaar genoeg...

de wet moet beter! stem 21 ma…|,pos
vrijdag gaan jongeren van @jouutrecht in gesprek met #raad030 @trajectumcolleg @d66utrecht @pputrecht @pvddutrecht… https://t.co/mirui1m8pc,pos
mooi om te zien dat d66 concreet verdiepen nru heeft opgenomen in het programma. '&gt; de noordelijke randweg utrecht… https://t.co/lrwbzmgsuj,pos
|rt @mrspadd0ck: @shirinmusa @d66 goh, een religie inspraak geven in je gemeentebeleid. bijzonder|,pos
|rt @d66utrecht: 🍽☕🍻 zojuist zijn nieuwe plannen voor meer ruimte voor restaurants, koffiezaken en cafés in utrecht aangenomen! d66 wil een…|,pos
@jongerius_s @dandoen @ietsniels @d66 bij deze: https://t.co/wtvidoux7t :) ^lk,pos
|rt @kleuver: exit-poll: groenlinks grootste partij in de stad utrecht met 25% van de stemmen, d66 20,6 %  https://t.co/zdnhxsj0kx|,pos
rt @indrateronde: dank @ronduitweg voor positief stemadvies @d66utrecht verkiezingen! mooi compliment voor onze inzet op #bereikbaarheid #v…,pos
rt @derksen_gelul: als je ook de neus vol hebt van carrière politici van oa #vvd #d66 #pvda #gl die er puur zitten voor hun eigengewin en h…,pos
stelling 'geen bijstand zonder tegenprestatie'. @cdautrecht @vvdutrecht en @d66utrecht zijn als enige voor.… https://t.co/ewdpnkfspi,pos
@thecolddogleft @pepijn_z @groenlinks030 @d66utrecht @brechtje het is nu nog enigszins een beschut en fijn fietspad… https://t.co/uri0umekyo,pos
rt @d66amsterdam: goed idee @groenlinks &amp; groenlinks020! samen met duizenden groene amsterdammers &amp; initiatieven is d66 in 020 alvast begon…,pos
rt @laetitiaouillet: ik wil heel graag dat @gemeenteutrecht @lotvanhooijdonk @d66utrecht @rtvutrecht @groenlinks030 @politieutrecht dit fil…,pos
rt @msaiah94: namens @d66utrecht tekende ik dit manifest van tien voor taal! het belang van taal wordt vaker onderschat dan ons lief is. la…,pos
rt @matthijssienot: .@christenunie en @d66 zitten samen in het groenste kabinet ooit en leveren nu ook de groenste politici! gefeliciteerd…,pos
rt @d66utrecht: na het #nosdebat benieuwd naar de plannen van @d66utrecht voor betaalbaar wonen in utrecht? bekijk dan deze video ⤵️ https:…,pos
rt @tjeerdd66: #d66 krijgt het voor elkaar! https://t.co/a9ylyov8qz,pos
populariteit d66 keldert bij aob-leden - https://t.co/zcvmzde3b1,pos
rt @maartenkoning: flyeren en bij ondernemers langs bij de ulu moskee en de de kanaalstraat! #stemd66 #21maart https://t.co/h5j21vl5le,pos
@cocmiddennl @gemeenteutrecht @siem1983 @vvdutrecht @cdautrecht @d66utrecht @pvddutrecht @sputrecht @groenlinks030… https://t.co/gzt4qt3uhh,pos
|rt @d66utrecht: stem vandaag d66 utrecht voor:
🌍 goed klimaat
🏡 goed wonen
👩🏼‍🏫 goed onderwijs
lees onze plannen terug via: https://t.co/ic…|,pos
|rt @gemeenteutrecht: voorlopige uitslag #gr2018 in #utrecht obv 85% getelde stemmen: d66 (10), gl (11), vvd (6), pvda (3), sp (2), cda (2),…|,pos
rt @jouutrecht: @jou_overvecht @d66utrecht @gemeenteutrecht wij collega's zijn ook hartstikke trots op hanae! #vanharte,pos
|rt @d66utrecht: 🍽☕🍻 gisteravond zijn nieuwe plannen voor meer ruimte voor restaurants, koffiezaken en cafés in utrecht aangenomen! d66 wil…|,pos
rt @vera_bergkamp: mooie interactieve sessie in #kapitaal 👍🏻 georganiseerd door onze @ellenbijster @d66utrecht met oa @annebreure en @aline…,pos
|@streeploos1 @d66utrecht @fietsria nee dus. vondellaan is, ook voor de fietsers, voorrangsweg. haaietanden (ter her… https://t.co/klnwn9y0fm|,pos
|rt @d66utrecht: d66 wil kansen voor alle utrechters:
 1⃣goed klimaat 🌍
 2⃣goed wonen 🏡
 3⃣goed onderwijs 👩🏼‍🏫
 d66 krijgt het voor elkaar.…|,pos
|rt @d66utrecht: iedereen heeft wel eens zorg nodig. en wanneer dat nodig is zorgen we in utrecht voor elkaar! d66 utrecht wil:
1⃣zorg voor…|,pos
|rt @bramfokke: d66 zet zich in voor de fietser. @matthijssienot in den haag met dit https://t.co/jlkstbpsab fietsplan, @s_schilderman in ut…|,pos
|prognose na 11,1 % van de stemmen. vvd blijft gelijk. verliezers zijn d66 van 9 naar 5, pvda van 5 naar 2. sp van 4… https://t.co/yitiotiimh|,pos
|tyas d66 amersfoort over renovatie stadhuis: gasloos als dat kan. hoezo, als dat kan? dat moet gewoon. kwestie van… https://t.co/l6dchctofh|,pos
rt @paul_van_meenen: meerderheid @2ekamertweets steunt #motie @d66 om onderzoek te doen naar de ontwikkeling van vaardigheden van scholiere…,pos
@matthijssienot @micheleggermont @gjcats @d66 alle belastingwetten duren lang. de computers van de belastingdienst… https://t.co/rgubgiqc1h,pos
|rt @d66utrecht: d66 wil het beste onderwijs in leidsche rijn en vleuten-de meern. 
 ➡ hier worden de meeste nieuwe utrechters geboren, dus…|,pos
|rt @teaumas: langs de deuren in wittevrouwen voor @d66utrecht tijdens het laatste weekend voor de verkiezingen met oa @jonyferket, @msaiah9…|,pos
|rt @d66utrecht: d66 zet zich in voor passend werk voor iedere utrechter.
✅ daarom stemt anthony morgen d66. https://t.co/uobdbdmzrb|,pos
|rt @d66utrecht: d66 wil het beste onderwijs in leidsche rijn en vleuten-de meern. 
 ➡ hier worden de meeste nieuwe utrechters geboren, dus…|,pos
rt @annemarijke: namens @d66utrecht mocht ik vandaag ook nog de prijs voor 'de jongerenwerker van utrecht' uitreiken aan hanae haddouche @j…,pos
rt @jong030: vrijdag gaan jongeren van @jouutrecht in gesprek met #raad030 @trajectumcolleg @d66utrecht @pputrecht @pvddutrecht @pvdautrech…,pos
rt @indrateronde: en ook vanavond ging @d66utrecht weer langs de deuren in #leidscherijn met nog iets meer dan 2 weken te gaan tot de #verk…,pos
rt @vwgpijlsweerd: @postruben @d66utrecht @vvdutrecht @pvdautrecht touché. alle partijen zeggen ja op een verkeersveilige en groene #oudeno…,pos
rt @jou_overvecht: iedereen bedankt die op mij gestemd heeft !! @d66utrecht @jouutrecht @gemeenteutrecht #jongerenwerk #voldoening #prachti…,pos
|rt @d66utrecht: onze lijsttrekker @klaasverschuure samen met alle @d66 lijsttrekkers op het podium van het #d66congres in rotterdam.
stem 2…|,pos
|rt @mariannethieme: ‘@varkensinnood @dierenrecht:“politieke partijen misbruiken dierenwelzijn tijdens verkiezingen,met name @d66
toen d66 n…|,pos
|rt @nielsklaassen: dus alle haagse zetels na 50% geteld
de mos - 9
vvd - 7
d66 - 6
gl - 5
cda - 3
pvda - 3
hsp - 2
pvdd - 2
pvv - 2
sp - 1…|,pos
|rt @d66: 💚 prachtige oproep van d66'er jan terlouw. stem woensdag d66 voor een progressieve samenwerking in jouw gemeente. ⤵
#stemd66 https…|,pos
|rt @partijvddieren: alexander pechtold, wat zeg je nou? 😮 kies vandaag het zekere voor het onzekere. kies partij voor de dieren! 💪 #d66 #gr…|,pos
|aan de ene kant wil @apechtold met @d66 links en rechts verbinden, maar aan de andere kant sluit hij in rotterdam… https://t.co/tba4ogpv2i|,pos
rt @klaasverschuure: college tour @d66utrecht met @apechtold en @msaiah94 bij @roc_mn https://t.co/uomlls9heu,pos
rt @maartenkoning: flyeren en bij ondernemers langs bij de ulu moskee en de de kanaalstraat! #stemd66 #21maart https://t.co/h5j21vl5le,pos
|rt @d66utrecht: stem vandaag d66 utrecht voor:
🌍 goed klimaat
🏡 goed wonen
👩🏼‍🏫 goed onderwijs
lees onze plannen terug via: https://t.co/ic…|,pos
rt @hasbakker: mooi voorbeeld uit breda! als het aan @d66utrecht ligt gaan we hiermee komende vier jaar ook in utrecht weer flinke stappen…,pos
|rt @lepmutsb: @markusodijk @mozes030 @apechtold @thierrybaudet @d66 17% van nederland, dus 100% van de stomkoppen, gemanipuleerd door baude…|,pos
rt @d66lingewaard: d66 wil graag meer woningen voor starters in alle kernen. ook zien we een duidelijke behoefte aan betaalbare huurwoninge…,pos
rt @jong030: vrijdag gaan jongeren van @jouutrecht in gesprek met #raad030 @trajectumcolleg @d66utrecht @pputrecht @pvddutrecht @pvdautrech…,pos
rt @d66: sommige campagnevideo's gaan veel en véél te ver. retweet deze video als je vindt dat nederland van ons allemaal is. #stemd66 http…,pos
|rt @gemeenteutrecht: voorlopige uitslag #gr2018 in #utrecht obv 85% getelde stemmen: d66 (10), gl (11), vvd (6), pvda (3), sp (2), cda (2),…|,pos
|rt @d66: de 🚲 zit in ons dna! daarom investeert d66 flink in de fiets. ook in jouw gemeente! ⤵
🚲 voorrang voor fietsers
🚲 bredere fietspade…|,pos
rt @klaasverschuure: namens @d66utrecht tekende ik het regenboog stembusakkoord van @cocmiddennl. zichtbaar jezelf kunnen zijn 🌈 https://t.…,pos
#d66 @d66 #gemeenteraadsverkiezingen jullie politieke advertenties op mijn instastories... no more pls! facebook lo… https://t.co/0o4c6mvqi6,pos
zaal klaar voor morgen. #gr2018 #utrechtkiest #utrecht @vvdutrecht @pvdautrecht @d66utrecht @sputrecht… https://t.co/8rqpwnmwhq,pos
rt @peterkwint: yes. ruime kamermeerderheid (iedereen behalve d66 en cda) steunt mijn voorstel met @dilanyesilgoz om eu vs disinfo zo snel…,pos
|rt @sandervwaveren: nog meer verkeer vandaag: @ronduitweg adviseert een stem op @cdautrecht,
@d66utrecht of @pvdautrecht voor een structure…|,pos
rt @jouutrecht: onze hanae. @jou_overvecht is gekozen tot jongerenwerker van het jaar! #trots  @d66utrecht @annemarijke https://t.co/gzxouo…,pos
rt @jong030: vrijdag gaan jongeren van @jouutrecht in gesprek met #raad030 @trajectumcolleg @d66utrecht @pputrecht @pvddutrecht @pvdautrech…,pos
rt @denisesamg: @telegraaf dus als iets niet werkt geef je op... ooit gedacht van een oplossing zoeken. maar goed.. was toch al geen d66 st…,pos
rt @d66utrecht: het merwedekanaal wordt steeds drukker. vorige week heeft d66 met o.a. @hasbakker samen met roeivereniging @ausrorca gezoch…,pos
|ook d66 ziet fris alternatief wel zitten! vandaag zelfs speciaal bedankmoment met @matthijssienot, @robjetten,… https://t.co/5o1sbtc3d9|,pos
|rt @rtvutrecht: exitpoll #utrecht:
1. groenlinks 12 (9)
2. d66 9 (13)
3. vvd 5 (5)
4. denk 3 (0)
5. pvda 2 (5)
6. sp 2 (4)
7. cda 2 (3)
8.…|,pos
|rt @d66: 💚 prachtige oproep van d66'er jan terlouw. stem woensdag d66 voor een progressieve samenwerking in jouw gemeente. ⤵
#stemd66 https…|,pos
en @vvdutrecht @groenlinks030 @pvdautrecht @sputrecht @d66utrecht @50pluslokaalutr de utrechtse @denknl en… https://t.co/dfduli8vqf,pos
@carladikfaber van @christenunie en @vera_bergkamp van @d66 over het belang van monumentale kerken. helemaal eens! https://t.co/vhi5b4kauw,pos
|rt @gemeenteutrecht: voorlopige uitslag #gr2018 in #utrecht obv 85% getelde stemmen: d66 (10), gl (11), vvd (6), pvda (3), sp (2), cda (2),…|,pos
rt @klaasverschuure: pizza! met de beste fractie van nederland!!! laatste vergadering fractie @d66utrecht 2014-2018 https://t.co/9utth4syt6,pos
rt @klaasverschuure: pizza! met de beste fractie van nederland!!! laatste vergadering fractie @d66utrecht 2014-2018 https://t.co/9utth4syt6,pos
@d66utrecht @ellenbijster alle reden om initiatiefvoorstel payrolling en goed werkgeverschap wel te ondersteunen,pos
rt @laetitiaouillet: ik wil heel graag dat @gemeenteutrecht @lotvanhooijdonk @d66utrecht @rtvutrecht @groenlinks030 @politieutrecht dit fil…,pos
rt @arnoker: aob peilt de politieke stemming onder de leden (verantwoording: https://t.co/pteloiwthf). wat blijkt? populariteit d66 keldert…,pos
rt @vdmeulenmarleen: volle zaal bij uitleg #voedseltransitie en #kringlooplandbouw door tjeerd de groot tijdens #d66congres. @d66 @tjeerdd6…,pos
iedereen bedankt die op mijn gestemd heeft ! @d66utrecht @jouutrecht @gemeenteutrecht #jongerenwerk #voldoening… https://t.co/vbj4rsizuc,pos
|rt @d66utrecht: d66 vindt dat iedereen in utrecht  betaalbaar en fijn moet kunnen wonen. d66 wil:
 1⃣meer woningen bijbouwen, vooral betaal…|,pos
@gemeenteutrecht @nvandenhout @laetitiaouillet @lotvanhooijdonk @d66utrecht @rtvutrecht @groenlinks030… https://t.co/bav87cclxw,pos
|rt @rtvutrecht: exitpoll #utrecht:
1. groenlinks 12 (9)
2. d66 9 (13)
3. vvd 5 (5)
4. denk 3 (0)
5. pvda 2 (5)
6. sp 2 (4)
7. cda 2 (3)
8.…|,pos
rt @jschreuder: na een koude maar zeer mooie campagnedag spreekt @klaasverschuure onze fantastische @d66utrecht campagnevrijwilligers toe.…,pos
rt @jouutrecht: onze hanae. @jou_overvecht is gekozen tot jongerenwerker van het jaar! #trots  @d66utrecht @annemarijke https://t.co/gzxouo…,pos
rt @groenlinks: d66 zei vorig jaar hele wijze dingen over de sleepwet. daar voeren wij graag campagne voor 😉. help mee: stem 21 maart tegen…,pos
rt @msaiah94: namens @d66utrecht tekende ik dit manifest van tien voor taal! het belang van taal wordt vaker onderschat dan ons lief is. la…,pos
|rt @d66: 💚 prachtige oproep van d66'er jan terlouw. stem woensdag d66 voor een progressieve samenwerking in jouw gemeente. ⤵
#stemd66 https…|,pos
rt @jacquelinewxxx: oud-mediapark-baasje ton f. van dijk: ‘positie pechtold als leider d66 onhoudbaar’ https://t.co/j6jq7vdt0y via @tponl,pos
@d66utrecht @annemarijke gefeliciteerd! hier een trotse collega van @doenjautrecht,pos
rt @maartenkoning: heerlijke locatie voor een mooie #uitslagenavond. vol spanning voor definitieve uitslagen @d66utrecht later op de avond!…,pos
|rt @nielsklaassen: dus alle haagse zetels na 50% geteld
de mos - 9
vvd - 7
d66 - 6
gl - 5
cda - 3
pvda - 3
hsp - 2
pvdd - 2
pvv - 2
sp - 1…|,pos
rt @jouutrecht: onze hanae. @jou_overvecht is gekozen tot jongerenwerker van het jaar! #trots  @d66utrecht @annemarijke https://t.co/gzxouo…,pos
en dat los je niet op met een wedstrijd groenlinks / d66 / vvd. ik geloof dat een verbinder als @sandervwaveren daa… https://t.co/mr7zmup9ae,pos
rt @femkemerel: voor #d66 is een magere voldoende blijkbaar genoeg om #privacy van talloze onschuldige burgers op te offeren. @partijvddier…,pos
rt @annemarijke: met @d66utrecht weer aan de slag voor @nldoet bij @buurtteamondiep: scootmobielen schrobben! #toettoet https://t.co/svc4jx…,pos
|rt @frisalternatief: ook d66 ziet fris alternatief wel zitten! vandaag zelfs speciaal bedankmoment met @matthijssienot, @robjetten, @hasbak…|,pos
rt @d66haren: open brief van raadslid @legwil aan leden #tk van @d66 en @kajsaollongren wint de democratie het nog van de macht? te lezen o…,pos
|rt @raadutrecht: voorlopige uitslag #gr2018 in #utrecht obv 85% getelde stemmen: d66 (10), gl (11), vvd (6), pvda (3), sp (2), cda (2), sta…|,pos
|rt @rtvutrecht: exitpoll #utrecht:
1. groenlinks 12 (9)
2. d66 9 (13)
3. vvd 5 (5)
4. denk 3 (0)
5. pvda 2 (5)
6. sp 2 (4)
7. cda 2 (3)
8.…|,pos
rt @ellenbijster: kijk @s_schilderman eens shinen! heldere pitch over beter ov en meer middenhuur. 💪 #destudentkiest #stemd66 https://t.co/…,pos
rt @d66: sommige campagnevideo's gaan veel en véél te ver. retweet deze video als je vindt dat nederland van ons allemaal is. #stemd66 http…,pos
rt @jschreuder: 💚 mooie oproep van een van mijn grote duurzame &amp; groene voorbeelden! #goedklimaat #d66krijgthetvoorelkaar #stemd66 https://…,pos
rt @indrateronde: eerder vandaag namens @d66utrecht aan het college vragen gesteld over verder samen werken @gemeenteutrecht  met @frisalte…,pos
@hermandendulk @pechtold @d66 en niemand zeurde in dk. we werden daar gefeliciteerd op bezoek in aarhus.,pos
rt @d66: sommige campagnevideo's gaan veel en véél te ver. retweet deze video als je vindt dat nederland van ons allemaal is. #stemd66 http…,pos
|rt @d66utrecht: d66 vindt dat iedereen in utrecht een betaalbare en fijn moet kunnen wonen. d66 wil:
 1⃣meer woningen bijbouwen, vooral bet…|,pos
|reyer van der vlies van @d66 en @vmstichting: “#cultuur is publiek belang, geen luxeproduct. geef scholen geld en s… https://t.co/j2e3guuk6i|,pos
|rt @d66utrecht: d66 vindt dat iedereen in utrecht  betaalbaar en fijn moet kunnen wonen. d66 wil:
1⃣meer woningen bijbouwen, vooral betaalb…|,pos
|rt @d66: 💚 prachtige oproep van d66'er jan terlouw. stem woensdag d66 voor een progressieve samenwerking in jouw gemeente. ⤵
#stemd66 https…|,pos
|ja zal wel,maar #d66 negeerde wel uitslag van eerdere referenda zonder respect voor stemmende burgers en schaft in… https://t.co/5u9f4xvrxi|,pos
|rt @phdeman: @jou_overvecht @d66utrecht @jouutrecht @gemeenteutrecht ze heeft het zonder meer voor 300% verdiend, deze kanjer!!!|,pos
@d66utrecht @annemarijke vet goed en zeker verdiend!!,pos
rt @rdezwart: de #defensie-“specialist” van #d66 wordt even op haar plaats gezet betreffende de idiote plannen van de partij voor onze krij…,pos
|rt @frisalternatief: ook d66 ziet fris alternatief wel zitten! vandaag zelfs speciaal bedankmoment met @matthijssienot, @robjetten, @hasbak…|,pos
rt @afvaladvocaat: als christenunie en d66 zouden doen waar zij eerder zeiden voor te staan dan is er morgen een kamermeerderheid voor stat…,pos
rt @ellenbijster: ik wil dat elke utrechter de ruimte krijgt zijn creatieve talent te ontplooien. 🎸🎤🎬🖌️📝 #cultuurdeelje #stemd66 https://t.…,pos
|rt @doenjajudith: @d66utrecht @annemarijke van harte gefeliciteerd @doenjadayna. wat een mooie bekroning op je werk, inzet en betrokkenheid.|,pos
|rt @d66utrecht: d66 wil dat iedereen veilig en vrij kan leven in utrecht.
daarom willen wij:
 1⃣voldoende wijkagenten 👮‍♀
 2⃣meer capacitei…|,pos
@larsroodenburg @willemparel @basmeijer75 @d66utrecht je gaat me nooit geloven @willemparel maar ik zweer je dat ik… https://t.co/averlglidw,pos
|@d66utrecht @apechtold @klaasverschuure ach ja, steek je kop maar in het zand. tekenend voor deze partij. kreten al… https://t.co/d76renocuk|,pos
rt @d66utrecht: na het #nosdebat benieuwd naar de plannen van @d66utrecht voor betaalbaar wonen in utrecht? bekijk dan deze video ⤵️ https:…,pos
@d66utrecht @annemarijke wat ontzettend leuk voor @doenjadayna en zeer verdiend!! dank!,pos
|rt @stijnjansen90: goed klimaat, d66 krijgt het voor elkaar. https://t.co/k0qdlnpqgt|,pos
|rt @d66: de 🚲 zit in ons dna! daarom investeert d66 flink in de fiets. ook in jouw gemeente! ⤵
🚲 voorrang voor fietsers
🚲 bredere fietspade…|,pos
rt @robjetten: europarlementariër @gerbrandy @d66 is samen met @carladikfaber uitgeroepen tot groenste politicus van het jaar 2017 voor hun…,pos
rt @carelbrendel: grijze wolf-kopstuk ontmoet rotterdamse d66-politicus (in 2016). https://t.co/jonxgrj9ie  ik denk dat d66 "zich grondig w…,pos
me wanneer d66 utrecht aan de deur komt om stemmen te winnen https://t.co/dpxgiqpyw6,pos
rt @hasbakker: op klimaatdag te gast bij duurzaam voorbeeld @sv_kampong! @d66utrecht deelde heerlijke appeltjes uit aan de sporters &amp; ouder…,pos
rt @willemparel: vanaf 2030 op npo1 nos nederland  kiest met @klaasverschuure #stemd66 oa live vanuit brasserie grauwaart #utrechtkiest htt…,pos
d66 en christenunie meest fietsvriendelijke partijprogramma’s voor de heuvelrug https://t.co/yx6aeeqgfs,pos
|rt @jschreuder: klimaatverandering is een gegeven, klimaatadaptatie is nu noodzakelijk. @d66utrecht is blij met het vastgestelde plan om ge…|,pos
|rt @redactieadun: eerste exit-poll utrecht: 
groenlinks 12
d66 9
vvd 5
pvda 2
sp 2
cda 2
stadsbelang 1
cu 2
s&amp; s 2
pvdd 2
pvv 2
seniorenpar…|,pos
rt @d66: sommige campagnevideo's gaan veel en véél te ver. retweet deze video als je vindt dat nederland van ons allemaal is. #stemd66 http…,pos
|rt @gemeenteutrecht: voorlopige uitslag #gr2018 in #utrecht obv 85% getelde stemmen: d66 (10), gl (11), vvd (6), pvda (3), sp (2), cda (2),…|,pos
|rt @d66utrecht: 🚺 8 maart is het internationale vrouwendag! d66 staat dan graag stil bij de positie en participatie van vrouwen. 
🚶‍wandel…|,pos
|rt @ringutrecht: beste @d66utrecht @pvdautrecht @groenlinks030 @vvdutrecht @cdautrecht @sputrecht: 
als u de gezondheid van utrechtse bewon…|,pos
|beste kiezer,

nog maar 12 dagen dan mag u uw stem uitbrengen. d66 utrecht staat voor goed wonen, goed onderwijs... https://t.co/qapp39beki|,pos
rt @klaasverschuure: pizza! met de beste fractie van nederland!!! laatste vergadering fractie @d66utrecht 2014-2018 https://t.co/9utth4syt6,pos
|@s_schilderman @d66utrecht fijn! trouwens, ze waaien ook het water in. succes daarmee ;-)|,pos
krijg al 2 dagen op rij een appel in m’n hand geduwd van d66,pos
rt @shirinmusa: 👇haarlemse @d66 wethouder jur botter peilt bij moskeeen de draagvlak voor een campagne over vrije partnerkeuze 🤦‍♀️ https:/…,pos
rt @jouutrecht: onze hanae. @jou_overvecht is gekozen tot jongerenwerker van het jaar! #trots  @d66utrecht @annemarijke https://t.co/gzxouo…,pos
|@d66utrecht @annemarijke hier werd ik blij van! het effect van ons werk als sociaal makelaar. 
" bewoners en betrok… https://t.co/s1rck5bcnr|,pos
|rt @d66utrecht: d66 wil dat iedereen veilig en vrij kan leven in utrecht.
daarom willen wij:
 1⃣voldoende wijkagenten 👮‍♀
 2⃣meer capacitei…|,pos
rt @d66: sommige campagnevideo's gaan veel en véél te ver. retweet deze video als je vindt dat nederland van ons allemaal is. #stemd66 http…,pos
rt @schmidt_anne: @d66utrecht @annemarijke vet goed en zeker verdiend!!,pos
rt @hasbakker: op klimaatdag te gast bij duurzaam voorbeeld @sv_kampong! @d66utrecht deelde heerlijke appeltjes uit aan de sporters &amp; ouder…,pos
rt @yelletieleman: @annemarijke @d66utrecht @jou_overvecht @jouutrecht mooi! hanae is fantastisch.,pos
rt @klaasverschuure: pizza! met de beste fractie van nederland!!! laatste vergadering fractie @d66utrecht 2014-2018 https://t.co/9utth4syt6,pos
rt @vwgpijlsweerd: @postruben @d66utrecht @vvdutrecht @pvdautrecht touché. alle partijen zeggen ja op een verkeersveilige en groene #oudeno…,pos
|rt @d66utrecht: d66 werkt mét utrechters aan een duurzame toekomst.
 1⃣utrecht klimaatneutraal in 2030 met meer groene energie ☀
 2⃣meer gr…|,pos
|rt @d66utrecht: d66 vindt dat iedereen in utrecht een betaalbare en fijn moet kunnen wonen. d66 wil:
 1⃣meer woningen bijbouwen, vooral bet…|,pos
|rt @klaasverschuure: weer veel positieve reacties op straat! @d66utrecht gaat voor een goed klimaat, goed wonen en goed onderwijs! @d66 kri…|,pos
rt @d66utrecht: vanavond zijn we met dit team op de ibb! d66 is dé studentenpartij van utrecht. https://t.co/ahl1nh8g8k https://t.co/jcsrwa…,pos
groep de mos wordt misschien wel nog groter dan d66 in #denhaag https://t.co/ykbm4zclwq,pos
rt @larsroodenburg: ook in #terwijde zijn we weer langs geweest. #leidscherijn stem woensdag @d66utrecht https://t.co/szuimf0oip,pos
|uitslag #renswoude: 1. d66 20,7% - 2. christenunie 18,3% - 3. sp 8,2% - 4. groenlinks 5,1% blablabla. (link naar be… https://t.co/jrwhxfmnfp|,pos
|rt @hasbakker: nog 2,5 week tot de verkiezingen. vandaag vroeg @d66utrecht extra aandacht voor #goedonderwijs. kansengelijkheid begint met…|,pos
|rt @rtvutrecht: exitpoll #utrecht:
1. groenlinks 12 (9)
2. d66 9 (13)
3. vvd 5 (5)
4. denk 3 (0)
5. pvda 2 (5)
6. sp 2 (4)
7. cda 2 (3)
8.…|,pos
|rt @d66utrecht: d66 zet zich in voor een duurzame toekomst, betaalbaar wonen en het beste onderwijs.
✅ daarom stemt @piadijkstra vandaag d6…|,pos
rt @wimard66: kom morgen naar gooiland @gemeentehsum zodat je weet op wie je stemt woensdag #keuze #stemrecht #d66 #d66hilversum #gemeenter…,pos
rt @laetitiaouillet: ik wil heel graag dat @gemeenteutrecht @lotvanhooijdonk @d66utrecht @rtvutrecht @groenlinks030 @politieutrecht dit fil…,pos
rt @coppus: krokodillentranen van pvda en d66 over de beloning van de ing baas. beide partijen stemden keihard tegen een motie om de bonuss…,pos
|rt @d66utrecht: d66 wil het beste onderwijs in leidsche rijn en vleuten-de meern. 
 ➡ hier worden de meeste nieuwe utrechters geboren, dus…|,pos
|rt @suzanne_gl: dus het standpunt van @d66 is: de luchtvaart moet vooral lekker doorgroeien, en ondertussen verduurzamen? terwijl experts z…|,pos
|rt @raivereniging: #d66 geeft de fietser voorrang. wij herkennen veel elementen in hun 'actieplan  nederland fietsland', zoals verbeteren v…|,pos
rt @matthijssienot: .@christenunie en @d66 zitten samen in het groenste kabinet ooit en leveren nu ook de groenste politici! gefeliciteerd…,pos
rt @gerbstruik: leestip. sterke tekst van @thierrybaudet – "waarom ik vrijdag niet met d66 in debat ga." #pauw https://t.co/jhfuifbhe1 via…,pos
rt @marijke_vb: onze lijsttrekker @josjpel is nu bij @rtvutrecht. aandacht voor de @gem_ijsselstein bij #uvandaag. #stemd66,pos
rt @d66: stem vandaag voor de enige progressieve partij die kiest voor samenwerking. maak d66 ook in jouw gemeente de grootste! #stemd66 ht…,pos
|rt @sandervwaveren: nog meer verkeer vandaag: @ronduitweg adviseert een stem op @cdautrecht,
@d66utrecht of @pvdautrecht voor een structure…|,pos
|rt @sandervwaveren: nog meer verkeer vandaag: @ronduitweg adviseert een stem op @cdautrecht,
@d66utrecht of @pvdautrecht voor een structure…|,pos
|rt @d66utrecht: d66 wil het allerbeste onderwijs, zodat onze kinderen hun talenten kunnen ontwikkelen. daarom wil d66:
 ➡ een voorschool vo…|,pos
|@d66utrecht @annemarijke van harte gefeliciteerd @doenjadayna. wat een mooie bekroning op je werk, inzet en betrokkenheid.|,pos
rt @aobtweets: populariteit d66 keldert bij aob-leden - https://t.co/zcvmzde3b1,pos
|rt @d66utrecht: d66 wil kansen voor alle utrechters:
 1⃣goed klimaat 🌍
 2⃣goed wonen 🏡
 3⃣goed onderwijs 👩🏼‍🏫
 d66 krijgt het voor elkaar.…|,pos
rt @d66: 🔥 je hebt 1⃣ uur de tijd om te stemmen! roep al je volgers op om nog naar de stembus te gaan 👉 retweet dit bericht! #stemd66 https…,pos
rt @d66utrecht: na het #nosdebat benieuwd naar de plannen van @d66utrecht voor betaalbaar wonen in utrecht? bekijk dan deze video ⤵️ https:…,pos
@d66utrecht @klaasverschuure toch goed dat al die bestemmingsplannen in de crisisjaren zijn doorgezet 😉nu flink door bouwen!,pos
@d66utrecht @apechtold @klaasverschuure &lt;&lt;goed klimaat&gt;&gt; vervolgens lag grond rondom de stadhoudersbrug bezaaid met flyers...,pos
ik neem in rotterdam een flyer aan van d66 en denk direct daarna: maar ik mag helemaal niet in rotterdam stemmen en… https://t.co/qy8xp9oahn,pos
rt @hasbakker: mooi voorbeeld uit breda! als het aan @d66utrecht ligt gaan we hiermee komende vier jaar ook in utrecht weer flinke stappen…,pos
|rt @gemeenteutrecht: voorlopige uitslag #gr2018 in #utrecht obv 85% getelde stemmen: d66 (10), gl (11), vvd (6), pvda (3), sp (2), cda (2),…|,pos
|zo, gaat d66 in #030 eindelijk (na 8 jaar) iets doen aan ‘goed onderwijs’ - en wat dan wel, behalve gebouwen openen ? @jeroenkreijkamp|,pos
|rt @ringutrecht: beste @d66utrecht @pvdautrecht @groenlinks030 @vvdutrecht @cdautrecht @sputrecht: 
als u de gezondheid van utrechtse bewon…|,pos
rt @d66utrecht: na het #nosdebat benieuwd naar de plannen van @d66utrecht voor betaalbaar wonen in utrecht? bekijk dan deze video ⤵️ https:…,pos
|rt @d66: nog 1⃣ dag! 🔥 deze mensen hebben hun keuze al gemaakt. ⤵

twijfel je nog? app ons je vraag! 📱 06-11912548
#stemd66 https://t.co/we…|,pos
rt @ellenbijster: ik wil dat elke utrechter de ruimte krijgt zijn creatieve talent te ontplooien. 🎸🎤🎬🖌️📝 #cultuurdeelje #stemd66 https://t.…,pos
rt @emmaliena45: #exitpoll  trend laat zien dat  #d66 flink verliest.. idem #vvd #cda #pvda 👍dus dat de sleepwet met gejuich ontvangen word…,pos
|rt @d66utrecht: d66 zet zich in voor een duurzame toekomst, betaalbaar wonen en het beste onderwijs.
✅ daarom stemt @piadijkstra vandaag d6…|,pos
|rt @raadutrecht: voorlopige uitslag #gr2018 in #utrecht obv 85% getelde stemmen: d66 (10), gl (11), vvd (6), pvda (3), sp (2), cda (2), sta…|,pos
|rt @d66utrecht: 🍽☕🍻 gisteravond zijn nieuwe plannen voor meer ruimte voor restaurants, koffiezaken en cafés in utrecht aangenomen! d66 wil…|,pos
|rt @jndkgrf: dat de eigenaar van de omkoopneukhut een recidivist is, is keurig gedocumenteerd door de @volkskrant #d66 #recidive #omkoping…|,pos
|rt @ronniehossain: vvd'er erik van der marel (@commilito) gekozen tot
 beste debater, @klaasverschuure van @d66utrecht als runner-up een cl…|,pos
@d66utrecht hoeveel zetels hebben jullie nu in de raad in utrecht?,pos
|rt @aobtweets: 15000 stakers lopen nu door amsterdam voor een beter salaris in het primair onderwijs! luisteren @vvd, @cdavandaag, @d66 en…|,pos
|rt @d66utrecht: 🚺 8 maart is het internationale vrouwendag! d66 staat dan graag stil bij de positie en participatie van vrouwen. 
🚶‍wandel…|,pos
|rt @stijnjansen90: kandidaat @jwijmenga maakt een leuke sneer naar @d66utrecht : 'we zijn een kleine partij met 2 zetels, maar komen graag…|,pos
rt @robjetten: europarlementariër @gerbrandy @d66 is samen met @carladikfaber uitgeroepen tot groenste politicus van het jaar 2017 voor hun…,pos
@jeroenvandertol ja gelukkig. wel een goeie tweede d66. de combi gl en d66 gaat goed!,pos
rt @groenlinks: d66 zei vorig jaar hele wijze dingen over de sleepwet. daar voeren wij graag campagne voor 😉. help mee: stem 21 maart tegen…,pos
|rt @elisevanzeeland: “groenlinks zegt stem op ons, dan houden we #d66 erbuiten. ik zeg: stem op d66 dan werken we samen en verbinden we lin…|,pos
|rt @martinbosma_pvv: d66 stemt nu tégen het correctief referendum.

vreemd. het correctief referendum was zó belangrijk voor d66 dat het be…|,pos
@jou_overvecht @d66utrecht @gemeenteutrecht wij collega's zijn ook hartstikke trots op hanae! #vanharte,pos
rt @ivanengelshoven: met de altijd enthousiaste vrijwilligers van @d66utrecht op de stadhuisbrug #stemd66 #gr2018 https://t.co/x5zmh0jwpd,pos
rt @annemarijke: namens @d66utrecht mocht ik vandaag ook nog de prijs voor 'de jongerenwerker van utrecht' uitreiken aan hanae haddouche @j…,pos
|rt @maartenkoning: campagnedag! @d66utrecht is on fire 🔥! met bijna 100 man de stad in, canvassen in leidsche rijn, lombok, enz. en straks…|,pos
|rt @fietsreiziger: protest tegen, nog 25 jaar kolenhaven rotterdam. dankzij deze #d66 flutwethouder @adriaanvisser @d66 #010kolenvrij #kole…|,pos
|rt @gemeenteutrecht: voorlopige uitslag #gr2018 in #utrecht obv 85% getelde stemmen: d66 (10), gl (11), vvd (6), pvda (3), sp (2), cda (2),…|,pos
@belpvda voor historisch en cultureel besef moet je niet bij d66 zijn. maak oude dorp autovrij #omdenken,pos
|rt @alineknip: gestemd.
d66 zet zich in voor cultuur, goed onderwijs, samen stadmaken en een  duurzame toekomst. 
er staan 49 geweldige @d6…|,pos
“nu vooruitschuiven!” aldus @d66 over #statiegeld https://t.co/8wqztynh0v https://t.co/ybimccsznd,pos
rt @indrateronde: bereikbare stad met gezonde lucht: @frisalternatief en  @d66utrecht kregen het voor elkaar. nogmaals dank aan de bewoners…,pos
|rt @stijnjansen90: goed klimaat, d66 krijgt het voor elkaar. https://t.co/k0qdlnpqgt|,pos
|rt @rotterdam: in #rotterdam is 30% van de stemmen geteld. #zetelverdeling zou nu zijn:  leefbaar rotterdam 12, vvd 5, pvda 5, d66 4, groen…|,pos
rt @d66: sommige campagnevideo's gaan veel en véél te ver. retweet deze video als je vindt dat nederland van ons allemaal is. #stemd66 http…,pos
|rt @hoogendijkkees: prognose na 11,1 % van de stemmen. vvd blijft gelijk. verliezers zijn d66 van 9 naar 5, pvda van 5 naar 2. sp van 4 naa…|,pos
rt @michkapteijns74: kan #d66 ÉÉn land opnoemen waar de mensenrechten en vrijheden er beter op werden naarmate islam er voet aan de grond k…,pos
|rt @d66utrecht: 🚺 8 maart is het internationale vrouwendag! d66 staat dan graag stil bij de positie en participatie van vrouwen. 
🚶‍wandel…|,pos
|rt @verkoulen: d66 is dé fietspartij! 
met dank aan @matthijssienot en @menno_snel: leasefiets wordt fiscaal aantrekkelijk https://t.co/q1x…|,pos
|rt @d66: 👉 het is nek-aan-nek. d66 kan opnieuw de grootste worden in mokum! ❌❌❌

kies voor de enige progressieve partij die durft samen te…|,pos
rt @bulentisik1121: en de verantwoordelijke wethouder  van @d66utrecht zei laatst nog  dat ze alles onder controle hadden.  feiten geven an…,pos
rt @d66utrecht: het merwedekanaal wordt steeds drukker. vorige week heeft d66 met o.a. @hasbakker samen met roeivereniging @ausrorca gezoch…,pos
rt @d66provutrecht: ook namens alle utrechtse d66 statenleden van harte gefeliciteerd met je benoeming tot gedeputeerde van de provincie ut…,pos
rt @d66utrecht: na het #nosdebat benieuwd naar de plannen van @d66utrecht voor betaalbaar wonen in utrecht? bekijk dan deze video ⤵️ https:…,pos
|rt @d66: de 🚲 zit in ons dna! daarom investeert d66 flink in de fiets. ook in jouw gemeente! ⤵
🚲 voorrang voor fietsers
🚲 bredere fietspade…|,pos
rt @paul_van_meenen: meerderheid @2ekamertweets steunt #motie @d66 om onderzoek te doen naar de ontwikkeling van vaardigheden van scholiere…,pos
rt @jong030: vrijdag gaan jongeren van @jouutrecht in gesprek met #raad030 @trajectumcolleg @d66utrecht @pputrecht @pvddutrecht @pvdautrech…,pos
|rt @d66utrecht: d66 zet zich in voor passend werk voor iedere utrechter.
✅ daarom stemt anthony morgen d66. https://t.co/uobdbdmzrb|,pos
|rt @d66utrecht: d66 wil het allerbeste onderwijs, zodat onze kinderen hun talenten kunnen ontwikkelen. daarom wil d66:
 ➡ een voorschool vo…|,pos
|rt @d66: de 🚲 zit in ons dna! daarom investeert d66 flink in de fiets. ook in jouw gemeente! ⤵
🚲 voorrang voor fietsers
🚲 bredere fietspade…|,pos
|rt @rtvutrecht: exitpoll #utrecht:
1. groenlinks 12 (9)
2. d66 9 (13)
3. vvd 5 (5)
4. denk 3 (0)
5. pvda 2 (5)
6. sp 2 (4)
7. cda 2 (3)
8.…|,pos
|rt @stijnjansen90: goed klimaat, d66 krijgt het voor elkaar. https://t.co/k0qdlnpqgt|,pos
rt @d66utrecht: na het #nosdebat benieuwd naar de plannen van @d66utrecht voor betaalbaar wonen in utrecht? bekijk dan deze video ⤵️ https:…,pos
rt @d66: sommige campagnevideo's gaan veel en véél te ver. retweet deze video als je vindt dat nederland van ons allemaal is. #stemd66 http…,pos
rt @ringutrecht: vraag aan @d66utrecht @pvdautrecht @groenlinks030 @vvdutrecht @cdautrecht @sputrecht: prorail bereidt zich voor op schadec…,pos
|rt @trias_politica: exitpoll utrecht: #d66 verliest 5,8% tgv gl. pvda halveert. pvv 2 zetels. denk in raad met 3 zetels.|,pos
rt @nvandenhout: @laetitiaouillet @gemeenteutrecht @wijkooginal @m4773 @lotvanhooijdonk @d66utrecht @rtvutrecht @groenlinks030 @politieutre…,pos
rt @d66: sommige campagnevideo's gaan veel en véél te ver. retweet deze video als je vindt dat nederland van ons allemaal is. #stemd66 http…,pos
|rt @m_wiedemeijer: "wij zullen dit geluid nooit accepteren."
dat "nooit accepteren" van #d66 houdt in dat ze samen de stad besturen. #facep…|,pos
rt @tjeerdd66: 🐟 95 miljoen euro voor betere natuur- en waterkwaliteit in nl! dankzij inzet #d66 besteedt kabinet maar liefst 95 miljoen eu…,pos
rt @hasbakker: mooi voorbeeld uit breda! als het aan @d66utrecht ligt gaan we hiermee komende vier jaar ook in utrecht weer flinke stappen…,pos
rt @jouutrecht: onze hanae. @jou_overvecht is gekozen tot jongerenwerker van het jaar! #trots  @d66utrecht @annemarijke https://t.co/gzxouo…,pos
|rt @rveelo: verkiezingsslogans, geloof ze nooit. @d66 https://t.co/hnahs3cyjh|,pos
rt @d66utrecht: na het #nosdebat benieuwd naar de plannen van @d66utrecht voor betaalbaar wonen in utrecht? bekijk dan deze video ⤵️ https:…,pos
de uitnodiging voor een kennisupdate staat overigens ook uit aan @d66utrecht en de andere partijen. zie onderstaand… https://t.co/3pcj6cr1p7,pos
|rt @raadutrecht: voorlopige uitslag #gr2018 in #utrecht obv 85% getelde stemmen: d66 (10), gl (11), vvd (6), pvda (3), sp (2), cda (2), sta…|,pos
|rt @redactieadun: eerste exit-poll utrecht: 
groenlinks 12
d66 9
vvd 5
pvda 2
sp 2
cda 2
stadsbelang 1
cu 2
s&amp; s 2
pvdd 2
pvv 2
seniorenpar…|,pos
|voorlopige uitslag #gr2018 in #utrecht obv 85% getelde stemmen: d66 (10), gl (11), vvd (6), pvda (3), sp (2), cda (… https://t.co/tnehm0b5tr|,pos
|rt @gemeenteutrecht: voorlopige uitslag #gr2018 in #utrecht obv 85% getelde stemmen: d66 (10), gl (11), vvd (6), pvda (3), sp (2), cda (2),…|,pos
rt @annemarijke: met @d66utrecht weer aan de slag voor @nldoet bij @buurtteamondiep: scootmobielen schrobben! #toettoet https://t.co/svc4jx…,pos
