|obv een derde van de stemmen in #amsterdam: bij1 op 0, vvd op 6, d66 op 8, gl op 11, pvda op 5, sp op 4, pvdo op 1,… https://t.co/xvizfdpxyj|,pos
|blijkbaar blijft pvdo gewoon, en komt 50plus r niet in.  #gr2018 #amsterdam|,pos
|rt @rubenkoops: obv een derde van de stemmen in #amsterdam: bij1 op 0, vvd op 6, d66 op 8, gl op 11, pvda op 5, sp op 4, pvdo op 1, cda op…|,pos
#amsterdam groenlinks 11; d66 9; vvd 6; pvda 5; denk 3; pvdd 3; sp 3; fvd 2; bij1 1; pvdo 1; cda 1. exit-poll at5: https://t.co/nahytiocxn,pos
