|"vooral de lokale partijen profiteren van verlies cda in baarle-nassau" ja, er zijn voor de rest alleen maar lokale… https://t.co/1rfgpaebv0|,neg
|@burgercomiteeu vvd, d66, cda en sp helaas een coalitie.|,neg
|rt @faunabeschermin: er was 20 jaar aan gewerkt en dit jaar zou de #ehs af zijn, maar bleker van #cda gebruikte natuurgrond liever voor lan…|,neg
basisschoolleerlingen moeten gratis kunnen sporten. vvd en cda zeggen daar ‘nee’ tegen. d66 zegt ‘ja’ tegen 1 jaar.… https://t.co/uph3za1j3o,neg
|deze maand gaan d66, cu, vvd en cda onderhandelen over de voorjaarsnota en wordt er opnieuw geld verdeeld.… https://t.co/wa3th71ige|,neg
cda kaag en braassem bereidt motie voor tegen ’ongezonde expansiedrift’ schiphol https://t.co/fh3nlmyk0v https://t.co/twewvggimm,neg
rt @leidschdagblad: cda weer de grootste in lisse https://t.co/erggais4h7 https://t.co/2pbu1ttbmp,neg
|rt @topsportleiden: pvda, groen links, cda en cu zijn tegen opofferen van sportmeters in leiden, de andere laten het open..|,neg
|rt @peterlangenafrt: te triest voor woorden, met dank aan vvd, d66, cu, pvda en cda die hier voorstemden!
ondanks deze kap heroverwegen kan…|,neg
|rt @topsportleiden: pvda, groen links, cda en cu zijn tegen opofferen van sportmeters in leiden, de andere laten het open..|,neg
rt @ditisdedag: moet leiden de hoogte in bouwen? @cdaleiden vreest een 'hong kong a/d rijn' scenario #didd #gr18 #peilingvantijs in gesprek…,neg
|rt @faunabeschermin: er was 20 jaar aan gewerkt en dit jaar zou de #ehs af zijn, maar bleker van #cda gebruikte natuurgrond liever voor lan…|,neg
verkrachting door "afrikaan zonder papieren" en bij #cda moet ieder aan- en oppassen behalve de dader - tja   #wnl https://t.co/mcrshxeoqw,neg
rt @estherouwehand: cda schrapte verbinding oostvaardersplassen met oostvaarderswold. toen wilde staatsbosbeheer ‘m zelf aanleggen. cda ver…,neg
rt @pieteromtzigt: de gemeenteraad van amsterdam verhindert dus door cda gevraagd debat over het vernietigende rapport over de ‘deradicalis…,neg
rt @2ekamertweets: vanochtend besprak de tweede kamer een initiatiefwetsvoorstel van het #cda en de #sgp. zij willen de mogelijkheid van ee…,neg
