|dat was weer een volle campagneweek, waarin we met het cda leiden allerlei activiteiten, debatten en acties op... https://t.co/1czmwsq7j7|,pos
het #sportdebat #2018 is gestart @leonardocollege @vvdleiden @cdaleiden @gl_leiden @christenunie @pvdaleiden… https://t.co/lbcey1vonn,pos
|ik moest het even nalezen, maar het staat er echt. het plaatselijke cda lanceert een site tégen het bouwen in leide… https://t.co/yadzqghmwa|,pos
balans tussen landbouw en recreatie belangrijk voor cda zoeterwoude - https://t.co/z5chmmvk8h,pos
|rt @cda_leiden: goedemorgen! stem vandaag leids, stem cda leiden:
1.@joostbl 
2.@roeland83 
3.@josineheijnen 
4.@jhterpstra 
5.@patrickm198…|,pos
balans tussen landbouw en recreatie belangrijk voor #cda zoeterwoude https://t.co/bsiwe159md #leiden,pos
rt @marieta_kroft: update: cda in voorschoten nek-aan-nek met gl. #gr18 https://t.co/li8iwqxhtm,pos
|het was koud vanmorgen bij de stations, maar het campagne voeren is te leuk om het te laten! #cda #leiden https://t.co/toczn75hjd|,pos
|#voorschoten || voorlopige uitslag: vvd 5. ons 3. cda 4. d66 3. gl 4. sp 1. pvda 1
lees meer in ons liveblog:
https://t.co/6oyrrbi6qp|,pos
rt @trudykwik: het #sportdebat #2018 is gestart @leonardocollege @vvdleiden @cdaleiden @gl_leiden @christenunie @pvdaleiden @spleiden @d66l…,pos
rt @roselaers: is het cda dan ook voor sluiting van de dutch church in londen? daar is de spreektaal al vier eeuwen lang nederlands. https:…,pos
rt @lodewijka: waarom ik vrijdag niet met het cda in debat ga: https://t.co/xeb2euimex,pos
@wolterselwin @vriendenovp @cda_leiden @cdaleiden gaat dus de polders niet volbouwen maar waar gaat @pvdaleiden hun… https://t.co/ftx9n6pzwg,pos
rt @roelofbouwman: zo voerden twee voorlopers van het cda campagne bij de amsterdamse gemeenteraadsverkiezingen van 1949. @cdaamsterdam @di…,pos
wat te stemmen in amsterdam lijkt me duidelijk. cda mag niet spreken over radicaliseringsbeleid https://t.co/4blojgovl6 via @telegraaf,pos
rt @cda_leiden: het cda pleit voor een 4e veld bij de hockeyclub en de lorentzschool ipv hoogbouw https://t.co/1tvq8cy0oc,pos
rt @karstenklein: de supporters van ado weten het wel. alle ballen op de laatste man van het cda op 21 maart! #stemlexderaadin #adonac http…,pos
rt @estherouwehand: cda nam enige aanstoot aan mijn bijdrage bij debat over #landbouwgif. of ik ‘t gewoon  ‘gewasbeschermingsmiddelen’ wild…,pos
|rt @roosvonk: journalisten, wakker worden. cda komt weg met natuur vernietigen (samen met vernietigingsbuddy vvd) en mooi weer spelen doord…|,pos
rt @estherouwehand: en nu roept cda dus dat brussel moet ingrijpen. om de natuurdoelen te halen die ze zélf de nek om hebben gedraaid. ik h…,pos
raadslid cda stalkt vrouw met naaktfoto’s en stapt op https://t.co/lvqyk0o80y via @telegraaf,pos
|rt @mariannethieme: goed nieuws: @pvddburen krijgt def 2 zetels! cda halveert, vvd verliest een zetel en wij zijn verdubbeld! #nooitmeerkno…|,pos
|rt @safatweets: een cda'er in het centrum: "mevrouw, mag ik u een flyer aanbieden?"
- nou, ik weet eigenlijk zeker dat het cda mijn stem ni…|,pos
rt @lodewijka: waarom ik vrijdag niet met het cda in debat ga: https://t.co/xeb2euimex,pos
@rjcwouters valt wel op dat de ene partij wel beter zijn best doet voor toegankelijkheid programma dan de ander. cda en pvda vallen op.,pos
|rt @cda_leiden: goedemorgen! stem vandaag leids, stem cda leiden:
1.@joostbl 
2.@roeland83 
3.@josineheijnen 
4.@jhterpstra 
5.@patrickm198…|,pos
