ook in #gouda voldoende kandidaten vanuit @cdagouda die zich graag inzetten voor gouda! #stemcda #samenmeer https://t.co/jptugvf2aw,pos
rt @teunwhardjono: leuke avond gehad met 150 nieuwe bewoners van gouda. veel bijval voor cda standpunten @cdagouda,pos
rt @eppyboschma: onze @nielshonkoop vanuit @cdagouda in gesprek met de jeugdwethouder over onderwijs op basisschool de triangel  zet m op n…,pos
rt @cdagouda: cda gouda wil een bloeiend sport- en verenigingsleven. in ons verkiezingsprogramma daarom aandacht voor een sportstimulerings…,pos
|rt @martijn_gouda: volg ook @martijnvanderwind @cdagouda op #instagram 

samen kunnen we meer. stem 21/3 voor gouda #stemcda https://t.co/3…|,pos
|rt @martijn_gouda: @corverkade @sgpgouda @cdagouda @keesvdstaaij zeker, waarde @corverkade samenwerken doen we niet in ons eentje 💪🏻 as dan…|,pos
@cdagouda @m_bunnik bedankt voor de hulp afgelopen zaterdag!,pos
rt @martijn_gouda: nog een voorbeeld van het haperende afvalbeleid. daarom pleit @cdagouda voor een veel betere uitvoering en snelle reacti…,pos
cda gouda wil duidelijkheid over financiering en garanties over tegengaan radicale invloeden bij nieuwe moskee goud… https://t.co/cvpvbqsyoa,pos
|rt @martijn_gouda: mooie inzet van vele leden en kandidaten @cdagouda voor #nldoet2018 

trots op dat ik voor deze partij kandidaat mag zij…|,pos
|rt @eppyboschma: waar wil @cdagouda op inzetten voor gouwenaars? zie hier,... heel concreet! #samenmeer #ouderen #jongeren #vrijwilligers #…|,pos
|rt @hugodejonge: en op campagne met @cdawestland, @cdavlaardingen en @cdagouda - mooi om ook hier het enthousiasme te zien van de cda-teams…|,pos
@nielshonkoop vertegenwoordigd @cdagouda tijdens het jongerendebat in @sowhatgouda op 8 maart!,pos
rt @egampublisher: @eppyboschma @cdagouda @martijn_gouda beter nog zou zijn: prullenbakken weer terugplaatsen.,pos
|rt @cdagouda: cda gouda gaat voor een veilig gouda, nu en straks! #gr2018 @huibertvrossum #samenmeer (bron: rtv @gouwestadtv) https://t.co/…|,pos
rt @cdagouda: cda-lijsttrekker @huibertvrossum mooi in het midden. cda is een partij die midden in de samenleving staat! #samenmeer https:/…,pos
rt @jwvgelderd46: het cda staat voor de wijkteams! #samenmeer #gouda https://t.co/47okhp2suj https://t.co/fg2lsbxs4e,pos
|@weegmeesterg @estherv75 @eppyboschma @cdagouda @hugodejonge samenwerken doe je niet in eentje, is ons standpunt. d… https://t.co/ra3zxne2rq|,pos
rt @eppyboschma: veiligheid topprioriteit voor @cdagouda @huibertvrossum #samenmeer https://t.co/pwj6hxj2u4,pos
rt @eppyboschma: 'in gouda zorgen we voor elkaar'. onze cda vicepremier @hugodejonge nam ons zorgpamflet in ontvangst en bezocht met @cdago…,pos
rt @jothijsg: @cdagouda heeft afgelopen vier jaar de burgers in gouda noord echt serieus genomen.  @cdagouda kiest voor draagvlak i.p.v. di…,pos
rt @eppyboschma: dank voor gastvrije ontvangst met @cdagouda bij de goudse manege! als paardenmeisje doet zo'n bezoek mijn hart weer snelle…,pos
@woutschonewille @alderliestenj @gratisgeldgouda @cugouda @cdagouda verrassend bericht want je hebt nooit gereageer… https://t.co/qavjvlhxzi,pos
|buma van het cda is een goudmijn voor gifjes:
https://t.co/z7opxilnb1|,pos
rt @nielshonkoop: samenleven doe je niet in je eentje! een stem op het #cda is een stem voor een stad die je door wilt geven. stem 21 maart…,pos
|rt @gouda20g: cda gouda: voor een vitaal en sportief gouda (cda) https://t.co/2tvua7fyxt

maak uw eigen filter over #gouda via https://t.co…|,pos
rt @telegraaf: cda wil versterking plaatselijke media https://t.co/srwptkiazz,pos
@theo_kerstholt @sgpgouda @geert_rozendaal @cdagouda @cugouda nu zijn we het voor het eerst eens... over de laatste… https://t.co/igngj8aqj3,pos
rt @hugodejonge: @eppyboschma @zorgpartnersm_h @cdagouda tot zo!,pos
rt @cdagouda: stem cda gouda. voor een stad die we door willen geven! #samenmeer #teamcda @sybrandbuma @cdavandaag https://t.co/ccfukjqhyo,pos
rt @martijn_gouda: cda overhandigt manifest mobiliteit aan tweede kamerfractie https://t.co/tnxgzhimgn via @goudsdagblad,pos
rt @eppyboschma: net achterwillens via flyeren samen met margreet v dijk @dijkmargr voorbereidt op onze komst morgen als @cdagouda  @achter…,pos
rt @eppyboschma: al gestemd? gewoon doen #stemteamcda #samenmeer @cdagouda #goudadoorgeven https://t.co/bwntpktecf,pos
rt @eppyboschma: veel steunbetuigingen vandaag op straat voor @cdagouda hartverwarmend! met margreeth v dijk @dijkmargr #samenmeer #stemtea…,pos
|rt @martijn_gouda: volg ook @martijnvanderwind @cdagouda op #instagram 

samen kunnen we meer. stem 21/3 voor gouda #stemcda https://t.co/3…|,pos
rt @martijn_gouda: samen kunnen we meer. help mee om gouda door te geven #stemcda https://t.co/lvkkmxzfly,pos
rt @cdagouda: op 21 maart kan jij het verschil maken: stem cda gouda! dank @hugodejonge voor de stemoproep 😀👏💪 @huibertvrossum @eppyboschma…,pos
|rt @peternoordhoek: niels honkoop, nr 5 op de lijst van cda gouda en gewoon de beste in het jongerendebat in so what. https://t.co/1hd7yrst…|,pos
rt @jothijsg: super! @cdagouda steekt handen uit de mouwen bij scoutinggroep die kantanky‘s @dkgouda zo wordt het clubhuis voor de jeugdled…,pos
rt @gratisgeldgouda: @estherv75 @eppyboschma @hugodejonge @cdagouda @zorgpartnersm_h dat krijgen wij binnenkort ook. hoe kan het dat een ge…,pos
@d66gouda @pvdagouda @vvdgouda @cugouda @cdagouda @spgouda @glgouda @sgpgouda @gouda50plus @pvddgouda @gbg_gouda… https://t.co/vtk9zife5f,pos
rt @eppyboschma: mooi debat en volop aandacht voor veiligheid met martijn van helvert @martijncda en regionale lijsttrekkers #cda #samenmee…,pos
|rt @eppyboschma: vandaag op pad in #gouda met #team @cdagouda in kader van @nldoet naar @zorgpartnersm_h #ronssehof, @velocitasgouda @dkgou…|,pos
rt @eppyboschma: gistermiddag nog bij ons in #gouda bij @cdagouda en 's avonds bij paul de leeuw. een vicepremier met hart voor de zaak! to…,pos
|rt @eppyboschma: hear, hear......stem @cdagouda adviseert onze vicepremier @hugodejonge van de zorg u als #gouwenaar vanaf de markt in goud…|,pos
|rt @eppyboschma: 'een witte lelie groeit....', mooie opening van deze regionale avond #cda @cdagouda door onze oud stadsdichter @hannekeler…|,pos
rt @weegmeesterg: @eppyboschma @martijn_gouda @cdagouda @hugodejonge goed voorbeeld van een cda-er die wel betrokken is en de moeite neemt…,pos
|rt @_janverbeek: cdazuidplas : 2de kamerlid martijn van helvert over bereikbaarheid en veiligheid op regionale cda avond.
aandacht voor ver…|,pos
rt @cdagouda: henk spit gaat voor een gouda dat we door willen geven. samen kunnen we meer! #stemcda #gouda #gr2018 https://t.co/ne8kujxjlc…,pos
rt @eppyboschma: top voor al je inzet voor de zorg! super dat je er was in #gouda @zorgpartnersm_h @cdagouda #samenmeer https://t.co/knb6ya…,pos
rt @jwvgelderd46: @cdagouda @huibertvrossum @eppyboschma @dijkmargr @alderliestenj en laten we snel en adequaat inspelen op het actieplan v…,pos
@theo_kerstholt @eppyboschma @cdagouda @cda onlangs is politiekorps #gouda betrokken geraakt bij dodelijk incident… https://t.co/iho7smw2fa,pos
rt @eppyboschma: heerlijk geschaatst! knapt een mens van op! zo op pad met @cdagouda naar de goudse manege @degoudsemanege en in gesprek me…,pos
rt @cdavandaag: verenigingen zijn van enorm belang voor onze samenleving. het #cda wil daarom dat gemeenten kunnen kiezen voor een lager #o…,pos
rt @teunwhardjono: vanavond naar de college toer veiligheid en privicy in arti legi gouda (aanvang  20.00 u) @cdagouda,pos
rt @martijn_gouda: samen kunnen we meer. help mee om gouda door te geven #stemcda https://t.co/lvkkmxzfly,pos
rt @nielshonkoop: vanavond sta ik met @huibertvrossum bij het christelijk lijsttrekkesdebat. komt allen! #cda #gr2018 #gouda https://t.co/c…,pos
rt @cdagouda: namens het cda voert @huibertvrossum het woord bij het christelijk lijsttrekkersdebat #gouda #samenmeer https://t.co/oexynu7m…,pos
|rt @leonardwalpot: door mijn werk als fotograaf ken ik het cda van binnenuit en ken ik de mensen. ik woon zelf in één vd grote steden, dus…|,pos
|rt @paulhamabels: @martijn_gouda @franspetersen83 @cdagouda tubbergen heeft veel gemeen net gouda: beroemde gebrandschilderde ramen, gelege…|,pos
rt @cdagouda: cda gouda wil duidelijkheid over financiering en garanties over tegengaan radicale invloeden bij komst nieuwe moskee https://…,pos
rt @_janverbeek: cda zuidplas regionale lijsttrekkers overhandigen cda manifest bereikbaarheid en mobiliteit aan martijn van helvert 2de ka…,pos
|rt @mc_reusken: met veel @cdagouda supporters leuke gesprekjes met jong en oud over sport, de buurt, het zwembad en ouderenzorg. #samenkunn…|,pos
|rt @martijn_gouda: maak het verschil, stem @cdavandaag @cdagouda #lijst5 #nummer4 

mag ik op uw stem rekenen? https://t.co/zcfxefw3qh|,pos
rt @cdavandaag: wij zijn trots! het #cda doet met maar liefst 8.109 #cda-kandidaten mee in 332 gemeenten. stem vandaag cda! #ikstemcda #tea…,pos
|rt @riadekorte: stem een #verpleegkundige uit het hart van de #zorg. met mij staan de volgende op de #cda lijsten ||woerden: @verastreng || h…|,pos
|rt @raymondaarsman1: hugo de jonge, minister van vws en vicepremier, komt 17 maart naar #gouda op bezoek in een zorgcentrum. #cda #gr2018 #…|,pos
rt @jothijsg: super! @cdagouda steekt handen uit de mouwen bij scoutinggroep die kantanky‘s @dkgouda zo wordt het clubhuis voor de jeugdled…,pos
rt @eppyboschma: 'in gouda zorgen we voor elkaar'. onze cda vicepremier @hugodejonge nam ons zorgpamflet in ontvangst en bezocht met @cdago…,pos
rt @cdavandaag: het #cda staat voor een samenleving waar iedereen mee telt en mee doet. dit soort vandalisme hoort hier niet thuis. we moet…,pos
rt @cdagouda: cda gouda wil duidelijkheid over financiering en garanties over tegengaan radicale invloeden bij komst nieuwe moskee https://…,pos
rt @cdagouda: cda gouda met @huibertvrossum op de voorpagina van de @goudsepost. benieuwd naar onze infographic en verkiezingsprogramma? ht…,pos
|rt @cdagouda: nog 59 minuten! 

nog even snel kijken waar cda gouda voor staat? https://t.co/oexynu7m5c

#samenmeer #gouda #gr18 #stemmen #…|,pos
rt @cdagouda: cda gouda wil een bloeiend sport- en verenigingsleven. in ons verkiezingsprogramma daarom aandacht voor een sportstimulerings…,pos
|rt @nielshonkoop: de leerlingen van #detriangel dragen ideeën aan voor de toekomst van hun school. ik antwoordde dat het #cda veiligheid, b…|,pos
rt @cdagouda: uiteraard ook op cda gouda! klik op de link en bekijk het campagnefilmpje van @huibertvrossum #samenmeer #gouda #gr2018 https…,pos
|rt @cda_bsv: de @cda_bsv is trots op al die vrouwelijke lijsttrekkers! 👏🏼
#internationalevrouwendag #teamcda #gr2018 #stemcda https://t.co/…|,pos
rt @teunwhardjono: straks lijsttrekkersdebat bij radio west. klaar om huibert te supporten @cdagouda @huibertvrossum @eppyboschma,pos
rt @eppyboschma: trots op deze betrokken cda minister met hart voor de zorg! we gaan hem ook in #gouda nog ontmoeten als @cdagouda  zin in!…,pos
|rt @cdagouda: nog 59 minuten! 

nog even snel kijken waar cda gouda voor staat? https://t.co/oexynu7m5c

#samenmeer #gouda #gr18 #stemmen #…|,pos
rt @cdagouda: cda gouda is er vanavond bij! #samenmeer #gouda #gr2018 https://t.co/oexynu7m5c https://t.co/rs7h9aubo3,pos
|rt @nielshonkoop: @eppyboschma pleit namens het @cdagouda voor een open bestuursstijl, waarbij de gemeente convenanten sluit met bewoners.…|,pos
rt @martijn_gouda: na afloop met de #bakfiets @cdagouda gestrand in de krugerlaan 🙈 precies bij @corverkade en @verkadedeheer die heel ruim…,pos
rt @cdavrouwen: cda vrouwen wenst jullie veel succes. op naar meer vrouwen in de gemeenteraad en straks als fractievoorzitter en wethouder…,pos
rt @jwvgelderd46: het cda staat voor de wijkteams! #samenmeer #gouda https://t.co/47okhp2suj https://t.co/fg2lsbxs4e,pos
|rt @cdagouda: cda gouda vindt het belangrijk dat iedereen kan participeren en zich kan ontplooien, daarom is sport zo belangrijk! #sportdeb…|,pos
|rt @estherv75: @weegmeesterg @martijn_gouda @eppyboschma @cdagouda @hugodejonge ipv slechts doorverwijzen naar zorgmarinier, oprechte inter…|,pos
rt @eppyboschma: oef niet best @gemeentegouda moet beter @gemeentegouda we blijven er vanuit @cdagouda @martijn_gouda bovenop zitten....#sa…,pos
|rt @cdagouda: cda gouda staat voor:

🛋️ een duurzaam gouda
🛠️ een werkende stad
🌲 gouda kindvriendelijk en groen
 👮‍♀️gouda veilig en bruis…|,pos
|rt @raymondaarsman1: hugo de jonge, minister van vws en vicepremier, komt 17 maart naar #gouda op bezoek in een zorgcentrum. #cda #gr2018 #…|,pos
rt @cdagouda: cda gouda met @huibertvrossum op de voorpagina van de @goudsepost. benieuwd naar onze infographic en verkiezingsprogramma? ht…,pos
rt @jwvgelderd46: positieve reacties van inwoners op onze lokale presentatie en programma! leuk om rechtstreeks te horen hoe het cda gouda…,pos
|rt @nielshonkoop: de leerlingen van #detriangel dragen ideeën aan voor de toekomst van hun school. ik antwoordde dat het #cda veiligheid, b…|,pos
rt @nielshonkoop: vanavond sta ik met @huibertvrossum bij het christelijk lijsttrekkesdebat. komt allen! #cda #gr2018 #gouda https://t.co/c…,pos
rt @nielshonkoop: samenleven doe je niet in je eentje! een stem op het #cda is een stem voor een stad die je door wilt geven. stem 21 maart…,pos
rt @corverkade: de band tussen @cdagouda en @sgpgouda is zo goed dat na rijp beraad (je ziet o.a. @martijn_gouda peinzen) besloten is dat l…,pos
|rt @hugodejonge: en op campagne met @cdawestland, @cdavlaardingen en @cdagouda - mooi om ook hier het enthousiasme te zien van de cda-teams…|,pos
rt @jwvgelderd46: huibert van rossum cda pleit voor structureel karakter van sportstimuleringsfonds! https://t.co/ohp1uj1idh,pos
|rt @eppyboschma: eerst stemmen, dan zwemmen....goede combi,  @cdagouda goede keus! #samenmeer https://t.co/z6kojt2bdy|,pos
rt @eppyboschma: michiel bunnik @m_bunnik is ondernemer en vanuit @cdagouda enthousiast over 'samenwerking' en pleit voor masterplan voor g…,pos
|rt @eppyboschma: waar wil @cdagouda op inzetten voor gouwenaars? zie hier,... heel concreet! #samenmeer #ouderen #jongeren #vrijwilligers #…|,pos
rt @arjanversteeg: aanwezig bij het christelijk lijsttrekkersdebat in gouda. @sgpgouda @cdagouda @cugouda en jezusleeft https://t.co/mdf6aa…,pos
|rt @teunwhardjono: straks worden in het huis van de stad @benjaminheerschop en @nielshonkoop, de jongsten op de @cdagouda lijst, het hemd v…|,pos
rt @telegraaf: cda wil versterking plaatselijke media https://t.co/srwptkiazz,pos
rt @martijn_gouda: na afloop met de #bakfiets @cdagouda gestrand in de krugerlaan 🙈 precies bij @corverkade en @verkadedeheer die heel ruim…,pos
|rt @nielshonkoop: de leerlingen van #detriangel dragen ideeën aan voor de toekomst van hun school. ik antwoordde dat het #cda veiligheid, b…|,pos
rt @riadekorte: cda is lokale partij met veel invloed op provinciale en landelijke thema's. gelukkig kan ik voor thema's over... https://t.…,pos
|rt @cdagouda: eppy boschma geeft aan dat als het aan het cda ligt, er elk jaar een 'staat van de stad' wordt opgesteld: 'dus ook met de huu…|,pos
|rt @eppyboschma: cda gouda wil starters in zorg, welzijn, onderwijs en politie sneller aan huurwoning helpen https://t.co/rpg5mmq8nv @cdago…|,pos
|rt @leonardwalpot: door mijn werk als fotograaf ken ik het cda van binnenuit en ken ik de mensen. ik woon zelf in één vd grote steden, dus…|,pos
rt @eppyboschma: wie geeft u een compliment vandaag! @complimentendag met #team cda gaan we op ronde om complimenten uit te delen aan vrijw…,pos
rt @eppyboschma: mooi @nielshonkoop @cdagouda https://t.co/labgeixeua,pos
rt @eppyboschma: wij doen uiteraard mee vanuit @cdagouda https://t.co/cgwfryifio,pos
|rt @gouda20g: cda gouda wil starters in zorg, welzijn, onderwijs en politie sneller aan huurwoning helpen (cda gouda) https://t.co/3uh7lvm6…|,pos
rt @cdavandaag: verenigingen zijn van enorm belang voor onze samenleving. het #cda wil daarom dat gemeenten kunnen kiezen voor een lager #o…,pos
rt @jwvgelderd46: positieve reacties van inwoners op onze lokale presentatie en programma! leuk om rechtstreeks te horen hoe het cda gouda…,pos
rt @eppyboschma: maak werk van sportverenigingen ook over een langere periode dan slechts over 4 jaar stelt @huibertvrossum @cdagouda #same…,pos
rt @cdagouda: cda gouda wil duidelijkheid over financiering en garanties over tegengaan radicale invloeden bij komst nieuwe moskee https://…,pos
@eppyboschma @cdagouda @martijn_gouda beter nog zou zijn: prullenbakken weer terugplaatsen.,pos
rt @eppyboschma: achterstallig onderhoud aanpakken is de stelling in debat @sportpuntgouda ja zegt @huibertvrossum @cdagouda #inhaalslag #s…,pos
|rt @cdavandaag: volg jij minister hugo de jonge al via instagram? niet? 

zeker even doen:
👉🏼 https://t.co/kw05fkqml3 📸 #cda #vws #tip #nld…|,pos
rt @cdagouda: henk spit gaat voor een gouda dat we door willen geven. samen kunnen we meer! #stemcda #gouda #gr2018 https://t.co/ne8kujxjlc…,pos
rt @jothijsg: @cdagouda heeft afgelopen vier jaar de burgers in gouda noord echt serieus genomen.  @cdagouda kiest voor draagvlak i.p.v. di…,pos
|rt @cdavandaag: welke jongere mag rekenen op jouw stem?

wij zijn trots dat we morgen ruim 700 jongeren van het cda op de stembiljetten heb…|,pos
rt @eppyboschma: mooi debat en volop aandacht voor veiligheid met martijn van helvert @martijncda en regionale lijsttrekkers #cda #samenmee…,pos
rt @martijn_gouda: na afloop met de #bakfiets @cdagouda gestrand in de krugerlaan 🙈 precies bij @corverkade en @verkadedeheer die heel ruim…,pos
|rt @eppyboschma: inderdaad, het moet veel beter. gelukkig is weghalen straatprullenbakken stopgezet mede als toezegging aan @cdagouda en in…|,pos
rt @jothijsg: super! @cdagouda steekt handen uit de mouwen bij scoutinggroep die kantanky‘s @dkgouda zo wordt het clubhuis voor de jeugdled…,pos
rt @estherv75: @gratisgeldgouda @eppyboschma @hugodejonge @cdagouda @zorgpartnersm_h en dat gouda het contract met ggz rivierduinen plots o…,pos
nummer vier cda den haag trekt zich terug https://t.co/r02qbmd4tz ~ algemeen,pos
rt @eppyboschma: 'in gouda zorgen we voor elkaar'. onze cda vicepremier @hugodejonge nam ons zorgpamflet in ontvangst en bezocht met @cdago…,pos
@martijn_gouda @cdagouda als je het maar laat om van #gouda een tweede #tubbergen te maken 😉,pos
rt @jwvgelderd46: het cda staat voor de wijkteams! #samenmeer #gouda https://t.co/47okhp2suj https://t.co/fg2lsbxs4e,pos
rt @eppyboschma: ook in #gouda voldoende kandidaten vanuit @cdagouda die zich graag inzetten voor gouda! #stemcda #samenmeer https://t.co/j…,pos
|rt @martijn_gouda: mooie inzet van vele leden en kandidaten @cdagouda voor #nldoet2018 

trots op dat ik voor deze partij kandidaat mag zij…|,pos
|rt @hugodejonge: en op campagne met @cdawestland, @cdavlaardingen en @cdagouda - mooi om ook hier het enthousiasme te zien van de cda-teams…|,pos
rt @eppyboschma: @aartjongejan @martijn_gouda @cdagouda @weegmeesterg @hugodejonge @kernkracht_ werk er graag aan mee! #samenmeer,pos
cda bodegraven-reeuwijk boort nieuwe doelgroep aan. https://t.co/yg5mngcsjr,pos
rt @nielshonkoop: op 8 maart sta ik in so what om het @cdagouda te vertegenwoordigen in het jongerendebat. tot volgende week! #gr2018 #goud…,pos
rt @jwvgelderd46: huibert van rossum cda pleit voor structureel karakter van sportstimuleringsfonds! https://t.co/ohp1uj1idh,pos
|@cdagouda @eppyboschma @jwvgelderd46 @alderliestenj en gelijk opgetreden tegen foutgestalde fietsers, nu je er toch… https://t.co/72kahltviw|,pos
rt @nielshonkoop: op 8 maart sta ik in so what om het @cdagouda te vertegenwoordigen in het jongerendebat. tot volgende week! #gr2018 #goud…,pos
rt @jwvgelderd46: positieve reacties van inwoners op onze lokale presentatie en programma! leuk om rechtstreeks te horen hoe het cda gouda…,pos
rt @cdavandaag: @cdagouda @huibertvrossum @eppyboschma @martijn_gouda @alderliestenj succes met de campagne vandaag! #teamcda #ikstemcda,pos
|rt @gouda20g: cda gouda: voor een vitaal en sportief gouda (cda) https://t.co/2tvua7fyxt

maak uw eigen filter over #gouda via https://t.co…|,pos
rt @cdagouda: huibert van rossum (@huibertvrossum) legt uit dat cda buurt- en wijkgerichte oplossingen wil zoeken om gouda #duurzaam te mak…,pos
rt @weegmeesterg: @eppyboschma @martijn_gouda @cdagouda @hugodejonge goed voorbeeld van een cda-er die wel betrokken is en de moeite neemt…,pos
rt @cdagouda: cda-lijsttrekker @huibertvrossum mooi in het midden. cda is een partij die midden in de samenleving staat! #samenmeer https:/…,pos
aanwezig bij het christelijk lijsttrekkersdebat in gouda. @sgpgouda @cdagouda @cugouda en jezusleeft https://t.co/mdf6aa56sv,pos
rt @eppyboschma: maak werk van sportverenigingen ook over een langere periode dan slechts over 4 jaar stelt @huibertvrossum @cdagouda #same…,pos
rt @cdagouda: stem cda gouda. voor een stad die we door willen geven! #samenmeer #teamcda @sybrandbuma @cdavandaag https://t.co/ccfukjqhyo,pos
rt @eppyboschma: complimenten uitgedeeld vanuit @cdagouda op #complimentendag aan vrijwilligers speelplek #cronestein en #natuurspeeltuin g…,pos
|rt @cdagouda: cda gouda gaat voor een veilig gouda, nu en straks! #gr2018 @huibertvrossum #samenmeer (bron: rtv @gouwestadtv) https://t.co/…|,pos
|rt @eppyboschma: cda gouda wil starters in zorg, welzijn, onderwijs en politie sneller aan huurwoning helpen https://t.co/rpg5mmq8nv @cdago…|,pos
rt @eppyboschma: cda-partijleider buma @sybrandbuma en vicepremier de jonge @hugodejonge op campagne in #gouda @cdagouda  #samenmeer  https…,pos
|rt @cdagouda: cda gouda gaat voor een veilig gouda, nu en straks! #gr2018 @huibertvrossum #samenmeer (bron: rtv @gouwestadtv) https://t.co/…|,pos
rt @cdagouda: cda gouda wil een bloeiend sport- en verenigingsleven. in ons verkiezingsprogramma daarom aandacht voor een sportstimulerings…,pos
|rt @gouda20g: cda gouda wil starters in zorg, welzijn, onderwijs en politie sneller aan huurwoning helpen (cda gouda) https://t.co/3uh7lvm6…|,pos
rt @eppyboschma: 'in gouda zorgen we voor elkaar'. onze cda vicepremier @hugodejonge nam ons zorgpamflet in ontvangst en bezocht met @cdago…,pos
rt @cdagouda: op 21 maart kan jij het verschil maken: stem cda gouda! dank @hugodejonge voor de stemoproep 😀👏💪 @huibertvrossum @eppyboschma…,pos
rt @corverkade: @martijn_gouda @cdagouda @verkadedeheer om de vrienden van @cdagouda te dienen heb ik vanmorgen de bij ons gestrande vouwfi…,pos
rt @cdagouda: uiteraard ook op cda gouda! klik op de link en bekijk het campagnefilmpje van @huibertvrossum #samenmeer #gouda #gr2018 https…,pos
rt @eppyboschma: onze @huibertvrossum van @cdagouda overhandigde @sybrandbuma @cdavandaag op de goudse markt het pamflet 'voor een veilig e…,pos
rt @cdagouda: cda gouda is er vanavond bij! #samenmeer #gouda #gr2018 https://t.co/oexynu7m5c https://t.co/rs7h9aubo3,pos
|rt @cdagouda: cda gouda staat voor:

🛋️ een duurzaam gouda
🛠️ een werkende stad
🌲 gouda kindvriendelijk en groen
 👮‍♀️gouda veilig en bruis…|,pos
rt @hjhooglander: @eppyboschma @cdagouda @dijkmargr zijn jullie vandaag nog aan het campagnevoeren?,pos
|rt @eppyboschma: 'ik kwam via de stemwijzer bij jullie als @cdagouda uit', vertrouwde een gouwenaar in achterwillens ons toe. stonden we da…|,pos
|met veel @cdagouda supporters leuke gesprekjes met jong en oud over sport, de buurt, het zwembad en ouderenzorg.… https://t.co/vzojcemaka|,pos
@eppyboschma @biebgouda @huibertvrossum @cdagouda huibert is beetje verdwaald😉,pos
|rt @mc_reusken: met veel @cdagouda supporters leuke gesprekjes met jong en oud over sport, de buurt, het zwembad en ouderenzorg. #samenkunn…|,pos
rt @cdagouda: namens het cda voert @huibertvrossum het woord bij het christelijk lijsttrekkersdebat #gouda #samenmeer https://t.co/oexynu7m…,pos
|rt @cdagouda: martijn van helvert komt op voor vervolgde christenen over de hele wereld, een belangrijk punt waar we ons als cda hard voor…|,pos
rt @cdagouda: cda gouda wil duidelijkheid over financiering en garanties over tegengaan radicale invloeden bij komst nieuwe moskee https://…,pos
|rt @martijn_gouda: mooie inzet van vele leden en kandidaten @cdagouda voor #nldoet2018 

trots op dat ik voor deze partij kandidaat mag zij…|,pos
|rt @eppyboschma: vandaag op pad in #gouda met #team @cdagouda in kader van @nldoet naar @zorgpartnersm_h #ronssehof, @velocitasgouda @dkgou…|,pos
rt @cdavandaag: verenigingen zijn van enorm belang voor onze samenleving. het #cda wil daarom dat gemeenten kunnen kiezen voor een lager #o…,pos
rt @cdagouda: stem cda gouda. voor een stad die we door willen geven! #samenmeer #teamcda @sybrandbuma @cdavandaag https://t.co/ccfukjqhyo,pos
|rt @cdagouda: eppy boschma geeft aan dat als het aan het cda ligt, er elk jaar een 'staat van de stad' wordt opgesteld: 'dus ook met de huu…|,pos
|rt @eppyboschma: 'een witte lelie groeit....', mooie opening van deze regionale avond #cda @cdagouda door onze oud stadsdichter @hannekeler…|,pos
rt @jwvgelderd46: @nielshonkoop @cdagouda @huibertvrossum huibert en niels: representatief voor de lokale cda lijn van ervaring kunde elan…,pos
rt @cdagouda: op 21 maart kan jij het verschil maken: stem cda gouda! dank @hugodejonge voor de stemoproep 😀👏💪 @huibertvrossum @eppyboschma…,pos
