|rt @emmzwart: sp’er gister: zo’n leuk meisje en dan bij denk? loop mee naar mn auto ik heb nog wel een sp jas.
ik: zolang ze hun standpunte…|,pos
|rt @joopsoesan: lees dit goed en u begrijpt het gevaar van #nida waar @pvda , @groenlinks en #sp een verbond mee hebben https://t.co/xblkrl…|,pos
@sp_amsterdam wat sp van behoud van het behoud van cultureel erf goed? https://t.co/hvmaf5bxrs,pos
@carelbrendel verklaart die niet (ook) de dissidente opstelling van de rotterdamse sp inzake samenwerking met nida?… https://t.co/mpwet95ewl,pos
rt @sp_amsterdam: maak het échte verschil. stem woensdag 21 maart 👉🍅 sp #gr2018 #020kiest https://t.co/xvdpyqfb8w,pos
rt @sp_amsterdam: maak het échte verschil. stem woensdag 21 maart 👉🍅 sp #gr2018 #020kiest https://t.co/xvdpyqfb8w,pos
|obv een derde van de stemmen in #amsterdam: bij1 op 0, vvd op 6, d66 op 8, gl op 11, pvda op 5, sp op 4, pvdo op 1,… https://t.co/xvizfdpxyj|,pos
@binnertdeb @pvda als je echt ander sociaal beleid wilt moet je gewoon sp stemmen.,pos
rt @eenvandaag: dit jaar staan 130.000 vacatures open in de zorg. tweede kamerlid @sp @maartenhijink: 'ik vind het heel pijnlijk voor de ve…,pos
#amsterdam groenlinks 11; d66 9; vvd 6; pvda 5; denk 3; pvdd 3; sp 3; fvd 2; bij1 1; pvdo 1; cda 1. exit-poll at5: https://t.co/nahytiocxn,pos
|@_smoumz_ @d66amsterdam @rvdantzig dat weet ik wel bijna zeker. maar samen met gl en bijvoorbeeld bij1, pp of sp ko… https://t.co/jwi8zecnlm|,pos
deze pvda man niet. liever met sp gl en wie weet.... https://t.co/txyo110b4y,pos
|sp presenteert resultaten hulpdiensttour: veel bereikt, maar ook nog veel te doen (sp amsterdam)… https://t.co/74zwmtztcv|,pos
de #woningmarkt moet amsterdam gezinnen financieel helpen om woning te kopen. vvd zegt ja. wethouder wonen van sp z… https://t.co/crwnwe8dvh,pos
|@marijnissenl @spnl ik duim voor jullie. in mijn amsterdam heeft de sp zoveel goeds gedaan mbt armoedebestrijding,… https://t.co/yjzctmwarz|,pos
rt @sp_amsterdam: "voor duurzaamheid heeft de politiek lef nodig. de sp wil een zonnepaneel op íeder amsterdams dak" 🏡☀ - @laurensivens #hv…,pos
die partijafdracht van sp en groenlinks vind ik tamelijk communistisch. de vergoeding van een raadslid in amsterdam… https://t.co/d7luptgcci,pos
|rt @donarturito: uiteindelijk heeft meneer anouali de pvda, groenlinks en de sp er van overtuigd dat de profeet juist dol was op joden. htt…|,pos
|@anjamwinter sp is akkoord gegaan met bebouwing van twee kavels in het beatrixpark, ze stemden bijna in met de bouw… https://t.co/svfygqwtoc|,pos
|rt @rdstad: leefbaar blijft de grootste, volgens de peiling van maurice de hond. de sp zou de tweede partij van rotterdam worden 
https://t…|,pos
rt @gladysdenk: @taimounti @f_azarkan @denk_amsterdam @amsterdamnl @pvda @vvd @d66 @sp herinneren wij ons deze nog (nog nog)? @gertjanseger…,pos
de halvering in rotterdam die dreigt volgens de eerste exitpoll hakt erin bij de amsterdamse sp https://t.co/5pdk7ndh3g,pos
|nieuw product verkrijgbaar: #nania autostoel ferrari beline sp corsa (9-36kg)
kijk snel op: baby kamers -… https://t.co/xkgo0fyg53|,pos
rt @marijnissenl: de #ing baas die meent recht te hebben op 3 miljoen per jaar? ik dacht het niet! de #sp zet haar aandeelhoudersmacht in!…,pos
|rt @huijgena: stem niet op #d66, #vvd of #sp op 21 maart. deze partijen jagen vele amsterdammers uit hun huis met hun #eeuwigdurend #erfpac…|,pos
@markjan44178921 zit die in het sp ziekenfonds of maak je voor mij een uitzondering?,pos
|'de sp in amsterdam, heel zichtbaar, ivens, veel op tv'|,pos
@florencetonk bij ons heeft de sp het voor elkaar...,pos
|rt @nielsjongerius: zo, die campagneknaller van @spamsterdam is gewoon een straatfeest geworden. https://t.co/q2bt4bywcl|,pos
rt @sp_amsterdam: maak het échte verschil. stem woensdag 21 maart 👉🍅 sp #gr2018 #020kiest https://t.co/xvdpyqfb8w,pos
|rt @moll1982: bankiers gaan hun vaste salarissen gewoon sneller verhogen om zo het bonusverbod te omzeilen, zei de sp in 2014. dus maximeer…|,pos
justin polman met sp tuning linea recta naar podium in eerste bmc: "mooie start van het seizoen" https://t.co/l5yhnghvpe,pos
|rt @sp_amsterdam: "de sp begon met oppositie voeren op straat, toen in de raad, en de afgelopen vier jaar heb ik in het college oppositie p…|,pos
eerlijk is eerlijk. de sp zet zich altijd in voor betaalbare woningen in amsterdam. https://t.co/33nctfhxxf,pos
|rt @robertpbas: exitpoll rotterdam: leefbaar 11, pvda 5, d’66 4, sp 2, vvd 5, cda 2, groenlinks 4, nida 2, cu/sgp 1, pvdd 1, 50plus 2, denk…|,pos
|@eerdmans @opiniezmagazine tja, sp krijgt mijn stem ook niet meer. was de enige die tijdens de zandbak-oorlogen teg… https://t.co/k89wx4cdcv|,pos
@renevlrocks @davidschreuders de sp wil voorrang voor amsterdammers op de huizenmarkt. als je langer dan drie jaar… https://t.co/44968nbscg,pos
@gertjanvl @peterkwint waarom is het de verantwoordelijkheid van de sp om de pvv aan diens economisch linkse beloft… https://t.co/qmobnsj22x,pos
|rt @micheleggermont: sp stort € 70.000 terug in de gemeentekas
de fractievergoedingen voor fractieondersteuning zijn simpelweg te hoog. we…|,pos
rt @sp_amsterdam: maak het échte verschil. stem woensdag 21 maart 👉🍅 sp #gr2018 #020kiest https://t.co/xvdpyqfb8w,pos
|rt @rwgriffioen: erfpacht was in 1915 een zegen en dank zij (opvolgend in 20 jaren) pvda, gl, vvd en d66 - en heel stilletjes sp - is nu ee…|,pos
rt @jacquesmonasch: fantastische vrouw! en ondertussen sluit #links #rotterdam #pvda #sp #gl zich aan bij de islamitische en fundamentalist…,pos
kieskompas heeft het over voorrang voor amsterdammers op een woning. de sp heeft het over voorrang op een nieuwe wo… https://t.co/izdpxhyr3r,pos
rt @afwc1917: met 8 lijsttrekkers @laurensivens #sp @marjoleinmoor #pvda @rvdantzig #d66 @ericvanderburg #vvd @taimounti #denk @johnasvlamm…,pos
sp en pvda en resultaten van wetenschappelijk onderzoek. dat is beslist een interessant onderwerp.,pos
|sp doet niet mee met de stadsdeelcommissies, dus stemt de lijsttrekker blanco. ‘allemaal mooie praatjes.’ een klap… https://t.co/gecxkoyupe|,pos
|#armoede #rutte pvda, sp en groenlinks maken zich sterk voor uitgebreid landelijk manifest… https://t.co/o97yrm3lzv|,pos
|#groenlinks grote winnaar raadsverkiezingen, #sp en #pvda zakken weg, buiten de randstad groeien de lokalen… https://t.co/2i01z5veus|,pos
|de sp amsterdam deelt graag folders uit, waarbij men geen respect heeft voor de nee/nee sticker op mijn... https://t.co/btc0jx5ahq|,pos
rt @voordeommekeer: jan marijnissen in gesprek met bernard hammelburg: "de sp is te braaf en te onzichtbaar geweest". bekijk het volledige…,pos
rt @jacquesmonasch: fantastische vrouw! en ondertussen sluit #links #rotterdam #pvda #sp #gl zich aan bij de islamitische en fundamentalist…,pos
|rt @spnl: ga op 21 maart stemmen! in dit filmpje hoor je in anderhalve minuut waarom de sp tegen de #sleepwet is.

maar wat je ook vindt, g…|,pos
|rt @seven__: bnnvara vanavond. eerst dwdd / lagerhuis waar 2 politici mochten opdraven lilian marijnissen sp &amp; alexander pechtold d66, impl…|,pos
@vvdamsterdam wacht even. hele oppositie was voor... en sp waarschijnlijk ook. ik heb jullie niet eerder hierover g… https://t.co/sgqgvxbat9,pos
|rt @spnl: wilt u meer weten waar een stem op de sp voor staat? vraag het aan ons!

bel ons of app via 0703183044, mail naar verkiezingen@sp…|,pos
|rt @verkoulen: ik vraag me in toenemende mate af waarom groenlinks, de pvda en de sp als aparte lijsten meedoen aan de verkiezingen.|,pos
|liveblog - lokale partij wakker emmen blijft de grootste partij van emmen, pvv, sp en 50plus, die voor het eerst me… https://t.co/agpxpumqr7|,pos
|rt @laurensivens: "de sp begon met oppositie voeren op straat, toen in de raad, en de afgelopen vier jaar heb ik in het college van b. en w…|,pos
|rt @sp_amsterdam: stem niet voor middelmaat. stem op 21 maart sp 🍅
#gr2018 #020kiest #amsterdamvanamsterdammers https://t.co/twjhyowcz6|,pos
|rt @moll1982: bankiers gaan hun vaste salarissen gewoon sneller verhogen om zo het bonusverbod te omzeilen, zei de sp in 2014. dus maximeer…|,pos
@lennartvn n.o.s. heb meelij exiptoll pls!!! herman zandt waar is joun scherm??? veeg staafjes met cda en sp in lee… https://t.co/gs97dqpvfm,pos
|"de sp begon met oppositie voeren op straat, toen in de raad, en de afgelopen vier jaar heb ik in het college van b… https://t.co/zzdsfm13ld|,pos
|rt @spnl: deze verkiezingen gaan over goede zorg, een betaalbaar huis en een veilige buurt. daar maakt de sp het verschil! @marijnissenl @m…|,pos
rt @sp_amsterdam: de sp wil dat er de komende jaren veel meer huizen bijkomen voor jonge mensen. lijsttrekker @laurensivens: "de ambitie mo…,pos
|grootste teleurstelling bij sp
nieuwe leider niet goed genoeg .|,pos
rt @sp_amsterdam: de sp wil dat er de komende jaren veel meer huizen bijkomen voor jonge mensen. lijsttrekker @laurensivens: "de ambitie mo…,pos
|rt @tiersbakker: de verkazing van de stad gaat helaas door en wie werkt daar aan mee? europa! 5 kaasshops op de het damrak
strijd met sp te…|,pos
|rt @sp_amsterdam: stem niet voor middelmaat. stem op 21 maart sp 🍅
#gr2018 #020kiest #amsterdamvanamsterdammers https://t.co/twjhyowcz6|,pos
rt @sp_amsterdam: vandaag staken duizenden leraren in het basisonderwijs. de sp steunt hun strijd voor betere werkomstandigheden! samen met…,pos
enfin. komende 48 uur eens even in de gaten houden of #groenlinks en #sp (of één van de twee) zichzelf vast ketent… https://t.co/jdmnh6n1x5,pos
|rt @kevinlevie: oh en, niet tegen lilian vertellen hoor, maar een flink deel van de sp is er ook gewoon (net als groenlinks, bij1 en pirate…|,pos
|rt @at5: 199 stembureaus geteld: forum voor democratie nu op 3 zetels, de sp toch op 4 https://t.co/yyilsdfspm https://t.co/otbegt1azc|,pos
rt @kjonker33: plan van #sp raadslid @baraku_ om ‘absurd’ hoge #salarissen bij #corporaties #rotterdam aan te pakken valt goed @corposector…,pos
amsterdam stort geen geld meer in partijkas sp https://t.co/bhlcxwfccr,pos
rt @sp_amsterdam: sp-lijsttrekker @laurensivens: "laten we in amsterdam kinderen een gelijke start geven. de sp wil zorgen voor gemengde wi…,pos
@vincente @sp @d66 ge er tussenin zitten. de piraten zijn voor democratische vernieuwing en digital minded!,pos
|rt @tiersbakker: de verkazing van de stad gaat helaas door en wie werkt daar aan mee? europa! 5 kaasshops op de het damrak
strijd met sp te…|,pos
gemeente amsterdam stort geen geld meer in partijkas van sp https://t.co/i608h3vmym,pos
rt @buitdenbogaart: sp lijsttrekker laurens ivens @sp_amsterdam geeft heldere visie op de binnenstad tijdens @vvab_officieel debat in pakhu…,pos
overigens sneu voor de @sp die het volgens mij hartstikke goed gedaan heeft in ansterdam https://t.co/2ra8f3h3jk,pos
rt @sp_amsterdam: vandaag in de telegraaf: de sp zit in de lift en is de 3e partij van de stad. de vraag is dus: gaan we aanmodderen met de…,pos
rt @bpschut: ik kan mij niet voorstellen dat de pvda openlijk voor het antisemitische nida kiest. of dat de sp echt wil samenwerken met dez…,pos
nicole temmink #sp reageert: goed om te zien wat toegevoegde van broedplaats is. veel dingen vinden alsnog plaats i… https://t.co/2krbizicsr,pos
ik heb bij de sp toch altijd het gevoel dat ze vooral gezellig zijn voor bij de theekransjes #gr2018 #nederlandkiest,pos
kijk een rij bij het stembureau: zo zie ik het graag #sp #nee #gr2018,pos
|rt @tomwgvdmeer: ik vind het zo'n rare duiding bij de nos. pvv en sp doen het goed in emmen, volgens rob trip? tja, ze doen voor het eerst…|,pos
rt @marijnissenl: de #ing baas die meent recht te hebben op 3 miljoen per jaar? ik dacht het niet! de #sp zet haar aandeelhoudersmacht in!…,pos
|rt @spnl: waarom verdwijnt de helft van de aangiftes in de la? de sp kiest voor veilige wijken en investeert in veiligheid.

stem 21 maart…|,pos
irritante reclame van de sp das nier voor elkaar #21maart #stemmen,pos
|rt @marcuspluijm: dankzij het links verbond of beter link verbond met #nida weten we wat de intentie van #pvda, #sp en #groenlinks is. laat…|,pos
|d66, groenlinks, vvd, pvda en sp zijn samen goed voor 31 zetels(23 nodig). ze komen er wel uit na de verkiezingen.  https://t.co/chdktvoqdl|,pos
rt @sp_amsterdam: de meerderheid van de amsterdammers is het met de sp eens. voor al die amsterdamse jongeren die tot hun 30e bij hun ouder…,pos
rt @j_i_1900: dat pauw en van nieuwkerk bizar veel verdienen van belastinggeld daar hoor ik de sp nooit over...#pauw,pos
@bramgerrits @laurensivens en dan te bedenken dat de sp verantwoordelijk is voor dit (inderdaad) slechte nieuwe stelsel...,pos
|@basvandervoort de sp heeft (zeker :-)) niet mijn politieke kleur, maar uit ervaring uit mijn tijd in oss kan ik je… https://t.co/6qrxfrziwz|,pos
rt @sp_amsterdam: "voor duurzaamheid heeft de politiek lef nodig. de sp wil een zonnepaneel op íeder amsterdams dak" 🏡☀ - @laurensivens #hv…,pos
|rt @rdstad: leefbaar blijft de grootste, volgens de peiling van maurice de hond. de sp zou de tweede partij van rotterdam worden 
https://t…|,pos
rt @buijtleefbaar: pikant: rotterdamse pvda en sp willen nog steeds samen met nida in stadsbestuur terwijl asscher en marijnissen dit falie…,pos
rt @okkingaj: dan lijkt dit “kroonjuweel” mij totaal mislukt. #megalomaneprutsers #erfpacht #d66 #vvd #sp #pvda #gl 🤮 https://t.co/twrhzrqq…,pos
rt @sp_amsterdam: de sp wil dat er de komende jaren veel meer huizen bijkomen voor jonge mensen. lijsttrekker @laurensivens: "de ambitie mo…,pos
rt @sharon_dijksma: goed werk van @henknijboer en de collega’s van sp en groenlinks! het is hard nodig om de #uitverkoop van onze steden aa…,pos
rt @sp_amsterdam: vandaag in de telegraaf: de sp zit in de lift en is de 3e partij van de stad. de vraag is dus: gaan we aanmodderen met de…,pos
rt @marijnissenl: vandaag samen met osse #sp lijsttrekker @jansmt op campagne in mijn eigen oss! #voorelkaar #gr2018 https://t.co/ccnx9lwo87,pos
ja logisch dat hij blanco stemt het is ook farce die stadsdeelcommissies met dank aan de sp zelf.  https://t.co/dzqd0nsks1,pos
|rt @jocelynjefjoc: stem gl/pvda/ sp als je dolgraag je erfpacht en bijbehorende ridicule verhogingen wil houden.. zo niet, stem je cda ( of…|,pos
rt @jacquesmonasch: fantastische vrouw! en ondertussen sluit #links #rotterdam #pvda #sp #gl zich aan bij de islamitische en fundamentalist…,pos
|rt @sp_amsterdam: .@c_groenendijk heeft namens de sp het #regenboogakkoord getekend. "iedereen in amsterdam moet zichzelf kunnen zijn, op w…|,pos
|rt @bartnijman: sleepwetcampagne! geenpeil en sp zetten zich weer in (plus een goeie speech van groenlinks) 

https://t.co/ezmx5hj0n5|,pos
|rt @anthonysc6: klopt,toen ik 10 jaar geleden als actief sp lid schriftelijke vraag stelde over #chemtrails werd ik als 'gekkie' versleten.…|,pos
rt @renskeleijten: er wordt gestemd. stembureau patronaat is in gebruik #haarlem #voorelkaar #stemsp https://t.co/yxvsvafzpo,pos
|rt @rwgriffioen: erfpacht was in 1915 een zegen en dank zij (opvolgend in 20 jaren) pvda, gl, vvd en d66 - en heel stilletjes sp - is nu ee…|,pos
rt @joelserphos: de sp steunt geen wet die het voor reders mogelijk maakt om beveiliging in te huren als de marine hen niet kan beschermen.…,pos
|rt @pheisterkamp: @bowinemichel @telegraaf het huidige college met #vvd , #d66  en #sp  heeft het dus volledig in de soep laten lopen. je m…|,pos
|sp geweldige actie op plein 40-45 met dkka band super swinging!
https://t.co/xvfg5x7cso|,pos
rt @spnl: sp succes! een meerderheid van de tweede kamer steunt het initiatief van sp-kamerlid @bartvankent om flexcontracten voor werkgeve…,pos
rt @sp_amsterdam: vandaag in de telegraaf: de sp zit in de lift en is de 3e partij van de stad. de vraag is dus: gaan we aanmodderen met de…,pos
rt @grauwegrutjes: de opdracht voor de sp top is duidelijk. opstappen en naar huis met lilian en de xenofobe klets. durf eindelijk voor lin…,pos
|rt @stefanpaas: kijk, die tweet was dus gewoon bekend. dus moeten gl, pvda en sp in rotterdam nu niet doen alsof ze erdoor overvallen zijn.…|,pos
|rt @rubenkoops: obv een derde van de stemmen in #amsterdam: bij1 op 0, vvd op 6, d66 op 8, gl op 11, pvda op 5, sp op 4, pvdo op 1, cda op…|,pos
rt @sp_amsterdam: vandaag in de telegraaf: de sp zit in de lift en is de 3e partij van de stad. de vraag is dus: gaan we aanmodderen met de…,pos
sp projecteert partijleider op panden multinationals https://t.co/gjbskwwkje,pos
|rt @verkoulen: ik vraag me in toenemende mate af waarom groenlinks, de pvda en de sp als aparte lijsten meedoen aan de verkiezingen.|,pos
rt @jacquesmonasch: fantastische vrouw! en ondertussen sluit #links #rotterdam #pvda #sp #gl zich aan bij de islamitische en fundamentalist…,pos
rt @renskeleijten: sp grootste in heerlen https://t.co/udnq16uftg,pos
rt @spnl: weten wat een stem op de sp waard is? vraag het ons! @ninekooiman &amp; @sandrabeckerman staan vanaf 15:00 klaar om al je vragen te b…,pos
|sp blij met compliment: “college liet minima niet barsten”

cc @rozeolifanten https://t.co/ybjzvxhxwg|,pos
|rt @pheisterkamp: @bowinemichel @telegraaf het huidige college met #vvd , #d66  en #sp  heeft het dus volledig in de soep laten lopen. je m…|,pos
@nicovangog @buurtvuist nou onafhankelijk... geert is afgelopen tig jaar actief geweest voor de sp,pos
|rt @davidschreuders: leuk debat vandaag in de baarsjes! de sp wil investeren in veiligheid in de buurt, betaalbaar wonen en openbaar vervoe…|,pos
sp lijsttrekker laurens ivens @sp_amsterdam geeft heldere visie op de binnenstad tijdens @vvab_officieel debat in p… https://t.co/a8ztviisa3,pos
|rt @at5: 199 stembureaus geteld: forum voor democratie nu op 3 zetels, de sp toch op 4 https://t.co/yyilsdfspm https://t.co/otbegt1azc|,pos
@liestettero @imaneamsterdam daarom een wetsvoorstel “gelijke beloning vrouwen en mannen” van #pvda #sp #50+ en groenlinks,pos
@karolienvanwijk @pvda @lbleijerveld maarre de sp hoort niet in dat  amsterdamse rijtje thuis hoor 🤣🤣🤣,pos
rt @purmerendsp: zoals nu blijkt heeft de #sp in purmerend de verkiezingen gewonnen! de meeste stemmen/zetels erbij. dank aan al onze stemm…,pos
|rt @spnl: ga op 21 maart stemmen! in dit filmpje hoor je in anderhalve minuut waarom de sp tegen de #sleepwet is.

maar wat je ook vindt, g…|,pos
|rt @huijgena: stem niet op #d66, #vvd of #sp op 21 maart. deze partijen jagen vele amsterdammers uit hun huis met hun #eeuwigdurend #erfpac…|,pos
|rt @laurensivens: "de sp begon met oppositie voeren op straat, toen in de raad, en de afgelopen vier jaar heb ik in het college van b. en w…|,pos
rt @kjonker33: plan van #sp raadslid @baraku_ om ‘absurd’ hoge #salarissen bij #corporaties #rotterdam aan te pakken valt goed @corposector…,pos
|199 stembureaus geteld: forum voor democratie nu op 3 zetels, de sp toch op 4 https://t.co/yyilsdfspm https://t.co/otbegt1azc|,pos
rt @spnl: in de ene gemeente krijg je wel de zorg die je nodig hebt en in de andere gemeente niet. de sp wil af van de postcodezorg. iedere…,pos
rt @marijnissenl: de #ing baas die meent recht te hebben op 3 miljoen per jaar? ik dacht het niet! de #sp zet haar aandeelhoudersmacht in!…,pos
|rt @sabio_vd: sp de enige landelijke partij waarvan je antwoord krijgt als je hun mailt en die er ook vervolgens iets mee doen! 

👍👍👍👍👍👍👍👍👍…|,pos
ik heb nog nooit sp gestemd maar ben wel beetje fan van @marijnissenl,pos
@aambeienjam1 @marijnissenl ik stem geen sp deze verkiezing maar ik heb en enorme zwak voor deze dame..,pos
|rt @spnl: ga op 21 maart stemmen! in dit filmpje hoor je in anderhalve minuut waarom de sp tegen de #sleepwet is.

maar wat je ook vindt, g…|,pos
@parool @pretpark020 @laurensivens wel vervelend? de sp heeft de grond gewoon verkocht voor een fooi,pos
|rt @1limburg: sp raakt zetel kwijt, maar blijft grootste in heerlen https://t.co/8wmkdewagh https://t.co/w18sefk6ht|,pos
|beste @amsterdamnl,

zowel de #sp #pvda als #cda heeft bij mij ongeadresseerde post in de brievenbus gedaan. vind i… https://t.co/jwcngilnw9|,pos
|rt @buitenhoftv: morgen in #buitenhof: @meyerron wil de sp klaarstomen voor een nieuwe generatie. over zijn rondgang door nederland, sleute…|,pos
in roermond bestendigt jos van rey zijn positie. denk en sp veroveren één zetel. als we denk intekenen in de graaf… https://t.co/pobfez7upf,pos
|rt @karel79534498: #nida ondermijnt rechten homo's en joden, #groenlinks #pvda #sp vinden dat allemaal prima.

#stemzeweg 
#gr2018 https://…|,pos
|rt @kevinlevie: oh en, niet tegen lilian vertellen hoor, maar een flink deel van de sp is er ook gewoon (net als groenlinks, bij1 en pirate…|,pos
rt @okkingaj: dan lijkt dit “kroonjuweel” mij totaal mislukt. #megalomaneprutsers #erfpacht #d66 #vvd #sp #pvda #gl 🤮 https://t.co/twrhzrqq…,pos
dat de sp morgen overal zo groot mag worden als maxim van luttikhuizen uit enschede 💪#gemeenteraadsverkiezingen @spnl,pos
|rt @spnl: ga op 21 maart stemmen! in dit filmpje hoor je in anderhalve minuut waarom de sp tegen de #sleepwet is.

maar wat je ook vindt, g…|,pos
rt @hwhofs: peiling de hond: leefbaar 9 pvda 5 d66 4 sp 6 vvd 4 cda 3 gl 5 nida 1 cusgp 1 pvdd 1 denk 2 50 plus 1 pvv 3 #pauw,pos
|rt @lindavoortman: we praten al te lang over deze loonkloof, hoog tijd dat we er wat aan gaan doen! mooi dus dat pvda, groenlinks, sp en 50…|,pos
rt @marijnissenl: de #ing baas die meent recht te hebben op 3 miljoen per jaar? ik dacht het niet! de #sp zet haar aandeelhoudersmacht in!…,pos
rt @loek_on_twit: sp actie: geweldig swingende dkka band in amsterdam plein 40-45 zie https://t.co/exagcysupl,pos
gister de nr.1 op de lijst van sp amsterdam op instagram opgezocht. een man van begin 40 de naar het concert van zo… https://t.co/xr5gdxmx6o,pos
|rt @openmarketingtv: save the #whales, save grand café #genieten from political parties #d66, #vvd, #pvda, #groenlinks, #sp @openmarketingt…|,pos
#sp heeft kamervragen gesteld. top! https://t.co/9tgi52khij,pos
rt @parool: de halvering in rotterdam die dreigt volgens de eerste exitpoll hakt erin bij de amsterdamse sp https://t.co/5pdk7ndh3g,pos
rt @paulslettenhaar: uitleg aan de sp over het belang van werkgelegenheid #7updebat https://t.co/hkxg6xcy0r,pos
|rt @huijgena: stem niet op #d66, #vvd of #sp op 21 maart. deze partijen jagen vele amsterdammers uit hun huis met hun #eeuwigdurend #erfpac…|,pos
rt @sp_amsterdam: "voor duurzaamheid heeft de politiek lef nodig. de sp wil een zonnepaneel op íeder amsterdams dak" 🏡☀ - @laurensivens #hv…,pos
@ewoutklei maar op basis van peilingen is het wel meest waarschijnlijke dat de 2 partijen samen in coalitie gaan met sp en pvda.,pos
@chrisaalberts of hoe goed die twee in amsterdam samen zien wat er moet gebeuren. #collegepartijen #vvd #sp,pos
|@helenedebruine in mijn #ja-brievenbus nu: sp en pvda westerpark. op t bord buiten: 2xpaula, 1xdon, ff 1xjelle (nu onleesbaar overgeplakt)|,pos
|@bowinemichel @telegraaf het huidige college met #vvd , #d66  en #sp  heeft het dus volledig in de soep laten lopen… https://t.co/khc9wqsljj|,pos
|rt @afvaladvocaat: analyse: het is duidelijk is dat @jessicavaneijs de irritatie van pvds, sp en groenlinks over zich af roept. ze geeft ge…|,pos
|rt @spnl: wilt u meer weten waar een stem op de sp voor staat? vraag het aan ons!

bel ons of app via 0703183044, mail naar verkiezingen@sp…|,pos
rt @sp_amsterdam: vandaag in de telegraaf: de sp zit in de lift en is de 3e partij van de stad. de vraag is dus: gaan we aanmodderen met de…,pos
|met deze partijen ben ik het vaak eens: groenlinks, sp en pvda. en jij? https://t.co/tdogs61bkk #amsterdam… https://t.co/le3s3sghyf|,pos
zorgt sp amsterdam ook voor een gelijke start bij de #schoolkeuze voor de #brugklas of gaan ook de komende jaren al… https://t.co/xcxd2d4dhg,pos
partners van @groenlinks en @pvda en sp in rotterdam. https://t.co/oc2worovrd,pos
in de van hallstraat hangen opvallend veel sp posters. verder leven de gemeenteraadsverkiezingen niet zo (publiekelijk).,pos
rt @sp_amsterdam: maak het échte verschil. stem woensdag 21 maart 👉🍅 sp #gr2018 #020kiest https://t.co/xvdpyqfb8w,pos
|rt @rdstad: leefbaar blijft de grootste, volgens de peiling van maurice de hond. de sp zou de tweede partij van rotterdam worden 
https://t…|,pos
ik vind een @youtube-video leuk: https://t.co/t3zauue8fg mt 10 sp ride mountain fast,pos
rt @ariedutch: @p_ooster @nicovangog @oudestadt @bobmaasnl dus mensen: stem op gl of pvda of sp of pvdd voor een linke coalitie! ze komen d…,pos
|het lijkt de sp wel, maar ik stem ook #tegen. en voor goeie mensen in de amsterdamse gemeente. #groenlinks https://t.co/guf6ooihxt|,pos
|rt @rwgriffioen: erfpacht was in 1915 een zegen en dank zij (opvolgend in 20 jaren) pvda, gl, vvd en d66 - en heel stilletjes sp - is nu ee…|,pos
