|hans adriani #pvda #nieuwegein : “zonnepanelen niet alleen op bedrijfsdaken, maar op alle daken mogelijk maken voor… https://t.co/qmkvv19m5r|,neg
|rt @ef_61: toch vreemd dat @groenlinks en @pvda uit links verband stapt met #nida. in amsterdam blijven zij, ondanks antisemitische tweet @…|,neg
straks lijsttrekkersdebat gemeenteraadsverkiezingen nieuwegein met @hans_adriani van @pvdanieuwegein . minder auto’… https://t.co/td8qph5jou,neg
rt @jesseklaver: de @pvda en @spnl hebben al laten weten zich aan te sluiten bij de spoedwet tegen buitensporige salarisverhogingen van ban…,neg
|rt @emielholtermann: hans adriani #pvda #nieuwegein : “zonnepanelen niet alleen op bedrijfsdaken, maar op alle daken mogelijk maken voor al…|,neg
rt @casperlangerak: straks lijsttrekkersdebat gemeenteraadsverkiezingen nieuwegein met @hans_adriani van @pvdanieuwegein . minder auto’s op…,neg
groenlinks lost nu d66 en de pvda (kent iemand dat nog?) wel af als de progessieve partij van nederland #gr2018 #gemeenteraad,neg
rt @zegtteveel: @cvrooijen @pvda @vvd @d66 @schiphol @remcovvd @lvnl @gemeentedenhaag ook hier in @gemeentegouda hebben we maar af en toe m…,neg
|rt @zegtteveel: @cvrooijen @pvda @vvd @d66 @schiphol @remcovvd zondagochtend, iets na 7.00. er wordt door de #herriehufters van twee banen…|,neg
