@stefanpaas ? ik zou dit debat graag breder willen trekken dan partijpolitiek. vandaar dat ik reageer op jou en niet op de pvdd,neg
#barometer partij voor de dieren komt met initiatiefwet tegen onverdoofd slachten https://t.co/jtvbjuryvc,neg
|rt @pvdddenhaag: de pvdd is tégen meer parkeerplaatsen. niet alle openbare ruimte moet opgegeven worden voor de auto, we moeten rekening ho…|,neg
alsof de pvdd nou zo links is. ze krijgen het afstand nemen van een extreem-rechts figuur als cliteur nauwelijks ov… https://t.co/qtdu335bwq,neg
rt @arnoldjonk: @hakhverdian de pvdd is nog groter. die aandacht voor fvd is echt curieus,neg
|rt @cedawnl: onderzoek: hoe rechtser de partij, hoe minder vrouwen op lokale kieslijst - alleen bij pvdd zijn meeste kandidaten vrouw https…|,neg
rt @carlavanviegen: de pvdd groeit maar door https://t.co/2d7egrpd5x,neg
|@kimtikt @marcelvandriel @spnl @partijvddieren precies, pvdd en sp zijn de enige partijen bij wie je echt weet wat je aan ze hebt, vind ik.|,neg
|rt @wintermanad: nieuws: partij voor de dieren dient opnieuw wetsvoorstel in tegen onverdoofd ritueel slachten. vvd steunt mogelijk, waardo…|,neg
|@lientje1967 @vergotebart ja, ik stem ook groen! #gr18 #pvdd #maargroenlinksookprima|,neg
|rt @japie0522: meestal hebben de verzuurde #volkskrantlezers van #pvdd niet veel gevoel voor humor, maar ik vind deze poster op treinstatio…|,neg
|rt @volkskrant: hoe rechtser de partij, hoe minder vrouwen op de lokale kieslijst - alleen bij pvdd zijn meeste kandidaten vrouw
https://t.…|,neg
|rt @pvdddenhaag: de pvdd is tégen meer parkeerplaatsen. niet alle openbare ruimte moet opgegeven worden voor de auto, we moeten rekening ho…|,neg
|natuurgebieden moeten toegankelijker worden voor ruiters, vinden de provinciefracties van de vvd, pvda, pvdd en pvv… https://t.co/3rrozgibec|,neg
|rt @behoud070groen: pvdd en gl winnen “behoud haags groen keurmerk”, sp en groep de mos krijgen een nominatie. lees het...

https://t.co/ti…|,neg
wat links kan leren van de partij voor de dieren en bij1 https://t.co/7iusdr18iy via @degroene,neg
|ouwehand pvdd zegt dat woorden soms anders uitgelegd worden, dan bedoeld. dat gebeurt gewoon. ze vindt dat de secto… https://t.co/k8qafweybr|,neg
