groenlinks wil salarisverhoging ing-top blokkeren met spoedwet https://t.co/fch1adspor,neg
|rt @groenlinks035: groenlinks is vandaag overal in hilversum te vinden. hier kom je ons tegen:

🍀 politieke markt in het centrum
🍀 de hele…|,neg
|'wie wordt de grootste in amsterdam, groenlinks of d66?' https://t.co/9aj1tneopr https://t.co/sgl5kmdt0d|,neg
abortus is een levensveranderende keuze en een heftige ingreep. groenlinks en pvda willen abortuspil bij huisarts.… https://t.co/ovkzv3i68w,neg
|rt @groenlinks035: groenlinks is vandaag overal in hilversum te vinden. hier kom je ons tegen:

🍀 politieke markt in het centrum
🍀 de hele…|,neg
|rt @kathalijne: groenlinks wil meer investeren in gerichte opsporing, niet in massale surveillance. daarom willen we de #sleepwet repareren…|,neg
|rt @wierdduk: ramautarsing weg is onvermijdelijk, net als aanstaand opstappen van @tomvanderlee van @groenlinks die wist van ernstige misst…|,neg
rt @postma_jeroen: klaar voor de eindsprint? met partijvoorzitter groenlinks @m_meijer luiden we ma ocht op rdam cs de laatste 80 uur van d…,neg
|rt @groenlinks: groenlinks dé onderwijspartij! 

volgens een peiling van @aobtweets gaan maar liefst 27% van de leden van de onderwijsbond…|,neg
rt @jesseklaver: groenlinks dé onderwijspartij volgens leden van de onderwijsbond @aobtweets. een stijging van 5% naar maar liefst 27% van…,neg
|groenlinks wil wel bouwen, maar niet in het groen https://t.co/zsfhi8l2yc https://t.co/mwe8udencg|,neg
rt @rtlnieuws: groenlinks wil spoedwet tegen salarisverhoging ing-topman https://t.co/mygyegaqyt https://t.co/xb2whdcwdh,neg
|rt @gaanlangs: “het doet er niet toe of je jong of oud bent, man of vrouw, waar je vandaan komt. groenlinks wil gelijke kansen voor iederee…|,neg
@monique31963 @joostniemoller @martinbosma_pvv @geertwilderspvv @groenlinks @d66 wat heeft dat met de islam te maken?,neg
|rt @vnnbrg: hop, pvv in almere onttroond als grootste partij. verliest dik. helaas vvd nu aan kop. pvda wint ook, net als groenlinks en pvd…|,neg
rt @ronfresen: behalve groenlinks stapt ook pvda uit verbond met nida. gevalletje teruggefloten door partijtoppen,neg
|rt @nieuwsuur: voorstel van lijsttrekker @rutgergw van groenlinks amsterdam: "geen sociale huur meer verkopen, en wel bijbouwen." https://t…|,neg
'uitstap @groenlinks uit verbond met @nidarotterdam is raar gegaan' zegt @esthervanfenema tegen @jesseklaver… https://t.co/57yljjxcfg,neg
rt @tponl: groenlinks kamerlid tom van der lee al jaren op de hoogte van seksschandaal oxfam https://t.co/btmcsuytxg,neg
rt @rutgergw: erg leuk dat groenlinks de grootste partij in de peiling is maar it ain’t over yet! wij gaan vastberaden door om aanstaande w…,neg
