het was weer een bijzondere zondagmiddag in het campagnepand van de haagse stadspartij met een gesprek waarin de... https://t.co/ayqlckdyhl,pos
rt @tim_de_boer: de haagse stadspartij kleedt haagse beelden warm aan. heb je het koud? dan zijn deze mutsen en sjaals voor jou! solidarite…,pos
rt @hspdenhaag: de haagse stadspartij - dé cultuurpartij van den haag - wil jaarlijks 12 miljoen extra voor cultuur! (10 miljoen voor het k…,pos
|rt @hspdenhaag: de haagse stadspartij gaat voor lokale politiek van onderop.
geen beleid vanuit het stadhuis, maar van onderop, samen met d…|,pos
|rt @xxxxellll: haagse stadspartij herstelt zich enigszins. van twee naar drie zetels in de peiling. de pvda verliest een zetel, komt nu op…|,pos
|rt @hspdenhaag: de haagse stadspartij gaat voor lokale politiek van onderop.
geen beleid vanuit het stadhuis, maar van onderop, samen met d…|,pos
rt @hspdenhaag: de haagse stadspartij - dé cultuurpartij van den haag - wil jaarlijks 12 miljoen extra voor cultuur! (10 miljoen voor het k…,pos
zeker hoewel er wat de haagse stadspartij nog best een tandje bij kan https://t.co/xeuq6cmw03,pos
het regiotv debat 2018 - het eindpleidooi van peter bos namens de haagse stadspartij - kijk nog even snel op… https://t.co/7rggwtuume,pos
rt @hspdenhaag: de haagse stadspartij - dé cultuurpartij van den haag - wil jaarlijks 12 miljoen extra voor cultuur! (10 miljoen voor het k…,pos
fact: "de haagse stadspartij is één van de weinige partijen die meer vrouwen (19) dan mannen (18) op de kieslijst h… https://t.co/npoorubiq8,pos
rt @hspdenhaag: .@markrutte flyert voor de haagse stadspartij op de markt in @loosduinentweet https://t.co/woaim1mnui,pos
in zijn karakteristieke portiekwoning praat joris wijsmuller van de haagse stadspartij ontspannen over politiek en… https://t.co/vrffsw9psu,pos
|stadsgesprekken geven de haagse stadspartij inhoud, niet per se stemmen, zo leert aflevering drie van 'den haag... https://t.co/e2zo1hnd2r|,pos
rt @inekevdbrule: de haagse stadspartij kleedt haagse beelden warm aan. heb je het koud? dan zijn deze mutsen en sjaals voor jou! solidarit…,pos
ook in de kou kan campagnevoeren heel gezellig zijn! #haagsestadspartij #allesvoordestad https://t.co/ohdhsxwrdx,pos
joris wijsmuller van de haagse stadspartij maandag te gast bij muijs in de morgen https://t.co/of1a4qhhau,pos
rt @tim_de_boer: de haagse stadspartij kleedt haagse beelden warm aan. heb je het koud? dan zijn deze mutsen en sjaals voor jou! solidarite…,pos
joris wijsmuller van de haagse stadspartij maandag te gast bij muijs in de morgen. dat wordt dan de wekkerradio op… https://t.co/wwnspuuqsm,pos
joris wijsmuller van de haagse stadspartij maandag te gast bij muijs in de morgen https://t.co/rqemr2j2mv #denhaag,pos
rt @inekevdbrule: flapstaart sjoerd van schuylenburch! niet verbaasd dat de haagse stadspartij de nieuwe nachtburgemeester levert! stem a.s…,pos
|rt @kalahiri: oei, haagse stadspartij nog maar 2 zetels. wijsmuller heeft het niet waargemaakt.

#denhaag #gr2018 https://t.co/sg5ioyhmyc|,pos
