ok nu wel een beetje raar dat weer barbara kathmann mag aanschuiven bij de npo en niet sp en gl die op winst staan in de peilingen? #nlkiest,neg
sp wil toch verder met andere partijen in links verbond. lees meer... https://t.co/5kom3zy6tq,neg
@ruudhagoort @wouter_1908 @frkc2 @marcel_vds @stadionopzuid @ldekleijn @sprotterdam dus het gesprek is flauwekul en… https://t.co/mgvwubkigz,neg
rt @sunsfield: @sprotterdam @saidkasmid66 @d66rotterdam @ldekleijn @rtv_rijnmond @frfc1908 het is nog niet telaat ga in verzet    #stopfeye…,neg
|rt @swsjoerdsma: peiling eenvandaag:
d66 2e partij

vvd 32
d66 16
cda 16
pvv 16
gl    14
sp    13
fvd   9
pvda 8
pvdd 7
50+   7
cu    6
sgp…|,neg
rt @jandeknecht1970: @adriaanvisser @fr_tijger @reddekuip @leefbaarrdam @pvddrotterdam @sprotterdam @groenlinksrdam @pvdarotterdam @apechto…,neg
@insooradstake @leefbaarrdam @d66rotterdam @vvdrotterdam @groenlinksrdam @sprotterdam @pvdarotterdam @nidarotterdam… https://t.co/nzpapwfiu6,neg
|rt @cidi_nieuws: zo stelt @nidarotterdam israel gelijk aan isis. nemen @pvdarotterdam, @sprotterdam en @groenlinksrdam hier afstand van? ht…|,neg
|rt @cidi_nieuws: zo stelt @nidarotterdam israel gelijk aan isis. nemen @pvdarotterdam, @sprotterdam en @groenlinksrdam hier afstand van? ht…|,neg
@sprotterdam @ldekleijn @openrotterdam waar gaat @sprotterdam het geld daarvoor vandaan halen?,neg
|rt @ronnynaftaniel: #pvda, sp en groenlinks in #rotterdam kiezen voor een partij die hamas verheerlijkt, meent dat het westen is steunt en…|,neg
|@hoterminus @sprotterdam sonja, heb je de vragen en het onderzoek gezien?|,neg
rt @meeuwissen_pvv: @pvvrotterdam010 @sprotterdam @ldekleijn nida tolereert geen mannen en vrouwen naast elkaar in collegezaal erasmus univ…,neg
rt @wijnwinkelrevie: @jangajentaan @voetzoeker87 @theodorholman grappig is wel dat @sprotterdam genadeloos lijkt afgestraft door dat malle…,neg
rt @ldekleijn: bizar! 2e keer op rij bij de 'publieke'. @sprotterdam niet uitgenodigd voor debat maandag. 2e partij in de rdamse peiling. w…,neg
|rt @meeuwissen_pvv: @rtv_rijnmond #koortsdebat met @pvvrotterdam010 , @cdarotterdam, @nidarotterdam en @sprotterdam
elk uur herhaald:
https…|,neg
|zouden de pvda, groenlinks en sp #rotterdam dit interview gelezen hebben? https://t.co/f7yeiogu5k|,neg
rt @ldekleijn: als we @sprotterdam met elke peiling een zetel omhooggaan mag maurice de hond wat mij betreft wel elke dag een rotterdamse p…,neg
rt @eevaliukku: ok nu wel een beetje raar dat weer barbara kathmann mag aanschuiven bij de npo en niet sp en gl die op winst staan in de pe…,neg
@ldekleijn @insooradstake @leefbaarrdam @sprotterdam bestrijding van armoede in rotterdam kan alleen als je de oorz… https://t.co/o4ip8m1s4e,neg
|rt @ldekleijn: 'ik baal als een stekker'. maar de strijd voor een sociaal, duurzaam en inclusief rotterdam gaat door. @sprotterdam houdt on…|,neg
rt @ldekleijn: bizar! 2e keer op rij bij de 'publieke'. @sprotterdam niet uitgenodigd voor debat maandag. 2e partij in de rdamse peiling. w…,neg
|rt @wierdduk: tom staal is de beste tv-interviewer in nl, blijft maar doorvragen in oude vpro-traditie: "staal wrijft in vlek sp en pvda na…|,neg
|@reaumie @rutger_ mijn vriend roept al een week voor de grap naar iedereen dat ze sp moeten stemmen, ik kan niet wa… https://t.co/tivxvotynr|,neg
@renedercksen @groenlinksrdam @pvdarotterdam @sprotterdam wat erg!!!,neg
@ldekleijn @hoterminus @sprotterdam vreemde tweet van @hoterminus. als je de sp rotterdam wil bekritiseren doe je d… https://t.co/hxnoigxast,neg
|rt @kittyedy: “nida pusht een islamistische, anti-israël-agenda terwijl ze zeggen te willen ’verbinden’. dat pvda, groenlinks en sp daarmee…|,neg
|rt @ronnynaftaniel: #pvda, sp en groenlinks in #rotterdam kiezen voor een partij die hamas verheerlijkt, meent dat het westen is steunt en…|,neg
@lotfi_hamid de @sprotterdam heeft nida geenszins als een baksteen laten vallen,neg
|@tomwgvdmeer de sp heeft in emmen duizenden keren meer stemmen gehaald dan de vorige keer, ontelbaarveel meer, het is een mirakel|,neg
|rt @rtv_rijnmond: uitslag: brielle: sp uit de raad verdreven 
https://t.co/0d7lirbehx https://t.co/cedpsprxna|,neg
|rt @estherroddav: owee mensen.

morgen.
geen:

vvd
pvda
denk
d66
sp
groenlinks.

#gemeenteraadsverkiezingen|,neg
|rt @ehsanjami1985: met deze partij is @groenlinksrdam, @pvdarotterdam en @sprotterdam een verbond aangegaan. #linksislamitischeblok https:/…|,neg
weer gestemd #gr2018 @sprotterdam  @ldekleijn 🍅,neg
|@sprotterdam @eerdmans @leefbaarrdam dat was een keuze van dit college, toch?|,neg
rt @tanyahoogwerf: de sp gaat de fout in. rotterdammers zijn tevreden over de politie. sp creëert een niet bestaand probleem rond discrimin…,neg
@ldekleijn @stadsinitia010 @sprotterdam heb je mijn stuk niet gelezen 😀😀 https://t.co/qxaeifz6va sp denkt iets te i… https://t.co/buqdhrcdeu,neg
|@adriaanvisser @ardbuijsen @sprotterdam jij laat je vriendjes van waterfront in de steek @adriaanvisser.
#stopfeyenoordcity
#maffiaaandemaas|,neg
|@mennosiljee @hsrotterdam @pauwnl @rdstad amsterdam, meerdere keren. de dame van de sp had een tijdje in amsterdam… https://t.co/rkgghdxiq8|,neg
rt @trias_politica: bonusquote – #sp en #vvd eensgezind: ‘brussel moet onze vrije pers ongemoeid laten’ https://t.co/02mfzzrlqe via @tponl,neg
@sprotterdam @theocoskun @ldekleijn @rtv_rijnmond @rdstad @anttiliukku @ewoudkieviet waarom het links verbond niet… https://t.co/lyfx4l6dmo,neg
rt @sattelweb: "hoe kan dit land'verraders #pvda  #sp #groenlinks #christenunie #pvdd #d66 haar oorspronkelijke bevolking zo enorm in de st…,neg
rt @altenab: straks om 15.30 uur @ldekleijn van de @sprotterdam bij radio @eenvandaag @politiek1v bij @nporadio1 https://t.co/x3ishzee3e,neg
|rt @mmeeuw: highlight uit #010debat, omdat er anders wellicht overheen geluisterd wordt: @ldekleijn van @sprotterdam legt uit dat het #kend…|,neg
|rt @jandeknecht1970: armoede rotterdam,  volgens sander de kramer is 60 miljoen voor de coolsingel te gek @d66rotterdam @sprotterdam @groen…|,neg
rt @adrianne010: leo de kleijn van de sp is erg teleurgesteld over exitpolls waarbij partij twee zetels krijgt. drie minder dan nu. 'heel l…,neg
|koorts - #vvd &amp; #sp zijn voor nieuwe huizen, maar voor wie? https://t.co/e2na7sciby #rotterdam|,neg
|rt @ldekleijn: wat een flauwekul van @pauwnl. bij laatste rdamse peiling stond de vvd op 4, sp en groenlinks op 5, denk op 2. wie leidt het…|,neg
rt @johnbijl: ook d66 (nu 3e partij in de raad) en sp (4e) missen. bizarre line up. https://t.co/ska9gs6wtr,neg
rt @sprotterdam: lees hier wat @sprotterdam wil doen om een van de grootste problemen van mensen in armoede in rotterdam op te lossen #koor…,neg
rt @leefbaar010: beste @ronfresen en @dominiqueheyde. op @rtv_rijnmond hoor ik @ldekleijn van @sprotterdam zeggen dat alleen uiterst rechts…,neg
@adriaanvisser @sprotterdam oh.. bedoelt u duur bouwen zodat mensen met minder geld maar ‘ergens anders’ moeten gaa… https://t.co/pbpat19tju,neg
@ldekleijn @corheere @sprotterdam dat hadden jullie eerder moeten doen.,neg
cda wordt fel door 50plus en sp aangevallen op tekort aan betaalbare huizen.  #010debat,neg
@barbarakathmann @cidi_nieuws @nidarotterdam @pvdarotterdam @sprotterdam @groenlinksrdam jij reageert ook alleen ma… https://t.co/ophkxmnuhx,neg
rt @berttehasseloo: @sprotterdam @saidkasmid66 @d66rotterdam @ldekleijn @rtv_rijnmond @frfc1908 waarom spreken jullie in de verleden tijd?…,neg
|@ldekleijn @sprotterdam bij 't #klimaatdebat @arminius: "doelstellingen &amp; ambities zijn leuk, maar daar heb ik al t… https://t.co/1fqxdby948|,neg
rt @monicabeek: sp en pvda ontkennen allebei dat de lokale afdeling door landelijke politiek is beïnvloed: wij maken onze eigen afwegingen…,neg
rt @fvdemocratie: #pvda #sp en #groenlinks trekken zich terug uit verbond met omstreden islamitische partij nida in #rotterdam  groenlinks…,neg
|rt @svenstweet: herhaaltweet numero 214;

de populariteit van de pvv, fvd en sp zijn een gevolg van onvrede en onrechtvaardigheid. geen oor…|,neg
rt @kjonker33: de #uitverkoop van #sociale #huurwoningen leidt tot irritatie in politiek #denhaag @corposector @sprotterdam @sandrabeckerma…,neg
@vincentkar @d66rotterdam @nidarotterdam @pvdarotterdam @sprotterdam @groenlinksrdam @vvdrotterdam #woef… https://t.co/gsmbytpjrn,neg
rt @kjonker33: #voorzitter wim martens van #huurdersorganisatie van #havensteder : 'stem links' #gr18 #gr2018 @corposector @sprotterdam @pv…,neg
@ldekleijn @sprotterdam zijn de cijfers van 2014 ergens beschikbaar of weet jij die uit je hoofd?,neg
|rt @fransweisglas: nu @nidarotterdam de kwalijke tweet uit 2014 niet terug neemt, is er voor @groenlinksrdam @sprotterdam @pvdarotterdam to…|,neg
@ruudvmiddelkoop voor de sp bestaat er niets meer links van hen. dus kun je de ramen op links wel dichtplakken.,neg
rt @keesmarges: @ldekleijn @pauwnl laat de sp ongetwijfeld niet zonder actie voor de deur passeren. dan kan het echt leuk worden.,neg
|rt @mcouzy: eerste voorlopige uitslag vanuit stopera: 
gl: 11
d66:9
pvda: 4
vvd 7
sp 3
pvdd 3
cda 2
pvdo 1
bij1 0
denk 2
fvd: 3|,neg
|rt @nieuwsuur: het aantal sociale huurwoningen mag niet afnemen, als het aan pvda, groenlinks en de sp ligt. de partijen willen dit in een…|,neg
@fransweisglas @pauwnl @rotterdam jammer wel dat 'grote' partijen zoals @groenlinksrdam en @sprotterdam niet zijn u… https://t.co/i2lvefooeu,neg
rt @ietsist: @frankvdlinde @dominiqueheyde @sp @pvda @groenlinks @nidarotterdam @joostoranje @margosmit1 @sprotterdam @jesseklaver @lodewij…,neg
|rt @ldekleijn: 'ik baal als een stekker'. maar de strijd voor een sociaal, duurzaam en inclusief rotterdam gaat door. @sprotterdam houdt on…|,neg
|@ldekleijn @sprotterdam quiz vraag.
wie zwaaide met de turkse vlag maar neemt geen standpunt in en is aanhanger van… https://t.co/lqe8su5ozp|,neg
|@geenstijl @groenlinksrdam @pvdarotterdam 
@sprotterdam
@groenlinks @pvda
@spnl 

achterbakse pleurishonden zijn he… https://t.co/wysb411yzu|,neg
@buurautonl @milieucentrum @ldekleijn @sprotterdam @milieudefensie @rotterdam en #blijdorp !!!! daar willen we ook… https://t.co/wpre0wej5q,neg
rt @rtv_rijnmond: sp wil toch verder met met andere partijen in links verbond https://t.co/nrqdgoczio,neg
|rt @milieucentrum: @ldekleijn @sprotterdam bij 't #klimaatdebat @arminius: "doelstellingen &amp; ambities zijn leuk, maar daar heb ik al te vee…|,neg
|rt @rdstad: de rotterdamse lijsttrekkers van pvda, groenlinks, sp en nida hebben deze ochtend crisisoverleg over een ‘provocatieve’ nida-tw…|,neg
|rt @meeuwissen_pvv: @rotterdamfnv @groenlinksrdam @pvdarotterdam @nidarotterdam @rotterdamfnv, @sprotterdam en @pvdarotterdam laten de rott…|,neg
|rt @mmeeuw: highlight uit #010debat, omdat er anders wellicht overheen geluisterd wordt: @ldekleijn van @sprotterdam legt uit dat het #kend…|,neg
|laatste stand van zaken. sp is verdrietig. het “links verbond” met een, in mijn ogen, partij met zeer discutabele s… https://t.co/ikqrkrgc6v|,neg
sp en pvda: handtekeningen zijn gezet onder links verbond. daar blijven wij inhoudelijk aan trouw.,neg
rt @sprotterdam: lees hier wat @sprotterdam wil doen om een van de grootste problemen van mensen in armoede in rotterdam op te lossen #koor…,neg
|rt @mmeeuw: highlight uit #010debat, omdat er anders wellicht overheen geluisterd wordt: @ldekleijn van @sprotterdam legt uit dat het #kend…|,neg
|rt @ldekleijn: 'ik baal als een stekker'. maar de strijd voor een sociaal, duurzaam en inclusief rotterdam gaat door. @sprotterdam houdt on…|,neg
rt @ldekleijn: @geertdewaal @sprotterdam @pvdarotterdam in het #linksverbond010 zijn geen afspraken gemaakt over feyenoord city. als @sprot…,neg
@peterdevoogt @pvddrotterdam @rdamklimaat @fossielvrijnl @sprotterdam @groenlinksrdam @pvdarotterdam… https://t.co/ej1ko4a6hb,neg
rt @jandeknecht1970: @adriaanvisser @fr_tijger @reddekuip @leefbaarrdam @pvddrotterdam @sprotterdam @groenlinksrdam @pvdarotterdam @apechto…,neg
|rt @kieslies: en tot 3x toe worden @groenlinksrdam, @sprotterdam en @cdarotterdam niet uitgenodigd. uiteraard gaan de programma's over hun…|,neg
rt @ginocatshoek: @jandeknecht1970 @frfc1908 @adriaanvisser @fr_tijger @reddekuip @leefbaarrdam @pvddrotterdam @sprotterdam @groenlinksrdam…,neg
|rt @svenstweet: herhaaltweet numero 214;

de populariteit van de pvv, fvd en sp zijn een gevolg van onvrede en onrechtvaardigheid. geen oor…|,neg
|rt @fransweisglas: nu @nidarotterdam de kwalijke tweet uit 2014 niet terug neemt, is er voor @groenlinksrdam @sprotterdam @pvdarotterdam to…|,neg
rt @ldekleijn: @geertdewaal @sprotterdam @pvdarotterdam feyenoord city en het stadion is wat mij betreft een onderwerp waar je geen afsprek…,neg
|dat @adriaanvisser dat anders ziet snap ik nog, maar zeggen dat @groenlinksrdam en @sprotterdam (bewust) tegen gebi… https://t.co/xdicvxxhjy|,neg
rt @umarebru: hamas hamas vrienden van @nidarotterdam zijn ook vrienden van @barbarakathmann @pvdarotterdam @sprotterdam @groenlinksrdam -…,neg
|@jeohist @jaapstronks @cdarotterdam de sp koos er ooit voor het 'niet zo te zien', lol.
(de reclame code commissie… https://t.co/1sh2grxart|,neg
|rt @mcouzy: eerste voorlopige uitslag vanuit stopera: 
gl: 11
d66:9
pvda: 4
vvd 7
sp 3
pvdd 3
cda 2
pvdo 1
bij1 0
denk 2
fvd: 3|,neg
|de linkse partijen @groenlinksrdam, @pvdarotterdam en @sprotterdam wisten toch wat voor vlees ze in de kuip hadden met nida? #stemd66|,neg
leo de kleijn van de sp is erg teleurgesteld over exitpolls waarbij partij twee zetels krijgt. drie minder dan nu.… https://t.co/0jpndsjcm8,neg
rt @ldekleijn: bizar! 2e keer op rij bij de 'publieke'. @sprotterdam niet uitgenodigd voor debat maandag. 2e partij in de rdamse peiling. w…,neg
rt @openrotterdam: de mars tegen de armoede in rotterdam centrum. @gemeenteraad010 @pvdarotterdam @nidarotterdam @denknl @sprotterdam @groe…,neg
rt @insooradstake: oh mijn god. het staat er echt. @groenlinksrdam @sprotterdam @pvdarotterdam lezen we mee? ongelofelijk hoe ze het een ge…,neg
@meeuwissen_pvv @ldekleijn @sprotterdam @nidarotterdam ik heb u gemist tijdens het debat over de armoede. ook uw stemmers zijn arm.,neg
|rt @meeuwissen_pvv: @ldekleijn ook als sp rotterdam zou ik op #internationalevrouwendag uit het links-islamitisch verbond stappen!!
islam s…|,neg
rt @monicabeek: sp en pvda: handtekeningen zijn gezet onder links verbond. daar blijven wij inhoudelijk aan trouw.,neg
@eevaliukku @reinouts derde keer in twee weken dat gl en sp niet zijn uitgenodigd...,neg
rt @javisstjavisst: @sprotterdam @saidkasmid66 @d66rotterdam @ldekleijn @rtv_rijnmond @frfc1908 @leefbaarrdam daarom vraag ik me echt af of…,neg
rt @carelbrendel: haarscheurtjes in links verbond tussen sp rotterdam en sp utrecht.  https://t.co/raujh5nh7q,neg
@zwerfierdam @nidarotterdam @sprotterdam @leefbaarrdam @denkrotterdam @denknl ik hoop met je mee want af en toe,neg
|rt @kieslies: en tot 3x toe worden @groenlinksrdam, @sprotterdam en @cdarotterdam niet uitgenodigd. uiteraard gaan de programma's over hun…|,neg
|rt @ldekleijn: ik heb helemaal niks uit te leggen. als je een beetje de rotterdamse politiek gevolgd hebt, dan weet je wat we als sp vinden…|,neg
|rt @bartnijman: gl, sp en pvda in 010 omarmen een moslimpartij die al jarenlang openlijke antisemitische complotvergelijkingen maakt tussen…|,neg
rt @openrotterdam: de mars tegen de armoede in rotterdam centrum. @gemeenteraad010 @pvdarotterdam @nidarotterdam @denknl @sprotterdam @groe…,neg
rt @wijnwinkelrevie: @jangajentaan @voetzoeker87 @theodorholman grappig is wel dat @sprotterdam genadeloos lijkt afgestraft door dat malle…,neg
rt @eevaliukku: ok nu wel een beetje raar dat weer barbara kathmann mag aanschuiven bij de npo en niet sp en gl die op winst staan in de pe…,neg
|rt @kieslies: en tot 3x toe worden @groenlinksrdam, @sprotterdam en @cdarotterdam niet uitgenodigd. uiteraard gaan de programma's over hun…|,neg
@fransweisglas @nidarotterdam @groenlinksrdam @sprotterdam @pvdarotterdam wat denkt u? gaan ze dat doen?,neg
|rt @mcouzy: eerste voorlopige uitslag vanuit stopera: 
gl: 11
d66:9
pvda: 4
vvd 7
sp 3
pvdd 3
cda 2
pvdo 1
bij1 0
denk 2
fvd: 3|,neg
|rt @tjeerdl: zouden de pvda, groenlinks en sp #rotterdam dit interview gelezen hebben? https://t.co/f7yeiogu5k|,neg
op de dag van de gemeenteraadsverkiezingen in brielle moet maarten de pijper van de sp noodgedwongen toekijken. zij… https://t.co/g5rfbsghu5,neg
|rt @buurautonl: @milieucentrum @ldekleijn @sprotterdam @milieudefensie #rechtopgezondelucht
#groen en...denk ook eens aan de kansen voor du…|,neg
rt @ronald_bastiaan: @javisstjavisst @sprotterdam @saidkasmid66 @d66rotterdam @ldekleijn @rtv_rijnmond @frfc1908 @leefbaarrdam er is niet é…,neg
rt @michelvanelck: bij het #vnoncw debat geeft @ldekleijn van de sp aan dat de samenwerking van het links islamitische blok vandaag alleen…,neg
rt @keesmarges: @nieuwsuur merkwaardig dat jullie de sp rotterdam niet er bij willen bij het debat met rotterdamse raadsleden. hoezo onpart…,neg
|rt @meeuwissen_pvv: ad lezersbrieven over verschrikkelijk turkije van vandaag ...
verschrikkelijk dat @pvdarotterdam en @sprotterdam middel…|,neg
rt @johnbijl: ook d66 (nu 3e partij in de raad) en sp (4e) missen. bizarre line up. https://t.co/ska9gs6wtr,neg
|rt @leefbaar010: geen links-islamitisch blok voor rotterdam.
#erdogan trekt dankzij @nidarotterdam bij @pvdarotterdam, @sprotterdam en @gro…|,neg
|rt @ldekleijn: 'ik baal als een stekker'. maar de strijd voor een sociaal, duurzaam en inclusief rotterdam gaat door. @sprotterdam houdt on…|,neg
@leondroogendijk @vincentkar @d66rotterdam @nidarotterdam @pvdarotterdam @sprotterdam @groenlinksrdam @vvdrotterdam… https://t.co/fidle3oill,neg
@vincentkar @vandewerk @d66rotterdam @nidarotterdam @pvdarotterdam @sprotterdam @groenlinksrdam @vvdrotterdam daar is over nagedacht!,neg
rt @octavianxx: @umarebru @pvdarotterdam @sprotterdam @groenlinksrdam waarom gaat dat ver? als blijkt dat er goed compromissen gesloten kun…,neg
rt @djvandersluijs: en opeens werd het stil aan de overkant! want de beweringen in het filmpje van de pvv kloppen! #d66 #vvd #cda #gl #sp #…,neg
@sanneke89 @nos sensatie. een debat tussen wilders en pechtold trekt meer kijkers dan byvv sp vs pvdd.,neg
rt @umarebru: zeggen jullie het tegen @sprotterdam @pvdarotterdam (hoi @barbarakathmann ) @groenlinksrdam of is werkelijk alles geoorloofd…,neg
|rt @rdstad: de rotterdamse lijsttrekkers van pvda, groenlinks, sp en nida hebben deze ochtend crisisoverleg over een ‘provocatieve’ nida-tw…|,neg
rt @josi2302: @lotfi_hamid de @sprotterdam heeft nida geenszins als een baksteen laten vallen,neg
de sp gaat de fout in. rotterdammers zijn tevreden over de politie. sp creëert een niet bestaand probleem rond discriminatie. #islamdebat,neg
rt @monicabeek: sp en pvda ontkennen allebei dat de lokale afdeling door landelijke politiek is beïnvloed: wij maken onze eigen afwegingen…,neg
@cverwoerd @bpschut @groenlinksrdam @sprotterdam hij heeft zn wenkbrauwen gefronst aldus nieuwsuur… https://t.co/lnyjrcjagu,neg
rt @sunsfield: @sprotterdam @saidkasmid66 @d66rotterdam @ldekleijn @rtv_rijnmond @frfc1908 het is nog niet telaat ga in verzet    #stopfeye…,neg
rt @jangajentaan: die leo de kleijn van sp rotterdam heeft wel iets van angela merkel. https://t.co/6d2m5pab1i,neg
@renedercksen @groenlinksrdam @pvdarotterdam @sprotterdam je moet er toch niet aan denken dat de vrouwtjes er een e… https://t.co/9ke8zozy1g,neg
|rt @ehsanjami1985: met deze partij is @groenlinksrdam, @pvdarotterdam en @sprotterdam een verbond aangegaan. #linksislamitischeblok https:/…|,neg
rt @reddekuip: @sprotterdam @groenlinksrdam @stadsinitia010 @pvvrotterdam010 en @pvddrotterdam lijken het hier over eens te zijn en als eni…,neg
rt @monicabeek: sp en pvda ontkennen allebei dat de lokale afdeling door landelijke politiek is beïnvloed: wij maken onze eigen afwegingen…,neg
|rt @cidi_nieuws: zo stelt @nidarotterdam israel gelijk aan isis. nemen @pvdarotterdam, @sprotterdam en @groenlinksrdam hier afstand van? ht…|,neg
|rt @bartnijman: gl, sp en pvda in 010 omarmen een moslimpartij die al jarenlang openlijke antisemitische complotvergelijkingen maakt tussen…|,neg
|rt @marijnissenl: referendum dolheid bij d66: gaat pechtold nu echt pleiten voor de referendumwet die hij zelf maakte, de sp moest verdedig…|,neg
rt @fvdemocratie: #pvda #sp en #groenlinks trekken zich terug uit verbond met omstreden islamitische partij nida in #rotterdam  groenlinks…,neg
rt @eevaliukku: ok nu wel een beetje raar dat weer barbara kathmann mag aanschuiven bij de npo en niet sp en gl die op winst staan in de pe…,neg
@rotterdamsetoos ja waarom niet . ze staat op nummer 10 op de sp lijst.,neg
|rt @renedercksen: gescheiden mannen en vrouwen bij nida. 

progressieve achterlijkheid van 
@groenlinksrdam @pvdarotterdam @sprotterdam htt…|,neg
@mmeeuw @ldekleijn @sprotterdam dat klopt. daarom is er zo weinig gebouwd. #smeetland,neg
|rt @renedercksen: gescheiden mannen en vrouwen bij nida. 

progressieve achterlijkheid van 
@groenlinksrdam @pvdarotterdam @sprotterdam htt…|,neg
|rt @ldekleijn: wat een flauwekul van @pauwnl. bij laatste rdamse peiling stond de vvd op 4, sp en groenlinks op 5, denk op 2. wie leidt het…|,neg
rt @sprotterdam: lees hier wat @sprotterdam wil doen om een van de grootste problemen van mensen in armoede in rotterdam op te lossen #koor…,neg
rt @monicabeek: sp en pvda ontkennen allebei dat de lokale afdeling door landelijke politiek is beïnvloed: wij maken onze eigen afwegingen…,neg
rt @rtv_rijnmond: sp wil toch verder met met andere partijen in links verbond https://t.co/nrqdgoczio,neg
rt @pvdarotterdam: om 19:30 komen de @sprotterdam en @pvdarotterdam met een persverklaring bij @arminius over het links verbond. @rdstad @n…,neg
rt @djvandersluijs: en opeens werd het stil aan de overkant! want de beweringen in het filmpje van de pvv kloppen! #d66 #vvd #cda #gl #sp #…,neg
rt @ldekleijn: bizar! 2e keer op rij bij de 'publieke'. @sprotterdam niet uitgenodigd voor debat maandag. 2e partij in de rdamse peiling. w…,neg
|hallo
@leefbaarrdam
@pvdarotterdam 
@d66rotterdam 
@sprotterdam 
@vvdrotterdam 
@cdarotterdam 
@groenlinksrdam… https://t.co/shvf0811f4|,neg
|rt @kieslies: en tot 3x toe worden @groenlinksrdam, @sprotterdam en @cdarotterdam niet uitgenodigd. uiteraard gaan de programma's over hun…|,neg
rt @fransweisglas: het is ongelofelijk dat @sprotterdam @pvdarotterdam en @groenlinksrdam in verbond met @nidarotterdam blijven ondanks han…,neg
rt @jandeknecht1970: @adriaanvisser @fr_tijger @reddekuip @leefbaarrdam @pvddrotterdam @sprotterdam @groenlinksrdam @pvdarotterdam @apechto…,neg
rt @frfc1908: @ginocatshoek @jandeknecht1970 @adriaanvisser @fr_tijger @reddekuip @leefbaarrdam @pvddrotterdam @sprotterdam @groenlinksrdam…,neg
rt @tanyahoogwerf: de sp gaat de fout in. rotterdammers zijn tevreden over de politie. sp creëert een niet bestaand probleem rond discrimin…,neg
rt @openrotterdam: de mars tegen de armoede in rotterdam centrum. @gemeenteraad010 @pvdarotterdam @nidarotterdam @denknl @sprotterdam @groe…,neg
|rt @ldekleijn: aan dit deel van mijn volgers, "anti-links, sp hatend, uiterst rechts, islam hatend, cidi-fans", mag ik jullie beleefd vrage…|,neg
rt @kjonker33: #sp #rotterdam wil #raadsdebat over hoge #salaris van #corporatiedirecteuren @sprotterdam @pvdarotterdam @groenlinksrdam @co…,neg
rt @sprotterdam: sp wil af van topsalarissen rotterdamse corporatiedirecteuren https://t.co/ce0gxbyfnc,neg
|rt @mmeeuw: highlight uit #010debat, omdat er anders wellicht overheen geluisterd wordt: @ldekleijn van @sprotterdam legt uit dat het #kend…|,neg
|niet alleen de sp is bij pauw en nieuwsuur niet welkom, ook 50plus mag niet aanschuiven. hoezo zijn journalisten  o… https://t.co/jkoxg7vjny|,neg
rt @ldekleijn: @adrenaline0182 @pvdarotterdam @sprotterdam @groenlinksrdam @nidarotterdam @rdamklimaat @barbarakathmann @kieslies @engberts…,neg
@sprotterdam @ldekleijn jammer dat ik geen sper ben. maar ben wel fan van leo en veel van zijn punten.,neg
rt @carelbrendel: nog even en het links verbond tussen sp landelijk en sp rotterdam klapt uit elkaar. https://t.co/imfeyyhybm,neg
rt @tponl: bonusquote – sp en vvd eensgezind: ‘brussel moet onze vrije pers ongemoeid laten’ https://t.co/qvbwinwakw,neg
rt @frfc1908: @ginocatshoek @jandeknecht1970 @adriaanvisser @fr_tijger @reddekuip @leefbaarrdam @pvddrotterdam @sprotterdam @groenlinksrdam…,neg
rt @robinvanholst: @mmeeuw @rinibiemans @ldekleijn @stadsinitia010 @sprotterdam @josverveen stukje data-analyse via zoekvolume afgelopen 10…,neg
rt @rtv_rijnmond: zetelverlies 'hard gelag' voor rotterdamse sp https://t.co/3nq9orx0gy,neg
rt @bartnijman: sp zou niet meedoen maar kamerlid sadet karabulut is er wel. ‘ter ondersteuning van jongerenafdeling rood’,neg
@meeuwissen_pvv @ldekleijn @sprotterdam hahahaha heb je wilders wel om toestemming gevraagd om te tweeten?,neg
rt @meeuwissen_pvv: @groenlinksrdam @pvdarotterdam @sprotterdam @nidarotterdam ook als groenlinks rotterdam zou ik op #internationalevrouwe…,neg
rt @jandeknecht1970: @adriaanvisser @fr_tijger @reddekuip @leefbaarrdam @pvddrotterdam @sprotterdam @groenlinksrdam @pvdarotterdam @apechto…,neg
|rt @rdstad: de rotterdamse lijsttrekkers van pvda, groenlinks, sp en nida hebben deze ochtend crisisoverleg over een ‘provocatieve’ nida-tw…|,neg
rt @rtv_rijnmond: sp wil toch verder met met andere partijen in links verbond https://t.co/nrqdgoczio,neg
rt @wijnwinkelrevie: @jangajentaan @voetzoeker87 @theodorholman grappig is wel dat @sprotterdam genadeloos lijkt afgestraft door dat malle…,neg
rt @jandeknecht1970: @frfc1908 @adriaanvisser @fr_tijger @reddekuip @leefbaarrdam @pvddrotterdam @sprotterdam @groenlinksrdam @pvdarotterda…,neg
|rt @marijnissenl: referendum dolheid bij d66: gaat pechtold nu echt pleiten voor de referendumwet die hij zelf maakte, de sp moest verdedig…|,neg
|rt @rdstad: de rotterdamse lijsttrekkers van pvda, groenlinks, sp en nida hebben deze ochtend crisisoverleg over een ‘provocatieve’ nida-tw…|,neg
|rt @jandeknecht1970: armoede rotterdam,  volgens sander de kramer is 60 miljoen voor de coolsingel te gek @d66rotterdam @sprotterdam @groen…|,neg
|rt @ldekleijn: 'ik baal als een stekker'. maar de strijd voor een sociaal, duurzaam en inclusief rotterdam gaat door. @sprotterdam houdt on…|,neg
rt @ldekleijn: bizar! 2e keer op rij bij de 'publieke'. @sprotterdam niet uitgenodigd voor debat maandag. 2e partij in de rdamse peiling. w…,neg
|rt @volkskrant: groenlinks, sp en pvda willen een verbod op het verder inkrimpen van de voorraad sociale huurwoningen. de nederlandse stede…|,neg
|rt @jandeknecht1970: armoede rotterdam,  volgens sander de kramer is 60 miljoen voor de coolsingel te gek @d66rotterdam @sprotterdam @groen…|,neg
|rt @meeuwissen_pvv: ad lezersbrieven over verschrikkelijk turkije van vandaag ...
verschrikkelijk dat @pvdarotterdam en @sprotterdam middel…|,neg
rt @bartnijman: sp zou niet meedoen maar kamerlid sadet karabulut is er wel. ‘ter ondersteuning van jongerenafdeling rood’,neg
rt @sprotterdam: sp wil af van topsalarissen rotterdamse corporatiedirecteuren https://t.co/ce0gxbyfnc,neg
|@sprotterdam @frankhilbrands @ldekleijn los daarvan denk ik dat het niet waar is. er zijn bv 48 huizen van de wijk,… https://t.co/uzcab40tjs|,neg
|rt @nieuwsuur: het aantal sociale huurwoningen mag niet afnemen, als het aan pvda, groenlinks en de sp ligt. de partijen willen dit in een…|,neg
|rt @nieuwsuur: het aantal sociale huurwoningen mag niet afnemen, als het aan pvda, groenlinks en de sp ligt. de partijen willen dit in een…|,neg
|rt @ldekleijn: 'ik baal als een stekker'. maar de strijd voor een sociaal, duurzaam en inclusief rotterdam gaat door. @sprotterdam houdt on…|,neg
@sprotterdam @groenlinksrdam @stadsinitia010 @pvvrotterdam010 en @pvddrotterdam lijken het hier over eens te zijn e… https://t.co/7a5sfcdoyo,neg
rt @wouter_1908: @ruudhagoort @javisstjavisst @frkc2 @marcel_vds @stadionopzuid @ldekleijn @sprotterdam daar komt nog bij dat je door in ge…,neg
|groenlinks op kop in #culemborg, sp halveert https://t.co/pknmbsgkvf|,neg
|rt @ldekleijn: aan dit deel van mijn volgers, "anti-links, sp hatend, uiterst rechts, islam hatend, cidi-fans", mag ik jullie beleefd vrage…|,neg
rt @wijnwinkelrevie: @jangajentaan @voetzoeker87 @theodorholman grappig is wel dat @sprotterdam genadeloos lijkt afgestraft door dat malle…,neg
|rt @yelletieleman: was net bij een lijsttrekkersdebat in culemborg. lijsttrekker sp wilde zijn pvda-collega de maat nemen, maar de gespreks…|,neg
rt @bbnieuws: amsterdam stort geen geld meer in partijkas sp https://t.co/bhlcxwfccr,neg
@pvdarotterdam @ewoudkieviet @gaykrantnl @engberts @cocnederland @rtv_rijnmond @groenlinksrdam @sprotterdam @rdstad… https://t.co/2tls2esb9x,neg
rt @ldekleijn: bizar! 2e keer op rij bij de 'publieke'. @sprotterdam niet uitgenodigd voor debat maandag. 2e partij in de rdamse peiling. w…,neg
