|maurice meeuwissen van @pvvrotterdam010 voor het eerst debat met cda, sp en nida. @svendelangen: het beste voor int… https://t.co/ous7xyoaxq|,pos
rt @jacquesmonasch: fantastische vrouw! en ondertussen sluit #links #rotterdam #pvda #sp #gl zich aan bij de islamitische en fundamentalist…,pos
@stadsinitia010 @unforgivenrbn @sprotterdam @pvvrotterdam010 @pvddrotterdam @rotterdam gelukkig is de prognose rich… https://t.co/htt7toomrz,pos
rt @javisstjavisst: @sprotterdam @saidkasmid66 @d66rotterdam @ldekleijn @rtv_rijnmond @frfc1908 met onze stem kunnen we nog tegengas geven.…,pos
de rotterdamse sp wil het 'links verbond' graag toelichten op het verkiezingsfeestje van leefbaar rotterdam en foru… https://t.co/kecrda9ure,pos
rt @buijtleefbaar: pikant: rotterdamse pvda en sp willen nog steeds samen met nida in stadsbestuur terwijl asscher en marijnissen dit falie…,pos
#sp daar van vijf naar twee zetels. #gr2018,pos
|rt @rdstad: leefbaar blijft de grootste, volgens de peiling van maurice de hond. de sp zou de tweede partij van rotterdam worden 
https://t…|,pos
|rt @rdstad: leefbaar blijft de grootste, volgens de peiling van maurice de hond. de sp zou de tweede partij van rotterdam worden 
https://t…|,pos
|klimaat is een veel grotere opgave voor rotterdam dan armoede, aldus @ldekleijn van @sprotterdam tijdens #klimaatdebat in @arminius|,pos
|sp loopt mee in klimaatmars (sp rotterdam) https://t.co/nt2ozenvnt

maak uw eigen filter over #rotterdam via https://t.co/rlnezpbnrf|,pos
@cidi_nieuws @nidarotterdam @pvdarotterdam @sprotterdam @groenlinksrdam laat 1 ding duidelijk zijn! volgens… https://t.co/wuxthnje2t,pos
rt @paulmepschen: ramona cairo van de sp in debat over lhbt- emancipatie in t bibliotheek theater 010. homofobie blijft n belangrijk proble…,pos
ondanks tegenvallende exitpoll houdt @sprotterdam er de moed in: @theocoskun bedankt alle actieve sp’ers en natuurl… https://t.co/4ezywunz7c,pos
|rt @ldekleijn: column "rotte vis? je zou je stempas subiet verscheuren". niet doen hoor 😇. gewoon @sprotterdam stemmen morgen.
https://t.co…|,pos
|rt @bartnijman: conclusie: de pvda, groenlinks en de sp vinden dus dat je israël en isis 1 op 1 met elkaar kunt vergelijken. 

het wordt dr…|,pos
|ca 400 bewoners zuidwijk in actie voor terugkeer wijkgebouw, steun van @pvdarotterdam @sprotterdam @rotterdam50plus… https://t.co/w1vnkedhql|,pos
rt @hwhofs: peiling de hond: leefbaar 9 pvda 5 d66 4 sp 6 vvd 4 cda 3 gl 5 nida 1 cusgp 1 pvdd 1 denk 2 50 plus 1 pvv 3 #pauw,pos
|rt @buitenhoftv: morgen in #buitenhof: @meyerron wil de sp klaarstomen voor een nieuwe generatie. over zijn rondgang door nederland, sleute…|,pos
|rt @mirjamdewinter: “definitieve” uitslagen #rotterdam: lr 11, pvda 5, d’66 5, sp 2, vvd 5, cda 2, gl 5, nida 2, cu 1, pvvd 1, pvv 2, denk…|,pos
rt @rientje1: goh @eenvandaag komt nu pas met het armoede punt van rotterdam. daar is de @sprotterdam al 4 jaar mee bezig en er zijn ook go…,pos
rt @hwhofs: peiling de hond: leefbaar 9 pvda 5 d66 4 sp 6 vvd 4 cda 3 gl 5 nida 1 cusgp 1 pvdd 1 denk 2 50 plus 1 pvv 3 #pauw,pos
ja de retoriek van de sp die met hun beleid de hard werkende rotterdamers al decennia de stad uit jagen. zorg voor… https://t.co/kaklgkhneg,pos
|de sp krijgt zijn eerste burgemeester en hij heet emile roemer https://t.co/mm36y1dfpk via @tponl
van buutreedner t… https://t.co/tlregiq1dv|,pos
|rt @robertpbas: exitpoll rotterdam: leefbaar 11, pvda 5, d’66 4, sp 2, vvd 5, cda 2, groenlinks 4, nida 2, cu/sgp 1, pvdd 1, 50plus 2, denk…|,pos
rt @pimvandendool: in debat over woningmarkt zeggen sp en 50plus: meer betaalbare huurwoningen nodig. cda zegt: 2/3e van voorraad in rotter…,pos
rt @barbarakathmann: @cidi_nieuws @nidarotterdam @pvdarotterdam @sprotterdam @groenlinksrdam laat 1 ding duidelijk zijn! volgens @pvdarotte…,pos
rt @vincentkar: helder: met een stem op @d66rotterdam krijg je het linkse blok van @nidarotterdam @pvdarotterdam @sprotterdam en @groenlink…,pos
|@jacqhoogland @theocoskun @leefbaarrdam .nou heeft de @sprotterdam de woonvisie nooit willen lezen natuurlijk.
https://t.co/lmbmsowzum|,pos
rt @rdamklimaat: .@groenlinksrdam en @sprotterdam zijn het blijkbaar helemaal met elkaar eens op klimaatgebied. hoge ambities en goed zorge…,pos
|rt @groenlinksrdam: vandaag presenteren wij samen met @pvdarotterdam, @sprotterdam en @nidarotterdam 8 gezamenlijke uitgangspunten voor een…|,pos
rt @paulevanuden: zeg @nieuwsuur waarom wordt de lijsttrekker van de (in de peilingen) tweede partij van rotterdam #sp #leodekleijn niet ui…,pos
|rt @robertpbas: exitpoll rotterdam: leefbaar 11, pvda 5, d’66 4, sp 2, vvd 5, cda 2, groenlinks 4, nida 2, cu/sgp 1, pvdd 1, 50plus 2, denk…|,pos
rt @sprotterdam: sp rotterdam tekent het roze stembusakkoord met liefde! https://t.co/ggqc7zovp5,pos
rt @vincentkar: helder: met een stem op @d66rotterdam krijg je het linkse blok van @nidarotterdam @pvdarotterdam @sprotterdam en @groenlink…,pos
|rt @emmzwart: sp’er gister: zo’n leuk meisje en dan bij denk? loop mee naar mn auto ik heb nog wel een sp jas.
ik: zolang ze hun standpunte…|,pos
|rt @burgernet_zh: rotterdam: winkel overvallen bergseln rtd 2 getinte daders  beide krullend haar 1 bl trainingsjas sp br, 2e zwarte jas me…|,pos
bij het #vnoncw debat geeft @ldekleijn van de sp aan dat de samenwerking van het links islamitische blok vandaag al… https://t.co/wskszq8uyw,pos
gelukkig in rdam een verstandiger sp https://t.co/z4ldbimsrh,pos
|rt @groenlinksrdam: vandaag presenteren wij samen met @pvdarotterdam, @sprotterdam en @nidarotterdam 8 gezamenlijke uitgangspunten voor een…|,pos
|rt @groenlinksrdam: vandaag presenteren wij samen met @pvdarotterdam, @sprotterdam en @nidarotterdam 8 gezamenlijke uitgangspunten voor een…|,pos
|jong d66, vvd en sp beginnen nieuwe whatsapp groep: 
polariserende matennaaiers|,pos
rt @vincentkar: helder: met een stem op @d66rotterdam krijg je het linkse blok van @nidarotterdam @pvdarotterdam @sprotterdam en @groenlink…,pos
rt @hwhofs: peiling de hond: leefbaar 9 pvda 5 d66 4 sp 6 vvd 4 cda 3 gl 5 nida 1 cusgp 1 pvdd 1 denk 2 50 plus 1 pvv 3 #pauw,pos
rt @johangrijzen: "de principiële opstelling van  groot wassink van groenlinks amsterdam en de kleijn van sp rotterdam zijn binnen dit land…,pos
rt @vincentkar: helder: met een stem op @d66rotterdam krijg je het linkse blok van @nidarotterdam @pvdarotterdam @sprotterdam en @groenlink…,pos
@ldekleijn @leefbaarrdam @sprotterdam succes leo! jij in ieder geval zeker! 🤗🤠,pos
|rt @robertpbas: exitpoll rotterdam: leefbaar 11, pvda 5, d’66 4, sp 2, vvd 5, cda 2, groenlinks 4, nida 2, cu/sgp 1, pvdd 1, 50plus 2, denk…|,pos
|rt @groenlinksrdam: vandaag presenteren wij samen met @pvdarotterdam, @sprotterdam en @nidarotterdam 8 gezamenlijke uitgangspunten voor een…|,pos
veel mensen op rotterdam centraal gaan sp stemmen! @sprotterdam,pos
rt @kjonker33: plan van #sp raadslid @baraku_ om ‘absurd’ hoge #salarissen bij #corporaties #rotterdam aan te pakken valt goed @corposector…,pos
@ewdevlieger @meyerron nu nog uitleggen waarom de sp met nida samenwerkt in rotterdam ron.,pos
|rt @at_polhuis: @gersp1 @gebiedijmonde @hvijsselmonde nou @gersp1, @sprotterdam stemmers kunnen voor de verkiezing van de gebiedscie #ijsse…|,pos
ik hoop dat #rotterdam goed nadenkt in het stemhokje!! #sp #gl #pvda #nida https://t.co/o21yia7n9f,pos
@rtmxl @pietkoole aha de sp gooit dus met modder ("rtm xl te lui") terwijl ze gewoon zelf te lui waren om te reager… https://t.co/miaprbg1b2,pos
@pietkoole we hebben helaas - ondanks herhaald verzoek - geen reactie van de sp gehad op onze vragen. als die 40.00… https://t.co/hwmcc0ihfy,pos
rt @just1908: @adriaanvisser @sprotterdam ontwikkeling zuid kan ook zonder nieuw stadion feyenoord! en dan kunnen we het belastinggeld dat…,pos
|rt @svanweyenberg: nou ja, @groenlinks wil zijn inbreng over andere rekenrente over de verkiezingen heen tillen. wil zich bij @sp @pvv en @…|,pos
|eerste, voorzichtige uitslagen in vlaardingen: sp (10,5%), leefbaar (8,1%), pvda (6,8%), ons (16,7%), d66 (5,7%), c… https://t.co/5ramtu3ut9|,pos
|rt @ldekleijn: column "rotte vis? je zou je stempas subiet verscheuren". niet doen hoor 😇. gewoon @sprotterdam stemmen morgen.
https://t.co…|,pos
|rt @ewoudkieviet: maurice meeuwissen van @pvvrotterdam010 voor het eerst debat met cda, sp en nida. @svendelangen: het beste voor integrati…|,pos
|rt @ewoudkieviet: maurice meeuwissen van @pvvrotterdam010 voor het eerst debat met cda, sp en nida. @svendelangen: het beste voor integrati…|,pos
rt @warmrotterdam: cusgp en groenlinks en d66 en pvda en nida en cda en vvd en sp accepteren het manifest #rotterdamschuldvrij voor een#war…,pos
|stem #sp !!! voor een eerlijker #nederland 
#verkiezingen2018|,pos
rt @spnijmegen: leestip in #degelderlander vandaag: @emileroemer over de overeenkomsten tussen de sp en robin hood? 🏹 #cultuur #robinhood #…,pos
|rt @groenlinksrdam: vandaag presenteren wij samen met @pvdarotterdam, @sprotterdam en @nidarotterdam 8 gezamenlijke uitgangspunten voor een…|,pos
|na 30% komt leefbaar op 12, denk op 3. sp blijft met 2 zetels grote verliezer.|,pos
rt @buijtleefbaar: pikant: rotterdamse pvda en sp willen nog steeds samen met nida in stadsbestuur terwijl asscher en marijnissen dit falie…,pos
|rt @robertpbas: exitpoll rotterdam: leefbaar 11, pvda 5, d’66 4, sp 2, vvd 5, cda 2, groenlinks 4, nida 2, cu/sgp 1, pvdd 1, 50plus 2, denk…|,pos
@010klassiekers @college010 @vvdrotterdam @pvdarotterdam @leefbaarrdam @groenlinksrdam @cdarotterdam @sprotterdam j… https://t.co/bq4qq04ljy,pos
|rt @robertpbas: exitpoll rotterdam: leefbaar 11, pvda 5, d’66 4, sp 2, vvd 5, cda 2, groenlinks 4, nida 2, cu/sgp 1, pvdd 1, 50plus 2, denk…|,pos
@milieuzone010 @college010 @vvdrotterdam @pvdarotterdam @leefbaarrdam @groenlinksrdam @cdarotterdam @sprotterdam hi… https://t.co/0syr7zyyig,pos
|rt @ewoudkieviet: maurice meeuwissen van @pvvrotterdam010 voor het eerst debat met cda, sp en nida. @svendelangen: het beste voor integrati…|,pos
rt @jacquesmonasch: fantastische vrouw! en ondertussen sluit #links #rotterdam #pvda #sp #gl zich aan bij de islamitische en fundamentalist…,pos
|#nieuws: het #wetsvoorstel van pvda, 50plus, sp en groenlinks heeft als doel dat #werknemers die gelijk werk doen,… https://t.co/tdw5dyhhkw|,pos
rt @buijtleefbaar: pikant: rotterdamse pvda en sp willen nog steeds samen met nida in stadsbestuur terwijl asscher en marijnissen dit falie…,pos
@taimounti @f_azarkan @denk_amsterdam @amsterdamnl @pvda @vvd @d66 @sp herinneren wij ons deze nog (nog nog)?… https://t.co/y1rnl7q4wj,pos
de #sp gelooft nog steeds in sprookjes #islamdebat.,pos
|rt @ewoudkieviet: maurice meeuwissen van @pvvrotterdam010 voor het eerst debat met cda, sp en nida. @svendelangen: het beste voor integrati…|,pos
rt @bpschut: ik kan mij niet voorstellen dat de pvda openlijk voor het antisemitische nida kiest. of dat de sp echt wil samenwerken met dez…,pos
@geertdewaal @ldekleijn @sprotterdam @pvdarotterdam misschien dat je de inhoud gemist hebt dus bij deze. hier kun j… https://t.co/zfwwftn5e5,pos
rt @javisstjavisst: @sprotterdam @saidkasmid66 @d66rotterdam @ldekleijn @rtv_rijnmond @frfc1908 met onze stem kunnen we nog tegengas geven.…,pos
|rt @ewoudkieviet: maurice meeuwissen van @pvvrotterdam010 voor het eerst debat met cda, sp en nida. @svendelangen: het beste voor integrati…|,pos
|rt @groenlinksrdam: vandaag presenteren wij samen met @pvdarotterdam, @sprotterdam en @nidarotterdam 8 gezamenlijke uitgangspunten voor een…|,pos
|rt @edgoverde: ca 400 bewoners zuidwijk in actie voor terugkeer wijkgebouw, steun van @pvdarotterdam @sprotterdam @rotterdam50plus en pipo.…|,pos
rt @geenstijl: gstv. tom staal wrijft in vlek sp en pvda na geklapte samenwerking met mafklappers nida https://t.co/dbbr0kfdyx,pos
|de aanhangers van jesse klaver, de sp en 50plus in gesprek met minister koolmees over pensioen op het plein. https://t.co/uerj3lmpbu|,pos
rt @vincentkar: helder: met een stem op @d66rotterdam krijg je het linkse blok van @nidarotterdam @pvdarotterdam @sprotterdam en @groenlink…,pos
|rt @robertpbas: exitpoll rotterdam: leefbaar 11, pvda 5, d’66 4, sp 2, vvd 5, cda 2, groenlinks 4, nida 2, cu/sgp 1, pvdd 1, 50plus 2, denk…|,pos
|rt @just1908: @adriaanvisser @sprotterdam @groenlinksrdam maar goed zodra feyenoord city geen draagvlak creëert onder supporters, er nog st…|,pos
aanpakken? prima! zodra de sp daar in slaagt...ga ik weer stemmen. https://t.co/nwmezre6wm,pos
|rt @sibelozogul: met steun van @sp haarlem @cdahaarlem , @vvdhaarlem , @jouw haarlem, @d66haarlem @trotshaarlem  komt er in haarlem posterc…|,pos
rt @pietkoole: veel mensen op rotterdam centraal gaan sp stemmen! @sprotterdam,pos
|rt @h_j1966: #fnvspoor blij met steun van #groenlinks #pvda en #sp

geen concurrentie op loon voor conducteur en machinist@groenlinks @pvda…|,pos
|rt @ldekleijn: column "rotte vis? je zou je stempas subiet verscheuren". niet doen hoor 😇. gewoon @sprotterdam stemmen morgen.
https://t.co…|,pos
rt @ewoudkieviet: .@pvdarotterdam komt om 19.30 uur samen met @sprotterdam met een statement over geklapt links verbond @rtv_rijnmond,pos
rt @pvvrotterdam010: de linkse weggevers van @sprotterdam houden zielsveel van de islam. zie hier de onderdanige liefdesverklaring van sp'e…,pos
|rt @buitenhoftv: .@meyerron stoomt de sp klaar voor een nieuwe generatie. over zijn rondgang langs een miljoen nederlanders, straks, in #bu…|,pos
|rt @ewoudkieviet: maurice meeuwissen van @pvvrotterdam010 voor het eerst debat met cda, sp en nida. @svendelangen: het beste voor integrati…|,pos
|rt @edgoverde: ook @pvdarotterdam steunt dze actie. droeg samen met @sprotterdam in bestuur @charlois_rdam in 2014 een haalbaar, betaalbaar…|,pos
rt @warmrotterdam: cusgp en groenlinks en d66 en pvda en nida en cda en vvd en sp accepteren het manifest #rotterdamschuldvrij voor een#war…,pos
|rt @groenlinksrdam: vandaag presenteren wij samen met @pvdarotterdam, @sprotterdam en @nidarotterdam 8 gezamenlijke uitgangspunten voor een…|,pos
rt @jkralendijk: @geertwilderspvv die pvda/groenlinks/ d66 en nu ook de sp zijn werkelijk compleet van padje af om met die is en salafisten…,pos
|mijn voorspelling voor #raad010 #gr2018. lr 11, vvd 6, pvda 5, cda 4, sp 4, d66 4, gl 4, denk 2, nida 2, pvdd 2, cu-sgp 1, 50plus 1. pvv 0.|,pos
rotterdam voorlopig definitief: lr 11 - pvda 5 - d66 5 - sp 2 - vvd 5 - cda 2 gl 5 - nida 2 - cu/sgp 1 - pvdd 1 - 5… https://t.co/cvt2i13ayc,pos
|rt @h_j1966: #fnvspoor blij met steun van #groenlinks #pvda en #sp

geen concurrentie op loon voor conducteur en machinist@groenlinks @pvda…|,pos
rt @misterjoop: dat u het weet een stem op #pvda #sp #groenlinks #d66 is een stem op de antisemieten van #nida #gemeenteraadsverkiezingen h…,pos
|rt @robertpbas: exitpoll rotterdam: leefbaar 11, pvda 5, d’66 4, sp 2, vvd 5, cda 2, groenlinks 4, nida 2, cu/sgp 1, pvdd 1, 50plus 2, denk…|,pos
rt @hwhofs: peiling de hond: leefbaar 9 pvda 5 d66 4 sp 6 vvd 4 cda 3 gl 5 nida 1 cusgp 1 pvdd 1 denk 2 50 plus 1 pvv 3 #pauw,pos
|woorden in de mond leggen, daar zijn ze best goed in bij de #sp #geendadenmaarwoorden https://t.co/dshxkzuw4u|,pos
|rt @burgernet_zh: rotterdam: winkel overvallen bergseln rtd 2 getinte daders  beide krullend haar 1 bl trainingsjas sp br, 2e zwarte jas me…|,pos
|rt @robinvanholst: terwijl @groenlinksrdam, @pvdarotterdam en @sprotterdam bezig zijn met israël. zijn wij met @stadsinitia010  bezig met r…|,pos
|rt @groenlinksrdam: vandaag presenteren wij samen met @pvdarotterdam, @sprotterdam en @nidarotterdam 8 gezamenlijke uitgangspunten voor een…|,pos
|rt @rzuaslan: stem ff op @nourdin_ volgers. al is het maar om gs te fucken.
maar vooral omdat @nida samen met @sprotterdam de enige hoop vo…|,pos
|rt @rdstad: leefbaar blijft de grootste, volgens de peiling van maurice de hond. de sp zou de tweede partij van rotterdam worden 
https://t…|,pos
|rt @sibelozogul: met steun van @sp haarlem @cdahaarlem , @vvdhaarlem , @jouw haarlem, @d66haarlem @trotshaarlem  komt er in haarlem posterc…|,pos
rt @kjonker33: krijgt #havensteder een belang in #frans #golfproject #montcombroux ? @corposector @ilent_aw @peterhendrix57 @sprotterdam @h…,pos
rt @marijnissenl: de #ing baas die meent recht te hebben op 3 miljoen per jaar? ik dacht het niet! de #sp zet haar aandeelhoudersmacht in!…,pos
rt @rientje1: goh @eenvandaag komt nu pas met het armoede punt van rotterdam. daar is de @sprotterdam al 4 jaar mee bezig en er zijn ook go…,pos
rt @dtvoss: sp weer de grootste in oss: van 9 naar 11 zetels. vdg gaat van 11 naar 10   https://t.co/son4ad3jvg,pos
rt @sprotterdam: sp tekent fnv-manifest 'echte banen in een solidaire stad' https://t.co/u8sszhqicf,pos
wat belooft @sprotterdam aan ouders in rotterdam? 17/20 politieke partijen gaven @ouders010 hun standpunten https://t.co/wnxxszfo0f,pos
rt @cdavandaag: in de vorige periode trokken #cda en #sp vanuit oppositie vaak samen op in hun kritiek op de zorgplannen van het kabinet ru…,pos
rt @vincentkar: helder: met een stem op @d66rotterdam krijg je het linkse blok van @nidarotterdam @pvdarotterdam @sprotterdam en @groenlink…,pos
rt @pvddrotterdam: @javisstjavisst @pvdarotterdam @stadsinitia010 @leefbaarrdam @sprotterdam @vvdrotterdam @pvddrotterdam gaat het advies v…,pos
|rt @jan75418901: pvda en sp achten zich nog steeds gebonden aan de inhoudelijke afspraken, idealen, die in rotterdam zijn afgesproken.., #0…|,pos
rt @ewoudkieviet: .@pvdarotterdam komt om 19.30 uur samen met @sprotterdam met een statement over geklapt links verbond @rtv_rijnmond,pos
rt @geenstijl: gstv. tom staal wrijft in vlek sp en pvda na geklapte samenwerking met mafklappers nida https://t.co/dbbr0kfdyx,pos
rt @rinibiemans: gl 8 sp 7 pvdd 3 stadsintiatief 5 = 23 misschien toch nog de pvda erbij (kan als ze ons standpunt feyenoord city akseptere…,pos
|rt @jangajentaan: jong d66, vvd en sp beginnen nieuwe whatsapp groep: 
polariserende matennaaiers|,pos
rt @paulmepschen: ramona cairo van de sp in debat over lhbt- emancipatie in t bibliotheek theater 010. homofobie blijft n belangrijk proble…,pos
rt @barbarakathmann: @cidi_nieuws @nidarotterdam @pvdarotterdam @sprotterdam @groenlinksrdam laat 1 ding duidelijk zijn! volgens @pvdarotte…,pos
rt @roaldlinde: witwassen en terrorismefinanciering zijn zware misdaden. vanmiddag heeft de tweede kamer een amendement van @vvd en @sp aan…,pos
|rt @rdstad: leefbaar blijft de grootste, volgens de peiling van maurice de hond. de sp zou de tweede partij van rotterdam worden 
https://t…|,pos
rt @sprotterdam: sp rotterdam tekent het roze stembusakkoord met liefde! https://t.co/ggqc7zovp5,pos
|rt @rdstad: leefbaar blijft de grootste, volgens de peiling van maurice de hond. de sp zou de tweede partij van rotterdam worden 
https://t…|,pos
@mmeeuw @sprotterdam en @cdarotterdam aan kop! vrij a-typische tussenstand.,pos
rt @vincentkar: helder: met een stem op @d66rotterdam krijg je het linkse blok van @nidarotterdam @pvdarotterdam @sprotterdam en @groenlink…,pos
|rt @groenlinksrdam: vandaag presenteren wij samen met @pvdarotterdam, @sprotterdam en @nidarotterdam 8 gezamenlijke uitgangspunten voor een…|,pos
rt @sprotterdam: @ldekleijn vult live @arminius -debat #waar staat het klimaat  de vooraf gemaakte klimaatparagraaf van de sp aan met de la…,pos
|rt @bartnijman: sleepwetcampagne! geenpeil en sp zetten zich weer in (plus een goeie speech van groenlinks) 

https://t.co/ezmx5hj0n5|,pos
|rt @mirjamdewinter: “definitieve” uitslagen #rotterdam: lr 11, pvda 5, d’66 5, sp 2, vvd 5, cda 2, gl 5, nida 2, cu 1, pvvd 1, pvv 2, denk…|,pos
rt @sprotterdam: sp rotterdam tekent het roze stembusakkoord met liefde! https://t.co/ggqc7zovp5,pos
rt @josi2302: met man en kind gaan stemmen op @sprotterdam bij @spartarotterdam! https://t.co/w77rng4gfc,pos
|@jsdebeer maar goed, als je landelijke fracties in gedachten houdt vallen pvdd en sp ook af qua schreeuwen, anti-eu… https://t.co/21enuzltsj|,pos
|rt @ldekleijn: @meeuwissen_pvv @barbarakathmann @pvdarotterdam @sprotterdam beste @meeuwissen_pvv, mag ik van jouw dan eens 3 dingen horen…|,pos
gewéldig !!! pvda weer flink verlies....d66 ook !!!! sp óók !!!! prima !!! #gr2018,pos
rt @hwhofs: peiling de hond: leefbaar 9 pvda 5 d66 4 sp 6 vvd 4 cda 3 gl 5 nida 1 cusgp 1 pvdd 1 denk 2 50 plus 1 pvv 3 #pauw,pos
|rt @rdamklimaat: kies woensdag voor het klimaat! groenlinks, nida, pvdd en sp zetten zich het sterkst in voor het klimaat, volgens dit arti…|,pos
