rt @mikevdgaliennl: lezen! partij voor de dieren verandert in dood voor de dieren; wil oostvaardersplassen-beesten niet bijvoeren https://t…,neg
@vlarp @feyenoord @gemeenteraad010 @leefbaarrdam @sprotterdam @ldekleijn @pvddrotterdam @pvdarotterdam @leobruijn w… https://t.co/ijmmwvrlp4,neg
@010manon vind het zo’n verschrikkelijke man. niet alleen om fc maar ook de tweedeling die hij veroorzaakt. mijn advies stem pvdd 😉,neg
|rt @mcouzy: eerste voorlopige uitslag vanuit stopera: 
gl: 11
d66:9
pvda: 4
vvd 7
sp 3
pvdd 3
cda 2
pvdo 1
bij1 0
denk 2
fvd: 3|,neg
partij voor de dieren maakt zich druk over . . . auto’s https://t.co/tsn7srvxdx #rotterdam,neg
morgen (13 maart) actie van de @pvddrotterdam  naast de markthal: niet bouwen in het groen! https://t.co/qkex12wtj4,neg
@estherouwehand ik begrijp niet waarom pvdd het ene leed laat gebeuren (het verhongeren) en zich tegen het andere l… https://t.co/jjcsyaot6l,neg
@peterdevoogt @rdamklimaat @fossielvrijnl @pvddrotterdam @sprotterdam @groenlinksrdam @pvdarotterdam… https://t.co/igew6rvmmw,neg
rt @reddekuip: @sprotterdam @groenlinksrdam @stadsinitia010 @pvvrotterdam010 en @pvddrotterdam lijken het hier over eens te zijn en als eni…,neg
rt @sattelweb: "hoe kan dit land'verraders #pvda  #sp #groenlinks #christenunie #pvdd #d66 haar oorspronkelijke bevolking zo enorm in de st…,neg
|@frfc1908 @jandeknecht1970 @groenlinksrdam @pvddrotterdam dat kan je mening zijn, maar beroep je dan alsjeblieft ni… https://t.co/1xyvbya7ue|,neg
@jngmn1 @pvddrotterdam een stad die moet verdichten vraagt wel soms om concessies. groen moet zoveel mogelijk behou… https://t.co/jbitlnnmax,neg
|pvdd vs cda over bouwen in het groen. @ruudvdvelden010: college bouwt steeds in het groen, lijkt wel of stenen tijd… https://t.co/ad7dmxvpdq|,neg
rt @frfc1908: @ginocatshoek @jandeknecht1970 @adriaanvisser @fr_tijger @reddekuip @leefbaarrdam @pvddrotterdam @sprotterdam @groenlinksrdam…,neg
rt @ginocatshoek: @jandeknecht1970 @frfc1908 @adriaanvisser @fr_tijger @reddekuip @leefbaarrdam @pvddrotterdam @sprotterdam @groenlinksrdam…,neg
|rt @mcouzy: eerste voorlopige uitslag vanuit stopera: 
gl: 11
d66:9
pvda: 4
vvd 7
sp 3
pvdd 3
cda 2
pvdo 1
bij1 0
denk 2
fvd: 3|,neg
|@ziltebotte 😁 haatzaaien doet links, enge denk, pvda(llah), ddr66, sp, vvd, pvdd enz, meer pvv|,neg
|rt @swsjoerdsma: peiling eenvandaag:
d66 2e partij

vvd 32
d66 16
cda 16
pvv 16
gl    14
sp    13
fvd   9
pvda 8
pvdd 7
50+   7
cu    6
sgp…|,neg
|rt @jaltanl: denk, bij1 en partij voor de dieren ten onrechte verdacht gemaakt https://t.co/j8jeb5t4kr politiek.  @jaltanl|,neg
rt @stgdierenhulp: plots horen we ook iets van de db die van mening zijn dat dieren in de #ovp onnodig lijden. nu de pvdd nog en al die and…,neg
@gingerlemon01 in my world view best heftig! waarom niet pvdd of gl?,neg
@robinvanholst @mmeeuw @ldekleijn @d66rotterdam @stadsinitia010 @pvddrotterdam @pvdarotterdam @nidarotterdam… https://t.co/csnjmw5agt,neg
@meisjeefr @pvddrotterdam moeilijk he binnen de lijntjes kleuren,neg
|@nicheje ik stem landelijk ook pvdd maar lokaal is anders daar gaat het minder om ideologie, maar veel meer het hoe… https://t.co/14ns436sw7|,neg
strijd pvdd tegen onverdoofd slachten gaat door https://t.co/gaspcppyri,neg
@dabnos partij voor de dieren hè,neg
|rt @baspaternotte: anyhow, reacties van denk en partij voor de dieren komen binnen naar aanleiding van dit bericht van het anp op tpo ---&gt;…|,neg
|rt @lidwieneik_boom: onderzoek: hoe rechtser de partij, hoe minder vrouwen op lokale kieslijst - alleen bij pvdd zijn meeste kandidaten vro…|,neg
rt @lekkerblank: het moment dat je ineens begrijpt waarom de #pvdd geen ene flikker doet wat betreft de #oostvaardersplassen https://t.co/x…,neg
|rt @rotdromers: de @pvddrotterdam slaat hier de plank finaal mis. door hondenpoepveld naast markthal te zien als natuur, kiezen zij bewust…|,neg
|rt @mcdonald_69: partij voor de dieren (#pvdd) strijdt tegen de verstening van de stad. "er wordt teveel gebouwd in het groen, daar moet ee…|,neg
|rt @mirjam152: de pvdd die al jaren niets doet voor de dieren in de ovp en gisteren nog tegen bijvoeren was, want: natuur, wijst nu snel na…|,neg
@annefleurdd. alleen partij voor de dieren en groen links zijn acceptabel. maar stem in de bakfietssteden nooit op de partij van #pechtold !,neg
rt @jandeknecht1970: @adriaanvisser @fr_tijger @reddekuip @leefbaarrdam @pvddrotterdam @sprotterdam @groenlinksrdam @pvdarotterdam @apechto…,neg
rt @jandeknecht1970: @frfc1908 @adriaanvisser @fr_tijger @reddekuip @leefbaarrdam @pvddrotterdam @sprotterdam @groenlinksrdam @pvdarotterda…,neg
rt @wowobbel: partij voor de dieren komt met initiatiefwet tegen onverdoofd slachten https://t.co/bochlznrdt,neg
rt @fransreichardt: @frfc1908 @ginocatshoek @jandeknecht1970 @adriaanvisser @fr_tijger @reddekuip @leefbaarrdam @pvddrotterdam @sprotterdam…,neg
rt @arnoldjonk: @hakhverdian de pvdd is nog groter. die aandacht voor fvd is echt curieus,neg
rt @frfc1908: @ginocatshoek @jandeknecht1970 @adriaanvisser @fr_tijger @reddekuip @leefbaarrdam @pvddrotterdam @sprotterdam @groenlinksrdam…,neg
rt @ddstandaard: populair: partij voor de dieren verandert in dood voor de dieren; wil oostvaardersplassen-beesten niet bijvoeren https://t…,neg
|rt @mirjam152: de pvdd die al jaren niets doet voor de dieren in de ovp en gisteren nog tegen bijvoeren was, want: natuur, wijst nu snel na…|,neg
rt @chrisaalberts: niet waar. pvdd tekende net als denk ook. https://t.co/qcfofnqk4z,neg
|het valt weinig mensen op en het gaat heel geleidelijk, maar.... 
de #pvdd groeit maar door. https://t.co/r11kc5hmvf|,neg
@sprotterdam @groenlinksrdam @stadsinitia010 @pvvrotterdam010 en @pvddrotterdam lijken het hier over eens te zijn e… https://t.co/7a5sfcdoyo,neg
rt @arnoldjonk: @hakhverdian de pvdd is nog groter. die aandacht voor fvd is echt curieus,neg
rt @jandeknecht1970: @adriaanvisser @fr_tijger @reddekuip @leefbaarrdam @pvddrotterdam @sprotterdam @groenlinksrdam @pvdarotterdam @apechto…,neg
rt @fransreichardt: @frfc1908 @ginocatshoek @jandeknecht1970 @adriaanvisser @fr_tijger @reddekuip @leefbaarrdam @pvddrotterdam @sprotterdam…,neg
rt @ddstandaard: daar gaan we weer: partij voor de dieren probeert ritueel slachten wéér te verbieden https://t.co/jpz5qdkn1e,neg
rt @jandeknecht1970: @adriaanvisser @fr_tijger @reddekuip @leefbaarrdam @pvddrotterdam @sprotterdam @groenlinksrdam @pvdarotterdam @apechto…,neg
lees net als fractiemedewerkers jaap en lucienne van @pvddrotterdam alles over #raad010 in de terugblik op de afgel… https://t.co/6qxtg1gzke,neg
|@feitenvanlode tja, termen: maar pvdd is wel degelijk expliciet voor een beeindiging van kapitalisme. dat kan nog v… https://t.co/y6ejtitogy|,neg
rt @ardbuijsen: misschien is het @pvddrotterdam opgevallen dat er een woningtekort is. https://t.co/e6dzod8jon,neg
rt @fransreichardt: @frfc1908 @ginocatshoek @jandeknecht1970 @adriaanvisser @fr_tijger @reddekuip @leefbaarrdam @pvddrotterdam @sprotterdam…,neg
partij voor de dieren gaat full-on jurassic park 🦖 https://t.co/6rl0j755gc,neg
|rt @rotdromers: de @pvddrotterdam slaat hier de plank finaal mis. door hondenpoepveld naast markthal te zien als natuur, kiezen zij bewust…|,neg
rt @frfc1908: @ginocatshoek @fransreichardt @jandeknecht1970 @adriaanvisser @fr_tijger @reddekuip @leefbaarrdam @pvddrotterdam @sprotterdam…,neg
|rt @mcouzy: eerste voorlopige uitslag vanuit stopera: 
gl: 11
d66:9
pvda: 4
vvd 7
sp 3
pvdd 3
cda 2
pvdo 1
bij1 0
denk 2
fvd: 3|,neg
rt @fransreichardt: @wouter_1908 @josverveen @javisstjavisst @m_at_sea @ldekleijn @adriaanvisser @gemeenteraad010 @pvddrotterdam @vvdrotter…,neg
#klimaatdebat in rotterdam arminius is van start. zonder @pvddrotterdam dat wel. beetje gek,neg
partij voor de dieren (@partijvddieren) pleit in @rotterdam voor hanteren #who normen. eens. europese normen schiet… https://t.co/oifqpnisqo,neg
|naast groenlinks ondertekenden alle coalitiepartijen, pvv, sp, pvda, denk, sgp, pvdd en 50plus de motie, met uitzon… https://t.co/mewd577ivo|,neg
@stadsbeheer010 @debomenridders @pvddrotterdam het is snoeiafval dat tijdelijk op bedrijventerrein schiebroek wordt gelegd.,neg
rt @mariannethieme: onderzoek @volkskrant: alleen bij pvdd zijn meeste kandidaten vrouw https://t.co/h9na0qszat,neg
rt @jandeknecht1970: @adriaanvisser @fr_tijger @reddekuip @leefbaarrdam @pvddrotterdam @sprotterdam @groenlinksrdam @pvdarotterdam @apechto…,neg
#nieuwsuur bizar dat de #pvdd zich druk maakt. over de paar minuten lijden tijdens de slacht terwijl ze meestal hun… https://t.co/rwkfanu77u,neg
