#groenlinks solliciteert naar een wethouderszetel https://t.co/7gxp2utfoa #alphenaandenrijn,pos
rt @glalphenadrijn: de speerpunten van groenlinks op een rij in dit mooie filmpje! #veranderingbeginthier met @erikvzuylen @josekruls @rene…,pos
groenlinks blij met snelweg kerk en zanen! - https://t.co/0wepce2nem https://t.co/ek6ayi8bzy,pos
jezelf kunnen zijn in alphen aan den rijn https://t.co/13z8k7pdol via @groenlinks,pos
rt @josekruls: wij stellen voor... josé huls (nummer 4) https://t.co/pvxx4lmamn via @groenlinks,pos
rt @glzoetermeer: we hebben ons best gedaan om vandaag veel mensen te spreken over groenlinks en wat zij zelf belangrijk vinden voor zoeter…,pos
rt @glalphenadrijn: blog van #groenlinks raadslid @erikvzuylen over waarom we in #alphenaandenrijn #0172 zo snel mogelijk aan de slag moete…,pos
rt @renedriesen: groenlinks blij met snelweg kerk en zanen! - https://t.co/0wepce2nem https://t.co/ek6ayi8bzy,pos
|rt @svdeynden: 21 maart stemmen op een vrouw? #groenlinks biedt met 41% vrouwelijke kandidaten op de lijst de meeste keuze, blijkt uit onde…|,pos
|rt @studioalphen: groenlinks wil een energieneutrale gemeente en ruimte voor sport, kunst en cultuur https://t.co/sfumji7b0b #alphen #gr201…|,pos
rt @glalphenadrijn: groenlinks gaat weer in gesprek met alphenaren! #veranderingbeginthier #gr2018 https://t.co/rtrmbf7ik5,pos
|rt @m_meijer: fietsend naar huis in @groenlinks jasje, achter me bij het stoplicht jongetje tegen zijn moeder: “groenlinks! die heb ik al o…|,pos
|rt @marcsamsom: sgp, cda, groenlinks en beter alphen vinden allemaal dat er extra moet worden gebouwd in de kleine kernen om de vitaliteit…|,pos
