rt @pieteromtzigt: de gemeenteraad van amsterdam verhindert dus door cda gevraagd debat over het vernietigende rapport over de ‘deradicalis…,neg
ow jeetje cda staat dat op de kieslijst @sybrandbuma https://t.co/5eyajcbraz,neg
rt @sadetkarabulut: grote mond. maar cda steunt onze motie voor veroordeling en sancties tegen illegale turkse aanval op koerden niet?  htt…,neg
het is niet alleen door woeker #erfpacht dat ik op @cdaamsterdam @erfpachtpartij gaat stemmen gelukkig https://t.co/itvvjpzlqo,neg
|rt @pieteromtzigt: cda mag niet spreken over radicaliseringsbeleid in amsterdam want “overige partijen vinden dat niet nodig.”

https://t.c…|,neg
rt @partijvddieren: tubbergen de veiligste gemeente van nederland? 🤔 na het kijken van deze video denk je daar wel anders over 👇  #cda #gr2…,neg
|het cda 010 wil dat in kerken alleen in het nl wordt gepredikt. wat een onzin. aan alle engelse, franse, spaanse, a… https://t.co/gigbshnigv|,neg
|rt @mcouzy: laatste uitslag vd avond :
gl 10
d66 8
vvd 6
pvda 5
pvdd 3
sp 3
denk 3
fvd 3
cda 1
cu 1
bij1 1
partij vd ouderen 1|,neg
rt @erfpachtinfo: @paulslettenhaar je ontkomt dan overigens niet aan de conclusie dat @diederikboomsma @cdaamsterdam meeste kennis en beste…,neg
@blankejoop_jm @rtlnieuws haar haat hoofddoek net zoals wij ze ook bij #cda en #d66 zien is ernstiger https://t.co/0jda3jfuja,neg
rt @ziklies: @vvdzuid @paulslettenhaar @erfpachtpartij begrijp ik nu dat @vvdzuid aanbeveelt om dit keer maar op @cdaamsterdam te gaan stem…,neg
epp (dat is dus het cda in nederland) wil dus actief veel meer migranten naar de eu halen. anders kom je niet met t… https://t.co/x45chuyphp,neg
rt @else4weekblad: pvda en cda willen 'sisverbod' naar een landelijk niveau tillen: https://t.co/6h0k0frlwq https://t.co/nvbe5uonfy,neg
rt @annexum_huib: @diederikboomsma van het #cda zegt terecht dat er een nieuwe oplossing moet komen voor afkoop erfpacht. nu is de regeling…,neg
rt @estherouwehand: cda schrapte verbinding oostvaardersplassen met oostvaarderswold. toen wilde staatsbosbeheer ‘m zelf aanleggen. cda ver…,neg
@mcleaver @cdaamsterdam @berfpachter @afk020 zeker! ik wilde me alleen niet nu vastleggen op extra geld boven 160 m… https://t.co/1wsb1bz8ft,neg
|rt @faunabeschermin: er was 20 jaar aan gewerkt en dit jaar zou de #ehs af zijn, maar bleker van #cda gebruikte natuurgrond liever voor lan…|,neg
|@mirjamdj ik ken dat gevoel, heb ook nog nooit cda gestemd. maar locaal is heel anders dan landelijk en ik heb died… https://t.co/7yqnzfgcse|,neg
dit overtreft #dedeur van het cda ruimschoots https://t.co/mkpzeacdzr,neg
@parool neem dan wel de meest eerlijke opvatting over #erfpacht op in je overzicht #cda,neg
rt @veldhorst__w: het nationalistisch gezwets van baudet en wilders en in hun kielzog vvd en cda gaat de economie schade berokkenen. https:…,neg
|rt @svenstweet: fvd niet met d66
pvda niet met cda
bij1 niet met fvd

"maar we moeten wel blijven praten!" https://t.co/rhvzy5kohl|,neg
rt @j_postma: het cda gaat full vvd. never go full vvd. https://t.co/xzv6cdqiyy,neg
rt @estherouwehand: cda schrapte verbinding oostvaardersplassen met oostvaarderswold. toen wilde staatsbosbeheer ‘m zelf aanleggen. cda ver…,neg
@dilanyesilgoz @irenehemelaar @vvdamsterdam @marijkeshahsava @cdaamsterdam @amsterdamnl @ahmedmarcouch @lodewijka h… https://t.co/lcmncjrxke,neg
rt @lotte_schipper: @rolfuhlhorn misschien lokaal dan toch cda dit keer? @diederikboomsma is een topper!,neg
|rt @transvuilwijk: #cda een nederlandse partij?

https://t.co/0mqclabwoi https://t.co/k4awfyp5is|,neg
|rt @aljezandt: als https://t.co/ydhiry23mv van cda had gerekend op uitslag naar analogie van zetelverdeling in de kamer, dan zal het ze teg…|,neg
cda mag niet spreken over radicaliseringsbeleid https://t.co/hwtd7lvnoc https://t.co/jnfuad7e2w,neg
rt @estherouwehand: cda schrapte verbinding oostvaardersplassen met oostvaarderswold. toen wilde staatsbosbeheer ‘m zelf aanleggen. cda ver…,neg
|rt @pieteromtzigt: cda mag niet spreken over radicaliseringsbeleid in amsterdam want “overige partijen vinden dat niet nodig.”

https://t.c…|,neg
cda en d66: "hoe gaan we van individuele middelenbeoordeling naar een systeemaanpak?" ipm is de basis voor… https://t.co/ez5iu7l22o,neg
rt @lotte_schipper: @rolfuhlhorn misschien lokaal dan toch cda dit keer? @diederikboomsma is een topper!,neg
rt @lotte_schipper: @rolfuhlhorn misschien lokaal dan toch cda dit keer? @diederikboomsma is een topper!,neg
|rt @donceder: het cda 010 wil dat in kerken alleen in het nl wordt gepredikt. wat een onzin. aan alle engelse, franse, spaanse, arabische,…|,neg
|@hammersteino d66, groenlinks, cda en pvda stemden tegen. vvd, sp en partij voor de dieren voor|,neg
@rikajans cda en vvd nemen continu pvv standpunten over om verkiezingen te winnen. waarna ze dat zelfs uitvoeren en… https://t.co/p8xuiizxik,neg
|rt @lith56: @cdaamsterdam @cdavandaag bestaat er überhaupt iets als "eerlijke erfpacht" ?? ja, die bestaat, nl. gÉÉn erfpacht.|,neg
rt @estherouwehand: cda schrapte verbinding oostvaardersplassen met oostvaarderswold. toen wilde staatsbosbeheer ‘m zelf aanleggen. cda ver…,neg
|alleen d66, cda en denk willen eu-nepnieuwsbureau eu vs disinfo behouden https://t.co/ds16ix1zkj|,neg
|dat uitgerekend het cda een probleem heeft met identiteitspolitiek, bij anderen dan https://t.co/yftachxlcr|,neg
|rt @dirrux: kwam net minister de jongh van cda tegen. liet hem deze mand zien, 1,5 km amsterdam. vroeg hem of hij voor #statiegeld is. hij…|,neg
|rt @bonzqi_ld: stel je voor hè, dat nederland een regering krijgt gevormd door de pvv, fvd, cda en vvd en je biedt hen 'de sleepwet' als sp…|,neg
|analyse: ledenaantal van politieke partijen ligt op een een historisch dieptepunt, #cda grootste partij »… https://t.co/dn8lmpjeoy|,neg
|rt @tomzoete: breaking: meerderheid van de kiezers van de 4 regeringspartijen cu, d66, cda én vvd, is voor uitbreiding statiegeld. 

https:…|,neg
|@elziax dat is toch een ernstige schending van staat en kerk wat het cda voorstelt, ingrijpen in de eredienst. nog… https://t.co/a2nszcnjyc|,neg
vier jonge mannen moeten het cda in de grote steden overeind houden en de partij… https://t.co/g4aluu8gch #nrc,neg
|rt @faunabeschermin: er was 20 jaar aan gewerkt en dit jaar zou de #ehs af zijn, maar bleker van #cda gebruikte natuurgrond liever voor lan…|,neg
|@katjabzaich @cdaamsterdam populairste vwo school (amsterdams) zit idd in zuid, maar de direct daarna populairste s… https://t.co/tqh4rdzi2l|,neg
|rt @bonzqi_ld: stel je voor hè, dat nederland een regering krijgt gevormd door de pvv, fvd, cda en vvd en je biedt hen 'de sleepwet' als sp…|,neg
|rt @ycdtosay: @erfpacht_seba @ananninga @fvdemocratie goeie vraag.
ik hoef toch geen #cda te stemmen, voor het eerst, ooit 😱
(ja, ik weet d…|,neg
|rt @ytekedejong: het failliet van de lokale democratie , dat niet wil praten over ernstige misstanden @amsterdamnl #vvd #cda mag niet sprek…|,neg
|wat je met een beetje mest al niet kan doen...
#cda #gr2018 https://t.co/pyvxw6jqzx|,neg
rt @carelbrendel: hoe ver reikt lange arm van erdogan? https://t.co/7ckldfyquk via @telegraaf haags cda op stemmenjacht met akp-aanhanger.,neg
|rt @petersmmh: @gerrit163 @nicobulder @estherouwehand hertensterfte mogelijk gemaakt door boeren, #cda #vvd #pvv en #sgp 
deze partijen heb…|,neg
rt @sadetkarabulut: grote mond. maar cda steunt onze motie voor veroordeling en sancties tegen illegale turkse aanval op koerden niet?  htt…,neg
rt @carelbrendel: hoe ver reikt lange arm van erdogan? https://t.co/7ckldfyquk via @telegraaf haags cda op stemmenjacht met akp-aanhanger.,neg
|#tpo alleen d66, cda en denk willen eu-nepnieuwsbureau eu vs disinfo behouden: alleen d66… https://t.co/wtnqffrcbx|,neg
waarom is het cda niet zo groot in amsterdam? @diederikboomsma: "de traditionele cda-stemmers zijn vertrokken uit d… https://t.co/sxiqk9g5oh,neg
@mariannezw @markkoster de chaos na irak oorlog is grootste bedreiging van onze veiligheid. hebben cda en vvd zelf aan meegewerkt.,neg
|rt @drk75: het is niet mijn partij maar mensen: stem je in rotterdam cda of overweeg je dat, doe dat dan op @henribontenbal nummer 40. hij…|,neg
|rt @jamesljvr: @cdaamsterdam @diederikboomsma niet alleen gezinnen, ook één- persoonshuishoudens die met erfpacht geen hypotheek rond kunne…|,neg
|rt @mirjampool: het staat er echt.
de lijsttrekker van het #cda in #almelo zegt ‘jodenbod’. https://t.co/xguuedol8l|,neg
cda en 50plus laten zich door @sophieintveld niet geruststellen over gevaar van pepp voor nederlands pensioenstelse… https://t.co/mfqbmrxgtf,neg
|rt @vandijkene: het gezin de hoeksteen van de samenleving #cda maar gewortelde kinderen moeten weg
#kinderpardon #kinderrechten #ivrk https…|,neg
na afloop van een geslaagde avond @trouw in het land. @hugodejonge @cdavandaag #trouw75 #trouw #cda https://t.co/h4ambuv9aq,neg
rt @erfpacht_seba: @stoperfpacht @chrisaalberts @tponl @fvdemocratie @ananninga @cdaamsterdam .@cdaamsterdam is sinds jaar en dag voor afsc…,neg
rt @pieteromtzigt: de gemeenteraad van amsterdam verhindert dus door cda gevraagd debat over het vernietigende rapport over de ‘deradicalis…,neg
kandidaat-raadslid cda raalte trekt zich terug om sexting https://t.co/wpvcsy1cqc #rtlnieuws,neg
|@jndkgrf @diggrich_ @d66 @pvda @groenlinks @cda pvda tweemaal genoemd. die wou je echt niet vergeten, jan :)|,neg
|rt @janwbakkernl: een aantal landelijke politici hebben al gestemd, zoals geert wilders in duindorp. 
#duindorp #vvd #pvv #cda #christenuni…|,neg
|rt @jocelynjefjoc: @sandraspanjaard @erfpacht_seba ieder door gemeente zelf verzonnen %  is idioot, oneigenlijk en onbillijk. #stemcda . ho…|,neg
|rt @chrisaalberts: veelzeggend. &gt;&gt; alleen d66, cda en denk willen eu-nepnieuwsbureau eu vs disinfo behouden https://t.co/fnswzif55m via @tp…|,neg
rt @fatimafaid: nou zegt het @cdadenhaag weer dat de arme te veel ondersteunt worden. nou dan zullen ze dit ook echt menen.  "het cda wil s…,neg
rt @estherouwehand: cda schrapte verbinding oostvaardersplassen met oostvaarderswold. toen wilde staatsbosbeheer ‘m zelf aanleggen. cda ver…,neg
rt @estherouwehand: cda schrapte verbinding oostvaardersplassen met oostvaarderswold. toen wilde staatsbosbeheer ‘m zelf aanleggen. cda ver…,neg
|rt @bonzqi_ld: stel je voor hè, dat nederland een regering krijgt gevormd door de pvv, fvd, cda en vvd en je biedt hen 'de sleepwet' als sp…|,neg
rt @cdavisies: hoe zet het cda lokaal in op rentmeesterschap? analyse van verkiezingsprogramma's https://t.co/3bbcpszv2r https://t.co/oc8df…,neg
rt @thomasdamsko: dit is creatief knippen. direct hierna wordt hij gecorrigeerd omdat hij liegt. fake news cda https://t.co/ukgcetj4ho,neg
|gemeente berkelland is terug in de jaren '90. cda by far de grootste partij. verder: d66 (kleurrijke, populaire lij… https://t.co/nxmjgvrepp|,neg
rt @wltrrr: laat het kweken van vreemdelingenhaat en dwang-assimilatie maar aan het cda over. @c_eskes https://t.co/drxaxxdbah,neg
rt @franzlenselink: buma cda legt met een stalen gezicht uit dat politiebureaus worden gesloten zodat er meer politie op straat komt. 😳 htt…,neg
@ziekgeest klopt het cda is populistisch. *kotst mee* https://t.co/zlevtoi6fl,neg
#cda wil een eigen haagse grachtengordel https://t.co/nf7cuzqzd9 #amsterdam,neg
|rt @netevenleuker: reactie #cda op stelling 3 "bezoekers aan rand laten parkeren, bewoners/mantelzorgers etc. moeten met de auto kunnen kom…|,neg
|rt @faunabeschermin: er was 20 jaar aan gewerkt en dit jaar zou de #ehs af zijn, maar bleker van #cda gebruikte natuurgrond liever voor lan…|,neg
rt @partijvddieren: tubbergen de veiligste gemeente van nederland? 🤔 na het kijken van deze video denk je daar wel anders over 👇  #cda #gr2…,neg
rt @_mikemuller: cda mag niet spreken over radicaliseringsbeleid https://t.co/0jvrcbmbhb via @telegraaf,neg
rt @ytekedejong: @bowinemichel @erfpachtinfo @marjoleinmoor ik verwacht een 'land-slide' @cdaamsterdam,neg
|op lokaal niveau ga ik waarschijnlijk cda stemmen. ja, echt waar. de lokale vvd heeft weer enge plannen, die keihar… https://t.co/lgl96ohwm7|,neg
|rt @gijsverbraak: felicitaties aan @markrutte, @vvd @d66 @cda @christenunie voor het duurste banenplan ooit in nederland. het 'behoud' van…|,neg
cda wil beginnende huisartsen naar buitengebieden lokken: coalitiepartij cda wil dat minister bruno bruins van medi… https://t.co/rsxopc1tqg,neg
|rt @rwgriffioen: @groenlinks020 @rutgergw met van poelgeest in het geheugen wordt het cda en tegen de sleepwet, jawel.|,neg
|na de #pvda nu het #cda de sjaak. het heeft de pvda en wim kok nog jaren achtervolgd, benieuwd hoe dit nu voor de c… https://t.co/qmhnjkh4kc|,neg
@jaapeden @d66amsterdam @vvdamsterdam @groenlinks020 @pvddamsterdam @cdaamsterdam @sp_amsterdam @gemeenteraad020 da… https://t.co/m8ud2r1gre,neg
zelfs op de piano klinkt cda vals! jules de corte,neg
rt @estherouwehand: cda schrapte verbinding oostvaardersplassen met oostvaarderswold. toen wilde staatsbosbeheer ‘m zelf aanleggen. cda ver…,neg
rt @pieteromtzigt: de gemeenteraad van amsterdam verhindert dus door cda gevraagd debat over het vernietigende rapport over de ‘deradicalis…,neg
rt @estherouwehand: cda schrapte verbinding oostvaardersplassen met oostvaarderswold. toen wilde staatsbosbeheer ‘m zelf aanleggen. cda ver…,neg
|rt @hulswood: "eu-steun van € 1 miljard aan oekraïne".
....ons belastinggeld regelrecht naar corrupte elite! vooral vvd cda d66 gl pvda cu…|,neg
|rt @percolator_hnj: ik heb bij #gr2018 de keuze uit de volgende partijen:
🔸 vvd
🔸 pvda
🔸 cda
🔸 christenunie
🔸 sgp
🔸 jezus leeft

lucky me!|,neg
rt @stoperfpacht: @erfpacht_seba @ananninga @chrisaalberts @tponl @fvdemocratie @cdaamsterdam @vvdamsterdam @d66amsterdam .@pvddamsterdam g…,neg
|rt @stopcensuur: vergeet niet bij deze partijen uw lidmaatschap op te zeggen.

vvd lidmaatschap opzeggen: https://t.co/b3rr4w3azw

cda lidm…|,neg
|rt @huubbellemakers: dit is een.bondgenoot van het cda
....... https://t.co/o9ko4zsy0m|,neg
rt @brendadekort68: #buitenhof pieter jan haegens heeft het er nooit over dat het cda geïnspireerd is door christendom dat strikt genomen o…,neg
|rt @mcouzy: eerste voorlopige uitslag vanuit stopera: 
gl: 11
d66:9
pvda: 4
vvd 7
sp 3
pvdd 3
cda 2
pvdo 1
bij1 0
denk 2
fvd: 3|,neg
rt @bowinemichel: @respect_4life @cdaamsterdam in amsterdam zijn erfpachters ondervertegenwoordigd in de peilingen die worden uitgevoerd bi…,neg
rt @fatimafaid: nou zegt het @cdadenhaag weer dat de arme te veel ondersteunt worden. nou dan zullen ze dit ook echt menen.  "het cda wil s…,neg
|het failliet van de lokale democratie , dat niet wil praten over ernstige misstanden @amsterdamnl #vvd #cda mag nie… https://t.co/roszfyetpk|,neg
|rt @stopcensuur: vergeet niet bij deze partijen uw lidmaatschap op te zeggen.

vvd lidmaatschap opzeggen: https://t.co/b3rr4w3azw

cda lidm…|,neg
rt @estherouwehand: cda schrapte verbinding oostvaardersplassen met oostvaarderswold. toen wilde staatsbosbeheer ‘m zelf aanleggen. cda ver…,neg
rt @martienpennings: in de laatste raadsvergadering . . .  wilde diederik boomsma van het cda een kritisch rapport over het deradicaliserin…,neg
rt @erfpacht_seba: na pvdd en pvdo schaart nu ook fvd zich achter het cda plan voor betaalbare erfpacht. afgekocht = afgekocht.... https://…,neg
buma zou zijn partij in amsterdam helpen wanneer hij nadrukkelijker over de nivellering als gevolg van erfpacht zou praten. #nieuwsuur #cda,neg
|rt @hulswood: "eu-steun van € 1 miljard aan oekraïne".
....ons belastinggeld regelrecht naar corrupte elite! vooral vvd cda d66 gl pvda cu…|,neg
rt @carelbrendel: hoe ver reikt lange arm van erdogan? https://t.co/7ckldfyquk via @telegraaf haags cda op stemmenjacht met akp-aanhanger.,neg
|rt @lith56: @cdaamsterdam @cdavandaag bestaat er überhaupt iets als "eerlijke erfpacht" ?? ja, die bestaat, nl. gÉÉn erfpacht.|,neg
rt @huijgena: @elsphi fvd?! cda is 1 ding; openlijk racistisch extreemrechts is iets heel anders. bekijk het stemgedrag eens in tweede kame…,neg
rt @estherouwehand: cda schrapte verbinding oostvaardersplassen met oostvaarderswold. toen wilde staatsbosbeheer ‘m zelf aanleggen. cda ver…,neg
@marijnissenl alleen stemgedrag telt. cda valt door de mand. https://t.co/jcohyebyxx,neg
rt @_mikemuller: cda mag niet spreken over radicaliseringsbeleid https://t.co/0jvrcbmbhb via @telegraaf,neg
rt @carelbrendel: cda mag niet spreken over radicaliseringsbeleid https://t.co/kznrff46xs via @telegraaf #stemboomsmacda,neg
de pvda zou zich moeten richten op de conservatieve linkse kiezer. tussen groenlinks en cda in. daar haal je geen 3… https://t.co/lv5sfy2nsl,neg
|rt @pieteromtzigt: cda mag niet spreken over radicaliseringsbeleid in amsterdam want “overige partijen vinden dat niet nodig.”

https://t.c…|,neg
|rt @sigilux: cda: wilders, maar dan anders. via @cdavandaag @sybrandbuma #cda #gr2018 https://t.co/oqrm3xcbcx|,neg
rt @estherouwehand: cda schrapte verbinding oostvaardersplassen met oostvaarderswold. toen wilde staatsbosbeheer ‘m zelf aanleggen. cda ver…,neg
rt @edwin_koning: @fokkem_doodle @loulewinskyamst @hannesz1956 @marijnissenl @cda @d66 @vvd jij begrijpt er dus geen hol van #helder,neg
|rt @pieteromtzigt: cda mag niet spreken over radicaliseringsbeleid in amsterdam want “overige partijen vinden dat niet nodig.”

https://t.c…|,neg
|rt @sigilux: hey die nepnieuwsverspreider omtzigt is ook al getrouwd met een turkse, die ook bij cda zit. https://t.co/tvo5g2fwpy|,neg
|rt @jamesljvr: @cdaamsterdam @diederikboomsma niet alleen gezinnen, ook één- persoonshuishoudens die met erfpacht geen hypotheek rond kunne…|,neg
|rt @donceder: het cda 010 wil dat in kerken alleen in het nl wordt gepredikt. wat een onzin. aan alle engelse, franse, spaanse, arabische,…|,neg
rt @estherouwehand: cda schrapte verbinding oostvaardersplassen met oostvaarderswold. toen wilde staatsbosbeheer ‘m zelf aanleggen. cda ver…,neg
rt @pcimeijer: het cda van  @sybrandbuma roept landelijk op tot het verplichten van het nl volkslied op basisscholen en strengere integrati…,neg
rt @kemalrijken: @paulvdbas @joyceheijningen @uri4u @loorschrijft @lodewijka @pvda_amsterdam @d66amsterdam @cdaamsterdam @sp_amsterdam @gro…,neg
|rt @faunabeschermin: er was 20 jaar aan gewerkt en dit jaar zou de #ehs af zijn, maar bleker van #cda gebruikte natuurgrond liever voor lan…|,neg
|rt @apooh2310: @erfpacht_seba @jeroenwielens bij cda is eerlijk-erfpacht-verhaal geloofwaardig, probleem echter is dat er maar 1 (zeer besc…|,neg
@thomasdijkman ik weet 't niet man. hahah cda kwam uit wijzertje...hmmm,neg
|rt @faunabeschermin: er was 20 jaar aan gewerkt en dit jaar zou de #ehs af zijn, maar bleker van #cda gebruikte natuurgrond liever voor lan…|,neg
|rt @bonzqi_ld: stel je voor hè, dat nederland een regering krijgt gevormd door de pvv, fvd, cda en vvd en je biedt hen 'de sleepwet' als sp…|,neg
|rt @chrisaalberts: veelzeggend. &gt;&gt; alleen d66, cda en denk willen eu-nepnieuwsbureau eu vs disinfo behouden https://t.co/fnswzif55m via @tp…|,neg
@drukketoestand @estherplus @pvddamsterdam @vvdamsterdam @cdaamsterdam @diederikboomsma er is er toch maar één?,neg
|rt @kajleers: #cda rotterdam opent aanval op kerken waar latijn gesproken wordt tijdens de mis. wat een tijden, mensen. #gr2018 https://t.c…|,neg
rt @estherouwehand: cda schrapte verbinding oostvaardersplassen met oostvaarderswold. toen wilde staatsbosbeheer ‘m zelf aanleggen. cda ver…,neg
en daar zijn ze: de kamervragen van cda en vvd over de schimmige constructies met de privé-bv's van jos de… https://t.co/hwvb5mwwnm #rtlz,neg
rt @pieteromtzigt: de gemeenteraad van amsterdam verhindert dus door cda gevraagd debat over het vernietigende rapport over de ‘deradicalis…,neg
rt @estherouwehand: cda schrapte verbinding oostvaardersplassen met oostvaarderswold. toen wilde staatsbosbeheer ‘m zelf aanleggen. cda ver…,neg
rt @laurens_degroot: is het #cda nu zo huiverig geworden voor groeiend verzet tegen de #bioindustrie dat ze het op de man gaan spelen? de b…,neg
|rt @ytekedejong: het failliet van de lokale democratie , dat niet wil praten over ernstige misstanden @amsterdamnl #vvd #cda mag niet sprek…|,neg
|rt @fritstenhove: ga stemmen bij het referendum over de sleepwet!

maar vraag u wel af, waarom partijen als #vvd #d66 #cda #cu e.a. wel all…|,neg
|dat #denk tegenstemt ligt voor de hand (“trap er niet in!!!”), maar dat het #cda en #d66 niet meer voor vrije pers… https://t.co/jzkzxbxrga|,neg
den haag (anp) - pvda en cda willen dat er einde komt aan de intimidatie op straat van vrouwen en homo's… https://t.co/qigi52pnzc #homo,neg
rt @aljezandt: cda wil binnen drie jaar daling van ammoniak in overijsselse natuurgebieden zien - #rtvoost https://t.co/s7iw86loq5,neg
|rt @mirjampool: het staat er echt.
de lijsttrekker van het #cda in #almelo zegt ‘jodenbod’. https://t.co/xguuedol8l|,neg
@mcleaver @erfpachtpartij dit debat was niet door groenlinks georganiseerd. 6 partijen waren uitgenodigd/ aanwezig. cda niet inderdaad.,neg
rt @koekebakker: @timothyvana @roosvonk @partijvddieren @estherouwehand ik kan me zelfs herinneren dat er een cda minister was die dit maar…,neg
|rt @ziklies: @mirjamdj ik ken dat gevoel, heb ook nog nooit cda gestemd. maar locaal is heel anders dan landelijk en ik heb diederick leren…|,neg
|de laatste landelijke verkiezingscampagne van het cda was een aaneenschakeling van ophitsing, uitsluiting, discrimi… https://t.co/g2boa1wmcf|,neg
|rt @faunabeschermin: er was 20 jaar aan gewerkt en dit jaar zou de #ehs af zijn, maar bleker van #cda gebruikte natuurgrond liever voor lan…|,neg
rt @pieteromtzigt: de gemeenteraad van amsterdam verhindert dus door cda gevraagd debat over het vernietigende rapport over de ‘deradicalis…,neg
rt @atak1982: racisme is traditie... volgens het cda dan... prima! waarvan akte! https://t.co/odgqalgvls,neg
|@binnertdeb @kevinlevie ja, maar bij vvd en cda zat het in het dna. pvda had het moeten tegenhouden. door dat niet… https://t.co/bc5ioc83qp|,neg
@helenedebruine @pvda_amsterdam @groenlinks020 @d66amsterdam @cdaamsterdam @sp_amsterdam @christenunie020… https://t.co/oitjmd5gpl,neg
|rt @bmijland: vreselijk, pjh in #buitenhof over @nidarotterdam doet alsof het een conservatieve partij als cda of sgp is. ik zou als homose…|,neg
@lipjevandeluier @cdaamsterdam nou de wallen mogen wel vrouwvriendelijker en minder pretpark.,neg
|rt @gijs19054075: https://t.co/gouy2bed87   tja,ons links verziekte #onderwijs hier de #feiten #d66 #vvd #pvv #cda #groenlinks #fvdamsterda…|,neg
@cdaamsterdam gaat @cdaamsterdam nu niet in tegen het landelijk @cdavandaag beleid? zoals getoond bij de stemming o… https://t.co/vellbzdwlb,neg
rt @stoperfpacht: @erfpacht_seba @ananninga @chrisaalberts @tponl @fvdemocratie @cdaamsterdam @vvdamsterdam @d66amsterdam .@pvddamsterdam g…,neg
|rt @ziklies: @mirjamdj ik ken dat gevoel, heb ook nog nooit cda gestemd. maar locaal is heel anders dan landelijk en ik heb diederick leren…|,neg
rt @volgzwijn: hongerige dieren in oostvaardersplassen zijn het resultaat van welbewust cda beleid om natuurontwikkeling te saboteren https…,neg
@advocaatsmeets @irenehemelaar @vvdamsterdam @marijkeshahsava @cdaamsterdam @amsterdamnl @ahmedmarcouch @lodewijka… https://t.co/l7zyckmulb,neg
rt @estherouwehand: cda schrapte verbinding oostvaardersplassen met oostvaarderswold. toen wilde staatsbosbeheer ‘m zelf aanleggen. cda ver…,neg
helemaal mee eens.. de boer is de dupe van beleid #cda .. iedereen even stemmen tegen de mega stallen? https://t.co/u3tzmijp23,neg
rt @respect_4life: cda wil dat brussel ingrijpt in #oostvaardersplassen https://t.co/zj5sddy4pk,neg
|@cdavandaag kijk, en opeens heb ik ook nog eens last van een idioot campagneteam van het @cda dat op elk twitterber… https://t.co/i437renxeo|,neg
rt @pieteromtzigt: de gemeenteraad van amsterdam verhindert dus door cda gevraagd debat over het vernietigende rapport over de ‘deradicalis…,neg
@ericahennekes @ps_flevoland @partijvddieren cda is de oorzaak dat de dieren daar niet weg kunnen. cdaer bleker hee… https://t.co/oe9lvvhzdb,neg
rt @thomasdamsko: cda claimt dat de helft van de vrouwen onvrijwillig werken als sekswerkers.,neg
rt @estherouwehand: cda schrapte verbinding oostvaardersplassen met oostvaarderswold. toen wilde staatsbosbeheer ‘m zelf aanleggen. cda ver…,neg
|rt @pieteromtzigt: cda mag niet spreken over radicaliseringsbeleid in amsterdam want “overige partijen vinden dat niet nodig.”

https://t.c…|,neg
|rt @susannedrvz: @cdaamsterdam wanneer het cda heel veel stemmen krijgt, zullen die a’damse politici wel moeten!|,neg
|rt @reinier63: #d66 maakt #fvd groter dan deze partij is https://t.co/3re2hesw0a 
 de #cda #pvda #pvv #vvd @groenlinks worden er niet vroli…|,neg
|rt @swsjoerdsma: peiling eenvandaag:
d66 2e partij

vvd 32
d66 16
cda 16
pvv 16
gl    14
sp    13
fvd   9
pvda 8
pvdd 7
50+   7
cu    6
sgp…|,neg
|rt @bmijland: vreselijk, pjh in #buitenhof over @nidarotterdam doet alsof het een conservatieve partij als cda of sgp is. ik zou als homose…|,neg
@jeroenvdberg10 @baspaternotte @cda @d66 @kajsaollongren @vvd @minpres jij hebt het over de “veroorzakers van de mh… https://t.co/jonhudxopz,neg
|rt @ronnynaftaniel: vvd, cda en sgp stellen kamervragen over de verhoging van de palestijnse uitkeringen aan gevangen terroristen. ze wille…|,neg
|rt @faunabeschermin: er was 20 jaar aan gewerkt en dit jaar zou de #ehs af zijn, maar bleker van #cda gebruikte natuurgrond liever voor lan…|,neg
|rt @mcouzy: eerste voorlopige uitslag vanuit stopera: 
gl: 11
d66:9
pvda: 4
vvd 7
sp 3
pvdd 3
cda 2
pvdo 1
bij1 0
denk 2
fvd: 3|,neg
|rt @slechtvolk: stem de antireferenda- en regeringspartijen #vvd #cda #cu en #d66 weg. stem #fvd, #pvv of stem lokaal. 
#stemzeweg https://…|,neg
rt @estherouwehand: cda schrapte verbinding oostvaardersplassen met oostvaarderswold. toen wilde staatsbosbeheer ‘m zelf aanleggen. cda ver…,neg
|rt @niekwijmenga: zo ov-debat, zin in! cda wil:

→ minder consultants, managers en topsalarissen bij gvb
→ dividend-miljoenen terug naar ov…|,neg
rt @descheveninger: cda wil betaalbare woningen op terrein scheveningse gevangenis #scheveningen @cdadenhaag https://t.co/vj1ggytpam,neg
@uri4u @loorschrijft @lodewijka @paulvdbas @pvda_amsterdam @d66amsterdam @cdaamsterdam @sp_amsterdam @groenlinks020… https://t.co/rkmeogw0q2,neg
|knap dat @pvda @d66 @vvd @cda een land als nederland in zo'n korte tijd naar de rand van de afgrond kunnen brengen.

 #complimentendag|,neg
|rt @hulswood: "eu-steun van € 1 miljard aan oekraïne".
....ons belastinggeld regelrecht naar corrupte elite! vooral vvd cda d66 gl pvda cu…|,neg
|@stephankuik @therebelthepoet @cdavandaag helaas kan ik je niet vertellen waar het cda  was. vvd was genodigd, maar… https://t.co/rdfope28fx|,neg
|rt @mcouzy: eerste voorlopige uitslag vanuit stopera: 
gl: 11
d66:9
pvda: 4
vvd 7
sp 3
pvdd 3
cda 2
pvdo 1
bij1 0
denk 2
fvd: 3|,neg
|rt @stoperfpacht: @erfpacht_seba pvdd schaart zich in beperkte mate achter cda plan, wil tot maximaal 50% hogere lasten. echt jammer @pvdda…|,neg
rt @kemalrijken: @paulvdbas @joyceheijningen @uri4u @loorschrijft @lodewijka @pvda_amsterdam @d66amsterdam @cdaamsterdam @sp_amsterdam @gro…,neg
rt @estherouwehand: cda schrapte verbinding oostvaardersplassen met oostvaarderswold. toen wilde staatsbosbeheer ‘m zelf aanleggen. cda ver…,neg
rt @juandixq: het is niet alleen door woeker #erfpacht dat ik op @cdaamsterdam @erfpachtpartij gaat stemmen gelukkig https://t.co/itvvjpzlqo,neg
|rt @christendenk: @eduard_mangal de coalitiepartijen vvd, cda en cu stemden tegen de motie van denk om geld vanuit het buitenland naar poli…|,neg
rt @f_azarkan: het @cda heeft een zusterpartij in turkije. ben benieuwd of @sybrandbuma dat tolereert. @cdavandaag https://t.co/ianeti3lv3,neg
ondertussen zorgden #cda en #vvd ook nog voor een flink begrotingstekort. en de #pvda maar de schuld in de schoenen… https://t.co/fevnu6mzhw,neg
|rt @mcouzy: laatste uitslag vd avond :
gl 10
d66 8
vvd 6
pvda 5
pvdd 3
sp 3
denk 3
fvd 3
cda 1
cu 1
bij1 1
partij vd ouderen 1|,neg
rt @pieteromtzigt: de gemeenteraad van amsterdam verhindert dus door cda gevraagd debat over het vernietigende rapport over de ‘deradicalis…,neg
|#dividentbelasting rutte tegen klaver: ‘ denkt u nou werkelijk dat d66, cu, cda en vvd dit afgesproken hadden als h… https://t.co/w3yeodowai|,neg
|rt @ytekedejong: het failliet van de lokale democratie , dat niet wil praten over ernstige misstanden @amsterdamnl #vvd #cda mag niet sprek…|,neg
|rt @geertvdvarst: deze maand gaan d66, cu, vvd en cda onderhandelen over de voorjaarsnota en wordt er opnieuw geld verdeeld. @lodewijka: "e…|,neg
rt @pieteromtzigt: de gemeenteraad van amsterdam verhindert dus door cda gevraagd debat over het vernietigende rapport over de ‘deradicalis…,neg
rt @estherouwehand: cda schrapte verbinding oostvaardersplassen met oostvaarderswold. toen wilde staatsbosbeheer ‘m zelf aanleggen. cda ver…,neg
|rt @toekomst4: #nosdebat, #gr18, nederland een #democratie.? door meerder partijen, met #cda (#cu en #vvd) wordt normering #hormonen in ned…|,neg
|rt @susannedrvz: @cdaamsterdam wanneer het cda heel veel stemmen krijgt, zullen die a’damse politici wel moeten!|,neg
rt @erfpacht_seba: @ananninga @stoperfpacht @chrisaalberts @tponl @fvdemocratie @cdaamsterdam @vvdamsterdam @d66amsterdam zo moeilijk is he…,neg
|rt @bmijland: vreselijk, pjh in #buitenhof over @nidarotterdam doet alsof het een conservatieve partij als cda of sgp is. ik zou als homose…|,neg
|@erfpacht_seba @jeroenwielens bij cda is eerlijk-erfpacht-verhaal geloofwaardig, probleem echter is dat er maar 1 (… https://t.co/idizkft21v|,neg
|rt @mcouzy: eerste voorlopige uitslag vanuit stopera: 
gl: 11
d66:9
pvda: 4
vvd 7
sp 3
pvdd 3
cda 2
pvdo 1
bij1 0
denk 2
fvd: 3|,neg
|rt @tomlouwerse: "vooral de lokale partijen profiteren van verlies cda in baarle-nassau" ja, er zijn voor de rest alleen maar lokale partij…|,neg
rt @mayonaise100: @jacquelinewxxx @mcleaver tijdens de verkiezingen raakte ik gecharmeerd van de kritische noten die het cda tentoonspreidd…,neg
rt @okkingaj: @rolfuhlhorn @juandixq @lotte_schipper die bezwaren tegen cda heb ik ook. maar ik ga dit keer toch @diederikboomsma  stemmen.…,neg
rt @annexum_huib: @diederikboomsma van het #cda zegt terecht dat er een nieuwe oplossing moet komen voor afkoop erfpacht. nu is de regeling…,neg
|rt @jackmarsman: mensen die op #cda #d66 #vvd #pvda #groenlinks #cu #sp stemmen, zijn net als de mensen die op de #nsb stemden. deze partij…|,neg
die hollandse argwaan tegenover het latijnse europa: zou dat komen doordat het cda geen katholieke kopstukken meer… https://t.co/jv1zfbghs4,neg
rt @pieteromtzigt: de gemeenteraad van amsterdam verhindert dus door cda gevraagd debat over het vernietigende rapport over de ‘deradicalis…,neg
rt @hofmees: ondertussen zorgden #cda en #vvd ook nog voor een flink begrotingstekort. en de #pvda maar de schuld in de schoenen schuiven v…,neg
#homofilie is een #ziekte. #homo's moeten verplicht #dwangverpleging. het is een #kwaal die gelijk is aan #naaktlopen en #pedofilie. // #cda,neg
rt @atak1982: racisme is traditie... volgens het cda dan... prima! waarvan akte! https://t.co/odgqalgvls,neg
|rt @mirjampool: het staat er echt.
de lijsttrekker van het #cda in #almelo zegt ‘jodenbod’. https://t.co/xguuedol8l|,neg
rt @erfpacht_seba: erfpachters stemmen dit keer cda https://t.co/cvmuq2tyak,neg
rt @ytekedejong: @bowinemichel @erfpachtinfo @marjoleinmoor ik verwacht een 'land-slide' @cdaamsterdam,neg
|sekswerkers over de leugens van cda en christenunie over de wallen: https://t.co/b4ese1vzt5 || #sekswerk #gr2018
"al… https://t.co/mquuysx3fe|,neg
rt @fd_pensioen: cda en 50plus laten zich door @sophieintveld niet geruststellen over gevaar van pepp voor nederlands pensioenstelsel https…,neg
rt @hendrom: wat een trieste symboolpolitiek van het cda weer. volstrekt eens met @meilivos : een nogal domme "handreiking naar de conserva…,neg
|rt @pieteromtzigt: cda mag niet spreken over radicaliseringsbeleid in amsterdam want “overige partijen vinden dat niet nodig.”

https://t.c…|,neg
|rt @mcouzy: eerste voorlopige uitslag vanuit stopera: 
gl: 11
d66:9
pvda: 4
vvd 7
sp 3
pvdd 3
cda 2
pvdo 1
bij1 0
denk 2
fvd: 3|,neg
rt @okkingaj: @rolfuhlhorn @juandixq @lotte_schipper die bezwaren tegen cda heb ik ook. maar ik ga dit keer toch @diederikboomsma  stemmen.…,neg
rt @janhoedeman: wie is toch die man achter de kapstok op #cda partijbureau? https://t.co/bjedrxecma,neg
cda wil versterking lokale media https://t.co/pzqd8wqdqe https://t.co/prslpzpns3,neg
|rt @mirjampool: het staat er echt.
de lijsttrekker van het #cda in #almelo zegt ‘jodenbod’. https://t.co/xguuedol8l|,neg
|rt @swsjoerdsma: peiling eenvandaag:
d66 2e partij

vvd 32
d66 16
cda 16
pvv 16
gl    14
sp    13
fvd   9
pvda 8
pvdd 7
50+   7
cu    6
sgp…|,neg
rt @estherouwehand: cda schrapte verbinding oostvaardersplassen met oostvaarderswold. toen wilde staatsbosbeheer ‘m zelf aanleggen. cda ver…,neg
|rt @defencechildren: lokale fracties christenunie, cda en d66 zijn motoren achter pleidooi voor verruiming kinderpardon. een duidelijke opr…|,neg
rt @annexum_huib: @diederikboomsma van het #cda zegt terecht dat er een nieuwe oplossing moet komen voor afkoop erfpacht. nu is de regeling…,neg
rt @erfpachtinfo: @paulslettenhaar je ontkomt dan overigens niet aan de conclusie dat @diederikboomsma @cdaamsterdam meeste kennis en beste…,neg
rt @deprikbal: #buma #cda liet even zn ware aard zien mbt referendum . uitslag/mening vh spruitjesvolk intereseert hem werkelijk niks #dram…,neg
|rt @bonzqi_ld: stel je voor hè, dat nederland een regering krijgt gevormd door de pvv, fvd, cda en vvd en je biedt hen 'de sleepwet' als sp…|,neg
|rt @hoogoverijssel: alleen pvda, cda en vvd zijn in dronten vóór uitbreiding van vliegveld lelystad - kieswijzer lelystad airport voor inwo…|,neg
|rt @svenstweet: op de ene dag zegt buma dat het cda meer op gaat komen voor degenen die zich gekwetst of beledigd voelen.

op de andere dag…|,neg
|rt @dirrux: kwam net minister de jongh van cda tegen. liet hem deze mand zien, 1,5 km amsterdam. vroeg hem of hij voor #statiegeld is. hij…|,neg
rt @estherouwehand: cda schrapte verbinding oostvaardersplassen met oostvaarderswold. toen wilde staatsbosbeheer ‘m zelf aanleggen. cda ver…,neg
rt @_mikemuller: cda mag niet spreken over radicaliseringsbeleid https://t.co/0jvrcbmbhb via @telegraaf,neg
hoe zet het cda lokaal in op rentmeesterschap? analyse van verkiezingsprogramma's https://t.co/uiqsrjplau https://t.co/kmsz60kmqb,neg
rt @driessewout: maar criminele mocrobendes? dan kijken we weg. #cda https://t.co/0s5xbkb9br,neg
rt @estherouwehand: cda schrapte verbinding oostvaardersplassen met oostvaarderswold. toen wilde staatsbosbeheer ‘m zelf aanleggen. cda ver…,neg
|ah ja, na vvd gaat nu cda ook vol op de identiteitspolitiek in aanloop gemeenteraadsverkiezingen.

tldr:
zwarte pie… https://t.co/7ivrfv51zx|,neg
rt @cdaamsterdam: landelijk cda voorzitter @ruthpeetoom kwam @diederikboomsma vandaag ondersteunen tijdens de laatste campagnedagen. er zij…,neg
rt @ziklies: @vvdzuid @paulslettenhaar @erfpachtpartij begrijp ik nu dat @vvdzuid aanbeveelt om dit keer maar op @cdaamsterdam te gaan stem…,neg
|rt @mcouzy: eerste voorlopige uitslag vanuit stopera: 
gl: 11
d66:9
pvda: 4
vvd 7
sp 3
pvdd 3
cda 2
pvdo 1
bij1 0
denk 2
fvd: 3|,neg
het is maar dat u weet wie u de mond willen snoeren.. @d66 #cda @denknl #stemlijst144 https://t.co/phmcf3ccpa,neg
|rt @faunabeschermin: er was 20 jaar aan gewerkt en dit jaar zou de #ehs af zijn, maar bleker van #cda gebruikte natuurgrond liever voor lan…|,neg
|@cdaamsterdam @marchaverkamp priecies, zodat er nog meer import a'dammers binnenkomen. de echte amsterdammer is al… https://t.co/snzbdrwt5x|,neg
rt @pieteromtzigt: de gemeenteraad van amsterdam verhindert dus door cda gevraagd debat over het vernietigende rapport over de ‘deradicalis…,neg
|rt @netevenleuker: reactie #cda op stelling 3 "bezoekers aan rand laten parkeren, bewoners/mantelzorgers etc. moeten met de auto kunnen kom…|,neg
|rt @ytekedejong: het failliet van de lokale democratie , dat niet wil praten over ernstige misstanden @amsterdamnl #vvd #cda mag niet sprek…|,neg
he @keesvee. kun je mij en het cda nog een keer uitleggen waarom de sleepwet zo slecht is? iets met &lt;quote&gt; valse b… https://t.co/507ua8nnpr,neg
|rt @susannedrvz: @cdaamsterdam wanneer het cda heel veel stemmen krijgt, zullen die a’damse politici wel moeten!|,neg
|rt @cdavandaag: nog niet gestemd? je hebt nog minder dan 3 uur, zet ´m op! #ikstemcda #cda #gr18 https://t.co/mfqunn8izh|,neg
rt @pieteromtzigt: de gemeenteraad van amsterdam verhindert dus door cda gevraagd debat over het vernietigende rapport over de ‘deradicalis…,neg
|rt @nadiabouras: de laatste landelijke verkiezingscampagne van het cda was een aaneenschakeling van ophitsing, uitsluiting, discriminatie e…|,neg
|kan het cda brabant terugwinnen?

https://t.co/2lcwacusav https://t.co/0hn6frifcy|,neg
|rt @blaterrr: stukje uit trouw, 18 december 2011. de cda boeren zitten achter alle ellende in oostvaardersplassen. https://t.co/327povs2gb|,neg
rt @thomasdamsko: dit is creatief knippen. direct hierna wordt hij gecorrigeerd omdat hij liegt. fake news cda https://t.co/ukgcetj4ho,neg
rt @ziklies: @vvdzuid @paulslettenhaar @erfpachtpartij begrijp ik nu dat @vvdzuid aanbeveelt om dit keer maar op @cdaamsterdam te gaan stem…,neg
rt @shamayim2: (vanaf 0:27min) #pvda (nog steeds in denial?) vraagt #cda ‘wat is radicale islam?’ en blijft ‘thee drinken’ om #extremisme t…,neg
|rt @swsjoerdsma: peiling eenvandaag:
d66 2e partij

vvd 32
d66 16
cda 16
pvv 16
gl    14
sp    13
fvd   9
pvda 8
pvdd 7
50+   7
cu    6
sgp…|,neg
rt @bowinemichel: @respect_4life @cdaamsterdam in amsterdam zijn erfpachters ondervertegenwoordigd in de peilingen die worden uitgevoerd bi…,neg
