pvda en cda willen bescherming vrouwen en homo's op straat https://t.co/q3m9x8zwjs,pos
rt @cdaamsterdam: je betaalt hier in amsterdam veel te veel erfpacht. wat bespaar je met het cda plan? reken het zelf uit met onze rekentoo…,pos
rt @karstenklein: de supporters van ado weten het wel. alle ballen op de laatste man van het cda op 21 maart! #stemlexderaadin #adonac http…,pos
|rt @reinier63: steeds meer jonge rotterdammers dak- en thuisloos https://t.co/2cenayonar 
leefbaar vvd cda d66 zo goed gaat het niet in rot…|,pos
@estherplus @duurzaamag @groenlinks020 @pvddamsterdam @pvda_amsterdam @pvdo50up @cdaamsterdam @pp_amsterdam… https://t.co/1j5xothdcx,pos
rt @respect_4life: en zo is het: erfpachters stemmen @cdaamsterdam en mocht je daar wakker van liggen start dan de zelfhulptool: https://t.…,pos
rt @erfpacht_seba: huiseigenaren stemmen deze keer cda !!! eerlijke-erfpacht https://t.co/yuqeaxcymd,pos
|@golft_witter @gemdiemen nou..goed, goed... het cda scoorde weer hoger dan de seniorenpartijen en om nu te zeggen d… https://t.co/7obb3bimb3|,pos
@ronnieamsterdam @johnasvlammeren @diederikboomsma @pvddamsterdam @cdaamsterdam ik zeg niet dat ik het met al hun s… https://t.co/ckjhdj5tns,pos
|@erfpachtinfo lijst 7 plaats 8 @cdaamsterdam stem vandaag ! 
https://t.co/hibqghppmg|,pos
|rt @rolfuhlhorn: cda is voor mij nooit een optie wegens hun collectieve en het conservatieve, maar staat hoog in m'n aanzien. lijsttrekker…|,pos
|rt @bertsonneveld: samen met @dennisheij, vice-fractievoorzitter van het cda in de provinciale staten van noord-holland: "de provincie trek…|,pos
|amsterdam als stad van sex, drugs en nutella op de kaart zetten is niet goed 😂 zegt @diederikboomsma @cdaamsterdam #binnenstaddebat|,pos
1 jaar geleden heeft @dilanyesilgoz @vvdamsterdam dit (mede @marijkeshahsava @cdaamsterdam geïnitieerd) en geregeld… https://t.co/6vrwa3leoc,pos
rt @cdaamsterdam: amsterdam veilig houden doen we samen! @mvantoorenburg en cda amsterdam willen een nachtwacht. handhavers die laat actief…,pos
|lees of beluister mijn nieuwe @bnr-column:
verliest het cda ook zijn laatste zetel in amsterdam? het cda en de stad… https://t.co/xal2kuxayf|,pos
|rt @stoperfpacht: erfpachters in amsterdam stemmen op 21 maart in willekeurige volgorde: fvd, cda of pvdd. #gr2018 @fvdamsterdam @erfpachtp…|,pos
|uitzendinggemist didd 12 maart: https://t.co/gk7ncjhtzf cda in tilburg met de ridder, buma en grapperhaus over wiet… https://t.co/nb036gdwpi|,pos
|beste @amsterdamnl,

zowel de #sp #pvda als #cda heeft bij mij ongeadresseerde post in de brievenbus gedaan. vind i… https://t.co/jwcngilnw9|,pos
rt @roelofbouwman: zo voerden twee voorlopers van het cda campagne bij de amsterdamse gemeenteraadsverkiezingen van 1949. @cdaamsterdam @di…,pos
|natuurlijk is dit feitelijk gericht tegen moslims. en cda rotterdam is te laf om dat hardop te zeggen.
we horen je… https://t.co/vl9fkgxrkb|,pos
|rt @jocelynjefjoc: stem gl/pvda/ sp als je dolgraag je erfpacht en bijbehorende ridicule verhogingen wil houden.. zo niet, stem je cda ( of…|,pos
rt @cdaamsterdam: je betaalt hier in amsterdam veel te veel erfpacht. wat bespaar je met het cda plan? reken het zelf uit met onze rekentoo…,pos
rt @cdaamsterdam: het cda gaat de zalen in! koen de lange heeft vanavond 60 mensen bij elkaar bij informatieavond over #erfpacht in de bell…,pos
|rt @rwgriffioen: @d66amsterdam @ilanarooderkerk nee, cda ga ik stemmen ivm betaalbaar wonen|,pos
rt @cdaamsterdam: cda amsterdam doet mee met het #stadsmanifestcda! samen met de andere grote steden willen we ons inzetten voor betaalbaar…,pos
raadslid cda raalte zegt sorry voor sexting https://t.co/s9o0pdrzep https://t.co/daakd4kxzd,pos
rt @karelrosman: cda-prominent maria van der hoeven zei bijvoorbeeld in 2001 het homohuwelijk 'als mens' niet te accepteren. het cda weiger…,pos
rt @cocnederland: ‘stel straatintimidatie lhbti’s en vrouwen strafbaar’ - cda en pvda hebben vandaag een initiatiefwetsvoorstel... https://…,pos
rt @estherouwehand: en nu roept cda dus dat brussel moet ingrijpen. om de natuurdoelen te halen die ze zélf de nek om hebben gedraaid. ik h…,pos
|rt @vvab_officieel: goed nieuws! groenlinks, sp, pvda en cda nemen motie aan tegen bewegende reclame op mupi’s (digitale reclamezuilen). ht…|,pos
rt @erfpacht_seba: huiseigenaren stemmen deze keer cda !!! eerlijke-erfpacht https://t.co/yuqeaxcymd,pos
#maidenspeech in de tweede kamer van cda collega @poortvli. mocht ik mooi vanuit de voorzittersstoel plaatjes schie… https://t.co/ma0fmaieoo,pos
|@cdaamsterdam welk woord op mijn nee-nee sticker begrijpen jullie niet? ik vrees het woord nee.
goed, dat is dan me… https://t.co/rpuuik4hhh|,pos
rt @cdaamsterdam: je betaalt hier in #amsterdam veel te veel erfpacht. oneerlijk! wat bespaar je met het cda plan? reken het zelf uit met o…,pos
rt @cdaamsterdam: je betaalt hier in amsterdam veel te veel erfpacht. oneerlijk! wat bespaar je met het cda plan? reken het zelf uit met on…,pos
|rt @hva: morgen groot #hva #verkiezingsdebat @floorhva. lijsttrekkers #d66, #vvd, #pvda, #groenlinks, #sp, #denk, #fvd en #cda zullen oa re…|,pos
|goed werken voor iedereen || cda nederweert: we denken liever in oplossingen dan in… https://t.co/qbqcwrvsie #zzp|,pos
@ericchendriks @diederikboomsma @cdaamsterdam @telegraaf nog veel erger: ook de journalist die hierover schreef wer… https://t.co/vcoyih7yfa,pos
rt @bobmaasnl: in amsterdam zijn @johnasvlammeren en @diederikboomsma van de eenmansfracties @pvddamsterdam en @cdaamsterdam misschien wel…,pos
rt @cdaamsterdam: je betaalt hier in amsterdam veel te veel erfpacht. oneerlijk! wat bespaar je met het cda plan? reken het zelf uit met on…,pos
rt @cdaamsterdam: je betaalt hier in amsterdam veel te veel erfpacht. oneerlijk! wat bespaar je met het cda plan? reken het zelf uit met on…,pos
rt @roelofbouwman: zo voerden twee voorlopers van het cda campagne bij de amsterdamse gemeenteraadsverkiezingen van 1949. @cdaamsterdam @di…,pos
prima actie van denk om over deel piraten te plakken. #fatsoen nou ken ik mourad taimounti van het cda uit sloterva… https://t.co/qe1g3jep9d,pos
|@adoineuropa @cda jah , maar verstand van echt een kip :)) gister 10 min. nr gekeken (ze is geloof ik d66) maar dan… https://t.co/ia5pxwudgb|,pos
rt @erfpacht_seba: @danielkoerhuis @paulslettenhaar deze keer op het cda stemmen is heel verstandig van je @danielkoerhuis. ik weet dat je…,pos
|cda is voor mij nooit een optie wegens hun collectieve en het conservatieve, maar staat hoog in m'n aanzien. lijstt… https://t.co/qfvmclx87c|,pos
terugkijken: @lodewijka presenteerde samen met het #cda een voorstel tegen seksuele intimidatie op straat. ook wil… https://t.co/fdxbeic3rz,pos
rt @erfpachtpartij: @lith56 @juandixq @cdaamsterdam @cdavandaag je mag van ons (erfpachtpartij/@cdaamsterdam) ook over naar eigen grond. ma…,pos
|rt @cdaamsterdam: pieter omtzigt en cda amsterdam willen een eerlijke #erfpacht. daarvoor hebben wij op 21 maart uw stem nodig.
weten wat d…|,pos
rt @annexum_huib: deze vvd'er gaat deze keer cda stemmen https://t.co/m7f9c7scql,pos
cda komt met landelijk sisverbod voor veiligheid van vrouwen op straat: https://t.co/kvklfyfgzq #wnl,pos
landelijk is het cda net zo groot als groenlinks en d66 samen. #nlkiest https://t.co/1emp0jzxih,pos
|rt @cdaamsterdam: pieter omtzigt en cda amsterdam willen een eerlijke #erfpacht. daarvoor hebben wij op 21 maart uw stem nodig.
weten wat d…|,pos
ook niet naar cda cu en sgp. https://t.co/ck22cbeztw,pos
rt @cdaamsterdam: het cda staat in amsterdam voor het échte tegengeluid! https://t.co/489qetqzpb,pos
rt @annexum_huib: deze vvd'er gaat deze keer cda stemmen https://t.co/m7f9c7scql,pos
|rt @renskeleijten: buma op 4 maart: meer geld naar veiligheid. 

cda op 13 maart: tégen meer geld naar veiligheid.

#bumavoordebuhne #belof…|,pos
@amstoob @cdaamsterdam waarschijnlijk zijn het juist daarom de meest populaire scholen omdat ze de enige van hun soort in hun regio zijn.,pos
@ronnieamsterdam @bobmaasnl @johnasvlammeren @diederikboomsma @pvddamsterdam @cdaamsterdam ik verwijs nogmaals naar… https://t.co/b1qgfpbkm4,pos
rt @rwgriffioen: @hwissen @erfpacht_seba in amsterdam verdient cda meer zetels om meer betaalbaar wonen te realiseren. houd het eenvoudig.…,pos
|rt @gctje48: @thierrybaudet @toastontheside hoi thierry 

ik ben bang dat voor het cda geldt      
wat geschreven staat in

2 thes. 2:11 
d…|,pos
nieuwe peiling @eenvandaag: cda omhoog naar 16 zetels = 2e partij nl #ikstemcda. op naar meer cda in de grote stad!… https://t.co/q9pgeqn9l0,pos
rt @bowinemichel: @erfpacht_seba @marjaruigrok @ericvanderburg @rutgergw @diederikboomsma @cdaamsterdam we hebben nog even: we gaan door na…,pos
cda wil versterking plaatselijke media https://t.co/srwptkiazz,pos
rt @josdekoning: @alwyndejong @erfpacht_seba @cdaamsterdam @diederikboomsma @jackklok @lotte_schipper @benebbinge @bowinemichel @wbhoekstra…,pos
|rt @jaapjansen: lees of beluister mijn nieuwe @bnr-column:
verliest het cda ook zijn laatste zetel in amsterdam? het cda en de stad: bij sl…|,pos
|rt @rolfuhlhorn: cda is voor mij nooit een optie wegens hun collectieve en het conservatieve, maar staat hoog in m'n aanzien. lijsttrekker…|,pos
@cda_aalsmeer jullie zijn iets té enthousiast met flyeren. 😉 ik heb zes keer een cda flyer in de brievenbus gekrege… https://t.co/euo9gimtuu,pos
|rt @renskeleijten: buma op 4 maart: meer geld naar veiligheid. 

cda op 13 maart: tégen meer geld naar veiligheid.

#bumavoordebuhne #belof…|,pos
rt @esther_de_lange: warmste welkom in jaren op schiphol bij thuiskomst uit straatsburg! @cdaamsterdam #teamcda #stemcda https://t.co/6br4h…,pos
rt @cdaamsterdam: het cda staat in amsterdam voor het échte tegengeluid! https://t.co/489qetqzpb,pos
|rt @cdaamsterdam: cda amsterdam staat voor vrije schoolkeuze! niet een loterij, maar kinderen en ouders bepalen welke school bij hen past!…|,pos
rt @respect_4life: gedwongen door het wanbeleid van het amsterdamse bestuur om een totale switch te maken en dit keer cda te stemmen. ik on…,pos
gelukkig snappen #d66 en #cda het wel in kaag en braassem #kettingbeding #schiphol https://t.co/ckagwn8wtl,pos
rt @alwyndejong: nieuwe peiling @eenvandaag: cda omhoog naar 16 zetels = 2e partij nl #ikstemcda. op naar meer cda in de grote stad! @cdaam…,pos
rt @bowinemichel: @erfpacht_seba @marjaruigrok @ericvanderburg @cdaamsterdam @diederikboomsma bovendien stond hij 100% achter het voorstel.…,pos
motie @cda en @christenunie: maak #terugleversubsidie #zonnepanelen ook geschikt voor mkb-bedrijven en agrariërs –g… https://t.co/2rmjsqggko,pos
|rt @cdaamsterdam: heb jij vandaag al gestemd? lees de brief van diederik en stem cda amsterdam! 

https://t.co/axnoxzy1bf

 #gr18 #gr2018 h…|,pos
rt @erfpacht_seba: @danielkoerhuis @paulslettenhaar deze keer op het cda stemmen is heel verstandig van je @danielkoerhuis. ik weet dat je…,pos
|rt @stemzeweg: tijd voor echte verandering in uw gemeente!
reken af met de #vvd #cda #pvda
#d66 #cu #gl #sgp 
tijdens verkiezingen hebben z…|,pos
rt @esther_de_lange: warmste welkom in jaren op schiphol bij thuiskomst uit straatsburg! @cdaamsterdam #teamcda #stemcda https://t.co/6br4h…,pos
|rt @marijnissenl: op televisie pleitte het cda voor extra geld voor veiligheid, maar in de kamer wil het cda haar eigen voorstel niet steun…|,pos
@cdaamsterdam @diederikboomsma @protestants020 hier. een beetje liefde! en laten we religie nou eindelijk eens uit… https://t.co/uqkqjcvmdv,pos
rt @cdaamsterdam: je betaalt hier in #amsterdam veel te veel erfpacht. oneerlijk! wat bespaar je met het cda plan? reken het zelf uit met o…,pos
“gr2018: ‘perverse robert  vloedgraven’ raadslid cda stalkte vrouw met naaktfoto’s met zijn kruis.… https://t.co/o2zzwbzlte,pos
rt @cdaamsterdam: vandaag is het cda bij 8 debatten en bijeenkomsten door de stad heen aanwezig! lex van drooge geeft de aftrap vanavond in…,pos
|rt @renskeleijten: buma op 4 maart: meer geld naar veiligheid. 

cda op 13 maart: tégen meer geld naar veiligheid.

#bumavoordebuhne #belof…|,pos
rt @cdahilversum: .@gvanvoorden is één van de meest ervaren raadsleden binnen het cda hilversum. hij heeft zich in de loop der jaren sterk…,pos
|jezus was een #socialist. 
hij zou wel raad weten met #cda #neoliberaal #buma!
#010debat #sp #pauw #nieuwsuur|,pos
rt @jocelynjefjoc: @respect_4life houd vol! houd moed! ik heb gewoon cda affiche op de voordeur hangen hoor.,pos
rt @cdaamsterdam: cda amsterdam doet mee met het #stadsmanifestcda! samen met de andere grote steden willen we ons inzetten voor betaalbaar…,pos
rt @kreuzeman: het cda team ‘hoe veilig is het hier’ populair bij ‘stappers’ in @hoogeveen zelfs bij -6. leuk de nacht van hoogeveen! @cdah…,pos
rt @alwyndejong: een serieuze aanpak van radicalisering in 020? dan kom je bij @diederikboomsma van ‘t cda uit! zie: https://t.co/p8yu5gbbc…,pos
|rt @vvab_officieel: goed nieuws! groenlinks, sp, pvda en cda nemen motie aan tegen bewegende reclame op mupi’s (digitale reclamezuilen). ht…|,pos
|rt @mariannethieme: goed nieuws: @pvddburen krijgt def 2 zetels! cda halveert, vvd verliest een zetel en wij zijn verdubbeld! #nooitmeerkno…|,pos
rt @sheepfc: @cdaamsterdam kan ik ergens flyers / posters krijgen om uit te delen en aan mijn raam te hangen?,pos
raadslid cda raalte zegt sorry voor sexting https://t.co/8p5eyrois7 via @nos,pos
|rt @fritstenhove: #factcheck

op de campagnes van de vvd en het cda (de media doen het niet!)

voor meer veiligheid moet u dus niet stemmen…|,pos
rt @erfpacht_seba: huiseigenaren stemmen deze keer cda !!! https://t.co/2uuupfd1ht,pos
|rt @vvab_officieel: goed nieuws! groenlinks, sp, pvda en cda nemen motie aan tegen bewegende reclame op mupi’s (digitale reclamezuilen). ht…|,pos
|rt @pgkroeger: cda in amsterdam wil een nachtwacht. ik zou ook willen pleiten voor een fikse toename in de hoofdstad van staalmeesters, joo…|,pos
rt @djcwesterink: helder @diederikboomsma van @cdaamsterdam is dé verbinder bij @at5 #slotdebat. denk en bij1 schreeuwen en polariseren.,pos
raadslid cda onder vuur na seksueel lastigvallen 29-jarige vrouw https://t.co/l8g3v4gkbv,pos
rt @erfpacht_seba: cda / nieuws / voor een stad die we willen doorgeven https://t.co/24a7ujsa8a,pos
rt @cdaamsterdam: amsterdam veilig houden doen we samen! @mvantoorenburg en cda amsterdam willen een nachtwacht. handhavers die laat actief…,pos
rt @estherouwehand: en nu roept cda dus dat brussel moet ingrijpen. om de natuurdoelen te halen die ze zélf de nek om hebben gedraaid. ik h…,pos
rt @gregorheemskerk: ik zag zojuist een verkiezingsposter van het cda amsterdam. strekking: door erfpacht rooft het gemeentebestuur van de…,pos
|cda met erfpacht verdubbeld, bij1 toch niet in raad amsterdam? https://t.co/p3qe93fl6x|,pos
|@cda @redactie unilever naar ned levert hooguit 40 banen op, terwijl de 1.4 miljard euro voor buitenlandse aandeelh… https://t.co/cscwxyl9vp|,pos
rt @erfpacht_seba: stem voor https://t.co/msbbvz6ifp stem woensdag 21 maart cda !!! https://t.co/vcs1aslhes,pos
rt @rifka_b: vandaag is het even aan ons. #gm2018 #amsterdamkiest #nietweerd66vvd #erfpacht #erfpachtpartij #cda #hetmoetanders #ijburg,pos
rt @robindraastens: bent u voor méér veiligheid stem dan niet op #vvd #cda #d66 #cu #christenunie en #groenlinks #gl https://t.co/6uzmmtqxbl,pos
rt @___susanne___: oh... dan is het goed... 🙄 rt @fredspek: raadslid cda raalte (robert vloedgraven) zegt sorry voor sexting https://t.co/c…,pos
rt @estherouwehand: cda nam enige aanstoot aan mijn bijdrage bij debat over #landbouwgif. of ik ‘t gewoon  ‘gewasbeschermingsmiddelen’ wild…,pos
rt @cdaamsterdam: je betaalt hier in amsterdam veel te veel erfpacht. oneerlijk! wat bespaar je met het cda plan? reken het zelf uit met on…,pos
rt @marchaverkamp: namens het @cdaamsterdam het @cocamsterdam regenboog stembusakkoord getekend. mooie samenwerking https://t.co/lumrhcfub5,pos
liveblog: pvv set to win 4 seats on emmen council at expense of local party wakker emmen. pvda on 6 and cda 5. https://t.co/3vfqhbgmjo,pos
|rt @vvab_officieel: goed nieuws! groenlinks, sp, pvda en cda nemen motie aan tegen bewegende reclame op mupi’s (digitale reclamezuilen). ht…|,pos
rt @respect_4life: leuker kunnen we het niet maken. amsterdammers stemmen dit keer @cdaamsterdam https://t.co/ilcv6vhje7,pos
@rpvangaalen @pieteromtzigt vragen passen bij waarschuwingen van cda tegen europese bemoeienis met nederlands aanvu… https://t.co/nftag8k3ob,pos
rt @estherouwehand: en nu roept cda dus dat brussel moet ingrijpen. om de natuurdoelen te halen die ze zélf de nek om hebben gedraaid. ik h…,pos
|rt @pgkroeger: scholen in amsterdam. ook reden cda te stemmen daar. nog los van de erfpacht, joeri van den steenhoven. https://t.co/v4lmlnw…|,pos
rt @respect_4life: leuker kunnen we het niet maken. amsterdammers stemmen dit keer @cdaamsterdam https://t.co/ilcv6vhje7,pos
rt @respect_4life: en zo is het: erfpachters stemmen @cdaamsterdam en mocht je daar wakker van liggen start dan de zelfhulptool: https://t.…,pos
|felle, terechte opmerking van @lynnfokkens van @pp_amsterdam  naar @lotte_schipper van @cdaamsterdam : "als je op w… https://t.co/y55byztvgj|,pos
rt @cdaamsterdam: het cda staat in amsterdam voor het échte tegengeluid! https://t.co/489qetqzpb,pos
rt @cdaamsterdam: je betaalt hier in #amsterdam veel te veel erfpacht. oneerlijk! wat bespaar je met het cda plan? reken het zelf uit met o…,pos
rt @vogelvrijeharts: buma en zijn #cda zitten al een tijdje in de pocket van zorgverzekeraars.. en dat is nog netjes geformuleerd.. #pauw #…,pos
mijn bijdrage aan het debat over een onderwerp dat toch al lange tijd speelt. goed dat @cda zich hier nu ook over u… https://t.co/exuykpdxib,pos
|rt @pgkroeger: cda in amsterdam wil een nachtwacht. ik zou ook willen pleiten voor een fikse toename in de hoofdstad van staalmeesters, joo…|,pos
rt @karstenklein: de supporters van ado weten het wel. alle ballen op de laatste man van het cda op 21 maart! #stemlexderaadin #adonac http…,pos
rt @hermendegraaf: dank @cdaamsterdam voor deze informatieve site over erfpachtmonster amsterdam https://t.co/kaq9bewhzd,pos
|rt @lalalalinder: lol, advies knaw nav vragen cda &amp; vvd over linkse wetenschap: daar zijn geen zorgen over, het risico ligt bij inmenging s…|,pos
rt @hwhofs: peiling de hond: leefbaar 9 pvda 5 d66 4 sp 6 vvd 4 cda 3 gl 5 nida 1 cusgp 1 pvdd 1 denk 2 50 plus 1 pvv 3 #pauw,pos
rt @cocnederland: ‘stel straatintimidatie lhbti’s en vrouwen strafbaar’ - cda en pvda hebben vandaag een initiatiefwetsvoorstel... https://…,pos
rt @cdaamsterdam: welke school past het beste bij jouw kind? het cda wil dat kinderen en hun ouders daar zelf over beslissen in plaats van…,pos
rt @cdaamsterdam: cda amsterdam doet mee met het #stadsmanifestcda! samen met de andere grote steden willen we ons inzetten voor betaalbaar…,pos
rt @estherouwehand: en nu roept cda dus dat brussel moet ingrijpen. om de natuurdoelen te halen die ze zélf de nek om hebben gedraaid. ik h…,pos
rt @cdaamsterdam: vandaag is het cda bij 8 debatten en bijeenkomsten door de stad heen aanwezig! lex van drooge geeft de aftrap vanavond in…,pos
rt @ertanbasekin: cda blijft nagenoeg gelijk in amsterdam #gr2018 https://t.co/nrw1m45vao,pos
rt @karstenklein: goed nieuws vanuit de rijksoverheid voor de ouderenzorg; honderden miljoenen extra voor meer personeel. blij dat cda mini…,pos
het cda heeft nu een spotje met als enige inhoudelijke punt dat buma goed mest kan opruimen.,pos
|rt @marktwain2: de totale afgang . nu te zien bij pauw, met in de hoofdrol buma van het cda #pauw|,pos
|rt @evelienvana: gisteren gesprekje met mijn moeder gehad over stemmen, zij wilde cda stemmen, ik had niet meer dan deze foto nodig...
- 1…|,pos
|rt @evelienvana: gisteren gesprekje met mijn moeder gehad over stemmen, zij wilde cda stemmen, ik had niet meer dan deze foto nodig...
- 1…|,pos
|rt @geogabbi: @197winstonsmith ze steken in elk geval het vuur onder de gevestigde partijen, dat is al flinke winst. zelfs het cda en vvd v…|,pos
leugens zijn ook argumenten! #vvd #cda #d66 #cu #zml https://t.co/5htips7hjj,pos
|rt @vvab_officieel: goed nieuws! groenlinks, sp, pvda en cda nemen motie aan tegen bewegende reclame op mupi’s (digitale reclamezuilen). ht…|,pos
deze social media campagne gaat fout voor #cda #maakhetverschil https://t.co/ktfp0z3tt8,pos
|rt @stemzeweg: tijd voor echte verandering in uw gemeente!
reken af met de #vvd #cda #pvda
#d66 #cu #gl #sgp 
tijdens verkiezingen hebben z…|,pos
@bobmaasnl @ronnieamsterdam @johnasvlammeren @diederikboomsma @pvddamsterdam @cdaamsterdam eens! daarnaast is de pa… https://t.co/tljyrof0vn,pos
|@minnetelman van cda kun je het verwachten, die leven nog in een andere periode. van denk ook, die hebben turkije a… https://t.co/1408h0d3wx|,pos
|rt @cdaamsterdam: voor cda geldt op #erfpacht: overgestapt is overgestapt, niet nog een keer betalen voor dezelfde grond. en de maximale af…|,pos
rt @hermendegraaf: dank @cdaamsterdam voor deze informatieve site over erfpachtmonster amsterdam https://t.co/kaq9bewhzd,pos
|rt @huigen2: dank zij de pvdarabieren , cda , vvd , cu en sgp ! ze kunnen trots zijn op de resultaten van hun jarenlange wegkijken en neger…|,pos
rt @cdaamsterdam: je betaalt hier in amsterdam veel te veel erfpacht. oneerlijk! wat bespaar je met het cda plan? reken het zelf uit met on…,pos
rt @bobmaasnl: in amsterdam zijn @johnasvlammeren en @diederikboomsma van de eenmansfracties @pvddamsterdam en @cdaamsterdam misschien wel…,pos
|rt @blaterrr: zoals je je verwondert hoe mensen in de usa vrije wapenverkoop kunnen verdedigen, zie je hier cda kamerlid maurits von martel…|,pos
rt @annexum_huib: deze vvd'er gaat deze keer cda stemmen https://t.co/m7f9c7scql,pos
rt @schulpiana: @cdaamsterdam @fvdamsterdam een goed idee jatten is als scoren voor de rust,pos
rt @erfpacht_seba: stem voor https://t.co/msbbvz6ifp stem woensdag 21 maart cda !!! https://t.co/vcs1aslhes,pos
rt @bowinemichel: @erfpacht_seba @marjaruigrok @ericvanderburg @rutgergw @diederikboomsma @cdaamsterdam we hebben nog even: we gaan door na…,pos
rt @bowinemichel: @ytekedejong @erfpachtinfo @marjoleinmoor die stemmen nu dus cda omdat dat de enige verstandige keus is voor erfpachters.,pos
rt @marchaverkamp: namens het @cdaamsterdam het @cocamsterdam regenboog stembusakkoord getekend. mooie samenwerking https://t.co/lumrhcfub5,pos
rt @nrc: vier jonge mannen moeten het cda in de grote steden overeind houden en de partij behoeden voor het imago van plattelandspartij. he…,pos
|rt @leesbaar: ik kreeg van het cda een briefkaart in de bus, met een mooi plaatje. #gr2018 het cda kon de erfpacht niet betalen en is verhu…|,pos
|rt @vvab_officieel: goed nieuws! groenlinks, sp, pvda en cda nemen motie aan tegen bewegende reclame op mupi’s (digitale reclamezuilen). ht…|,pos
|@lientje1967 ach, het is weer duidelijk waarom je bij de cda zit. verandering is eng. blijf lekker in je bekrompen hokje zitten.|,pos
|lol, advies knaw nav vragen cda &amp; vvd over linkse wetenschap: daar zijn geen zorgen over, het risico ligt bij inmen… https://t.co/jtdtznw1hi|,pos
|rt @renskeleijten: buma op 4 maart: meer geld naar veiligheid. 

cda op 13 maart: tégen meer geld naar veiligheid.

#bumavoordebuhne #belof…|,pos
rt @erfpachtpartij: eerlijke erfpacht is een keuze. hier vindt u de cda rekentool zodat u kunt zien wat het cda voorstel voor u betekent.…,pos
#gratis ermelo - het cda ermelo stelt aanstaande zaterdagmiddag van 12:00 tot 16:00 uur zwembad calluna gratis… https://t.co/2krrnxcm92,pos
|rt @cdaamsterdam: pieter omtzigt en cda amsterdam willen een eerlijke #erfpacht. daarvoor hebben wij op 21 maart uw stem nodig.
weten wat d…|,pos
|rt @elziax: huh? ik zie dat nu pas! zijn ze in rotterdam bij het cda nog wel goed bij hun hoofd? nog los van alle 100den migrantenkerken, d…|,pos
rt @erfpachtpartij: @lith56 @juandixq @cdaamsterdam @cdavandaag je mag van ons (erfpachtpartij/@cdaamsterdam) ook over naar eigen grond. ma…,pos
rt @lodewijka: waarom ik vrijdag niet met het cda in debat ga: https://t.co/xeb2euimex,pos
|rt @cdaamsterdam: heb jij vandaag al gestemd? lees de brief van diederik en stem cda amsterdam! 

https://t.co/axnoxzy1bf

 #gr18 #gr2018 h…|,pos
|@cococat2001 @dierenblogger @estherouwehand mooi zo, protesteer dan zo snel mogelijk bij sgp, pvv, cda en vvd die d… https://t.co/abpydnbnlx|,pos
rt @erfpachtpartij: @sheepfc jazeker. we voeren gezamenlijk campagne met @cdaamsterdam omdat we 1 lijst hebben (erfpachters op even nummers…,pos
cda heeft gewoon zijn footprint in het platteland. zeg dat gewoon. er is niets mis mee. ook dat zijn mensen met stemrecht #buitenhof,pos
stem #020kiest staat vast: #cda https://t.co/xh5hdtbhhn,pos
|rt @roosvonk: journalisten, wakker worden. cda komt weg met natuur vernietigen (samen met vernietigingsbuddy vvd) en mooi weer spelen doord…|,pos
rt @estherouwehand: cda nam enige aanstoot aan mijn bijdrage bij debat over #landbouwgif. of ik ‘t gewoon  ‘gewasbeschermingsmiddelen’ wild…,pos
rt @janneke_eigeman: cda @jacogeurts haalt onderzoek uit overijssel aan. met 2 miljoen foto's is bewezen dat groot deel van de nesten verdw…,pos
|rt @gjvu: de klimaat woordvoerders in de tweede kamer hebben de volgende educatieve achtergrond;
cu      kunstgeschiedenis
cda    internati…|,pos
rt @cdaamsterdam: het cda gaat de zalen in! koen de lange heeft vanavond 60 mensen bij elkaar bij informatieavond over #erfpacht in de bell…,pos
rt @cdaamsterdam: “het budget voor kunst moet niet verhoogd óf verlaagd worden: €160 mln is genoeg. wat het cda betreft verdienen chronisch…,pos
|@cdaamsterdam @bowinemichel @diederikboomsma @obamsterdam hahaha! schei uit met me, hoor.|,pos
rt @estherouwehand: cda nam enige aanstoot aan mijn bijdrage bij debat over #landbouwgif. of ik ‘t gewoon  ‘gewasbeschermingsmiddelen’ wild…,pos
rt @cdaamsterdam: amsterdam veilig houden doen we samen! @mvantoorenburg en cda amsterdam willen een nachtwacht. handhavers die laat actief…,pos
rt @cdaamsterdam: cda amsterdam doet mee met het #stadsmanifestcda! samen met de andere grote steden willen we ons inzetten voor betaalbaar…,pos
|rt @roosvonk: journalisten, wakker worden. cda komt weg met natuur vernietigen (samen met vernietigingsbuddy vvd) en mooi weer spelen doord…|,pos
|rt @cdaamsterdam: pieter omtzigt en cda amsterdam willen een eerlijke #erfpacht. daarvoor hebben wij op 21 maart uw stem nodig.
weten wat d…|,pos
|rt @cdavandaag: welke jongere mag rekenen op jouw stem?

wij zijn trots dat we morgen ruim 700 jongeren van het cda op de stembiljetten heb…|,pos
|rt @cdaamsterdam: cda bij debat auc: de stad moet duurzamer! wij willen effectieve maatregelen, meer groene daken en alle nieuwbouw gasloos…|,pos
rt @alwyndejong: een serieuze aanpak van radicalisering in 020? dan kom je bij @diederikboomsma van ‘t cda uit! zie: https://t.co/p8yu5gbbc…,pos
rt @cdanh: het cda wilt dat u in goede gezondheid kunt leven in noord-holland en daar zetten we ons ook lokaal voor in! https://t.co/kn6wiz…,pos
@danielvanderree @cdaamsterdam @diederikboomsma @lexvandrooge in 1978 en in 1982 trad het cda in amsterdam toe tot… https://t.co/e70aqhc5j6,pos
rt @cdavandaag: verenigingen zijn van enorm belang voor onze samenleving. het #cda wil daarom dat gemeenten kunnen kiezen voor een lager #o…,pos
rt @estherouwehand: en nu roept cda dus dat brussel moet ingrijpen. om de natuurdoelen te halen die ze zélf de nek om hebben gedraaid. ik h…,pos
|rt @renskeleijten: buma op 4 maart: meer geld naar veiligheid. 

cda op 13 maart: tégen meer geld naar veiligheid.

#bumavoordebuhne #belof…|,pos
|rt @cdaamsterdam: pieter omtzigt en cda amsterdam willen een eerlijke #erfpacht. daarvoor hebben wij op 21 maart uw stem nodig.
weten wat d…|,pos
rt @pieteromtzigt: cda kreeg steun van de kamer om voor morgen een reactie te krijgen van de regering op het eu rekenkamer rapport over tur…,pos
rt @connykerkhof: prima optreden van sybrand buma in buitenhof. waarom cda ook in de steden hard nodig is en bij de lokale verkiezingen op…,pos
rt @cocnederland: ‘stel straatintimidatie lhbti’s en vrouwen strafbaar’ - cda en pvda hebben vandaag een initiatiefwetsvoorstel... https://…,pos
|rt @renskeleijten: buma op 4 maart: meer geld naar veiligheid. 

cda op 13 maart: tégen meer geld naar veiligheid.

#bumavoordebuhne #belof…|,pos
rt @michelrogier: geweldig! een goed alternatief voor de blauwe zone dat in het cda programma 2014 stond: de groen-gele parkeerzone waar je…,pos
rt @rwgriffioen: @erfpachtpartij @erfpacht_seba @lith56 @juandixq @cdaamsterdam @cdavandaag de gr acteert dom - zie rapport brenninkmeijer…,pos
|rt @robertpbas: exitpoll rotterdam: leefbaar 11, pvda 5, d’66 4, sp 2, vvd 5, cda 2, groenlinks 4, nida 2, cu/sgp 1, pvdd 1, 50plus 2, denk…|,pos
rt @huubbellemakers: zoals vvd cda (onder andere) ook aanleg van grootschalige verbindingen tussen ovp en oa veluwe tegenwerken. want landb…,pos
|rt @jfschrijver: @annexum_huib @ziklies @paulslettenhaar logisch, paul zou zelfs ook liefst cda stemmen om dezelfde reden…|,pos
rt @respect_4life: en zo is het: erfpachters stemmen @cdaamsterdam en mocht je daar wakker van liggen start dan de zelfhulptool: https://t.…,pos
|rt @pieteromtzigt: ik steun @brinkster20 als beste raadslid.
ken hem al 8 jaar als een actief, hardwerkend en optimistisch cda lid en raads…|,pos
|rt @pgkroeger: scholen in amsterdam. ook reden cda te stemmen daar. nog los van de erfpacht, joeri van den steenhoven. https://t.co/v4lmlnw…|,pos
de fascisten van de pvv en fvd zullen samen met de vvd en cda gaan regeren. er moet haast een wonder gebeuren als d… https://t.co/2so2secsjs,pos
check de vsa #kieswijzer #gr2018 voor het antwoord van @cdaamsterdam op de drie vragen over vrije #schoolkeuze… https://t.co/w9ulvscjsp,pos
|rt @alwyndejong: vandaag kleurde team @cdaamsterdam #ijburg volledig groen, met oa @diederikboomsma @jackklok @lotte_schipper @benebbinge @…|,pos
rt @bobmaasnl: in amsterdam zijn @johnasvlammeren en @diederikboomsma van de eenmansfracties @pvddamsterdam en @cdaamsterdam misschien wel…,pos
|rt @cdaamsterdam: voor cda geldt op #erfpacht: overgestapt is overgestapt, niet nog een keer betalen voor dezelfde grond. en de maximale af…|,pos
rt @cdaamsterdam: je betaalt hier in amsterdam veel te veel erfpacht. oneerlijk! wat bespaar je met het cda plan? reken het zelf uit met on…,pos
|ik kreeg van het cda een briefkaart in de bus, met een mooi plaatje. #gr2018 het cda kon de erfpacht niet betalen e… https://t.co/ktt20qohqd|,pos
rt @cdaamsterdam: je betaalt hier in amsterdam veel te veel erfpacht. wat bespaar je met het cda plan? reken het zelf uit met onze rekentoo…,pos
erfpacht heeft cda amsterdam niet aan winst geholpen. geen ‘issue’ voor de kiezers dus #erfpacht,pos
@eenvandaag @ipsosnl @fvdemocratie @vvd @cda @d66 dan is de uitslag vast weer om 21.00 uur bekend :-),pos
pvda en cda willen bescherming vrouwen en homo's op straat https://t.co/fd4kt6dtu2 #nu,pos
|rt @marijnissenl: op televisie pleitte het cda voor extra geld voor veiligheid, maar in de kamer wil het cda haar eigen voorstel niet steun…|,pos
@lennartvn n.o.s. heb meelij exiptoll pls!!! herman zandt waar is joun scherm??? veeg staafjes met cda en sp in lee… https://t.co/gs97dqpvfm,pos
rt @cdaamsterdam: welke school past het beste bij jouw kind? het cda wil dat kinderen en hun ouders daar zelf over beslissen in plaats van…,pos
|rt @susannekuijpers: 'een stem voor sgp, vvd of cda betekent voor boeren verder met de race naar de bodem.' https://t.co/ksa9qdu9yb via @vo…|,pos
rt @cdaamsterdam: het cda is actief in amsterdam! vanavond zijn we met onze toppers actief bij zeven debatten! stem 21 maart cda. #geefmijm…,pos
rt @rwgriffioen: @hwissen @erfpacht_seba in amsterdam verdient cda meer zetels om meer betaalbaar wonen te realiseren. houd het eenvoudig.…,pos
pvda en cda willen straatintimidatie beboeten (via wet) https://t.co/axkuhek5uv,pos
|rt @jfageelhoed: so shoot me, maar voor de gemeenteraadsverkiezingen gaat deze agnost @cdaamsterdam stemmen, want ben hélemaal klaar met de…|,pos
rt @bowinemichel: @ericchendriks @diederikboomsma @cdaamsterdam @telegraaf nog veel erger: ook de journalist die hierover schreef werd onde…,pos
|rt @cdaamsterdam: pieter omtzigt en cda amsterdam willen een eerlijke #erfpacht. daarvoor hebben wij op 21 maart uw stem nodig.
weten wat d…|,pos
@cdaamsterdam wat cda van behoud van het behoud van cultureel erf goed? https://t.co/hvmaf5bxrs,pos
rt @cdaamsterdam: vandaag is het cda bij 8 debatten en bijeenkomsten door de stad heen aanwezig! lex van drooge geeft de aftrap vanavond in…,pos
raadslid cda raalte (robert vloedgraven) zegt sorry voor sexting https://t.co/hh19tsqjap via @nos,pos
rt @respect_4life: gedwongen door het wanbeleid van het amsterdamse bestuur om een totale switch te maken en dit keer cda te stemmen. ik on…,pos
rt @pauwnl: terugkijken: @lodewijka presenteerde samen met het #cda een voorstel tegen seksuele intimidatie op straat. ook wil hij maatrege…,pos
joe public maakt verkiezingsspot voor cda met buma https://t.co/iq2dpe8ncm,pos
|waarom ik kandidaat sta voor het cda.
https://t.co/gygfwglcrv
stem 21 maart
en als je dan stemt, stem #23 cda|,pos
rt @erfpachtpartij: @lith56 @juandixq @cdaamsterdam @cdavandaag je mag van ons (erfpachtpartij/@cdaamsterdam) ook over naar eigen grond. ma…,pos
|rt @fikkie77: @cdaamsterdam @cdavandaag je koopt een peperduur huis in amsterdam, is de grond niet eens van jou! erfpacht is nooit eerlijk.|,pos
|rt @mirjamdj: @ziklies #cda als het om erfpacht gaat, ik moet nog even kijken of ik het met de rest van het programma eens ben. ik heb nog…|,pos
rt @karelrosman: cda-prominent maria van der hoeven zei bijvoorbeeld in 2001 het homohuwelijk 'als mens' niet te accepteren. het cda weiger…,pos
rt @cdaamsterdam: “het budget voor kunst moet niet verhoogd óf verlaagd worden: €160 mln is genoeg. wat het cda betreft verdienen chronisch…,pos
rt @pietervoets: @cdavandaag @sybrandbuma grappig deze tweet van @cdavandaag begint met stem nu marianne thieme. goed om te horen dat cda e…,pos
rt @lodewijka: waarom ik vrijdag niet met het cda in debat ga: https://t.co/xeb2euimex,pos
|rt @cdaamsterdam: pieter omtzigt en cda amsterdam willen een eerlijke #erfpacht. daarvoor hebben wij op 21 maart uw stem nodig.
weten wat d…|,pos
|rt @renskeleijten: buma op 4 maart: meer geld naar veiligheid. 

cda op 13 maart: tégen meer geld naar veiligheid.

#bumavoordebuhne #belof…|,pos
rt @erfpacht_seba: @lith56 @cdaamsterdam @cdavandaag waar het om gaat is dat een ieder de vrije keuze heeft om de grond te kopen of niet. h…,pos
|rt @tirzadef: felle, terechte opmerking van @lynnfokkens van @pp_amsterdam  naar @lotte_schipper van @cdaamsterdam : "als je op wil komen v…|,pos
tweede kamerlid @annekuik van het @cda vertelt waarom zij zich inzet voor een #rookvrijegeneratie en waarom jij als… https://t.co/v35dssqfi2,pos
rt @respect_4life: leuker kunnen we het niet maken. amsterdammers stemmen dit keer @cdaamsterdam https://t.co/ilcv6vhje7,pos
|rt @safatweets: een cda'er in het centrum: "mevrouw, mag ik u een flyer aanbieden?"
- nou, ik weet eigenlijk zeker dat het cda mijn stem ni…|,pos
rt @bowinemichel: @erfpacht_seba @marjaruigrok @ericvanderburg @rutgergw @diederikboomsma @cdaamsterdam we hebben nog even: we gaan door na…,pos
|rt @cdaamsterdam: cda amsterdam staat voor vrije schoolkeuze! niet een loterij, maar kinderen en ouders bepalen welke school bij hen past!…|,pos
rt @hwissen: het is niet duidelijker geworden waarom cda meer zetels moet krijgen op 21 maart. wel gelachen om onzin #erfpacht #amsterdam #…,pos
rt @alwyndejong: nieuwe peiling @eenvandaag: cda omhoog naar 16 zetels = 2e partij nl #ikstemcda. op naar meer cda in de grote stad! @cdaam…,pos
rt @sheepfc: @cdaamsterdam kan ik ergens flyers / posters krijgen om uit te delen en aan mijn raam te hangen?,pos
rt @marchaverkamp: namens het @cdaamsterdam het @cocamsterdam regenboog stembusakkoord getekend. mooie samenwerking https://t.co/lumrhcfub5,pos
|rt @lalalalinder: lol, advies knaw nav vragen cda &amp; vvd over linkse wetenschap: daar zijn geen zorgen over, het risico ligt bij inmenging s…|,pos
rt @ziklies: @erfpacht_seba @juandixq @lith56 @cdaamsterdam @cdavandaag en je vergeet betaalbaar! je kunt zaken niet zomaar met 250% verhog…,pos
rt @estherouwehand: en nu roept cda dus dat brussel moet ingrijpen. om de natuurdoelen te halen die ze zélf de nek om hebben gedraaid. ik h…,pos
#cda haalt clientisme en identiteitspolitiek door elkaar geloof ik  #020kiest,pos
|rt @pmeershoek: de lijsttrekkers in weesp beginnen met favoriete schrijvers: vvd astrid holleeder, groenlinks evelyn waugh, cda dan brown,…|,pos
rt @lodewijka: waarom ik vrijdag niet met het cda in debat ga: https://t.co/xeb2euimex,pos
rt @vogelvrijeharts: buma en zijn #cda zitten al een tijdje in de pocket van zorgverzekeraars.. en dat is nog netjes geformuleerd.. #pauw #…,pos
rt @linhllndr: @cdavandaag @sybrandbuma ga toch weg. zolang het cda verzoekt om landbouwgif “gewasbescherming” te noemen en een oproep tot…,pos
rt @lodewijka: waarom ik vrijdag niet met het cda in debat ga: https://t.co/xeb2euimex,pos
|rt @cdavandaag: welke jongere mag rekenen op jouw stem?

wij zijn trots dat we morgen ruim 700 jongeren van het cda op de stembiljetten heb…|,pos
rt @cdaamsterdam: je betaalt hier in #amsterdam veel te veel erfpacht. oneerlijk! wat bespaar je met het cda plan? reken het zelf uit met o…,pos
rt @wijserfpacht: @cdaamsterdam @bowinemichel het lijkt erfpacht wel.,pos
rt @alwyndejong: een serieuze aanpak van radicalisering in 020? dan kom je bij @diederikboomsma van ‘t cda uit! zie: https://t.co/p8yu5gbbc…,pos
@moniquearmor @bobmaasnl @johnasvlammeren @diederikboomsma @pvddamsterdam @cdaamsterdam eindelijk is het mogelijk o… https://t.co/kqvq7w2ts8,pos
rt @respect_4life: gedwongen door het wanbeleid van het amsterdamse bestuur om een totale switch te maken en dit keer cda te stemmen. ik on…,pos
|rt @rubenkoops: obv een derde van de stemmen in #amsterdam: bij1 op 0, vvd op 6, d66 op 8, gl op 11, pvda op 5, sp op 4, pvdo op 1, cda op…|,pos
|rt @alwyndejong: vandaag kleurde team @cdaamsterdam #ijburg volledig groen, met oa @diederikboomsma @jackklok @lotte_schipper @benebbinge @…|,pos
@mgjvdf @cdaamsterdam goed dat je er bij bent! tot zo!,pos
rt @bobmaasnl: in amsterdam zijn @johnasvlammeren en @diederikboomsma van de eenmansfracties @pvddamsterdam en @cdaamsterdam misschien wel…,pos
|rt @henknijboer: bizar verwijt buma. cda wilde juist op gemeenten en rijk bezuinigen in verkiezingsprogramma, samen 1,2 miljard. bron: door…|,pos
|rt @marijnissenl: op televisie pleitte het cda voor extra geld voor veiligheid, maar in de kamer wil het cda haar eigen voorstel niet steun…|,pos
|van alle lokale verkiezingsposters is deze van cda leiderdorp toch wel de winnaar imo.

dit koppel lijkt sprekend o… https://t.co/mh1fz1matt|,pos
|goed nieuws! groenlinks, sp, pvda en cda nemen motie aan tegen bewegende reclame op mupi’s (digitale reclamezuilen). https://t.co/5z9yq9sdv0|,pos
rt @estherouwehand: cda nam enige aanstoot aan mijn bijdrage bij debat over #landbouwgif. of ik ‘t gewoon  ‘gewasbeschermingsmiddelen’ wild…,pos
rt @bowinemichel: @ytekedejong @erfpachtinfo @marjoleinmoor die stemmen nu dus cda omdat dat de enige verstandige keus is voor erfpachters.,pos
de straalverbinding van de nos wordt nog even klaar gemaakt. wij zijn klaar voor de eerste exitpoll! #cda #den haag… https://t.co/lfkmaoscyy,pos
|rt @rwgriffioen: @leesbaar @erfpacht_seba @cdaamsterdam en alles zonder btw afdracht voor de erfverpachter. stem dus cda, nu en de volgende…|,pos
rt @wilcoboom: steeds nieuwsgieriger naar echte uitslagen: cda scoorde 4 jaar geleden veel beter dan in exitpolls. #gr18,pos
|rt @alwyndejong: vandaag kleurde team @cdaamsterdam #ijburg volledig groen, met oa @diederikboomsma @jackklok @lotte_schipper @benebbinge @…|,pos
rt @djcwesterink: helder @diederikboomsma van @cdaamsterdam is dé verbinder bij @at5 #slotdebat. denk en bij1 schreeuwen en polariseren.,pos
|rt @jfageelhoed: so shoot me, maar voor de gemeenteraadsverkiezingen gaat deze agnost @cdaamsterdam stemmen, want ben hélemaal klaar met de…|,pos
rt @cdaamsterdam: je betaalt hier in amsterdam veel te veel erfpacht. wat bespaar je met het cda plan? reken het zelf uit met onze rekentoo…,pos
rt @cdaamsterdam: het cda staat in amsterdam voor het échte tegengeluid! https://t.co/489qetqzpb,pos
rt @estherouwehand: en nu roept cda dus dat brussel moet ingrijpen. om de natuurdoelen te halen die ze zélf de nek om hebben gedraaid. ik h…,pos
rt @estherouwehand: en nu roept cda dus dat brussel moet ingrijpen. om de natuurdoelen te halen die ze zélf de nek om hebben gedraaid. ik h…,pos
rt @marchaverkamp: namens het @cdaamsterdam het @cocamsterdam regenboog stembusakkoord getekend. mooie samenwerking https://t.co/lumrhcfub5,pos
rt @bowinemichel: @erfpacht_seba @marjaruigrok @ericvanderburg @cdaamsterdam @diederikboomsma bovendien stond hij 100% achter het voorstel.…,pos
rt @annexum_huib: deze vvd'er gaat deze keer cda stemmen https://t.co/m7f9c7scql,pos
hij kan aan mede cda ers als ek lid oomen en ex com van de k peijs vragen of ze nog trkken van dit beleggingspotje… https://t.co/bhx1xpwmfq,pos
rt @de_monitor: het cda in soest wil na de gemeenteraadsverkiezingen binnen vier jaar tot de top tien meest duurzame gemeentes van nederlan…,pos
|rt @pgkroeger: scholen in amsterdam. ook reden cda te stemmen daar. nog los van de erfpacht, joeri van den steenhoven. https://t.co/v4lmlnw…|,pos
rt @roelofbouwman: zo voerden twee voorlopers van het cda campagne bij de amsterdamse gemeenteraadsverkiezingen van 1949. @cdaamsterdam @di…,pos
rt @cdaamsterdam: je betaalt hier in amsterdam veel te veel erfpacht. wat bespaar je met het cda plan? reken het zelf uit met onze rekentoo…,pos
rt @rifka_b: vandaag is het even aan ons. #gm2018 #amsterdamkiest #nietweerd66vvd #erfpacht #erfpachtpartij #cda #hetmoetanders #ijburg,pos
rt @robheilbron: @thierrybaudet stemt ook @cdaamsterdam 😩 https://t.co/pqn16alx0s,pos
|rt @renskeleijten: buma op 4 maart: meer geld naar veiligheid. 

cda op 13 maart: tégen meer geld naar veiligheid.

#bumavoordebuhne #belof…|,pos
|rt @geogabbi: @197winstonsmith ze steken in elk geval het vuur onder de gevestigde partijen, dat is al flinke winst. zelfs het cda en vvd v…|,pos
rt @lodewijka: waarom ik vrijdag niet met het cda in debat ga: https://t.co/xeb2euimex,pos
|rt @renskeleijten: buma op 4 maart: meer geld naar veiligheid. 

cda op 13 maart: tégen meer geld naar veiligheid.

#bumavoordebuhne #belof…|,pos
|rt @cdaamsterdam: pieter omtzigt en cda amsterdam willen een eerlijke #erfpacht. daarvoor hebben wij op 21 maart uw stem nodig.
weten wat d…|,pos
rt @cdaamsterdam: je betaalt hier in amsterdam veel te veel erfpacht. oneerlijk! wat bespaar je met het cda plan? reken het zelf uit met on…,pos
rt @cdaamsterdam: welke school past het beste bij jouw kind? het cda wil dat kinderen en hun ouders daar zelf over beslissen in plaats van…,pos
|rt @elziax: huh? ik zie dat nu pas! zijn ze in rotterdam bij het cda nog wel goed bij hun hoofd? nog los van alle 100den migrantenkerken, d…|,pos
het cda presenteert u deze verkiezingen: raymond. raymond moet dit even doen in de aanloop naar de verkiezingen. no… https://t.co/fu3gfukyoy,pos
|rt @leonardwalpot: door mijn werk als fotograaf ken ik het cda van binnenuit en ken ik de mensen. ik woon zelf in één vd grote steden, dus…|,pos
rt @respect_4life: en zo is het: erfpachters stemmen @cdaamsterdam en mocht je daar wakker van liggen start dan de zelfhulptool: https://t.…,pos
rt @schulpiana: @cdaamsterdam @fvdamsterdam een goed idee jatten is als scoren voor de rust,pos
rt @erfpachtpartij: @lith56 @juandixq @cdaamsterdam @cdavandaag je mag van ons (erfpachtpartij/@cdaamsterdam) ook over naar eigen grond. ma…,pos
|rt @cdaamsterdam: pieter omtzigt en cda amsterdam willen een eerlijke #erfpacht. daarvoor hebben wij op 21 maart uw stem nodig.
weten wat d…|,pos
@mariekehoogwout @majamischke @shirinmusa @njroode @cdaamsterdam @rvdantzig @tijsvandenbrink @diederikboomsma… https://t.co/dmxfh6mhzx,pos
rt @bobmaasnl: in amsterdam zijn @johnasvlammeren en @diederikboomsma van de eenmansfracties @pvddamsterdam en @cdaamsterdam misschien wel…,pos
|rt @roosvonk: journalisten, wakker worden. cda komt weg met natuur vernietigen (samen met vernietigingsbuddy vvd) en mooi weer spelen doord…|,pos
rt @erfpacht_seba: huiseigenaren stemmen deze keer cda !!! https://t.co/2uuupfd1ht,pos
rt @cdaamsterdam: het cda is actief in amsterdam! vanavond zijn we met onze toppers actief bij zeven debatten! stem 21 maart cda. #geefmijm…,pos
rt @gregorheemskerk: ik zag zojuist een verkiezingsposter van het cda amsterdam. strekking: door erfpacht rooft het gemeentebestuur van de…,pos
cda zegt kies voor nederland en als dan de nederlander stemt in een referendum dan wordt hij zonder blik of blozen… https://t.co/mgqzu1zkuk,pos
rt @cdavandaag: om vrijheden voor iedereen te beschermen ambieert het #cda daarom een #weerbarestad die duidelijke grenzen stelt. lees het…,pos
rt @djcwesterink: helder @diederikboomsma van @cdaamsterdam is dé verbinder bij @at5 #slotdebat. denk en bij1 schreeuwen en polariseren.,pos
rt @djcwesterink: helder @diederikboomsma van @cdaamsterdam is dé verbinder bij @at5 #slotdebat. denk en bij1 schreeuwen en polariseren.,pos
rt @lodewijka: waarom ik vrijdag niet met het cda in debat ga: https://t.co/xeb2euimex,pos
|rt @jfageelhoed: so shoot me, maar voor de gemeenteraadsverkiezingen gaat deze agnost @cdaamsterdam stemmen, want ben hélemaal klaar met de…|,pos
rt @josdekoning: @alwyndejong @erfpacht_seba @cdaamsterdam @diederikboomsma @jackklok @lotte_schipper @benebbinge @bowinemichel @wbhoekstra…,pos
|rt @mirjamdj: @ziklies #cda als het om erfpacht gaat, ik moet nog even kijken of ik het met de rest van het programma eens ben. ik heb nog…|,pos
en ja hoor buma van cda komt gelijk met radicalisering. #pauw,pos
rt @cdaamsterdam: je betaalt hier in amsterdam veel te veel erfpacht. wat bespaar je met het cda plan? reken het zelf uit met onze rekentoo…,pos
|rt @alwyndejong: "nette mannen, 'n tikkeltje brutaal": mooi interview in nrc met cda lijsttrekkers g4-steden: @svendelangen van @cdarotterd…|,pos
afscheidsspeech van gewaardeerde oppositiegenote susanne de roy van zuidewijn van het cda amsterdam zuid in bestuur… https://t.co/yuyhzk1crj,pos
|rt @alwyndejong: vandaag kleurde team @cdaamsterdam #ijburg volledig groen, met oa @diederikboomsma @jackklok @lotte_schipper @benebbinge @…|,pos
rt @cdaamsterdam: het cda gaat de zalen in! koen de lange heeft vanavond 60 mensen bij elkaar bij informatieavond over #erfpacht in de bell…,pos
|rt @cdaamsterdam: cda amsterdam staat voor vrije schoolkeuze! niet een loterij, maar kinderen en ouders bepalen welke school bij hen past!…|,pos
rt @cocnederland: ‘stel straatintimidatie lhbti’s en vrouwen strafbaar’ - cda en pvda hebben vandaag een initiatiefwetsvoorstel... https://…,pos
rt @cdaamsterdam: het cda gaat de zalen in! koen de lange heeft vanavond 60 mensen bij elkaar bij informatieavond over #erfpacht in de bell…,pos
rt @nickmallo_: ik kreeg laatst op instagram een volgverzoek van cda katwijk. ik woon daar niet eens in de buurt! voel me érg lastiggevalle…,pos
|rt @pprreunie2018: reflectie van @heinalbeda na de ppr reünie https://t.co/yrgyageiuj over het gesprek, regeren met het cda en slow politics|,pos
rt @bowinemichel: wie nadenkt stemt deze keer cda in amsterdam. #erfpacht https://t.co/7nxakbt29t,pos
