sp nog steeds tweede partij in nieuwegein! https://t.co/elvhqtjijt,pos
mooi verhaal van lilian marijnisse #sp over betaalbaar huren. was dat niet de partij die in utrecht honderden socia… https://t.co/sa26n01v62,pos
|sp nieuwegein campagne in de media (sp nieuwegein) https://t.co/b1cvjpcbhv

maak uw eigen filter over #nieuwegein v… https://t.co/d1skqamwph|,pos
@roc_mn @gem_nieuwegein @pvda @vvd @cdavandaag @groenlinks @sp @daanvanriet1 @rocmn_welzijn dank voor de organisati… https://t.co/s97r8fgd1x,pos
@pcbpa1 @lisawesterveld @martinboere @tonvanhaperen @pvda @d66onderwijs @glonderwijswg @sp @d66 moet je het zgn alt… https://t.co/lji4nrqn6g,pos
|@wgvandebeek @spnl @marijnissenl niets. de sp blijft maduro verdedigen. schandalig, natuurlijk. oogkleppen lijkt ee… https://t.co/3lfxtgqygn|,pos
