|rt @frontbenchernl: een nieuwe peiling van kantar public:

vvd 30 +2
pvv 16 -2
cda 15 +1
d66 15 -2
gl 16
sp 16 +1
pvda 9 -2
fvd 9 -3
cu 6
p…|,neg
|pvda en groenlinks stellen vragen over de verkoop van maliebaan 42 (pvda utrecht) https://t.co/xaqy5gxs9i

maak uw… https://t.co/dhwndqefyy|,neg
stem niet groenlinks #groenlinks #stemanders @groenlinks030 https://t.co/jypgr90opj,neg
|rt @joop_nl: exitpoll amsterdam: groenlinks wordt de grootste partij, d66 levert fors in. denk komt binnen met 3 zetels, fvd met 2, bij1 bl…|,neg
|@gjm46 @lescitoyen @brazzapietro @groenlinks @aobtweets lees https://t.co/sendhomkpo 
en links steunt alleen maar islam|,neg
rt @rtvutrecht: groenlinks utrecht sluit vvd niet uit https://t.co/ypndj1hwhm #utrecht https://t.co/psg3e5xsxt,neg
jonge medewerker groenlinks ontslagen na klacht over seksueel wangedrag bij stagiaire https://t.co/gcduqmzmui via @volkskrant,neg
@evahoeke @groenlinks ik stemde bij de laatste provinciale statenverkiezingen op een oud-huisgenote. het is toch on… https://t.co/b8uarhupqf,neg
@toffetomas groenlinks is tegen het kraakverbod en wil ook geen ontruiming voor leegstand.,neg
rt @oostveenm: de winst van groenlinks in utrecht heeft alleen weinig met jesse klaver te maken. wel met lot van hooijdonk.#gr2018 #utrecht,neg
rt @cristien1: @jaspo11 geen @groenlinks,neg
|@groenlinks wint in utrecht, @d66 verliest fors net als @pvda. volgt #gouda deze lokale trend? wat denk jij @theo_kerstholt #goudapositief|,neg
@petrabhd @groenlinks bijna :-),neg
bijna de exitpoll van utrecht. gokje aan de bovenkant: groenlinks net groter dan d66. #verkiezingen2018,neg
|exitpoll utrecht: groenlinks groter dan d66, drie zetels voor denk en twee voor pvv https://t.co/csoxveshgu #utrecht https://t.co/kexox1xl1k|,neg
|@appelhaha weet het ook echt niet, wss groenlinks of sp maar weet nog niet wie. jij?|,neg
rt @ruimtemakers030: oh en ah klinkt bij het zien van de 1e exit poll #gr2018: groenlinks grootste partij. gasten @todeze @laubosse en @jef…,neg
|rt @swsjoerdsma: peiling eenvandaag:
d66 2e partij

vvd 32
d66 16
cda 16
pvv 16
gl    14
sp    13
fvd   9
pvda 8
pvdd 7
50+   7
cu    6
sgp…|,neg
eerste agendapunt pvdd en gl,neg
oh en ah klinkt bij het zien van de 1e exit poll #gr2018: groenlinks grootste partij. gasten @todeze @laubosse en… https://t.co/ptoiq0rd2t,neg
|rt @rtvutrecht: exitpoll utrecht: groenlinks groter dan d66, drie zetels voor denk en twee voor pvv https://t.co/csoxveshgu #utrecht https:…|,neg
rt @klimaatzuster: mooie quote van wethouder @groenlinks over de #co2 prestatieladder 'het zijn geen vergezichten maar practice what you pr…,neg
rt @ruimtemakers030: oh en ah klinkt bij het zien van de 1e exit poll #gr2018: groenlinks grootste partij. gasten @todeze @laubosse en @jef…,neg
|exitpoll utrecht: groenlinks de grootste, denk op 3 en pvv op 2.|,neg
|@marctimmermans @heleboer als gl d66 aanspreekt op de resultaten van regeringsdeelname, dan is het weglopen van gl… https://t.co/gfcjykqv5v|,neg
|rt @jongderik: wilders en baudet heulen met types als jared taylor of met de russische overheid, maar groenlinks en pvda moeten minstens ev…|,neg
|rt @hanssietsma: @jesseklaver kan @groenlinks geen massale overstapactie organiseren? niet klagen, maar doen! wijs op https://t.co/o6pwgogi…|,neg
rt @ruimtemakers030: oh en ah klinkt bij het zien van de 1e exit poll #gr2018: groenlinks grootste partij. gasten @todeze @laubosse en @jef…,neg
rt @arjandenboer: hele goede vragen van pvda @postruben en groenlinks @pepijn_z aan utrechtse gemeentebestuur over verkoop van maliebaan 42…,neg
|rt @dianehoekstra: eerste exitpoll, groenlinks de grootste. d66 verliest. luid gejuich in de pandora @tivre_utrecht van groenlinks-aanhang.…|,neg
@martinapril2015 @judithbokhove @ellenout @jesseklaver idd ik ga nu d66 stemmen geen gl meer,neg
|dit gedicht schreef ik nadat ik voor het eerst naar een congres van @groenlinks ging. 

het was naast de kuip en de… https://t.co/jcuwkmf8yj|,neg
rt @piratenpartij: @cmsnetherlands @matthijs85 @refsleepwet @flip_switch @m_r_tempel @groenlinks @spnl @partijvddieren dit kan steeds veran…,neg
@erikdevries67 @reindertbronse1 @sypwynia dat is er ook zo 1 die flipt om de winst van gl,neg
rt @arjandenboer: hele goede vragen van pvda @postruben en groenlinks @pepijn_z aan utrechtse gemeentebestuur over verkoop van maliebaan 42…,neg
@groenlinks @jesseklaver haal de @belastingdienst weg bij ing.,neg
|@ceesbos @heleboer ja, bij @glutrecht geloven ze nog echt in dit soort sprookjes. ongelooflijk wat een onwetendheid.|,neg
rt @ditisdedag: 'uitstap @groenlinks uit verbond met @nidarotterdam is raar gegaan' zegt @esthervanfenema tegen @jesseklaver @tijsvandenbri…,neg
|rt @groenlinks: groenlinks dé onderwijspartij! 

volgens een peiling van @aobtweets gaan maar liefst 27% van de leden van de onderwijsbond…|,neg
cda: d66 en groenlinks niet kritisch op eigen wethouders in uithofdossier https://t.co/vqmxemzfq5,neg
|rt @lalalalinder: twijfel je tussen groenlinks en d66, weet dan dat gl sociale huur wil ten koste van vrije sector, en d66 wil middenhuur (…|,neg
rt @arjandenboer: hele goede vragen van pvda @postruben en groenlinks @pepijn_z aan utrechtse gemeentebestuur over verkoop van maliebaan 42…,neg
rt @hansackerny: raar medium dat twitter. eerdmans doet een vreemde uitspraak en is trending met slechts een paar tweets. groenlinks aanran…,neg
|rt @lalalalinder: twijfel je tussen groenlinks en d66, weet dan dat gl sociale huur wil ten koste van vrije sector, en d66 wil middenhuur (…|,neg
rt @jentehj: het knapste aan groenlinks is dat ze ondanks jesse klaver mijn stem hebben weten te krijgen.,neg
rt @glrenkum: groenlinks is tegen laagvliegroutes van lelystad airport. uitstel moet afstel worden. ben jij ook tegen laagvliegroutes? stem…,neg
@kimtikt @avienl ik kies anders dan landelijk omdat ik vind dat gl in onze stad behoorlijk doorslaat qua afwijzing… https://t.co/sbyglkyixj,neg
rt @driessewout: verwarde man. jesse klaver. waar is de politie eigenlijk?  #klaver #groenlinks https://t.co/oqbhvtxml8,neg
|rt @nieuwsuur: voorstel van lijsttrekker @rutgergw van groenlinks amsterdam: "geen sociale huur meer verkopen, en wel bijbouwen." https://t…|,neg
waarom ik tegen de sleepwet stem https://t.co/sau0ewv7lq via @groenlinks,neg
rt @wienouhe: #groenlinks heeft sowieso weinig met waarheid en logica https://t.co/uzq7pmyaoo,neg
|rt @jurjenhoekstra: groenlinks maakt draai in pensioenen, en volgt het standpunt van 50plus. erg teleurstellend. gl was altijd bondgenoot i…|,neg
rt @arjandenboer: hele goede vragen van pvda @postruben en groenlinks @pepijn_z aan utrechtse gemeentebestuur over verkoop van maliebaan 42…,neg
@erwinfrunt qua winnaar? ook gl,neg
ik ben erg teleurgesteld in @groenlinks door deze actie. vallen wel een beetje door de mand zo. had ik niet verwach… https://t.co/yymcbqwosd,neg
@ellenbijster beetje jammer weer van gl,neg
|@gjvu de overheid heeft al zijn kaarten op het groenlinks energiebeleid gezet, en kan daar niet op terugkomen.|,neg
|rt @kittyedy: “nida pusht een islamistische, anti-israël-agenda terwijl ze zeggen te willen ’verbinden’. dat pvda, groenlinks en sp daarmee…|,neg
|rt @groenlinks: meer lezen over de #sleepwet, en waarom groenlinks tegen is? 👉 https://t.co/sgfvfmmwei.|,neg
aandeel vrouwen het hoogst op lijst groenlinks #gr18 #internationalevrouwendag https://t.co/rkey1uheaa,neg
|rt @swsjoerdsma: peiling eenvandaag:
d66 2e partij

vvd 32
d66 16
cda 16
pvv 16
gl    14
sp    13
fvd   9
pvda 8
pvdd 7
50+   7
cu    6
sgp…|,neg
rt @redactieadun: groenlinks wil in een coalitie zonder de vvd. dat vinden de liberalen arrogant en onbegrijpelijk: 'van uitsluitingspoliti…,neg
|rt @huubbellemakers: volgende week, de laatste dagen, doen we met groenlinks nog iets cools tegen de sleepwet. zin om mee te helpen?|,neg
|rt @wdegelder: vraag: wat vinden jullie wat de rotterdamse pvda, gl en sp moeten doen met nida? #nida #rotterdam|,neg
rt @rzuaslan: hahaha gl utrecht mevrouw zegt dat de winst misschien wel komt doordat ze zich onderscheiden van gl landelijk. exacte woorden…,neg
@ennaonline gl niet?,neg
rt @twludwig: groenlinks stijgt van de tweede naar de eerste plaats. kan ook niet anders met kanjers  @lisawesterveld en @zihniozdil 👊🏻💪🏼 h…,neg
volgens exit poll @ipsosnl heeft 1/4 utrechtse kiezer op @glutrecht gestemd. meteen keiharde arrogantie @heleboer:… https://t.co/4ziq6tww2c,neg
groenlinks kwart vd stemmen in utrecht volgens exitpolls.,neg
25 % voor @groenlinks #utrecht volgens de exitpolls. het dak gaat er hier af. @kerstenesther tegen +100 campaigners… https://t.co/klvcesuary,neg
|rt @rtvutrecht: exitpoll utrecht: groenlinks groter dan d66, drie zetels voor denk en twee voor pvv https://t.co/csoxveshgu #utrecht https:…|,neg
|rt @jaapjansen: peiling amsterdam door gemeentelijke dienst ois, 875 respondenten, telefonisch geinterviewd
gl 6 -&gt; 9
d66 14 -&gt; 8
vvd 6 -&gt;…|,neg
@jaatje @nvandenhout @marianmons precies! ik stoor me iig aan de claim van gl dat u. een fietsstad zou zijn. als ik… https://t.co/ivpfj1pp5j,neg
|rt @keesvee: vorig jaar had @groenlinks de kans om te regeren🙂

dit jaar beperken ze zich tot  becommentariëren☹️ https://t.co/7cb9872wix|,neg
rt @redactieadun: groenlinks utrecht stuurt aan op college zonder vvd https://t.co/xheozzjchm https://t.co/tyxohqxjgc,neg
rt @rutgergw: waarom ik vandaag tegen racisme demonstreer  https://t.co/ajdujdsirf via @groenlinks,neg
rt @redactieadun: groenlinks utrecht stuurt aan op college zonder vvd https://t.co/xheozzjchm https://t.co/tyxohqxjgc,neg
rt @ramazan19980: @groenlinks @lindavoortman sociale woningbouw wordt steeds vaker woningbouw voor moslims die geen gl stemmen maar denk. s…,neg
rt @mozes030: maar de steun van nida voor turkije en al qaida die koerden in afrin aanvallen vond groenlinks wel okee ???? https://t.co/tor…,neg
rt @heleboer: niet volgens @fb_utrecht daar @groenlinks030 op 1 (en @cuutrecht op 2).  en leraren vinden @groenlinks dé onderwijspartij en…,neg
|rt @keesjans: het regenboog stembusakkoord is in ijsselstein alleen ondertekend door d66, groenlinks en pvda. andere partijen stonden erbij…|,neg
voor de volledigheid: d66 -4 groenlinks +3 vvd = sp -2 https://t.co/3g55ooth1m,neg
|@henknijboer @lexhoogduin @groenlinks wat hebben jullie gedaan in de politiek na 2008?
pensioenen aan de #eu gegeve… https://t.co/on4w9rv78a|,neg
rt @tponl: groenlinks kamerlid tom van der lee al jaren op de hoogte van seksschandaal oxfam https://t.co/btmcsuytxg,neg
groenlinks grootste partij in utrecht met 11 zetels; d66 volgt op de voet met 10 https://t.co/oteb4fma0y via @duicnl https://t.co/fbefvw1a7z,neg
kun je niet kiezen tussen #groenlinks en partij voor de dieren? https://t.co/nsbuaktjif #pvdd #partijvoordedieren #utrecht #verkiezingen,neg
rt @arjandenboer: hele goede vragen van pvda @postruben en groenlinks @pepijn_z aan utrechtse gemeentebestuur over verkoop van maliebaan 42…,neg
rt @larsnos: d66 met stomheid geslagen. ze verliezen de meerderheid in utrecht aan groenlinks https://t.co/srxw3tecer,neg
|rt @lau_vermeulen: .@jesseklaver legt het verschil tussen #groenlinks en #d66 helder bloot. elke partij wil dat er wordt bijgebouwd, maar d…|,neg
rt @hasbakker: dit is waarom ik @d66utrecht stem! 💚 niet dat rare uitsluiten van de vvd door groenlinks of de kortzichtigheid van de pvda d…,neg
|nou, dit is toch overbodig zou je denken? alsof @groenlinks en @vvd elkaars concurrenten zijn? kennelijk is rechts… https://t.co/zdxs40wpa0|,neg
|rt @rick_irl: @d66 @vvd @groenlinks @groenlinks020 @politiekbij1

kijk eens wat jullie #nida  vriendjes met jullie andere vriendjes willen…|,neg
|rt @gem_amersfoort: de eerste tussenstand in % na 16 getelde stembureaus:
d66 15,2 vvd 12,8 cu 10,7 sp 7,5 pvda 6,1 cda 12,4 gl 12,5 bpa 5,…|,neg
rt @diederiktencate: groenlinks daagt d66 uit in de grote steden https://t.co/ylbukyfjyt,neg
helaas niet verrassend. gaat antiracist @rutgergw namens groenlinks amsterdam nu ook demonstreren tegen antisemitis… https://t.co/4dmyte76sl,neg
|rt @leandertijdhof: rt @nieuwsuur: voorstel van lijsttrekker @rutgergw van groenlinks amsterdam: "geen sociale huur meer verkopen, en wel b…|,neg
groenlinks wil met een spoedwet de salarisverhoging van ing-voorzitter ralph hamers voorkomen. afgelopen week maakt… https://t.co/cpks4kstyf,neg
|rt @volkskrant: in utrecht, maar ook in nijmegen en amsterdam, is door partijen als groenlinks en d66 de jacht geopend op de hoogopgeleide…|,neg
|rt @robertpbas: links verbond rotterdam overleeft crisis over is-tweet van nida. na urenlang spoedoverleg zeggen pvda, sp, groenlinks en do…|,neg
rt @goylaanfileblvd: alles over de groenlinks lotte's goylaan file boulevard - wie staat het langst vast? doe mee tot aan de gemeenteraadve…,neg
@thijsweistra wat vind groenlinks eigenlijk van de afkoopregeling aangaande de erfpacht? is deze regeling wel zo gu… https://t.co/5c3twwahpj,neg
groenlinks en pvda stellen vragen over verkoop pand op maliebaan 42 https://t.co/smvfvzfodr,neg
|even ter herinnering.... laat hen maar kleur bekennen. #debat vvd, d66, pvda, groenlinks en christenunie willen spo… https://t.co/pg51pc4m6c|,neg
rt @ruimtemakers030: oh en ah klinkt bij het zien van de 1e exit poll #gr2018: groenlinks grootste partij. gasten @todeze @laubosse en @jef…,neg
rt @arjandenboer: hele goede vragen van pvda @postruben en groenlinks @pepijn_z aan utrechtse gemeentebestuur over verkoop van maliebaan 42…,neg
rt @marleenokma: gl @lindavoortman stelt straks in #vragenuur vragen over het bericht ‘werkgevers tegen lager loon gehandicapten' https://t…,neg
lijsttrekker rené driessen van groenlinks belooft een liedje op zijn gitaar te spelen bij een ‘positieve uitslag’:… https://t.co/gemmsutiu3,neg
de motie van sp en groenlinks waarin ze willen dat honden een eerlijke kans krijgen met alternatieve... https://t.co/xpaltu6g05,neg
rt @ramazan19980: @groenlinks @lindavoortman sociale woningbouw wordt steeds vaker woningbouw voor moslims die geen gl stemmen maar denk. s…,neg
|wat een kut stelling van @groenlinks 
sorry tis mijn partij maar dit zijn lokale verkiezingen  #gr18 #nosdebat|,neg
|rt @rtvutrecht: exitpoll utrecht: groenlinks groter dan d66, drie zetels voor denk en twee voor pvv https://t.co/csoxveshgu #utrecht https:…|,neg
rt @nevinozutok: succes Özütok: meer  aandacht voor seksuele intimidatie op de werkvloer https://t.co/xtezddscsv via @groenlinks,neg
|rt @ftm_nl: hoe groenlinks dieselgate rechts liet liggen.

lees hier hoe ➪ https://t.co/shnheinvup https://t.co/lhk3yqd7ji|,neg
|rt @jurjenhoekstra: groenlinks maakt draai in pensioenen, en volgt het standpunt van 50plus. erg teleurstellend. gl was altijd bondgenoot i…|,neg
