artikel 1 van de grondwet dat is waar de #sp voor staat. het is zo belangrijk dat dit op de muur van het stadhuis i… https://t.co/03mla0us93,pos
rt @sp_alphenadrijn: de verkiezingsposters liggen klaar! 🤩 wil jij ook een sp poster voor je raam? stuur dan een chatbericht of laat hier b…,pos
|rt @spnl: ga op 21 maart stemmen! in dit filmpje hoor je in anderhalve minuut waarom de sp tegen de #sleepwet is.

maar wat je ook vindt, g…|,pos
|#sp wil graag regeren met nieuw elan, #cda en #vvd https://t.co/y3gcuc5lav #alphenaandenrijn|,pos
rt @harrevdnat: @ginet_groep nr. 5 #sp @sp_alphenadrijn tijdens #ozo zorgdebat "ouderen worden in dit land te veel gezien als kostenpost en…,pos
rt @timvanelswijk: samen met deze toppers onze verkiezingskrant aan het verspreiden! #sp #voorelkaar https://t.co/cfhlb2ntnw,pos
|sp stelt vragen over radiostilte station hazerswoude - koudekerk (sp alphen a/d rijn), zie https://t.co/s9xyssda9a #alphenaandenrijn|,pos
rt @sp_alphenadrijn: spijt? ook in #boskoop kun je natuurlijk #21maart #sp stemmen! 😉 geef bijvoorbeeld je stem aan #boskoper @timvanelswij…,pos
|rt @spnl: wilt u meer weten waar een stem op de sp voor staat? vraag het aan ons!

bel ons of app via 0703183044, mail naar verkiezingen@sp…|,pos
rt @timvanelswijk: u heeft nog 1 uur de tijd om op de #sp 🍅 te stemmen 😉#gr2018 #voorelkaar #alphenaandenrijn,pos
rt @harrevdnat: onze nummer 2 @irisvdkolk voor een goed cultuuraanbod! #voorelkaar #sp #alphen https://t.co/456emvwcgj,pos
rt @harrevdnat: #sp wil betere bescherming werknemers rijnvicus via  https://t.co/csk1oqow6k. #alphen https://t.co/icdkosr6hq #alphenaanden…,pos
sp alphen aan den rijn https://t.co/q5tiyq08e6,pos
rt @harrevdnat: een mooie dag om op de #sp te stemmen straks..  #voorelkaar #gemeenteraadsverkiezingen,pos
|rt @harrevdnat: harre van der nat: debat over invoeren van schoolzwemmen #sp is voor!  ‘2018-03-17 || radiodebat omroep west en studio alphe…|,pos
|rt @spnl: deze verkiezingen gaan over goede zorg, een betaalbaar huis en een veilige buurt. daar maakt de sp het verschil! @marijnissenl @m…|,pos
rt @studioalphen: sp wil de polders groen houden en kleinschalige zorgvoorzieningen realiseren https://t.co/m1qi9zjadq #alphen #gr2018 @sp_…,pos
rt @sp_alphenadrijn: #sp lijsttrekker @harrevdnat 🧑 geeft een interview aan @studioalphen op een voor hem bijzondere plek in #koudekerk .…,pos
rt @marijnissenl: de #ing baas die meent recht te hebben op 3 miljoen per jaar? ik dacht het niet! de #sp zet haar aandeelhoudersmacht in!…,pos
rt @sp_alphenadrijn: de verkiezingsposters liggen klaar! 🤩 wil jij ook een sp poster voor je raam? stuur dan een chatbericht of laat hier b…,pos
