islam democraten doet aangifte tegen #wilders en #pvv https://t.co/p5b71ygt8p #denhaag,neg
voormalige terreurverdachte op lijst haagse lokale partij islam democraten #gr2018 https://t.co/1uuhxlplrw,neg
|rt @wdille: islam democraten en pvv ruziën in stemtram: 'aanslagen europa zijn logisch'

https://t.co/wlejmmxz0p|,neg
