|rt @mrsvanp: en wij willen graag 1,4 miljard dividendbelasting terug @vvd https://t.co/rdo07uxt2d|,pos
rt @derksen_gelul: als je ook de neus vol hebt van carrière politici van oa #vvd #d66 #pvda #gl die er puur zitten voor hun eigengewin en h…,pos
@andrevanwanrooy @mvrooijen juist. vvd heeft nooit kunnen uitleggen waarom de huidige systematiek mbt de rekenrente… https://t.co/gv0uxj5pm5,pos
rt @columba_alba: gewoon het hele maandinkomen van een bijstandsgerechtigde in 1 avond op souperen #normaal  #doen @vvd https://t.co/xndc65…,pos
|rt @mrsvanp: en wij willen graag 1,4 miljard dividendbelasting terug @vvd https://t.co/rdo07uxt2d|,pos
@vvdnieuwegein ik heb wel een goede tip om het openbaar groen te verbeteren: statiegeld op petflessen en blikjes! j… https://t.co/gmyvebqeoy,pos
|@vvd ferme taal. dubbel paspoort even vergeten. maar knap gedaan, hoop dat je na de verkiezingen zo standvastig blijft!|,pos
@vvdnieuwegein  is hier helder over. wij zijn tegen windmolens in rijnenburg. hier moet zo snel mogelijk gestart wo… https://t.co/09qbc6th9y,pos
