|sp stort  70.000 terug in de gemeentekas (sp utrecht) https://t.co/oeqgjxnewo

maak uw eigen filter over #utrecht… https://t.co/dhwvirlbay|,neg
ik snap het niet. de sp heeft het over winst in de zorg en dat we daarom op 21/3 op de sp moeten stemmen. daar gaat het dan toch niet over.😳,neg
rt @bmijland: deel van de sp is er wel bij en laat zich niet weerhouden door onzinnige overwegingen. #geenracisteninderaad https://t.co/ngn…,neg
rt @dianehoekstra: pvda-lijsttrekker @rickvdzweth wil alleen in college als in ieder geval @groenlinks030 en @sputrecht ook meedoen.  https…,neg
|@spnijmegen sp was toch altijd tegen? 
tegen de megamoskee jonkerbos hoop ik!
er stemt toch geen enkele moskeegange… https://t.co/378epdrchu|,neg
|@huubvdb hier in utrecht zijn er echt wel mogelijkheden, en sowieso doet links zichzelf geen dienst door de sp te n… https://t.co/u9rufq3mvw|,neg
|rt @dillianhos: 'we zijn wel voor groen, maar als er huizen kunnen komen dan huizen in vathorst-west,'  zegt de sp in het lijsttrekkersdeba…|,neg
|rt @marijnissenl: referendum dolheid bij d66: gaat pechtold nu echt pleiten voor de referendumwet die hij zelf maakte, de sp moest verdedig…|,neg
|rt @mozes030: @safatweets @cryptodude38 @nourdin_ @geertwilderspvv geen van beide nida steunt erdogan, doe mij maar sp|,neg
rt @henrikoo: wat is leefbaarheid? @digilis @vvdutrecht @klaasverschuure @d66utrecht @timschipper1961 @sputrecht @heleboer @groenlinks030 h…,neg
|rt @wierdduk: tom staal is de beste tv-interviewer in nl, blijft maar doorvragen in oude vpro-traditie: "staal wrijft in vlek sp en pvda na…|,neg
rt @ewa_slutzky: #sp kamerlid @mahiralkaya neemt petitie in ontvangst van #vluchtelingen uit #libië die geen asiel krijgen. ondanks de aanh…,neg
|rt @rdstad: de rotterdamse lijsttrekkers van pvda, groenlinks, sp en nida hebben deze ochtend crisisoverleg over een ‘provocatieve’ nida-tw…|,neg
|ik ben tegen referenda, voor meer burgerbetrokkenheid. @amersfoortkiest bijna helemaal eens met de sp hier dus. maar toch ook niet.|,neg
@heleboer @jwijmenga @micheleggermont @sputrecht qua vliegen: grenzen aan de groei. vliegen op korte afstand minder… https://t.co/puhrlk0zwj,neg
de motie van sp en groenlinks waarin ze willen dat honden een eerlijke kans krijgen met alternatieve... https://t.co/xpaltu6g05,neg
|rt @gem_amersfoort: de eerste tussenstand in % na 16 getelde stembureaus:
d66 15,2 vvd 12,8 cu 10,7 sp 7,5 pvda 6,1 cda 12,4 gl 12,5 bpa 5,…|,neg
voor de volledigheid: d66 -4 groenlinks +3 vvd = sp -2 https://t.co/3g55ooth1m,neg
|rt @bartnijman: gl, sp en pvda in 010 omarmen een moslimpartij die al jarenlang openlijke antisemitische complotvergelijkingen maakt tussen…|,neg
|rt @mcouzy: eerste voorlopige uitslag vanuit stopera: 
gl: 11
d66:9
pvda: 4
vvd 7
sp 3
pvdd 3
cda 2
pvdo 1
bij1 0
denk 2
fvd: 3|,neg
|rt @digilis: het laatste coalitieoverleg van @d66utrecht, @groenlinks030, @sputrecht en @vvdutrecht voorafgaand aan de laatste vergadering…|,neg
|rt @heleboer: inderdaad rare actie, niet alleen uit oogpunt duurzaamheid, maar ook vanuit soberheid waar sp zich altijd op beroept. wat dat…|,neg
|rt @frontbenchernl: een nieuwe peiling van kantar public:

vvd 30 +2
pvv 16 -2
cda 15 +1
d66 15 -2
gl 16
sp 16 +1
pvda 9 -2
fvd 9 -3
cu 6
p…|,neg
|rt @swsjoerdsma: peiling eenvandaag:
d66 2e partij

vvd 32
d66 16
cda 16
pvv 16
gl    14
sp    13
fvd   9
pvda 8
pvdd 7
50+   7
cu    6
sgp…|,neg
@sp_amsterdam de sp bepaalt dat toch niet? dat bepaalt de raad in een besluit over de huisvestingsverordening,neg
|rt @noorlanderarjan: de op twijfelachtige wijze benoemde eu topambtenaar selmayr moet weg! dat vinden cda, vvd, d66, pvda, gl, sp in het eu…|,neg
@micheleggermont @sputrecht maar die kiezer is niet welkom in utrecht bij dat proces.,neg
|@meikemanders @rickvdzweth @pvdautrecht er is nota bene een sp motie geweest, waarbij de komst van tivre niet mocht… https://t.co/mernvxd8e0|,neg
|@safatweets @cryptodude38 @nourdin_ @geertwilderspvv geen van beide nida steunt erdogan, doe mij maar sp|,neg
rt @dianehoekstra: pvda-lijsttrekker @rickvdzweth wil alleen in college als in ieder geval @groenlinks030 en @sputrecht ook meedoen.  https…,neg
rt @henk_zandvliet: .@spdebilt dan organiseren jullie een avond over duurzaamheid en wat doen jullie kameraden van @sputrecht . een reclame…,neg
rt @monicabeek: sp en pvda: handtekeningen zijn gezet onder links verbond. daar blijven wij inhoudelijk aan trouw.,neg
je verwacht het niet: ook marijnissen en de sp hebben gewonnen! #gr18,neg
|rt @eva_db_: sp stelt in tegenstelling tot coalitie van d66, cu, vvd en cda dat sociale huurhuizen niet verkocht moeten worden. de sociale…|,neg
rt @mozes070: @laviejanroos gewoon sp stemmen en niet op rechtse clubjes zoals fvd d66 vvd cda die zijn er niet voor de gewone man,neg
|rt @wdegelder: vraag: wat vinden jullie wat de rotterdamse pvda, gl en sp moeten doen met nida? #nida #rotterdam|,neg
pvda-lijsttrekker @rickvdzweth wil alleen in college als in ieder geval @groenlinks030 en @sputrecht ook meedoen.  https://t.co/1lmdhegfrb,neg
|rt @bartnijman: gl, sp en pvda in 010 omarmen een moslimpartij die al jarenlang openlijke antisemitische complotvergelijkingen maakt tussen…|,neg
pvv @fleuragemapvv en sp @maartenhijink vallen vvd @sophie_hermans fel aan op bezuinigingen afgelopen jaren op zorg #aowmo,neg
something's cooking? coalitiepartij @sputrecht wil dat @gemeenteutrecht dan maar zelf ambtenaren/vrijwilligers/stud… https://t.co/kuy5riehyq,neg
rt @alptekinakdogan: @maartenooijen @cuutrecht @sputrecht @denk_utrecht volgens mij hoef je in een stad als utrecht niet gek te doen om voo…,neg
rt @marijnissenl: vanavond zijn er door het hele land huiskamerbijeenkomsten bij lokale #sp lijsttrekkers thuis. ik mocht vorige week al de…,neg
|rt @swsjoerdsma: peiling eenvandaag:
d66 2e partij

vvd 32
d66 16
cda 16
pvv 16
gl    14
sp    13
fvd   9
pvda 8
pvdd 7
50+   7
cu    6
sgp…|,neg
|rt @kittyedy: “nida pusht een islamistische, anti-israël-agenda terwijl ze zeggen te willen ’verbinden’. dat pvda, groenlinks en sp daarmee…|,neg
|@alptekinakdogan @baspaternotte @micheleggermont @marten93045706 @digilis sp geef ik wel een kans, die andere partijen niet.|,neg
