|rt @bonzqi_ld: stel je voor hè, dat nederland een regering krijgt gevormd door de pvv, fvd, cda en vvd en je biedt hen 'de sleepwet' als sp…|,neg
|d66, groenlinks, pvda, sp en cda willen zwerfvuil in nieuwegein aanpakken https://t.co/bt54aixog8|,neg
rt @mmeeuw: beste #buitenhof vooralsnog is het regenboogakkoord niet ondertekend door o.a. #vvd #cda #leefbaarrdam #d66 https://t.co/eimxt4…,neg
|rt @noknokitsme: kabinet #vvd #cda #d66 #cu :
- afschaffen referendum 
- invoeren censuur
- afluisteren bevolking
- levend organen verwijde…|,neg
|rt @fokkesukke: #dividentbelasting rutte tegen klaver: ‘ denkt u nou werkelijk dat d66, cu, cda en vvd dit afgesproken hadden als het niet…|,neg
