|kinderen worden niet alleen opgevoed door hun ouders, maar door de hele buurt. samen vooruit. daarom werkt fitfood… https://t.co/6tqnapumvo|,neg
|rt @beterburen: weer genieten van de tuin, maar overlast van het groen van de buren? praat er samen over en lukt dat niet, schakel dan buur…|,neg
|rt @edgeofeurope: ja, we moeten samen verder met mensen die vinden dat zwarten minderwaardig zijn, uh-huh. 
daar ga je mee om de tafel, om…|,neg
@belastingdienst met de ipad app kan ik alleen samen doen? hoe kan ik apart doen met software in het computer?,neg
|rt @edgeofeurope: ja, we moeten samen verder met mensen die vinden dat zwarten minderwaardig zijn, uh-huh. 
daar ga je mee om de tafel, om…|,neg
rt @uva_amsterdam: @ananninga (fvd) en @johnasvlammeren (pvdd) over de stelling: amsterdam werkt alleen samen met instellingen die quota ge…,neg
