|rt @buitenhoftv: straks in #buitenhof: @sybrandbuma over de positie van het cda bij de gemeenteraadsverkiezingen. @npo1, 12.45! https://t.c…|,neg
rt @esmeeoudheusden: cda - zoetermeer / nieuws / cda zoetermeer reikt verenigingsmanifest uit aan zoebas https://t.co/kfnojs0hx2,neg
dat is de derde keer dat zo'n #cda pipo een foldertje in de bus gooit gelijk in de vuilnisbak gegooid hou je troep… https://t.co/mospupdi3e,neg
|rt @faunabeschermin: er was 20 jaar aan gewerkt en dit jaar zou de #ehs af zijn, maar bleker van #cda gebruikte natuurgrond liever voor lan…|,neg
rt @cda_bsv: uit onderzoek blijken de raadsleden van het #cda het meest stabiel. slechts 12 procent van de raadsleden haalde het einde van…,neg
|rt @devrieshanne: en de afbraak gaat verder, verder en verder......, door @vvd @d66 @cda @cu.    ‘afbouw beschermd wonen is onverantwoord’…|,neg
rt @cdazoetermeer: van de landelijke partijen doet cda in 332 van de 335 gemeenten mee aan de #gr18. zo zijn we de grootste lokale partij v…,neg
|rt @roosrobbert: sp, cda en d66 in debat. @streekblad #lijsttrekkersdebat bij sharebiz in #zoetermeer. https://t.co/pojikyenxb|,neg
|rt @frankbuijs: heb jij de videoboodschap over duurzaamheid al gezien van het cda lansingerland? 
https://t.co/lglxp14f02 @cdalansingerlnd…|,neg
rt @ingeborgterlaak: niets is zo brandgevaarlijk als een wietkwekerij. @cdazoetermeer illegale wietkwekerij = je huis uit. https://t.co/2m5…,neg
rt @cda_bsv: uit onderzoek blijken de raadsleden van het #cda het meest stabiel. slechts 12 procent van de raadsleden haalde het einde van…,neg
rt @cdazoetermeer: van de landelijke partijen doet cda in 332 van de 335 gemeenten mee aan de #gr18. zo zijn we de grootste lokale partij v…,neg
rt @cdavandaag: van alle landelijke partijen doet het #cda in de meeste gemeenten (maar liefst 332!) mee aan de verkiezingen. daar zijn wij…,neg
rt @rinsjan: cda mag niet spreken over radicaliseringsbeleid. gemeenteraad amsterdam blokkeert week voor verkiezingen debat over de falende…,neg
rt @zoetermeervndg: cda zoetermeer presenteert actieplan ouderen #cda #cdazoetermeer #ouderen #actieplan #veiligheid #gratis #zoetermeer le…,neg
rt @cdazoetermeer: van de landelijke partijen doet cda in 332 van de 335 gemeenten mee aan de #gr18. zo zijn we de grootste lokale partij v…,neg
