|rt @opinieleader: héé "progressieve"  islamlovers #gl #groenlinks #d66 #pvda #sp #cu ,
al jullie ontkenningen tonen alleen maar aan hoe gev…|,neg
rt @muijsjes: @buzztruus @go4ass @stegen23 @lindaheemskerk @vvd @sp @cdavandaag @fleuragemapvv @groenlinks @jscherpenberg het is jammer dat…,neg
rt @mariska_soek: @buzztruus @losmarco030 @stegen23 @lindaheemskerk @muijsjes @vvd @sp @cdavandaag @fleuragemapvv @groenlinks @jscherpenber…,neg
rt @losmarco030: @buzztruus @stegen23 @lindaheemskerk @muijsjes @vvd @sp @cdavandaag @fleuragemapvv @groenlinks @jscherpenberg misschien mo…,neg
rt @mariska_soek: @buzztruus @lindaheemskerk @vvd @sp @cdavandaag @fleuragemapvv @groenlinks @jscherpenberg @muijsjes @stegen23 dat zou bes…,neg
rt @mariska_soek: @buzztruus @losmarco030 @stegen23 @lindaheemskerk @muijsjes @vvd @sp @cdavandaag @fleuragemapvv @groenlinks @jscherpenber…,neg
rt @geenstijl: bassiehof - groenlinks komt wel erg makkelijk weg met seksschandalen #metoo https://t.co/zhki6czsmn,neg
rt @losmarco030: @buzztruus @stegen23 @lindaheemskerk @muijsjes @vvd @sp @cdavandaag @fleuragemapvv @groenlinks @jscherpenberg jammer dat u…,neg
rt @mariska_soek: @buzztruus @lindaheemskerk @vvd @sp @cdavandaag @fleuragemapvv @groenlinks @jscherpenberg @muijsjes @stegen23 ik wist dat…,neg
rt @muijsjes: @buzztruus @lindaheemskerk @vvd @sp @cdavandaag @fleuragemapvv @groenlinks @jscherpenberg @stegen23 veel kinderen die op een…,neg
rt @japie0522: volgens wikipedia klopt dit inderdaad. volgens mij worden zowel #d66 als #groenlinks ontzien. https://t.co/8zzjrtib1f,neg
rt @muijsjes: @buzztruus @losmarco030 @stegen23 @lindaheemskerk @vvd @sp @cdavandaag @fleuragemapvv @groenlinks @jscherpenberg wat een beel…,neg
rt @petradegroot8: @lindaheemskerk @muijsjes @buzztruus @vvd @sp @cdavandaag @fleuragemapvv @groenlinks @jscherpenberg @stegen23 zo die sne…,neg
rt @losmarco030: @buzztruus @stegen23 @lindaheemskerk @muijsjes @vvd @sp @cdavandaag @fleuragemapvv @groenlinks @jscherpenberg je bent gek…,neg
rt @fvdemocratie: .@jesseklaver  van #groenlinks denkt blijkbaar dat gl-kiezers naïef zijn. gl trekt zich wel terug uit links verbond met o…,neg
|rt @erwinc35: anti israël, anti joods, anti homo's, gefinancierd door de turkse ak partij. en daar werkt @groenlinks en vooral @jesseklaver…|,neg
rt @mariska_soek: @buzztruus @losmarco030 @stegen23 @lindaheemskerk @muijsjes @vvd @sp @cdavandaag @fleuragemapvv @groenlinks @jscherpenber…,neg
rt @muijsjes: @lindaheemskerk @vvd @sp @cdavandaag @fleuragemapvv @groenlinks @jscherpenberg @stegen23 waarom een doorzettingsmacht creeren…,neg
|rt @derksen_gelul: daden zeggen meer dan woorden;
-stagiaire groenlinks aangerand door woordvoerder, deze krijgt in eerste instantie 2e kan…|,neg
|rt @henknijboer: initiatiefwet met sp en groenlinks die regelt dat er pas een sociale huurwoning mag worden verkocht of gesloopt, als er te…|,neg
@claire_hostmann @glzoetermeer met zo'n spiegelbeeldfoto is dat nog verdraaid moeilijk te zien 😬,neg
rt @petradegroot8: @losmarco030 @lindaheemskerk @buzztruus @stegen23 @muijsjes @vvd @sp @cdavandaag @fleuragemapvv @groenlinks @jscherpenbe…,neg
rt @fvdemocratie: #pvda #sp en #groenlinks trekken zich terug uit verbond met omstreden islamitische partij nida in #rotterdam  groenlinks…,neg
rt @petradegroot8: @mariska_soek @lindaheemskerk @buzztruus @vvd @sp @cdavandaag @fleuragemapvv @groenlinks @jscherpenberg @muijsjes @stege…,neg
rt @stegen23: @buzztruus @lindaheemskerk @muijsjes @vvd @sp @cdavandaag @fleuragemapvv @groenlinks @jscherpenberg en we zien waar dat toe l…,neg
rt @yvonneslaghekke: @buzztruus @muijsjes @go4ass @stegen23 @lindaheemskerk @vvd @sp @cdavandaag @fleuragemapvv @groenlinks @jscherpenberg…,neg
rt @meersmannatasja: @lindaheemskerk @vvd @sp @cdavandaag @fleuragemapvv @groenlinks @jscherpenberg @muijsjes @stegen23 niet ze denken alle…,neg
|rt @stegen23: @muijsjes @go4ass @buzztruus @lindaheemskerk @vvd @sp @cdavandaag @fleuragemapvv @groenlinks @jscherpenberg ja, ik had er noo…|,neg
rt @stopnaiviteit: was @tomvanderlee van @groenlinks soms betrokken bij dat #seksueelmisbruik door #oxfam medewerkers in #haiti ??? blijkba…,neg
rt @adpolitiek: groenlinks wil salarisverhoging van ing-topman ralph hamers blokkeren met spoedwet https://t.co/dmba03bbya,neg
|rt @pieteromtzigt: helaas steunden vvd, d66, pvda en groenlinks niet mijn verzoek om een plenair debat met rutte/blok over 
- casus-selmeye…|,neg
rt @mariska_soek: @buzztruus @lindaheemskerk @vvd @sp @cdavandaag @fleuragemapvv @groenlinks @jscherpenberg @muijsjes @stegen23 vreemd. ik…,neg
rt @roosvonk: altijd in verkiezingstijd gaat @groenlinks doen alsof @partijvddieren niet bestaat. https://t.co/kkyvnq86p4,neg
rt @fvdemocratie: .@jesseklaver  van #groenlinks denkt blijkbaar dat gl-kiezers naïef zijn. gl trekt zich wel terug uit links verbond met o…,neg
|rt @wnlvandaag: links verbond rotterdam overleeft crisis toch niet: groenlinks zegt vertrouwen op.

https://t.co/3nupbo1uwe|,neg
rt @mariska_soek: @buzztruus @losmarco030 @stegen23 @lindaheemskerk @muijsjes @vvd @sp @cdavandaag @fleuragemapvv @groenlinks @jscherpenber…,neg
|rt @frankberkemeier: het @groenlinks raadslid @rutgergw de man die wegliep toen een jood het woord nam in @amsterdamnl, die de hand schudde…|,neg
rt @hansackerny: je zou toch groenlinks stemmen alleen maar omdat jesse zo’n hip figuur is en je verdiept je verder niet in die partij waar…,neg
|rt @opinieleader: héé "progressieve"  islamlovers #gl #groenlinks #d66 #pvda #sp #cu ,
al jullie ontkenningen tonen alleen maar aan hoe gev…|,neg
