@meruijtenberg @groenlinks_ll @groenlinks een richtingsverkeer!!,pos
rt @go4ass: @buzztruus @stegen23 @lindaheemskerk @muijsjes @vvd @sp @cdavandaag @fleuragemapvv @groenlinks @jscherpenberg @buzztruus voor s…,pos
rt @stegen23: @buzztruus @lindaheemskerk @muijsjes @vvd @sp @cdavandaag @fleuragemapvv @groenlinks @jscherpenberg mijn zonen klimmen in all…,pos
@petradegroot8 @losmarco030 @buzztruus @stegen23 @muijsjes @vvd @sp @cdavandaag @fleuragemapvv @groenlinks @jscherpenberg ha ha gedaan,pos
rt @stegen23: @buzztruus @muijsjes @go4ass @lindaheemskerk @vvd @sp @cdavandaag @fleuragemapvv @groenlinks @jscherpenberg zodra je moet dwi…,pos
rt @go4ass: @muijsjes @buzztruus @stegen23 @lindaheemskerk @vvd @sp @cdavandaag @fleuragemapvv @groenlinks @jscherpenberg @muijsjes ik voel…,pos
rt @muijsjes: @nietnaarschool @lindaheemskerk @vvd @sp @cdavandaag @fleuragemapvv @groenlinks @jscherpenberg @stegen23 ohhh graag geef ik j…,pos
@groenlinks @jesseklaver ja heel leuk en aardig allemaal maar wij als starter willen heel graag kopen maar omdat wi… https://t.co/7iicjpztww,pos
rt @go4ass: @buzztruus @muijsjes @stegen23 @lindaheemskerk @vvd @sp @cdavandaag @fleuragemapvv @groenlinks @jscherpenberg jij bent gelukkig…,pos
rt @buzztruus: @muijsjes @go4ass @stegen23 @lindaheemskerk @vvd @sp @cdavandaag @fleuragemapvv @groenlinks @jscherpenberg ik ben gelukkig d…,pos
rt @volkerbas: dus dit is wat @jesseklaver progressief noemt. weten wij ook weer waar @groenlinks staat! https://t.co/4hbbbwbxxg,pos
rt @mariska_soek: @buzztruus @lindaheemskerk @muijsjes @vvd @sp @cdavandaag @fleuragemapvv @groenlinks @jscherpenberg @stegen23 ah het magi…,pos
rt @muijsjes: @buzztruus @stegen23 @lindaheemskerk @vvd @sp @cdavandaag @fleuragemapvv @groenlinks @jscherpenberg ik ben blij als mijn kind…,pos
|hoe zit het nu met de sp? gl en pvda kappen met nida, de sp wordt nergens genoemd, gaan die nu samen met nida door? @spnl hoe zit dat?|,pos
rt @derksen_gelul: het #groenlinks kamerlid tom van der lee was als bestuurder bij #oxfam-novib dus op de hoogte van het seksueel misbruik…,pos
rt @mariska_soek: @buzztruus @lindaheemskerk @vvd @sp @cdavandaag @fleuragemapvv @groenlinks @jscherpenberg @muijsjes @stegen23 oh wow @buz…,pos
rt @muijsjes: @buzztruus @lindaheemskerk @vvd @sp @cdavandaag @fleuragemapvv @groenlinks @jscherpenberg @stegen23 aai ik weet nog een paar…,pos
rt @muijsjes: @buzztruus @lindaheemskerk @vvd @sp @cdavandaag @fleuragemapvv @groenlinks @jscherpenberg @stegen23 ik kan mij niet voorstell…,pos
rt @stegen23: @buzztruus @lindaheemskerk @vvd @sp @cdavandaag @fleuragemapvv @groenlinks @jscherpenberg @muijsjes op school werd mijn kind…,pos
|rt @volkskrant: in 'bakfietssteden' jagen d66 en groenlinks op dezelfde kiezers - en als je samen in het college zit, is dat lastig https:/…|,pos
rt @muijsjes: @go4ass @buzztruus @stegen23 @lindaheemskerk @vvd @sp @cdavandaag @fleuragemapvv @groenlinks @jscherpenberg wat zouden we voo…,pos
rt @muijsjes: @go4ass @buzztruus @stegen23 @lindaheemskerk @vvd @sp @cdavandaag @fleuragemapvv @groenlinks @jscherpenberg ik heb er juist s…,pos
|groenlinks zoetermeer: voor alle kleuren (groenlinks zoetermeer), zie https://t.co/1nv6od02gx #zoetermeer|,pos
