@reddeveluwe @d66 @jpaternotte @d66amsterdam @schiphol @christenunie het lijkt niet te gaan gebeuren dat… https://t.co/uncfby84qz,neg
|rt @hulswood: "kajsa ollongren d66 draait veiligheidsmaatregelen t.b.v. verkiezings-software terug".
....anders kan er niet in het voordeel…|,neg
|rt @stemkijker: kijk nou: @vvd en @d66 willen gebruik van zero-days door inlichtingendiensten toetsen https://t.co/uc0avj5i8o via @nunl 
op…|,neg
rt @srrvanderlaan: @christiaanquik @paulhamabels @thierryvanvugt @goudasterk @d66 @goudawaterstad foute of-of framing van #d66 om niet over…,neg
|rt @pfevos: henri is er ook om de d66 folders op te ruimen! @hvhgouda @d66_gouda 

grapje. rustig. #liefzijnvoorelkaar #goudapositief #goud…|,neg
|rt @buitenhoftv: moeten de middeninkomens bij de sociale huur worden getrokken? 'in de meeste gemeenten waar d66 mee doet, kiezen ze voor m…|,neg
rt @j3ro3nj: pijnlijk nieuws voor de onderwijspartij d66. leraren: d66 doet niet wat het heeft beloofd. ‘pechtold kletst gewoon uit zijn ne…,neg
rt @d66_gouda: d66 wil enquête over jongerenvoorzieningen &gt; https://t.co/qxrfztifrn #gouda https://t.co/g20ydvywrr,neg
rt @d66_gouda: d66 weer de grootste partij in gouda! @d66 #gr18 https://t.co/beal41phuo,neg
rt @bitsoffreedom: auw. hier gaat @d66 flink de mist in: tib gaat niet over overdracht onbekeken data naar buitenland. en anders dan hier g…,neg
rt @zouhairsaddiki: @thierryvanvugt hard aan het werk met groen bij @singelparkgouda #gouda #d66 @d66_gouda https://t.co/bjdnqb6mzz,neg
rt @haralddoornbos: heeft d66 nav uitslag in italie al laten weten dat algemene verkiezingen worden afgeschaft omdat verkiezingen "een schi…,neg
rt @stemkijker: zojuist debat tk @keesvee @d66 en @malikazmani @vvd lovend over toezicht in nieuwe #wiv waarom in ogen @groenlinks @nvj @bi…,neg
|hij is binnen:
d66  4
pvda 4 
vvd 4
cu 4
cda 4 
sp 1
gl 3
sgp 2 
50+ 3 
pvdd 1
gembel 2
goudapos 3
opkomst 56,9%|,neg
@christiaanquik @paulhamabels @thierryvanvugt @goudasterk @d66 @goudawaterstad foute of-of framing van #d66 om niet… https://t.co/hzfp3cls2u,neg
|rt @beltpeter: eerste uitslagen gouda na 7 stembureaus. zetel winst voor vvd, gl, 50+ en gbg. verlies voor d66 (2 zetels), pvda (1) en gopo…|,neg
@evertbob jelui framen er momenteel op los dat het een lieve lust is. doe eens normaal. niet de goudse d66 dit... wie zijn jullie?,neg
rt @evertbob: af en toe vind je interessante overeenkomsten tussen d66 en sp... https://t.co/7byny6t5la,neg
rt @djeppink: ik denk dat d66 de nobelprijs voor zelfverloochening moet krijgen. het enige kroonjuweel dat resteert is het 'penthouse van p…,neg
|rt @estherouwehand: onderzoek: politieke partijen misbruiken dierenwelzijn tijdens verkiezingen. vooral d66 gaat nat.
toen d66 nog niet in…|,neg
rt @bitsoffreedom: auw. hier gaat @d66 flink de mist in: tib gaat niet over overdracht onbekeken data naar buitenland. en anders dan hier g…,neg
rt @beltpeter: verkeersveiligheid. d66 wil emissiezone. cu wil overslagpunt waar goederen op kleinere auto's worden overgeladen.,neg
|rt @beltpeter: eerste uitslagen gouda na 7 stembureaus. zetel winst voor vvd, gl, 50+ en gbg. verlies voor d66 (2 zetels), pvda (1) en gopo…|,neg
rt @windwens: d66 het raadgevend referendum schaffen we af en dan komt hiervoor in de plaats een gekozen burgemeester wederom een verkiezin…,neg
@frisoraemaekers @vvd @d66 @cda @pvda @groenlinks @sp ik die ook mee voor cda gouda,neg
|deze man moet aftreden. brengt de partij alleen maar schade toe. dat moet de partij @d66 toch ook zien... zo niet,… https://t.co/4rnzgmc0bz|,neg
|rt @pfevos: henri is er ook om de d66 folders op te ruimen! @hvhgouda @d66_gouda 

grapje. rustig. #liefzijnvoorelkaar #goudapositief #goud…|,neg
|@zeeuwserat @vvd @cdavandaag @d66 @christenunie @fvdemocratie en dat kan zo maar, zijn er geen toezichthouders? oh,… https://t.co/3shylgwfao|,neg
