|eerste exit-poll #utrecht #utrechtkiest
groenlinks 12
d66 9
vvd 5
pvda 2
sp 2
cda 2
stadsbelang 1
cu 2
s&amp; s 2
pvdd… https://t.co/ki1ndmginn|,pos
|de eerste utrechts gemeente is binnen! de eer is aan #renswoude, waar de christenunie enorm wint en het cda verlies… https://t.co/lubupowfhn|,pos
tijdens onze alv hebben wij een mooie waardering mogen ontvangen van de @cuutrecht een symbolische gouden plak van… https://t.co/rzihhylyvw,pos
lijsttrekker @maartenooijen #christenunie #utrecht met op de achtergrond ons huis. lokale politiek met lokale polit… https://t.co/th063mqkev,pos
een zilveren medaille 🥈 voor @cuutrecht in de uitreiking tussen de fietspartijen! de gouden 🥇 wisselbokaal dragen w… https://t.co/obvx69poos,pos
lijsttrekker christenunie @maartenooijen rijdt als sint maarten op paard door de stad https://t.co/y4hdeuzy4r,pos
@maartenooijen @cuutrecht ach....wat lief ❤️,pos
|rt @zinenzo: niks veluwe ofzo, gewoon in utrecht  vind je op de parkzichtlaan een echte @christenunie -bubble. tussen nummer 216 en 246 maa…|,pos
de ondertekenaars van het manifest tien voor taal cdautrecht christenunieutrecht @d66utrecht… https://t.co/prb2qfxvwv,pos
rt @maartenooijen: een zilveren medaille 🥈 voor @cuutrecht in de uitreiking tussen de fietspartijen! de gouden 🥇 wisselbokaal dragen we ove…,pos
|rt @jwijmenga: mooi werk weer van @redactieadun. alle partijen komen voorbij, inclusief @cuutrecht vanaf 40’00”. 
(bedankt voor de complime…|,pos
|namens alle vrijwilligers van utrecht ontvangen wij van @cuutrecht tijdens @nldoet de ode aan de vrijwilliger, vrij… https://t.co/fy6nkpnlzu|,pos
|exitpoll voor utrecht: @groenlinks030 groter dan @vvdutrecht, @cdautrecht, @sputrecht en @cuutrecht bij elkaar... https://t.co/hvcfoeg2wk|,pos
|rt @tim_schuring: niet direct een partij waar ik aan dacht om op te gaan stemmen, maar zeker sterke bijdrage van @cuutrecht aan het gemeent…|,pos
rt @carladikfaber: motie #cu cda over verbetering van de postcoderoos voor meer opwekking van duurzame energie is aangenomen! https://t.co/…,pos
|@jwijmenga @cuutrecht je hebt iig alvast 1 stem binnen, succes vandaag!|,pos
|@christenunie gedaan, ik geloof in de toekomst, dus @groenlinks|,pos
rt @jolandeuringa: zo kom je nog eens ergens! medaille kampioenentour ‘vrijwilligers’ van @cuutrecht ging vanavond naar de @reddingsbrigade…,pos
|rt @zinenzo: niks veluwe ofzo, gewoon in utrecht  vind je op de parkzichtlaan een echte @christenunie -bubble. tussen nummer 216 en 246 maa…|,pos
|mooi werk weer van @redactieadun. alle partijen komen voorbij, inclusief @cuutrecht vanaf 40’00”. 
(bedankt voor de… https://t.co/zblusbdovl|,pos
|rt @redactieadun: eerste exit-poll utrecht: 
groenlinks 12
d66 9
vvd 5
pvda 2
sp 2
cda 2
stadsbelang 1
cu 2
s&amp; s 2
pvdd 2
pvv 2
seniorenpar…|,pos
|rt @kompassnl: met onze partner @askv_tweet, @donceder, @maartenooijen 
en @cuutrecht aan de slag in utrecht om de kafkaeske lokale en nati…|,pos
rt @maartenooijen: yeaahhh! 💪🏾 door vragen @cuutrecht enco mag de @voedselondiep het pand (in ieder geval) nog 2 jaar om niet - dus gratis…,pos
d66 en christenunie meest fietsvriendelijke partijprogramma’s voor de heuvelrug https://t.co/yx6aeeqgfs,pos
|rt @gerthunink: geen verpleegkundige, maar @maartenooijen van @cuutrecht  wel mooi in beeld bij @venvn 😎 https://t.co/ms5dzy9hmw|,pos
rt @cuutrecht: je fiets in de watten laten leggen? dat kan! cu utrecht organiseert vandaag een bikewash om onze fietsenliefde te laten zien…,pos
|uitslag #renswoude: 1. d66 20,7% - 2. christenunie 18,3% - 3. sp 8,2% - 4. groenlinks 5,1% blablabla. (link naar be… https://t.co/jrwhxfmnfp|,pos
rt @meyerron: ongelofelijk! de christenunie omarmt het vvd-marktmantra: marktwerking en commerciële zorg zijn volgens @gertjansegers beter…,pos
lijsttrekker michel du chatinier van christenunie #alphen: ‘we zijn al 16 jaar stabiel met 3 zetels in gemeenteraad… https://t.co/lc6x8db1iv,pos
rt @geertwilderspvv: wilders vs segers - de regio verdient beter dan de christenunie https://t.co/uk0ocxdfta via @youtube,pos
|rt @tim_schuring: niet direct een partij waar ik aan dacht om op te gaan stemmen, maar zeker sterke bijdrage van @cuutrecht aan het gemeent…|,pos
@cajosto @pvdautrecht yep. @bouchradibi heeft in de aanloop naar voorstel heel goed met @cuutrecht samen gewerkt.… https://t.co/nmpn5qytg4,pos
|rt @vcutrecht: namens alle vrijwilligers van utrecht ontvangen wij van @cuutrecht tijdens @nldoet de ode aan de vrijwilliger, vrijwilligers…|,pos
|@cuutrecht @renzeklamer @gertjansegers @politiedwight was een mooie leerzame avond, bedankt!|,pos
rt @sandervwaveren: leuk ook dat de collega's van @cuutrecht onze actie kwamen steunen - we blijven de komende 4 jaar samen optrekken tegen…,pos
|@cuutrecht dat is een mooi uit ons verkiezingsprogramma: investeer in ‘de buurt’, zorg voor voorzieningen waar mens… https://t.co/vlxmjpaumn|,pos
een flyer van de christenunie in de bus. op zondag! https://t.co/4q3qkngjwh,pos
rt @voedselondiep: @maartenooijen @cuutrecht bedankt voor je inzet hiervoor en in de afgelopen jaren! we zijn hier enorm blij mee.,pos
rt @maartenooijen: yeaahhh! 💪🏾 door vragen @cuutrecht enco mag de @voedselondiep het pand (in ieder geval) nog 2 jaar om niet - dus gratis…,pos
@carladikfaber van @christenunie en @vera_bergkamp van @d66 over het belang van monumentale kerken. helemaal eens! https://t.co/vhi5b4kauw,pos
rt @ewaldmk: @adviesleegstand  ok. als het om lokale zaken gaat heeft @cuutrecht ook mij stem! en voor een mooie functie voor @jolandeuringa,pos
@d66 en @cu samen i/h groenste kabinet ooit! en leveren ook de groenste politici @gerbrandy en @carladikfaber  https://t.co/9orwnjjuos,pos
rt @sandervwaveren: leuk ook dat de collega's van @cuutrecht onze actie kwamen steunen - we blijven de komende 4 jaar samen optrekken tegen…,pos
|rt @pvddutrecht: net mailden we met @cuutrecht naar @paulusjansensp met dringend verzoek te handhaven bij modelvliegclub #rijnenburg, die e…|,pos
|@jwijmenga goedemorgen jan. laat er nou ook een folder van @cuutrecht bij zitten! ik zweef niet echt, maar als oud-… https://t.co/qp0einjijx|,pos
rt @postruben: mooi succes voor bewoners oudwijk en @wijkraadoost! dank aan @groenlinks030 @cdautrecht @sputrecht @cuutrecht @pvddutrecht v…,pos
@ggjmulder @030binnenstad @groenlinks030 @pvddutrecht @pvdautrecht @cuutrecht ik kan vast toezeggen dat we ons hier… https://t.co/dfsc9jypbn,pos
rt @1008am: jorieke liep onlangs een dagje mee met de campagne van de @christenunie voor de gemeenteraadsverkiezingen. ze sprak onder ander…,pos
|rt @1008am: in steeds meer binnensteden worden oude dieselauto’s geweerd. goed idee? @maartenooijen van @cuutrecht
vertelt waarom hij voors…|,pos
|@joffryvang @gerthunink @maartenooijen @cuutrecht oud-(ic) verpleegkundige, blijkt nu. inmiddels onderzoeker en doc… https://t.co/vpmrehyccz|,pos
|niks veluwe ofzo, gewoon in utrecht  vind je op de parkzichtlaan een echte @christenunie -bubble. tussen nummer 216… https://t.co/fkqbljmjtl|,pos
|rt @redactieadun: eerste exit-poll utrecht: 
groenlinks 12
d66 9
vvd 5
pvda 2
sp 2
cda 2
stadsbelang 1
cu 2
s&amp; s 2
pvdd 2
pvv 2
seniorenpar…|,pos
|rt @vcutrecht: namens alle vrijwilligers van utrecht ontvangen wij van @cuutrecht tijdens @nldoet de ode aan de vrijwilliger, vrijwilligers…|,pos
|rt @cuutrecht: ook na de eerste tellingen (85%) blijft @cuutrecht op 2 zetels, met veel nieuwe stemmers. @maartenooijen: “alle mensen die n…|,pos
rt @afvaladvocaat: als christenunie en d66 zouden doen waar zij eerder zeiden voor te staan dan is er morgen een kamermeerderheid voor stat…,pos
|met @spnl en @cuutrecht aan het woord. de komende derde partij in college #utrecht
mi lokaal doet de @cuutrecht het beter dan landelijk|,pos
