@jongerius_s @pvddrotterdam @iskandarbwefar @groenlinksrdam @pvdarotterdam @vvdrotterdam @denknl @leefbaarrdam… https://t.co/udbs1irn8l,pos
rt @michelvanelck: dan heb je geen bord voor je kop maar een heel servies. samen met pvda is vvd verantwoordelijk voor het slopen van de ge…,pos
@leefbaarrdam @buijtleefbaar @eerdmans @vvdrotterdam zal a.s. woensdag blijken? ik denk dat @leefbaarrdam de groots… https://t.co/mi9fgkse2g,pos
@arjenvdlugt @vvdrotterdam gelukkig staat ‘baas’ tussen aanhalingstekens. de mens is niet gemaakt om een baas te hebben.,pos
rt @robindraastens: bent u voor méér veiligheid stem dan niet op #vvd #cda #d66 #cu #christenunie en #groenlinks #gl https://t.co/6uzmmtqxbl,pos
de @vvdrotterdam is ineens een groot voorstander van positief discrimineren. lekker liberaal. #islamdebat,pos
|@wierdduk @dilanyesilgoz @vvdrotterdam zoveel kroegen zijn er niet meer.
strano, regenboog, keerweer en loge..dan h… https://t.co/0eijr5am2h|,pos
rt @1908fr1937: @leefbaarrdam @eerdmans @vvdrotterdam jullie ook als jullie niet van standpunt veranderen #stopfeyenoordcity nu het nog kan…,pos
rt @buijtleefbaar: walgelijk. vvd geeft rotterdam en alle gemeenten al jaren plaatsingsplicht voor statushouders en komt nu met deze stelli…,pos
rt @kanteldenker: deze campagne kost de vvd echt kiezers. vandaag in het nieuws dat de opgestapte voorzitter keizer een naheffing van de be…,pos
rt @milieuzone010: @jongerius_s @d66rotterdam @010klassiekers @vvdrotterdam @leefbaarrdam net als met campers dus!,pos
witwassen en terrorismefinanciering zijn zware misdaden. vanmiddag heeft de tweede kamer een amendement van @vvd en… https://t.co/opnxjgcryg,pos
rt @mmeeuw: er zijn nu al bewoners die vlaggetjes plaatsen bij anuska borges hun kandidaat @vvdrotterdam in hun provenierswijk  cc @beverva…,pos
rt @oanadevisser: samen met @diekevgroningen en de vrijwilligers van @vvdrotterdam kleuren we de stad oranje! #kiesvoordoen 21 maart! https…,pos
@oanadevisser @vvdrotterdam @antoinettelaan @kc_rdam @lusthofkwartier @desteronline @kunst_kc goed om weer eens te… https://t.co/fzyakg0s2f,pos
|rt @jeohist: volgens de vvd kan je een starterswoning in het middensegment kopen als je in een koffiebarretje werkt. uh, succes daarmee. #k…|,pos
|rt @meeuwissen_pvv: @vincentkar @groenlinksrdam @vvdrotterdam ad: “olie en kolen helft werk en inkomsten onze rotterdamse haven, dé grootst…|,pos
|@vincentkar heb je niet meer gezien met je bitterballen.. 
kreeg ze wel van @pascallansink.... 
@vvdrotterdam https://t.co/lrzwlkwgcx|,pos
rt @jongerius_s: @pvddrotterdam @iskandarbwefar @groenlinksrdam @pvdarotterdam @vvdrotterdam @denknl @leefbaarrdam @cdarotterdam @d66rotter…,pos
@milieuzone010 @college010 @vvdrotterdam @pvdarotterdam @leefbaarrdam @groenlinksrdam @cdarotterdam @sprotterdam hi… https://t.co/0syr7zyyig,pos
|rt @aefipbv: @wybrenvanhaga kocht zich voor € 60.000,- in op de verkiezingslijst van de @vvd voor de tk verkiezingen op 15 maart 2017. kwal…|,pos
|rt @vvd: de campagneaftrap voor de gemeenteraadsverkiezingen! in rotterdam, onder een heerlijk zonnetje, met mark rutte, @vvdrotterdam en n…|,pos
@jan3106 @1908fr1937 @leefbaarrdam @eerdmans @vvdrotterdam noem ze liever dom met alle gevolgen van dien. amateuris… https://t.co/e00a80x774,pos
|rt @diekevgroningen: het bedrijfsleven creëert banen, niet de overheid. daarom wil de @vvdrotterdam een aantrekkelijk vestigingsklimaat voo…|,pos
rt @frankhensen: @jongerius_s @pvddrotterdam @iskandarbwefar @groenlinksrdam @pvdarotterdam @vvdrotterdam @denknl @leefbaarrdam @cdarotterd…,pos
rt @jongerius_s: @pvddrotterdam @iskandarbwefar @groenlinksrdam @pvdarotterdam @vvdrotterdam @denknl @leefbaarrdam @cdarotterdam @d66rotter…,pos
rt @michelvanelck: dan heb je geen bord voor je kop maar een heel servies. samen met pvda is vvd verantwoordelijk voor het slopen van de ge…,pos
rt @pascallansink: zeer blij met dit nieuws. @vvdrotterdam heeft hier jaren om gevraagd en voor gestreden. avr afvalverwerking gaat rotterd…,pos
|@vvd een doener, je bedoelt dat je weer meer geld naar brussel hebt gebracht, je reet hebt afgeveegd met oekraine r… https://t.co/ilnsozx2gy|,pos
|het bedrijfsleven creëert banen, niet de overheid. daarom wil de @vvdrotterdam een aantrekkelijk vestigingsklimaat… https://t.co/xmjcn8ea77|,pos
rt @stan_pul: woensdag 21 maart kunt u uw stem uitbrengen op het stembureau stadhuis waar ik zit. lijst 4 nr.4 #doetinchem #vvd #verkiezing…,pos
rt @thierrybaudet: dat zou mooi zijn als ze het ook daadwerkelijk zouden doen. maar dat is dus niet zo. de vvd heeft altijd stoere praatjes…,pos
|rt @jandeknecht1970: @jan3106 @1908fr1937 @rinibiemans @leefbaarrdam @eerdmans @vvdrotterdam op basis van , aanhaken bij de europese subtop…|,pos
|rt @driesleefb: in rotterdam weigerde in 2008 groenlinks hem te ontslaan samen met cda, pvda,d’66! de vvd stapte uit het college 2006 - 201…|,pos
@henkterhaar @eovisie is dat nou hetzelfde paard als van @vvdrotterdam ?,pos
rt @fvdemocratie: terwijl de @vvd haar campagne-budget wegpist (€100.000 voor stijgerreclame bij concertgebouw) weet #fvd met een fractie v…,pos
@ldekleijn @josverveen @m_at_sea @adriaanvisser @gemeenteraad010 @pvddrotterdam @vvdrotterdam @stadsinitia010… https://t.co/tmt8pztyxr,pos
rt @kanteldenker: deze campagne kost de vvd echt kiezers. vandaag in het nieuws dat de opgestapte voorzitter keizer een naheffing van de be…,pos
@grotius27 @sonja_vink er is heel veel armoede in #zoetermeer en dat wordt met de #vvd niet beter.,pos
rt @roaldlinde: witwassen en terrorismefinanciering zijn zware misdaden. vanmiddag heeft de tweede kamer een amendement van @vvd en @sp aan…,pos
leuk dat het rijmt maar wat een nietszeggende slogans. waarom zeggen @vvdrotterdam en @cdarotterdam niet gewoon dat… https://t.co/kzukufe1dw,pos
rt @reindhoeven: @dolfjansen @anatwitje @vvd oh ik ben een hufter. ik kan niet meer werken dus afgekeurd door uwv.,pos
@vvd eerst hand in hand met de @pvda de gezondheidszorg gesloopt en dan nu beloven dat het beter wordt 🤥 https://t.co/cac2mhjfng,pos
@julesholleboom @vincentkar @vvdrotterdam nieuw perron0? gratis drugs?  meer tattooshops? https://t.co/fefzbsqngj,pos
|zetelverdeling (voorlopig definitief) rotterdamse raad:
leefbaar: 11
pvda, d66, vvd en gl: elk 5.
denk: 3.
sp, cda,… https://t.co/ly4yyr5ybw|,pos
rt @marssieboy: de vvd over de zorg of d66 over betaalbare huizen. wie wint de prijs voor 'meest hypocriete partij'? https://t.co/c307yi34nu,pos
ik droomde vannacht dat het 2031 was en ik een @vvdrotterdam -er was en dat het j. eerdmanscommando m'n deur had in… https://t.co/jvlqrbcdvb,pos
rt @vincentkar: eerste stem van rotterdam is op @vvdrotterdam !! die is binnen ✅! https://t.co/tnzjprzy2y,pos
rt @mmulder1972: @dolfjansen volgens de @vvd ben je gewoon een hufter als je chronisch ziek of gehandicapt bent en daarom niet kan werken.…,pos
|rt @mirjamdewinter: “definitieve” uitslagen #rotterdam: lr 11, pvda 5, d’66 5, sp 2, vvd 5, cda 2, gl 5, nida 2, cu 1, pvvd 1, pvv 2, denk…|,pos
@mmeeuw @vvdrotterdam @d66rotterdam @stadsinitia010 @pvddrotterdam @pvdarotterdam @nidarotterdam ha marina. wij… https://t.co/nuo98zrjap,pos
wel scherp gezien van de vvd dat gl nog niet echt uitlatingen heeft gedaan over samenwerking met leefbaar. hij zegt… https://t.co/fumwzb3hfd,pos
rt @buijtleefbaar: walgelijk. vvd geeft rotterdam en alle gemeenten al jaren plaatsingsplicht voor statushouders en komt nu met deze stelli…,pos
rt @thierrybaudet: ook bolkestein heeft door dat rutte’s vvd meer bezig is met het pleasen van brussel dan met het behartigen van de nederl…,pos
nog even wachten voor je de staatspropaganda gelooft. https://t.co/uys7f4woea #vvd,pos
vvd doet haar reputatie eer aan. weer een bestuurder in opspraak. doen ze gewoon. https://t.co/3h8cm9niin,pos
rt @mvandedonk: dit dus. #plek34 #kiesvoordoen @vvdrotterdam https://t.co/joxvcrsrmp,pos
rt @atietwiet: dan zit er toch iets goed fout #vvd #cda #cu #d66 #pvda e.a. &gt;ga al die regeltjes/taksen onnodige belastingen zoals verhuurd…,pos
lr 12 pvda 5 d66 4 sp 2 vvd 5 cda 2 gl 5 denk 3 pvv 2 50 plus 2 nida 2,pos
|ha, dankzij zelfde vvd vele ontslagrondes in zorg (o.a. door ellendige fake marktwerking). tonnen verdampten voor d… https://t.co/oljdcbj0be|,pos
rt @tanker070: subsidie van #dipsaus is zeker toegekend door @vvd @d66 en @groenlinks https://t.co/3rvotc73gz,pos
rt @rechtuitrdam: de passie van de @vvdrotterdam lijsttrekker @vincentkar is ondernemen. daarom nodigt hij sander uit bij zijn kantoor. 🏡 h…,pos
|vandaag in telegraaf: initiatiefnemers moeten alsnog renovatie onderzoeken. en terecht! pvda, leefbaar, vvd en d66… https://t.co/81jdbgqyni|,pos
|rt @deckertmike: @pascallansink @vincentkar rechtse bouwplannen. altijd lachen. :) #koorts #koortsdebat 
 #vvd #kiesvoorkul #debat010 https…|,pos
rt @rokerspetera: @goossensjohan @paulineduimel laat die grijze wolven maar schuiven @vvd @cdavandaag @d66 @christenunie @groenlinks @spnl…,pos
|in #rotterdam is 90 procent van de stemmen geteld. de #zetelverdeling zou nu zijn: leefbaar rotterdam 11, vvd 5, pv… https://t.co/wat79vizzd|,pos
rt @judithanspach: een serieuze boodschap met een twist. zo doen we dat in rotterdam! 'i'm on a horse...'  @vincentkar @vvdrotterdam @jandr…,pos
|rt @vvd: de campagneaftrap voor de gemeenteraadsverkiezingen! in rotterdam, onder een heerlijk zonnetje, met mark rutte, @vvdrotterdam en n…|,pos
rt @michelvanelck: dan heb je geen bord voor je kop maar een heel servies. samen met pvda is vvd verantwoordelijk voor het slopen van de ge…,pos
|rt @1908fr1937: @jan3106 @rinibiemans @leefbaarrdam @eerdmans @vvdrotterdam @reddekuip heeft niks met sentiment voor de kuip te maken, dat…|,pos
|rt @nicoletemmink: de #vvd heeft inderdaad een hoop gedaan de afgelopen jaren op het gebied van veiligheid:

✅ 68 miljoen bezuinigen op de…|,pos
rt @fransweisglas: rotterdams-afghaanse taxichauffeur zegt uit zichzelf dat hij morgen @vvdrotterdam @vincentkar gaat stemmen. “ goed voor…,pos
|rt @rhetoric_eric: ik voorspel: @d66rotterdam laat zich gewoon weer een coalitie met leefbaar, vvd en cda in rommelen. want 'niks anders mo…|,pos
|rt @nicoletemmink: de #vvd heeft inderdaad een hoop gedaan de afgelopen jaren op het gebied van veiligheid:

✅ 68 miljoen bezuinigen op de…|,pos
@vvdrotterdam @vincentkar mooi dat jullie concrete locaties benoemen. we hopen snel jullie reactie op onze mail te… https://t.co/tb6mshefvr,pos
|rt @rotdromers: gefeliciteerd @vincentkar, @timversnel @pascallansink, @jwverheij en @diekevgroningen. de @vvdrotterdam is door ons verkoze…|,pos
rt @marssieboy: dat deden ooit die ruim 70.000 zorgmedewerkers die de vvd wegbezuinigd heeft... https://t.co/zt8x7k7ptx,pos
rt @antoinettelaan: in rotterdam schaft @vvdrotterdam met steun vd gemeenteraad een belasting af. hondeneigenaren blij. #lastenverlaging #o…,pos
|rt @robertpbas: exitpoll rotterdam: leefbaar 11, pvda 5, d’66 4, sp 2, vvd 5, cda 2, groenlinks 4, nida 2, cu/sgp 1, pvdd 1, 50plus 2, denk…|,pos
rt @marssieboy: dat deden ooit die ruim 70.000 zorgmedewerkers die de vvd wegbezuinigd heeft... https://t.co/zt8x7k7ptx,pos
presentatie van de lijsttrekkers voor gebied #overschie. vvd lijsttrekker sarah wilton is een topper en ze is er he… https://t.co/clypiekdqo,pos
|rt @michelvanelck: met pvda voerde vvd de meest schandalige bezuinigingsoperatie ooit in de zorg door. twee miljard  bezuinigd, verzorgings…|,pos
|my mistake. rechts kan zonder pvv. combi leefbaar, cda, vvd en d66.|,pos
|rt @johnkuijt: de campagnebus van @vvdrotterdam is gesignaleerd in #rotterdam #kralingen.

ik heb zo’n vermoeden dat ‘veilig en duurzaam’ n…|,pos
rt @pascallansink: zo drie mooie bazen op een rij @vincentkar  @vvdrotterdam   @minpres https://t.co/vitnvrh4ey,pos
rt @thierrybaudet: dat zou mooi zijn als ze het ook daadwerkelijk zouden doen. maar dat is dus niet zo. de vvd heeft altijd stoere praatjes…,pos
|rt @robertpbas: als de uitkomst in rotterdam in de lijn van de tussenstand eindigt, lijkt een coalitie van leefbaar, pvda, vvd en d66 het m…|,pos
rt @rechtuitrdam: de passie van de @vvdrotterdam lijsttrekker @vincentkar is ondernemen. daarom nodigt hij sander uit bij zijn kantoor. 🏡 h…,pos
|rt @klokradio: #alblasserdam heeft 82% geteld, sgp, pvda en vvd winnen ieder 1 zetel tot heden|,pos
toch knap van de @pvvrotterdam010: gewoon lager dan zelfs @jezusleeft scoren in mijn stemwijzer. @vvdrotterdam scoo… https://t.co/fbnhetqu83,pos
rt @derksen_gelul: als je ook de neus vol hebt van carrière politici van oa #vvd #d66 #pvda #gl die er puur zitten voor hun eigengewin en h…,pos
|rt @robertpbas: exitpoll rotterdam: leefbaar 11, pvda 5, d’66 4, sp 2, vvd 5, cda 2, groenlinks 4, nida 2, cu/sgp 1, pvdd 1, 50plus 2, denk…|,pos
|rt @diekevgroningen: het bedrijfsleven creëert banen, niet de overheid. daarom wil de @vvdrotterdam een aantrekkelijk vestigingsklimaat voo…|,pos
rt @javisstjavisst: @adriaanvisser @gemeenteraad010 @jandejong @feyenoord @defeijenoorder @dekuip @leefbaarrdam @vvdrotterdam @pvdarotterda…,pos
#woef #baasjes prik met de @vvdrotterdam een poffertje mee. geef uw idee voor onze #todolijst dan krijgt u er twee.… https://t.co/0uravnnffs,pos
rt @joey_engelen: het team van @vvdrotterdam zit klaar om @vincentkar aan te moedigen tijdens het #rotterdamdebat van @pauwnl. huphuphup! #…,pos
|leefbaar rotterdam 12 zetels, groenlinks en vvd winnen, denk 3 zetels. dertig procent geteld en @eerdmans zal zich… https://t.co/qsiztb1wio|,pos
wel goed: @vincentkar van de vvd leest al twee dagen alinea’s voor uit het verkiezingsprogramma van @leefbaarrdam. #islamdebat #pauw,pos
rt @hwhofs: peiling de hond: leefbaar 9 pvda 5 d66 4 sp 6 vvd 4 cda 3 gl 5 nida 1 cusgp 1 pvdd 1 denk 2 50 plus 1 pvv 3 #pauw,pos
👍 van de @vvd 👉 geen geld naar clubs die zich schuldig maken aan seksueel wangedrag. welke politieke partij gaat be… https://t.co/y0ir3z60rp,pos
rt @michelvanelck: dan heb je geen bord voor je kop maar een heel servies. samen met pvda is vvd verantwoordelijk voor het slopen van de ge…,pos
wat belooft @vvdrotterdam aan ouders in rotterdam? 17/20 politieke partijen gaven @ouders010 hun standpunten… https://t.co/xdhftycyd0,pos
@taimounti @f_azarkan @denk_amsterdam @amsterdamnl @pvda @vvd @d66 @sp herinneren wij ons deze nog (nog nog)?… https://t.co/y1rnl7q4wj,pos
|rt @rotterdam: in #rotterdam is 90 procent van de stemmen geteld. de #zetelverdeling zou nu zijn: leefbaar rotterdam 11, vvd 5, pvda 5, d66…|,pos
|rt @mvanderkist: @vvd @tunahankuzu nee @vvd dat filmpje maakt beslist weer een hoop goed, temeer omdat het neerkomt op een verdraaing van f…|,pos
rt @don_luigi_23: ik zou het maar even goed doorlezen voordat er ook nog @vvd ers in zitten. https://t.co/rj4y8bdq76,pos
|rt @vvdkatwijk: het is tijd voor een duurzamer katwijk met meer vrijheid en ruimte. kies voor doen, stem vvd katwijk!
#vvdkatwijk https://t…|,pos
rt @josverveen: @javisstjavisst @m_at_sea @ldekleijn @adriaanvisser @gemeenteraad010 @pvddrotterdam @vvdrotterdam @stadsinitia010 @groenlin…,pos
@youcalledmewhat ik stap niet over van vvd naar 50plus! ik was tot halverwege 2017 betrokken bij het cda en daar is… https://t.co/hfyjgbzmik,pos
rt @warmrotterdam: cusgp en groenlinks en d66 en pvda en nida en cda en vvd en sp accepteren het manifest #rotterdamschuldvrij voor een#war…,pos
|rt @geertdewaal: 'de vvd maakt meer kapot dan je lief is'
stem 21 maart @fvdamsterdam, @leefbaarrdam of lokaal https://t.co/gjhqkddoxv|,pos
rt @jasperblom_eu: ironie: vvd kamerlid vraagt onderzoek naar ‘te linkse’ universiteit. conclusie: gevaar academische vrijheid komt vooral…,pos
|rt @mirjamdewinter: “definitieve” uitslagen #rotterdam: lr 11, pvda 5, d’66 5, sp 2, vvd 5, cda 2, gl 5, nida 2, cu 1, pvvd 1, pvv 2, denk…|,pos
rt @adrianne010: vvd vergeten. sorry! op tweede plek samen met pvda met 5 zetels. bij tweede kamerverkiezingen waren zij nog grootste in ro…,pos
|rt @hhalewijn: @kanteldenker als ik met vvders praat en hen vraag waarom ze vvd stemmen, zeggen ze doodeerlijk: altijd gedaan. of “ik ben e…|,pos
@loveskoffie heb je vvd condooms?!,pos
rt @josverveen: @javisstjavisst @m_at_sea @ldekleijn @adriaanvisser @gemeenteraad010 @pvddrotterdam @vvdrotterdam @stadsinitia010 @groenlin…,pos
|rt @adrianne010: nieuwe tussenstand. 90 procent van de stemmen geteld. leefbaar 11, pvda 5, vvd 5, d66 5, groenlinks 5, denk 3, sp, cda, pv…|,pos
rt @fransweisglas: zo stemmen op station rotterdam cs . ik denk dat ik op doen ga stemmen. @vvdrotterdam @vincentkar,pos
|@remcovvd @vvdrotterdam @vincentkar @telegraaf wij van leefbaar rotterdam,hebben dat al meer als 2 jaar geroepen en… https://t.co/not6hdk8qr|,pos
|rt @estherplus: gaat de @vvd kostenefficiënt voor schone amsterdamse grachten, straten en parken? 79% van de vvd-kiezers is voor #statiegel…|,pos
|rt @nicoletemmink: de #vvd heeft inderdaad een hoop gedaan de afgelopen jaren op het gebied van veiligheid:

✅ 68 miljoen bezuinigen op de…|,pos
rt @josverveen: @javisstjavisst @m_at_sea @ldekleijn @adriaanvisser @gemeenteraad010 @pvddrotterdam @vvdrotterdam @stadsinitia010 @groenlin…,pos
rt @hwhofs: peiling de hond: leefbaar 9 pvda 5 d66 4 sp 6 vvd 4 cda 3 gl 5 nida 1 cusgp 1 pvdd 1 denk 2 50 plus 1 pvv 3 #pauw,pos
rt @kanteldenker: deze campagne kost de vvd echt kiezers. vandaag in het nieuws dat de opgestapte voorzitter keizer een naheffing van de be…,pos
rt @michelvanelck: dan heb je geen bord voor je kop maar een heel servies. samen met pvda is vvd verantwoordelijk voor het slopen van de ge…,pos
|rt @heuvel874: @arjandekok1 @e_hunyadi bedenk zeer goed, dat dit alles door bezuinigingen van de @vvd in werking is gezet om geld vrij te m…|,pos
rt @vogelvrijeharts: nadat #rutte en de #vvd de zorg voor 8+miljard sloopte en tienduizenden mensen hun baan in de zorg verloren... over cy…,pos
@vvdrotterdam hoe staan jullie tegenover een 3e oeververbinding in rotterdam?,pos
rt @josverveen: @javisstjavisst @m_at_sea @ldekleijn @adriaanvisser @gemeenteraad010 @pvddrotterdam @vvdrotterdam @stadsinitia010 @groenlin…,pos
rt @fvdemocratie: terwijl de @vvd haar campagne-budget wegpist (€100.000 voor stijgerreclame bij concertgebouw) weet #fvd met een fractie v…,pos
@erwin99feyenoor @scfr1908 @leefbaarrdam @d66rotterdam @vvdrotterdam @groenlinksrdam @cdarotterdam mweh. logisch. d… https://t.co/tq1eidkvoj,pos
|rt @tomjanmeeus: de fractievoorzitter vd vvd in haarlem, het huidige kamerlid van haga, verkocht onroerend goed aan burgemeester (pvda). du…|,pos
|@vvdrotterdam ' s nachts rond twee uur, half drie met veel herrie reclame in de kralingse brievenbussen mikken verg… https://t.co/jzy4nhzsvf|,pos
rt @josverveen: @javisstjavisst @m_at_sea @ldekleijn @adriaanvisser @gemeenteraad010 @pvddrotterdam @vvdrotterdam @stadsinitia010 @groenlin…,pos
|rt @robertpbas: exitpoll rotterdam: leefbaar 11, pvda 5, d’66 4, sp 2, vvd 5, cda 2, groenlinks 4, nida 2, cu/sgp 1, pvdd 1, 50plus 2, denk…|,pos
rt @williameijk: terwijl partijen zoals leefbaar en de vvd in hoek van holland alleen hun borden achterlaten gaan wij de straten op om met…,pos
rt @vogelvrijeharts: nadat #rutte en de #vvd de zorg voor 8+miljard sloopte en tienduizenden mensen hun baan in de zorg verloren... over cy…,pos
rotterdam voorlopig definitief: lr 11 - pvda 5 - d66 5 - sp 2 - vvd 5 - cda 2 gl 5 - nida 2 - cu/sgp 1 - pvdd 1 - 5… https://t.co/cvt2i13ayc,pos
|rt @adrianne010: nieuwe tussenstand. 90 procent van de stemmen geteld. leefbaar 11, pvda 5, vvd 5, d66 5, groenlinks 5, denk 3, sp, cda, pv…|,pos
@ardbuijsen @pascallansink en dat heeft d66 samen met de vvd gecorrigeerd. https://t.co/thjl9bwb3x,pos
rt @titiabredee: op campagne voor de @vvdrotterdam met @minpres #kiesvoordoen @vincentkar @diekevgroningen @timversnel https://t.co/5rm6rxq…,pos
@georgevangent @rubenmink @clausverbrugge @leefbaarrdam @cdarotterdam @pvdarotterdam @d66rotterdam @vvdrotterdam waar ben ik dan? haha,pos
rt @mmeeuw: @vvdrotterdam @d66rotterdam @stadsinitia010 @pvddrotterdam @pvdarotterdam @nidarotterdam dank je wel voor het snelle antwoord.…,pos
|rt @lorelei3112: en als ik dan zo'n promotiefilmpje van de @vvd zie, die samen met de @pvda de #zorg afgebroken heeft, word ik meer dan ver…|,pos
|rt @robertpbas: exitpoll rotterdam: leefbaar 11, pvda 5, d’66 4, sp 2, vvd 5, cda 2, groenlinks 4, nida 2, cu/sgp 1, pvdd 1, 50plus 2, denk…|,pos
@amelieve @insooradstake @georgevangent @postma_jeroen @vvdrotterdam @vincentkar statensingel en omgeving ben ik he… https://t.co/k8pfei9ptw,pos
die 5 van de vvd krijg je cadeau! 😊 😊,pos
@010klassiekers @college010 @vvdrotterdam @pvdarotterdam @leefbaarrdam @groenlinksrdam @cdarotterdam @sprotterdam j… https://t.co/bq4qq04ljy,pos
rt @williameijk: terwijl partijen zoals leefbaar en de vvd in hoek van holland alleen hun borden achterlaten gaan wij de straten op om met…,pos
rt @derksen_gelul: als je ook de neus vol hebt van carrière politici van oa #vvd #d66 #pvda #gl die er puur zitten voor hun eigengewin en h…,pos
rt @jongerius_s: duidelijke oproep van een burger! @d66rotterdam is dit dus niet! wie wel @vvdrotterdam @stadsinitia010 @pvdarotterdam @pvd…,pos
|rt @volkregeert: #vvd praat weer stoer over asielzoekers die voorrang krijgen, maar als het erop aankomt stemmen ze met #links mee
#markrut…|,pos
rt @williameijk: terwijl partijen zoals leefbaar en de vvd in hoek van holland alleen hun borden achterlaten gaan wij de straten op om met…,pos
rt @hwhofs: peiling de hond: leefbaar 9 pvda 5 d66 4 sp 6 vvd 4 cda 3 gl 5 nida 1 cusgp 1 pvdd 1 denk 2 50 plus 1 pvv 3 #pauw,pos
|rt @1908fr1937: @jan3106 @rinibiemans @leefbaarrdam @eerdmans @vvdrotterdam @reddekuip heeft niks met sentiment voor de kuip te maken, dat…|,pos
rt @remcovvd: kamervragen zijn onderweg.. want het kan niet zo zijn dat we meten met twee maten... @tlnnieuws @vvdrotterdam #kiesvoordoen h…,pos
|rt @rotterdam: in #rotterdam is 30% van de stemmen geteld. #zetelverdeling zou nu zijn:  leefbaar rotterdam 12, vvd 5, pvda 5, d66 4, groen…|,pos
rt @judithanspach: een serieuze boodschap met een twist. zo doen we dat in rotterdam! 'i'm on a horse...'  @vincentkar @vvdrotterdam @jandr…,pos
rt @dekoran1: de @vvd weer met een pracht-leus.. @blikopener333 https://t.co/bbn5df8r3w,pos
|rt @michelvanelck: met pvda voerde vvd de meest schandalige bezuinigingsoperatie ooit in de zorg door. twee miljard  bezuinigd, verzorgings…|,pos
|rt @rotterdam: in #rotterdam is 90 procent van de stemmen geteld. de #zetelverdeling zou nu zijn: leefbaar rotterdam 11, vvd 5, pvda 5, d66…|,pos
rt @willekenabur: nachtdienst in je eentje op 5 gebouwen omdat de doeners van #vvd deden...breekt iemand haar heup. ben je dus even mee bez…,pos
@pvdarotterdam @barbarakathmann @hsrotterdam eindelijk een vernieuwend standpunt. de vvd &amp; d66 gaan voor 3x bouwen!… https://t.co/v5guepv832,pos
|ik voorspel: @d66rotterdam laat zich gewoon weer een coalitie met leefbaar, vvd en cda in rommelen. want 'niks ande… https://t.co/98oo3y0tqi|,pos
|rt @jangajentaan: jong d66, vvd en sp beginnen nieuwe whatsapp groep: 
polariserende matennaaiers|,pos
rt @michelvanelck: wel goed: @vincentkar van de vvd leest al twee dagen alinea’s voor uit het verkiezingsprogramma van @leefbaarrdam. #isla…,pos
|rt @johnkuijt: ’stop lappendeken milieuzones’ https://t.co/yvnrmx8liy via @telegraaf

volledig eens met @vvd en @cdavandaag. daarom wil het…|,pos
rt @buijtleefbaar: walgelijk. vvd geeft rotterdam en alle gemeenten al jaren plaatsingsplicht voor statushouders en komt nu met deze stelli…,pos
rt @warmrotterdam: cusgp en groenlinks en d66 en pvda en nida en cda en vvd en sp accepteren het manifest #rotterdamschuldvrij voor een#war…,pos
|rt @evita79497112: laten we deze massaal delen
waarom kan niet 1 partijleider een reactie geven op deze oproep ?
wie durft
#vvd #markrutte…|,pos
rt @b_beukers: wat een rotzooi weer. volgens mij kun je maar beter gewoon op de @vvdrotterdam stemmen! https://t.co/r6fjkfcadw,pos
|rt @charcastisch: @celalaltuntas1 @vvd zonder.
het mag niet te lekker worden he!|,pos
|die vvd posteractie vielt een beetje als uit eten gaan met een vegetariër en je een biefstuk wilt bestellen.
#drammerig #contraproductief|,pos
rt @jongerius_s: welke partijen voor #gr2018 gaan 17 maart met @010klassiekers in gesprek over #milieuzone @vvdrotterdam @stadsinitia010 @p…,pos
rt @hwhofs: peiling de hond: leefbaar 9 pvda 5 d66 4 sp 6 vvd 4 cda 3 gl 5 nida 1 cusgp 1 pvdd 1 denk 2 50 plus 1 pvv 3 #pauw,pos
rt @jongerius_s: @pvddrotterdam @frankhensen @iskandarbwefar @groenlinksrdam @pvdarotterdam @vvdrotterdam @denknl @leefbaarrdam @cdarotterd…,pos
rt @atietwiet: dan zit er toch iets goed fout #vvd #cda #cu #d66 #pvda e.a. &gt;ga al die regeltjes/taksen onnodige belastingen zoals verhuurd…,pos
|rt @rotdromers: gefeliciteerd @vincentkar, @timversnel @pascallansink, @jwverheij en @diekevgroningen. de @vvdrotterdam is door ons verkoze…|,pos
rt @defanoholwijn: “je bent geen racist als je gezellig sinterklaas viert.” ——&gt; “wie houdt zich met de echte problemen bezig?” - vvd gaat z…,pos
spotje zegt idd “wereldstad als dit”. gelukkig komt @vvdrotterdam nu niet meer met “in dit stad spreken we nederlan… https://t.co/fc414emdah,pos
|rt @openrotterdam: 30% van de stemmen is geteld en dit is de voorlopige uitslag: @leefbaarrdam 12 zetels, @pvdarotterdam en @vvdrotterdam 5…|,pos
|rt @driesleefb: in rotterdam weigerde in 2008 groenlinks hem te ontslaan samen met cda, pvda,d’66! de vvd stapte uit het college 2006 - 201…|,pos
|rt @remkotheulings: groep de mos verovert den haag op d66: is na 50% geteld de grootste met 9 zetels. vvd heeft er 7, d66 6. #gr2018 @eenva…|,pos
rt @pcimeijer: ook weer duidelijk de vvd haarlemmermeer stemde tegen het amendement van forza! wat de vvd betreft hebben statushouders voor…,pos
|rt @gertonpolitiek: bam! oud-fractievoorzitter lokale vvd in #weesp zegt waar het op staat.
i❤️weesp
#gr2018 #fusie #stemzeweg https://t.co…|,pos
rt @jwverheij: de @vvdrotterdam blijft strijden tegen die symbolische maatregel. de luchtkwaliteit in rotterdam is te belangrijk om af te d…,pos
rt @mmeeuw: tijdens de campagne van @vvdrotterdam draait het om een goed gesprek onder het genot van 'een bakkie' (koffie dan wel thee). zo…,pos
rt @aisha_30: ik vraag me bij sommige politici oprecht af hoe ze zichzelf nog in de spiegel aan kunnen kijken. ongehoord dit. #vvd,pos
leefbaar rotterdam + vvd + cda + 50plus + cu/sgp. kom maar door.,pos
|rt @links_huftertje: vvd zet gewoon aardsleugenaar/prutser opstelten in voor campagne.
ze hebben ook niks geleerd daar. #integriteit
komt k…|,pos
@deckertmike @kieslies @mauricedehond @leefbaarrdam @groenlinksrdam @vvdrotterdam @pvdarotterdam @d66rotterdam… https://t.co/sgw1j8a4du,pos
rt @oanadevisser: kralingse vvd aanwezig bij de super sunday op de kaap! we #kiezenvoordoen! @vvdrotterdam @diekevgroningen @herbertvansluy…,pos
rt @openrotterdam: bekijk hier een compilatie van onze interviews met de rotterdamse lijsttrekkers https://t.co/1flg1eu6xg @vvdrotterdam @l…,pos
|rt @johnkuijt: de campagnebus van @vvdrotterdam is gesignaleerd in #rotterdam #kralingen.

ik heb zo’n vermoeden dat ‘veilig en duurzaam’ n…|,pos
|rt @adrianne010: nieuwe tussenstand. 90 procent van de stemmen geteld. leefbaar 11, pvda 5, vvd 5, d66 5, groenlinks 5, denk 3, sp, cda, pv…|,pos
rt @josverveen: @javisstjavisst @m_at_sea @ldekleijn @adriaanvisser @gemeenteraad010 @pvddrotterdam @vvdrotterdam @stadsinitia010 @groenlin…,pos
rt @diekevgroningen: kiezen tussen de sloopkogel of een nieuwe woonwind door rotterdam. de @vvdrotterdam wil absoluut géén baltimore aan de…,pos
|mijn voorspelling voor #raad010 #gr2018. lr 11, vvd 6, pvda 5, cda 4, sp 4, d66 4, gl 4, denk 2, nida 2, pvdd 2, cu-sgp 1, 50plus 1. pvv 0.|,pos
|rt @rotterdam: in #rotterdam is 90 procent van de stemmen geteld. de #zetelverdeling zou nu zijn: leefbaar rotterdam 11, vvd 5, pvda 5, d66…|,pos
rt @marssieboy: dat deden ooit die ruim 70.000 zorgmedewerkers die de vvd wegbezuinigd heeft... https://t.co/zt8x7k7ptx,pos
|rt @rotterdam: in #rotterdam is 30% van de stemmen geteld. #zetelverdeling zou nu zijn:  leefbaar rotterdam 12, vvd 5, pvda 5, d66 4, groen…|,pos
rt @010klassiekers: @frankhensen @jongerius_s @pvddrotterdam @iskandarbwefar @groenlinksrdam @pvdarotterdam @vvdrotterdam @denknl @leefbaar…,pos
|rt @avschoot: ik verneem zojuist dat premier rutte de vvd campagne heeft afgetrapt met een speech in berlijn vol stoere taal.  

euro 1.000…|,pos
rt @tanyahoogwerf: de @vvdrotterdam is ineens een groot voorstander van positief discrimineren. lekker liberaal. #islamdebat,pos
|in rotterdam weigerde in 2008 groenlinks hem te ontslaan samen met cda, pvda,d’66! de vvd stapte uit het college 20… https://t.co/5gpao0kpm4|,pos
rt @links_huftertje: wietplantage aangetroffen in pand van vvd...... ja u leest het goed....... vvd verkiezingskandidaat https://t.co/5cyfw…,pos
rt @kanteldenker: deze campagne kost de vvd echt kiezers. vandaag in het nieuws dat de opgestapte voorzitter keizer een naheffing van de be…,pos
rt @josverveen: @javisstjavisst @m_at_sea @ldekleijn @adriaanvisser @gemeenteraad010 @pvddrotterdam @vvdrotterdam @stadsinitia010 @groenlin…,pos
|rt @robertpbas: exitpoll rotterdam: leefbaar 11, pvda 5, d’66 4, sp 2, vvd 5, cda 2, groenlinks 4, nida 2, cu/sgp 1, pvdd 1, 50plus 2, denk…|,pos
rt @mvandedonk: zondagmiddag in rotterdam. liberale kopstukken in het wild. @vvdrotterdam https://t.co/d5q46sytv4,pos
|rt @d66rotterdam: @mmeeuw @stadsinitia010 @pvddrotterdam @pvdarotterdam @nidarotterdam @vvdrotterdam ja zeker, @saidkasmid66 is erbij!|,pos
rt @tanyahoogwerf: de @vvdrotterdam is ineens een groot voorstander van positief discrimineren. lekker liberaal. #islamdebat,pos
rt @michelvanelck: dan heb je geen bord voor je kop maar een heel servies. samen met pvda is vvd verantwoordelijk voor het slopen van de ge…,pos
|rt @vvd_lhbt: aankomende vrijdag &amp; zaterdag zijn wij met @vvdamsterdam , @vvdrotterdam , @vvdutrecht , @vvddenhaag &amp; @vvdleiden in de leuks…|,pos
|rt @mmeeuw: wat nou polarisatie?

in rotterdam omarmt @groenlinksrdam een initiatief van @pascallansink  van @vvdrotterdam 💃🏼 #loveislove h…|,pos
rt @nielsv1972: @mmeeuw @eerdmans @nidarotterdam het coc akkoord is ook door de vvd en. leefbaar ondertekend. (en ook door nida). het regen…,pos
rt @pvvyuri: het #verlochenen van je ideaal is standaard voor de zittende partijen. #vvd #cda #d66 #cu. alles voor de #macht! https://t.co/…,pos
rt @telegraaf: vvd woerden deelt condooms uit: ’voel de liberaal in je’ https://t.co/a0wjpio3wq,pos
@johnkuijt @vvdrotterdam @vvd @vincentkar @cralinghen @kc_rdam @kralingenwest @rondekralingen @rotterdam… https://t.co/ctetwawhjp,pos
@iskandarbwefar @groenlinksrdam @pvdarotterdam @vvdrotterdam @pvddrotterdam @denknl @leefbaarrdam @cdarotterdam… https://t.co/41tgd6pkye,pos
rt @tamaratodayy: @shirinmusa @vvd @soerinnarain iedereen daar in den haag sluit de ogen en de oren. ze kunnen niets uitleggen. leg maar ui…,pos
|rt @robertpbas: exitpoll rotterdam: leefbaar 11, pvda 5, d’66 4, sp 2, vvd 5, cda 2, groenlinks 4, nida 2, cu/sgp 1, pvdd 1, 50plus 2, denk…|,pos
rt @allochtoons: 'hitler werd ook democratisch verkozen.'  #geenracisteninderaad #racismedemo #fascismevoordemocratie #fvd #pvv #vvd https:…,pos
|rt @oanadevisser: fantastische culturele avond, met dank aan micheline en georges knap, van #galeriekralingen. @vvdrotterdam @kc_rdam @lust…|,pos
rt @umarebru: en @vvdrotterdam faket files. stem lokaal... @leefbaarrdam will do! d66 maakt fake straatgesprekken voor campagne https://t.c…,pos
rt @jasperblom_eu: ironie: vvd kamerlid vraagt onderzoek naar ‘te linkse’ universiteit. conclusie: gevaar academische vrijheid komt vooral…,pos
|@ewoutversloot leefbaar is eerst aan zet. lr, vvd, cda, d66 en gl. en zie de vvd roept niet meer dat de auto de stad in moet kunnen.|,pos
rt @diekevgroningen: @vvdrotterdam @vincentkar wil meer blauw op straat en meer camaratoezicht om ook de pakkans te vergroten! kijk ook naa…,pos
rt @thierrybaudet: dat zou mooi zijn als ze het ook daadwerkelijk zouden doen. maar dat is dus niet zo. de vvd heeft altijd stoere praatjes…,pos
|rt @josverveen: partijen als #leefbaar, #pvda, #d66 en #vvd doen u warme beloftes op gebied van #armoede, #onderwijs, #veiligheid en #zorg.…|,pos
rt @remcovvd: vvd wil hardere aanpak scooterhufters. einde aan overlast. scooter in de shredder na 2e fikse overtreding? samen met @vvdrott…,pos
rt @pcimeijer: natuurlijk stemt de lokale vvd niet in met ons amendement om statushouders geen voorrang te verlenen bij huisvesting. #stemz…,pos
rt @michelvanelck: dan heb je geen bord voor je kop maar een heel servies. samen met pvda is vvd verantwoordelijk voor het slopen van de ge…,pos
|rt @mrsvanp: en wij willen graag 1,4 miljard dividendbelasting terug @vvd https://t.co/rdo07uxt2d|,pos
|@vvd ik ben ook voor meer doeners, dus zo min mogelijk vvd-ers, in de zorg. hoewel, ik wil overal zo min mogelijk v… https://t.co/xnqzagw5xm|,pos
|rt @jandeknecht1970: @jan3106 @1908fr1937 @rinibiemans @leefbaarrdam @eerdmans @vvdrotterdam op basis van , aanhaken bij de europese subtop…|,pos
|rt @oponsbestnl: pijnlijke reactie… kwam @vvd nog met een tegenreactie of is het oorverdovend stil gebleven? ik ben benieuwd, want mensen h…|,pos
rt @diekevgroningen: kiezen tussen de sloopkogel of een nieuwe woonwind door rotterdam. de @vvdrotterdam wil absoluut géén baltimore aan de…,pos
|rt @oanadevisser: weer of geen weer, @vvdrotterdam op pad met bakkiedoen&amp;bitterballen! stem 21 maart voor vvd! #kiesvoordoen @vincentkar @d…|,pos
rt @michelvanelck: dan heb je geen bord voor je kop maar een heel servies. samen met pvda is vvd verantwoordelijk voor het slopen van de ge…,pos
rt @josverveen: @javisstjavisst @m_at_sea @ldekleijn @adriaanvisser @gemeenteraad010 @pvddrotterdam @vvdrotterdam @stadsinitia010 @groenlin…,pos
|rt @remkotheulings: groep de mos verovert den haag op d66: is na 50% geteld de grootste met 9 zetels. vvd heeft er 7, d66 6. #gr2018 @eenva…|,pos
rt @antoinettelaan: het regent maar dat weerhoudt @vvdrotterdam er niet van om met bewoners in gesprek te gaan #deesch #zelfbouw @jwverheij…,pos
|rt @hmn46: vvd weer lekker bezig, doen aan kruisbestuiving!
geloofwaardigheid politiek steeds meer in gedrang. https://t.co/0z4thprxf0|,pos
rt @antoinettelaan: vvd kralingen crooswijk  organiseert cultureel debat in galerie kralingen op donderdag 8 maart -  https://t.co/tdsixxn7…,pos
rt @jwverheij: de @vvdrotterdam blijft strijden tegen die symbolische maatregel. de luchtkwaliteit in rotterdam is te belangrijk om af te d…,pos
|rt @henniemarkt010: @remcovvd @vvdrotterdam @vincentkar @telegraaf wij van leefbaar rotterdam,hebben dat al meer als 2 jaar geroepen en pol…|,pos
|rt @josverveen: partijen als #leefbaar, #pvda, #d66 en #vvd doen u warme beloftes op gebied van #armoede, #onderwijs, #veiligheid en #zorg.…|,pos
rt @vincentkar: eerste campagnefilm 📽️! #gr2018 #vvd #rotterdam #bouwen #kiesvoordoen https://t.co/ksrpuppzno,pos
rt @michelvanelck: dan heb je geen bord voor je kop maar een heel servies. samen met pvda is vvd verantwoordelijk voor het slopen van de ge…,pos
rt @diekevgroningen: als @vvdrotterdam vinden we dat huizen van de wijk niet zijn voor religieuze uitingen. je mag zelf geloven wat je wil.…,pos
rt @javisstjavisst: @adriaanvisser @gemeenteraad010 @jandejong @feyenoord @defeijenoorder @dekuip @leefbaarrdam @vvdrotterdam @pvdarotterda…,pos
|rt @deckertmike: @pascallansink @vincentkar rechtse bouwplannen. altijd lachen. :) #koorts #koortsdebat 
 #vvd #kiesvoorkul #debat010 https…|,pos
briljant! speciaal voor de dames #zwevendekiezer in #rotterdam heeft de #vvd #vincentkarremans #slim #politiek is… https://t.co/jxtz8zewrz,pos
rt @pvddrotterdam: @javisstjavisst @pvdarotterdam @stadsinitia010 @leefbaarrdam @sprotterdam @vvdrotterdam @pvddrotterdam gaat het advies v…,pos
|rt @pvdarotterdam: vanavond gaat onze lijsttrekker @barbarakathmann om 20:30u bij de @nos in debat met @leefbaarrdam, @vvdrotterdam en @den…|,pos
|rt @evita79497112: laten we deze massaal delen
waarom kan niet 1 partijleider een reactie geven op deze oproep ?
wie durft
#vvd #markrutte…|,pos
|rt @martijnotten: deze vvd-flyers werden vandaag verspreid in de leidse binnenstad...

even fact-check: de vvd was in leiden bij geen enkel…|,pos
|lijkt me een heel goed idee 👍

rutte: “#rotterdam niet geven aan schreeuwers”

@markrutte @vvdrotterdam  https://t.co/bq7ek6b2f7|,pos
|video: vvd houdt gelukkig de humor erin, deze dagen https://t.co/eut7shvc8r|,pos
|rt @mmeeuw: hoi @d66rotterdam @stadsinitia010 @pvddrotterdam @pvdarotterdam @nidarotterdam @vvdrotterdam even een check, want ik hoor dat v…|,pos
|rt @adrianne010: nieuwe tussenstand. 90 procent van de stemmen geteld. leefbaar 11, pvda 5, vvd 5, d66 5, groenlinks 5, denk 3, sp, cda, pv…|,pos
|rt @michelvanelck: met pvda voerde vvd de meest schandalige bezuinigingsoperatie ooit in de zorg door. twee miljard  bezuinigd, verzorgings…|,pos
rt @jasperblom_eu: ironie: vvd kamerlid vraagt onderzoek naar ‘te linkse’ universiteit. conclusie: gevaar academische vrijheid komt vooral…,pos
de @vvd zegt in een reclamevideo “je bent geen racist als je gewoon sinterklas viert” en dat zij de “echte probleme… https://t.co/d8xexn7uf8,pos
|rt @rayconvb: @minpres je bent geen doener
@vvd jullie zijn geen doeners 
jullie zorgen niet voor gezelligheid 
jullie geven niet om onze o…|,pos
|laatste 2,5 jaar was vvd onzichtbaar, nu komen ze met deze stelling......klinkt als mosterd na de maaltijd… https://t.co/35dmm7nmr8|,pos
|rt @mmeeuw: hoi @d66rotterdam @stadsinitia010 @pvddrotterdam @pvdarotterdam @nidarotterdam @vvdrotterdam even een check, want ik hoor dat v…|,pos
rt @jongerius_s: duidelijke oproep van een burger! @d66rotterdam is dit dus niet! wie wel @vvdrotterdam @stadsinitia010 @pvdarotterdam @pvd…,pos
rt @kanteldenker: deze campagne kost de vvd echt kiezers. vandaag in het nieuws dat de opgestapte voorzitter keizer een naheffing van de be…,pos
|rt @openrotterdam: 30% van de stemmen is geteld en dit is de voorlopige uitslag: @leefbaarrdam 12 zetels, @pvdarotterdam en @vvdrotterdam 5…|,pos
rt @oanadevisser: de bitterballen zijn er en ze smaken heerlijk! cheers! op naar 21 maart! @diekevgroningen @vvdrotterdam #locuspublicus @k…,pos
rt @hwhofs: peiling de hond: leefbaar 9 pvda 5 d66 4 sp 6 vvd 4 cda 3 gl 5 nida 1 cusgp 1 pvdd 1 denk 2 50 plus 1 pvv 3 #pauw,pos
rt @joey_engelen: hebben jullie het to do lijstje van @vincentkar @vvdrotterdam al gespot? #kiesvoordoen 💪🏼 https://t.co/vpfvlbbqkn,pos
|rt @adrianne010: nieuwe tussenstand. 90 procent van de stemmen geteld. leefbaar 11, pvda 5, vvd 5, d66 5, groenlinks 5, denk 3, sp, cda, pv…|,pos
|rt @rotdromers: gefeliciteerd @vincentkar, @timversnel @pascallansink, @jwverheij en @diekevgroningen. de @vvdrotterdam is door ons verkoze…|,pos
rt @thierrybaudet: dat zou mooi zijn als ze het ook daadwerkelijk zouden doen. maar dat is dus niet zo. de vvd heeft altijd stoere praatjes…,pos
rt @oanadevisser: kralingse vvd aanwezig bij de super sunday op de kaap! we #kiezenvoordoen! @vvdrotterdam @diekevgroningen @herbertvansluy…,pos
rt @oanadevisser: stem vandaag voor k(ralingen)3! stem @vvdrotterdam #kiesvoordoen https://t.co/jaotq7sxas,pos
|rt @evita79497112: laten we deze massaal delen
waarom kan niet 1 partijleider een reactie geven op deze oproep ?
wie durft
#vvd #markrutte…|,pos
|rt @michelvanelck: met pvda voerde vvd de meest schandalige bezuinigingsoperatie ooit in de zorg door. twee miljard  bezuinigd, verzorgings…|,pos
|rt @verbeekrv: op zichzelf staande heb je 100% gelijk, 'slechts' je vvd bemoeienissen &amp; derhalve belangen zetten mij aan het denken - ⏰tikt…|,pos
rt @shirinmusa: 👍 van de @vvd 👉 geen geld naar clubs die zich schuldig maken aan seksueel wangedrag. welke politieke partij gaat belastingg…,pos
vanmiddag 15 uur opent klaas dijkhoff onze politieke markt . locatie benthemplein @zadkine @rotterdam @dijkhoff @vvd https://t.co/yriinsqr5n,pos
rt @kanteldenker: deze campagne kost de vvd echt kiezers. vandaag in het nieuws dat de opgestapte voorzitter keizer een naheffing van de be…,pos
rt @ronald_bastiaan: @jan3106 @1908fr1937 @rinibiemans @leefbaarrdam @eerdmans @vvdrotterdam goed opgelet ook met dit nieuwe stadion gaat h…,pos
|rt @evita79497112: laten we deze massaal delen
waarom kan niet 1 partijleider een reactie geven op deze oproep ?
wie durft
#vvd #markrutte…|,pos
rt @michelvanelck: dan heb je geen bord voor je kop maar een heel servies. samen met pvda is vvd verantwoordelijk voor het slopen van de ge…,pos
|rt @robertpbas: exitpoll rotterdam: leefbaar 11, pvda 5, d’66 4, sp 2, vvd 5, cda 2, groenlinks 4, nida 2, cu/sgp 1, pvdd 1, 50plus 2, denk…|,pos
rt @diekevgroningen: als @vvdrotterdam vinden we dat huizen van de wijk niet zijn voor religieuze uitingen. je mag zelf geloven wat je wil.…,pos
rt @pascallansink: zo drie mooie bazen op een rij @vincentkar  @vvdrotterdam   @minpres https://t.co/vitnvrh4ey,pos
rt @jwverheij: de @vvdrotterdam blijft strijden tegen die symbolische maatregel. de luchtkwaliteit in rotterdam is te belangrijk om af te d…,pos
