|dit is jane kuldip-singh, lijsttrekker van haagse toekomst https://t.co/frepmtvf9g #denhaag|,pos
haagse toekomst vindt er al veel wordt gedaan. wij willen in de toekomst kijken naar de resultaten van de diverse v… https://t.co/vgeivphfcj,pos
rt @poweredbyjane: haagse toekomst vindt er al veel wordt gedaan. wij willen in de toekomst kijken naar de resultaten van de diverse vrouwe…,pos
rt @stgrenzeloosgen: @monster stem #haagsejongerenpartij en help werkzoekenden aan baan  @poweredbyjane @haagsetoekomst stem 21 maart lijst…,pos
rt @oudersjdg10: @poweredbyjane @haagsetoekomst @d66denhaag @rvanasten @sjaakbral @ombudstoekomst @omroepsch @meetellenm @gobindirshad @gem…,pos
rt @ikrebecca: duidelijk antwoord👇 stem 21 maart @haagsetoekomst voor de toekomst van den haag🗳 https://t.co/nikauneowl,pos
rt @poweredbyjane: alle hulp van 1300 volgers hard ❤️ nodig! als oprichter van de nieuwe lokale jongerenpartij haagse toekomst hebben we mi…,pos
|rt @rtvsche: @youngthehague @nieuwondernemer stem #haagsejongerenpartij @poweredbyjane @haagsetoekomst stem 21 maart lijst 19 op jane, char…|,pos
|f1rstman ft #1 jane haagse toekomst (haagse toekomst) https://t.co/7he1tuenpx

maak uw eigen filter over #denhaag v… https://t.co/bkjp8zvf45|,pos
|rt @poweredbyjane: het is vandaag 21 maart 2018 - heeft de haagse toekomst toekomst?
ondanks alle tegenslagen....lees hier verder 
https://…|,pos
