rt @matthijs85: @edmusman @cannakieswijzer @pp_amsterdam de piratenpartij amsterdam spreekt zich juist ook over andere drugs uit! we willen…,pos
|rt @matthijs85: waarom teun gautier op de lijst van piratenpartij amsterdam staat:
“ik ben overtuigd democraat. als je naar het programma k…|,pos
|rt @matthijs85: terugkijken: het at5 slotdebat met jelle de graaf van de piratenpartij amsterdam https://t.co/jswohh5osk || #gr2018 #020kies…|,pos
lijsttrekker piratenpartij amsterdam naakt op verkiezingsposters https://t.co/aomxjar1hh,pos
|rt @matthijs85: waarom teun gautier op de lijst van piratenpartij amsterdam staat:
“ik ben overtuigd democraat. als je naar het programma k…|,pos
rt @matthijs85: @edmusman @cannakieswijzer @pp_amsterdam de piratenpartij amsterdam spreekt zich juist ook over andere drugs uit! we willen…,pos
|rt @matthijs85: waarom teun gautier op de lijst van piratenpartij amsterdam staat:
“ik ben overtuigd democraat. als je naar het programma k…|,pos
