zoetermeer vooruit vraagt zich af of het mogelijk is om een universiteit te verleiden om al dan niet met een... https://t.co/4jcvdsahsx,pos
@adzoetermeer inderdaad oeps! en hoe is zoetermeer vooruit ook al weer ontstaan? https://t.co/tfcfhvbdz2,pos
campagnefilmpje zoetermeer vooruit bij jinek #zoetermeer https://t.co/gytnakflw8 https://t.co/fdgkxp3bnf,pos
rt @pos_ambassadeur: ik vind een @youtube-video leuk: https://t.co/4kcdw72ug8 zoetermeer vooruit gaat fietsen,pos
rt @yvonnebink: zoetermeer vooruit vraagt zich af of het mogelijk is om een universiteit te verleiden om al dan niet met een... https://t.c…,pos
rt @yvonnebink: volgens zoetermeer vooruit speelt stress speelt een grote belemmerende rol bij onder andere de bestrijding van... https://t…,pos
rt @yvonnebink: op maandagavond 12 maart zat ik voor  zoetermeer vooruit aan tafel bij het streekblad debat. raadsleden en... https://t.co/…,pos
