|@martinevschaik @pvddleiden ja, maar abrupt stoppen kunnen we nog niet, hoe graag we het ook willen. we weten nog t… https://t.co/fdr0skmhhj|,pos
dat zou in @gemeenteleiden ook wel goed zijn. gaan jullie daar voor strijden @pvddleiden ? er verdrinken veel katte… https://t.co/lxs8digwdx,pos
|rt @jesseklaver: steun voor #spoedwet groeit snel. ook pvdd en pvv sluiten aan. nu in totaal 62 zetels steun, nog 14 te gaan voor meerderhe…|,pos
|rt @ppleiden: #piratenpartij #leiden doet in #gr2018 niet mee, plan b @pvddleiden is een alternatief.... https://t.co/qyydc5rucu|,pos
|@conniefranssen @partijvddieren het één doen, het ander niet laten. hoewel ik so wie so geen pvdd zou stemmen 🐫🐒🐷🐷🐁… https://t.co/j5irkcd2gn|,pos
@reezyard @gl_leiden @d66leiden @pvdaleiden @pvddleiden @cda_leiden @vvdleiden door de stad niet nog voller te bouw… https://t.co/htcbhhx5eo,pos
rt @sam_planting: de partij voor de dieren heeft in amsterdam meer zetels dan forum. misschien even kappen met die mafketels onevenredig ve…,pos
|rt @martinevschaik: geweldig plaatje van @weekbladmare! alle nuance genadeloos opgeofferd, maar de kern van de @pvddleiden is helder: verbe…|,pos
|met rechtsonder @martinevschaik, lijsttrekker @pvddleiden m. https://t.co/72v2fqkcnm|,pos
rt @pvddleiden: we horen net tijdens het stadsdebat dat d66 ons speerpunt5 overneemt: ook d66 wil varen op de lange mare! #pvdd #leiden #gr…,pos
|rt @jesseklaver: steun voor #spoedwet groeit snel. ook pvdd en pvv sluiten aan. nu in totaal 62 zetels steun, nog 14 te gaan voor meerderhe…|,pos
@loopbaangeest @unileiden @gemeenteleiden @leidenalumni @pvdaleiden @d66leiden @culeiden @vvdleiden @pvddleiden zek… https://t.co/p3tia2iz8h,pos
@unileiden @gemeenteleiden @leidenalumni @pvdaleiden @d66leiden @culeiden @vvdleiden @pvddleiden en bijv. ook… https://t.co/uqpgv96gtt,pos
|rt @chrissol_: @tjen_lilian @merenwijkleiden @merenwijkgroen @pvdaleiden @d66leiden @gl_leiden @cda_leiden @pvddleiden @partijs sp, pvda en…|,pos
@cda_leiden @merenwijkgroen @vormvastgoed @eijk_judith @21maart2018 @merenwijkpark @leiden @pvddleiden @pvdaleiden… https://t.co/6u7t7nzd7p,pos
