|rt @keesvee: zorgen sp en gl over schaal kabelinterceptie, hacken, delen van data met buitenlandse diensten en communicatie van journaliste…|,pos
sp niet bij afscheidseten raad – vergadering vroeger https://t.co/6vularji4a,pos
rt @spnl: sp succes! een meerderheid van de tweede kamer steunt het initiatief van sp-kamerlid @bartvankent om flexcontracten voor werkgeve…,pos
hoogste percentage vrouwen bij sp en cda blijkt mannenbolwerk: amstelveen – het is vandaag internationale vrouwenda… https://t.co/rfbfbtj95a,pos
ik begin zo langzaamaan te geloven dat het petje van patrick (patje) van de sp is vastgegroeid. #aveendebat https://t.co/yp9btuoer1,pos
