rt @mmeeuw: in het politiek café van libelle gaf landelijk partijleider jesse klaver maandagmiddag te kennen dat nida zich toch moest dista…,neg
|rt @stopmoslimhaat: #nida wordt beticht van antisemitisme wanneer zij onrecht aankaarten.

triest. hoe kunnen zoveel mensen #moslimhaat rec…|,neg
rt @else4weekblad: hoe tariq ramadan in rotterdam het zaad voor nida zaaide: lees de analyse van @geertenwaling  https://t.co/wx9vz0yczx ht…,neg
|rt @rkemp59: bij ruzie komt de ware aard boven. denk, nida en islam-'democraten' zeggen dat ze voor verbinding staan maar haten intens alle…|,neg
“een tweet uit 2014 staat ons hierbij niet in de weg” – ondanks dat nida weigert afstand te nemen van die tweet. https://t.co/rl4gr60jyi,neg
rt @nidarotterdam: kritiek op #israel = #antisemitisme? nee man. onrecht is onrecht. #rechterug #stemnida #gr2018 https://t.co/pq5ejuetej,neg
|@_niw_ @bpschut inhoudelijk zie ik weinig kritiek op de tweet, behalve het framen van nida en antisemitisme van stal te halen.|,neg
|rt @martijn5155: we hebben alleen nog maar een exitpoll, en id, pvde en nida bestaan toch al weer enige tijd, maar wierd duk weet het nu ht…|,neg
|rt @floorbremer: volgens groenlinks is het links verbond rotterdam net bij elkaar geweest, zou nida afstand nemen van de tweet, hebben dat…|,neg
|rt @rdstad: de rotterdamse lijsttrekkers van pvda, groenlinks, sp en nida hebben deze ochtend crisisoverleg over een ‘provocatieve’ nida-tw…|,neg
rt @monicabeek: leo de kleijn: cidi en uiterst rechts hebben nida geprobeerd te framen als anti-semitisch. trap daar niet in. kritiek op is…,neg
rt @monicabeek: leo de kleijn: cidi en uiterst rechts hebben nida geprobeerd te framen als anti-semitisch. trap daar niet in. kritiek op is…,neg
groenlinks rotterdam dumpt nida na ophef over is-tweet. einde links-islamitisch blok #gr2018 https://t.co/tljl9jxoil,neg
rt @judithbokhove: in tegenstelling tot wat we hebben afgesproken neemt nida onvoldoende afstand van de verwerpelijke tweet uit 2014. ik he…,neg
rt @fritswester: woordvoerder nida rotterdam net heel duidelijk aan de telefoon:"wij nemen tweet niet terug en nemen er ook geen afstand va…,neg
|rt @wdegelder: vraag: wat vinden jullie wat de rotterdamse pvda, gl en sp moeten doen met nida? #nida #rotterdam|,neg
|rt @vermeulejoris: #denk #nida #groenlinks en #d66 moeten worden bestreden.
#d66 wilt wel met een antisemitische organisatie samenwerken ma…|,neg
rt @nidarotterdam: kritiek op #israel = #antisemitisme? nee man. onrecht is onrecht. #rechterug #stemnida #gr2018 https://t.co/pq5ejuetej,neg
|rt @rdstad: de rotterdamse lijsttrekkers van pvda, groenlinks, sp en nida hebben deze ochtend crisisoverleg over een ‘provocatieve’ nida-tw…|,neg
rt @nourdin_: nida belde uitzendbureaus: “geen witte nederlanders aub” https://t.co/jzflozjjbx via @youtube,neg
rt @pritt: dat oude tweetje van jodenhatend nida is overigens ongeveer een factor 88 erger alsdan het iq-geleuter van yernaz. rt als je ook…,neg
|rt @rdstad: einde links verbond: groenlinks zegt samenwerking met nida toch op 
https://t.co/9n1grw8h0w|,neg
|rt @donarturito: wat mij altijd opvalt bij progressieve clubjes als nida en denk, is dat de mannen er altijd uit zien als players en de vro…|,neg
|rt @nidarotterdam: als de angst regeert, stem je voor vertrouwen! #gr18 #rotterdam #nida #stemmen https://t.co/gcmfn7hnlb|,neg
|rt @floorbremer: volgens groenlinks is het links verbond rotterdam net bij elkaar geweest, zou nida afstand nemen van de tweet, hebben dat…|,neg
|rt @volkskrant: dat links überhaupt aan het bondgenootschap met #nida was begonnen, toont aan dat ze niet heel veel politiek fatsoen hebben…|,neg
