rt @ksv_virgiel: het studentendebat was zeer geslaagd! @stipdelft @d66_delft @cdadelft @groenlinksdelft @vvddelft en in het bijzonder @toon…,pos
|op 19 maart kun je op stip stemmen, kun je op 21 maart gewoon op @vvddelft stemmen 💪🏼 https://t.co/dll82sq0zo|,pos
stip is een partij voor iedereen: https://t.co/raibhqb3tp @stipdelft #gr2018 #verkiezingen #delft,pos
|ik feliciteer de winnaars van de verkiezingen in #delft, te weten groenlinks, stip en onafhankelijk delft. veel dan… https://t.co/9hh4sqfsqe|,pos
|samenwerking voor #gemeenteraadsverkiezingen tussen stip (@stipdelft) en de piratenpartij delft (@ppdelft)

via… https://t.co/ihu9jid9a8|,pos
video: politieke partij @stipdelft heeft vandaag de handen uit de mouwen gestoken en een studentenhuis van bierkrat… https://t.co/0bynyxvgkw,pos
|rt @ppdelft: de piratenpartij delft vaart een gezamenlijke koers met stip, dé grootste studentenpartij van nederland! @stipdelft https://t.…|,pos
|https://t.co/flehy5m29c #stip en piratenpartij delft trekken samen op, delft – 02-03-2018 – voor de komende... https://t.co/tdfy5zobpx|,pos
|rt @ppdelft: aanstaande vrijdagavond 9 maart is stip aanwezig bij onze maandelijkse kroegmeet in @dewaagdelft, ook voor gratis #sleepwet we…|,pos
rt @sdacher: nog een vraag @d66_delft @stipdelft : hoe gaan jullie volwassenen met uitkering een sportcontributie laten betalen ( sporten i…,pos
@sdacher @d66_delft @stipdelft beide serieuze partijen. los van verk.prog. is mijn ervaring als oud-raadslid en -fr… https://t.co/jt0ajizuc6,pos
@huubhalsema @sdacher @d66_delft @stipdelft bedankt @huubhaisema voor het compliment! doordat stip-raadsleden een j… https://t.co/t4hofxn9u8,pos
de handen uit de mouwen met #nldoet! met @stipdelft vrolijke bloemetjes geplant bij philadelphia 🌸🌼 #lente https://t.co/pghzfyxdp2,pos
het studentendebat was zeer geslaagd! @stipdelft @d66_delft @cdadelft @groenlinksdelft @vvddelft en in het bijzonde… https://t.co/zafm0yr5si,pos
@sdacher @d66_delft @stipdelft goed dat je orienteert. succes met je keuze !,pos
|delftse partijen @d'66, @sp en @stip willen in delft ook alle aandacht en voorrang voor fietsers https://t.co/asz1rdclaj|,pos
@politiekdelftnl @telegraaf @stipdelft @stadsbelangen laat ik aan kiezer over harrie is niks over te zeggen we gaan het meemaken !,pos
rt @hennekenbritt: groenlinks voorlopig grootste winnaar in delft. studentenpartij stip groeit ook. ook onafhankelijk delft is groot.,pos
|stip en piratenpartij delft varen gezamenlijke koers (stip delft), zie https://t.co/voxm4s7w3o #delft|,pos
