rt @jacquesmonasch: fantastische vrouw! en ondertussen sluit #links #rotterdam #pvda #sp #gl zich aan bij de islamitische en fundamentalist…,pos
rt @balstermartijn: zo. bergschoenen. skisokken. pvda muts. twee truien. handschoenen. flyers. goed humeur. we zijn er klaar voor! campagne…,pos
|rt @dutchdrdre: ik ben van #groenlinks en ze schelden me uit....
en nu ben ik van de #pvda en.... ze schelden me uit.

te huur, dame met ho…|,pos
rt @derksen_gelul: als je ook de neus vol hebt van carrière politici van oa #vvd #d66 #pvda #gl die er puur zitten voor hun eigengewin en h…,pos
het regiotv debat 2018 - het eindpleidooi van martijn balster namens de pvda - bekijk het debat nu terug op regiotv… https://t.co/usng7yymvn,pos
slechte reclame voor de pvda dankzij deze naargeestige wethouder in de #rijdenderechter #beverwijk,pos
rt @d66denhaag: pvda’er @balstermartijn wil 1 miljard vanuit gemeentekas naar woningbouw. @rvanasten noemt woningplan pvda niet reëel. “we…,pos
rt @dagblad070: haagse pvda deelt huizen uit (in vorm van spaarpotje) - https://t.co/je9dmc9r8n #denhaag #070,pos
#vvd #rutte op 21 maart #beerputnederland ; #sp #pvda #pvv #d66 #nida #denk #cu #eenvandaag #nieuwsuur #jinek #pauw… https://t.co/cn7v5ycrxq,pos
|rt @gdmdenhaag: "die van de pvda weet dat ik op jou stem, richard!" @richarddemos #hartvoordenhaag #gr2018 https://t.co/cqnkfffiuk|,pos
bedankt @pvda https://t.co/xqhnxfb2oh,pos
|exit poll emmen: wakker emmen blijft de grootste, nieuwkomers pvv en sp doen het goed; verlies pvda blijft hier bep… https://t.co/jb0majqd4j|,pos
|rt @kbisseswar: op de haagse markt, goede gesprekken en veel enthousiasme! #pvda #vooriedereen https://t.co/iap6mlv0lv|,pos
|rt @stemzeweg: volg ons en steun ons met de #stemzeweg campagne!
wij zijn het negeren van de kiezers door @vvd @cdavandaag @d66 @pvda @chri…|,pos
|he @mikaltseggai wanneer neem jij de pvda over?
draadje geeft goed dat er dringend vernieuwing nodig is in de top! https://t.co/dxmjofb2je|,pos
|de pvda komt met steun van vvd, cda, christenunie en sgp met  een initiatiefwet om criminele motorbendes te verbied… https://t.co/qtczf7nxhp|,pos
mooi interview tussen sven hulleman thijs brilleman. en de #pvda raakt weer een lid kwijt. @cafeweltschmerz… https://t.co/zoiq9pqfj9,pos
rt @derksen_gelul: als je ook de neus vol hebt van carrière politici van oa #vvd #d66 #pvda #gl die er puur zitten voor hun eigengewin en h…,pos
rt @timvanlieshout: balster (@pvdadenhaag):’de pvda heeft heel duidelijk in haar verk. programma staan dat er huiswerkbegeleiding moet kome…,pos
|rt @pvdaldmvbg: de pvda wil dat iedereen zeker is van een goede en betaalbare woningen. daarom wil de pvda:
👉 dat bij nieuwbouw tenminste 3…|,pos
rt @balstermartijn: het topteam van vanmiddag in morgenstond. even opwarmen hier met een bakkie. #vooriedereen #stempvda #21maart https://t…,pos
rt @timvanlieshout: balster (@pvdadenhaag):’de pvda heeft heel duidelijk in haar verk. programma staan dat er huiswerkbegeleiding moet kome…,pos
bedankt he @pvda dat jullie dat gezwel in onze samenleving hebben losgelaten #denk #verkiezingen2018,pos
|rt @stemzeweg: volg ons en steun ons met de #stemzeweg campagne!
wij zijn het negeren van de kiezers door @vvd @cdavandaag @d66 @pvda @chri…|,pos
|moorlag, pvda vindt dat transformatie in de landbouw nodig is. de i&amp;r-affaire toont weer aan dat het huidige systee… https://t.co/i3q8ndthbl|,pos
rt @vanbemmelen: de haagse pvda heeft dankzij een legaat van een lid een donatie kunnen doen aan the residents. dit initiatief van het resi…,pos
rt @olavebasabose: en nu lokale pvda lijsttrekker die precariteit van werkende betreurt.... vast niet landelijk pvda stemt in de laatste 20…,pos
rt @henknijboer: mooie oproep van onze pvda wethouders in 10 steden: zeker zijn van een betaalbare woning voor iedereen! @adnl https://t.co…,pos
het topteam van vanmiddag in morgenstond. even opwarmen hier met een bakkie. #vooriedereen #stempvda #21maart https://t.co/s1mmwqqqqw,pos
@mkeulemans @pvda vernietig de bruine legers was mijn opdracht. nog niet gerealiseerd. #risk,pos
|rt @stemzeweg: volg ons en steun ons met de #stemzeweg campagne!
wij zijn het negeren van de kiezers door @vvd @cdavandaag @d66 @pvda @chri…|,pos
|rt @xxxxellll: haagse stadspartij herstelt zich enigszins. van twee naar drie zetels in de peiling. de pvda verliest een zetel, komt nu op…|,pos
|rt @martijn5155: tussenstand den haag na 50% vd stemmen die geteld zijn: groep de mos  9 zetels.  vvd  7 , d66 6, pvv 2, pvda 3, hsp 2, cda…|,pos
|rt @nieuwsuur: een tweet van nida uit 2014 zet de samenwerking met sp, pvda en groenlinks in rotterdam onder druk. nida zegt in een reactie…|,pos
|rt @nielsklaassen: . @rvanasten versus @balstermartijn over wonen: pvda wil 1 miljard voor betaalbare woningen, d66 vindt dat 'veel te veel…|,pos
|rt @nielsklaassen: . @rvanasten versus @balstermartijn over wonen: pvda wil 1 miljard voor betaalbare woningen, d66 vindt dat 'veel te veel…|,pos
@pvda gekkies....nie-mand trapt nog in holle frasen...,pos
|rt @kabinetpvvfvd: #stemzeweg in uw gemeente!
@pvda @vvd @cdavandaag @d66 @christenunie @groenlinks !
ze zijn al jaren op alle politieke ni…|,pos
rt @rsbaldewsingh: de laatste etappe van de marathon is ingegaan. nu hand in hand op naar de eindstreep: een mooie score voor de pvda bij d…,pos
@cdavandaag @pieteromtzigt @lodewijka @mvantoorenburg @pvda lijkt mij dat ‘straatintimidatie’ ansicht gewoon strafbaar moet z,pos
#pvda @pvda heeft een heerlijke multiculti-verrassing. dat wordt smullen mensen! &gt;&gt;#linksislam in rotterdam. je kun… https://t.co/x3v66tj7q2,pos
geen steun voor debat met minister bzk over het bericht ‘kandidaat-raadslid emmer pvda in tranen na racistische beledigingen’ #rvw,pos
|vandaag als #pvda stemmer een flyerende d66-er, een campagne voerende vvder, een kandidaat voor de cu succes gewens… https://t.co/h2qltmhv26|,pos
|rt @nielsklaassen: . @rvanasten versus @balstermartijn over wonen: pvda wil 1 miljard voor betaalbare woningen, d66 vindt dat 'veel te veel…|,pos
|rt @stemzeweg: volg ons en steun ons met de #stemzeweg campagne!
wij zijn het negeren van de kiezers door @vvd @cdavandaag @d66 @pvda @chri…|,pos
rt @gdmdenhaag: "anders dan de luchtfietserij van een partij als de pvda zorgen wij met onze plannen wél voor meer woningbouw in den haag!"…,pos
|rt @stemzeweg: volg ons en steun ons met de #stemzeweg campagne!
wij zijn het negeren van de kiezers door @vvd @cdavandaag @d66 @pvda @chri…|,pos
rt @rsteenbergen: leuke campagne-avond in den haag! stem 21 maart op @jannekeholman! #pvda #denhaag https://t.co/ygimi6ptrn,pos
rt @jacquesmonasch: fantastische vrouw! en ondertussen sluit #links #rotterdam #pvda #sp #gl zich aan bij de islamitische en fundamentalist…,pos
rt @knaapenhenk: de #pvda zijn mede verantwoordelijk voor het volstromen van figuren die in ons land niets te zoeken hebben #pauw #opsporin…,pos
rt @vanbemmelen: de haagse pvda heeft dankzij een legaat van een lid een donatie kunnen doen aan the residents. dit initiatief van het resi…,pos
rt @derksen_gelul: als je ook de neus vol hebt van carrière politici van oa #vvd #d66 #pvda #gl die er puur zitten voor hun eigengewin en h…,pos
|rt @gdmdenhaag: "die van de pvda weet dat ik op jou stem, richard!" @richarddemos #hartvoordenhaag #gr2018 https://t.co/cqnkfffiuk|,pos
rt @cdavandaag: .@lodewijka en @mvantoorenburg willen dat straatintimidatie van vrouwen en homo’s strafbaar wordt. samen met de @pvda  dien…,pos
@camforcedenhaag @pvdadenhaag pvda doet weer fijn stof opwaaien😁,pos
|rt @stemzeweg: volg ons en steun ons met de #stemzeweg campagne!
wij zijn het negeren van de kiezers door @vvd @cdavandaag @d66 @pvda @chri…|,pos
wat dit betreft zijn wij het natuurlijk zeer met pvda rijswijk eens!... https://t.co/jdnv1zuth4,pos
rt @derksen_gelul: als je ook de neus vol hebt van carrière politici van oa #vvd #d66 #pvda #gl die er puur zitten voor hun eigengewin en h…,pos
|rt @ivonschijf: 🗳💡voor wo 21 maart:

✔️stem sociaal + duurzaam = #stempvda 🌹🌍
✔️ #stemopeenvrouw 🚺👩🏽
✔️ stem in #denhaag op @lobkezandstra…|,pos
samenwerking met nida is onbegrijpelijk. bij de pvda hebben ze echt een plaat voor hun kop https://t.co/hzxyivnhcj,pos
