|rt @jeroenstans: ik: is er in de telefoonklapper van de vvd nou echt geen capabele vrouw te vinden die minister van bz kan worden? 
vvd fra…|,neg
|rt @petrakramer: hé @thierrybaudet, vertel nog eens waarom de @vvd zo'n ontzettende kutpartij is? https://t.co/plfxy16yah|,neg
zelfs #vvd laat #ing keihard vallen. bank 'losgezongen van de samenleving' en minister hoekstra moet ze  uitleggen… https://t.co/d6bsilgmxw,neg
rt @frans33: haagse vvd eist opheldering van onderwijswethouder (d66) over uitbreiding hml aan neuhuyskade in benoordenhout. u leest het in…,neg
|rt @pvdadenhaag: “wanneer gaat deze discussie eens over de positie van sekswerkers, in plaats van de onrealistische plannen van de vvd zond…|,neg
vvd wil trams vaker laten rijden https://t.co/6lda4qwmvr,neg
|#nieuwsuur 'n #vvd  er zou zijn eigen moeder verkopen, #vvd verkoopt onze waarden en normen, weg met dit kabinet, v… https://t.co/i5ejngaoxa|,neg
rt @fredejee: gesprek met nuchtere rotterdamse ondernemer: ‘groenlinks en vvd zien allebei dat de wereld naar de klote gaat. verschil tusse…,neg
rt @links_huftertje: zoiets kunnen alleen de "lullo's" (corpsballen tuig) van de vvd verzinnen https://t.co/11tbnyyems,neg
rt @teletekst: pvda:asielzoekers zondebok bij vvd https://t.co/ypj85qclks,neg
rt @boudewijnrevis: onze lokale haagse vrijwilliger mark rutte weet waarom de haagse vvd onze stad mooier maakt... https://t.co/ihas9wcknr,neg
|@hugodejonge @brunojbruins @vvd , dit is echt zo triest. waar is je ruggengraat? ms-medicijn in nederland niet meer… https://t.co/kgaxi385v8|,neg
|rt @bertvuijsje: het wordt inderdaad systematisch verzwegen: werkgevers en vvd haalden de gastarbeiders hierheen, de europese christen-demo…|,neg
rt @vvddenhaag: straten worden niet vanzelf schoner en verloedering lost zichzelf niet op. 💡de haagse vvd wil de komende jaren doorgaan met…,neg
rt @jeltjevann: @ladylove40 @cocnederland @cochaaglanden @pvdddenhaag @groenlinks @cdadenhaag @hspdenhaag @spdenhaag @d66denhaag @vvd @dyna…,neg
rt @marijnissenl: die 77.000 zorgverleners die door de @vvd vorige periode op straat kwamen zijn keihard nodig. daar komt de @vvd nu ook ac…,neg
rt @marijnissenl: die 77.000 zorgverleners die door de @vvd vorige periode op straat kwamen zijn keihard nodig. daar komt de @vvd nu ook ac…,neg
je zou denken dat zijn de eersten die je uitnodigt. niet zo bij #vvd #cda #d66 #cu. met je 'groenste regeerakkoord… https://t.co/52hgwbgmm0,neg
|rt @mirjam152: hè, gaat vvd nu ineens voor de ouderen zorgen? ze zijn nu al jaren aan de macht. jaren waarin de ouderenzorg alleen maar ver…|,neg
rt @cmsnetherlands: pvda vvd d66 groenlinks cda pvv stemmen tegen motie roemer 23987 nr 159 voor afslanking vd eu https://t.co/edquadtktt,neg
|rt @fritstenhove: rutte #vvd wil 'vakantiegeld' (maandelijks ingehouden stukje uitkering) afnemen.

daarna geheid het vakantiegeld van alle…|,neg
rt @kanteldenker: deze campagne kost de vvd echt kiezers. vandaag in het nieuws dat de opgestapte vvd-voorzitter keizer een naheffing van d…,neg
|rt @fleuragemapvv: vvd toch.

verzorgingshuizen? liefdevol gesloten. 

77.000 zorgmedewerkers? liefdevol ontslagen.

huishoudelijke hulp? l…|,neg
eerste haagse uitslag op basis 25 procent: vvd grootste op voet gevold door de mos #raad070 #gr2018 @denhaagcentraal,neg
rt @bartissimus: en de @vvd doet een jamaarhillarytje en gaat eens effe lekker op de trom over bijstandsfraude.  https://t.co/sechv72plc,neg
rt @hansjekalff: @jeroenstans @jaapjansen bij de vvd misschien niet maar mw. kaag zou er uitstekend geschikt voor zijn. grote staat van die…,neg
|rt @links_huftertje: 'bij ing denken ze: een dag duiken en dan is het voorbij'
(de vvd methode)

https://t.co/wglz5mmxtc|,neg
|naar aanleiding van de zoveelste aanval op restaurant hacarmel, hebben zowel de pvv als de vvd vragen ingediend. be… https://t.co/lmxgo3e4yc|,neg
|rt @fleuragemapvv: vvd toch.

verzorgingshuizen? liefdevol gesloten. 

77.000 zorgmedewerkers? liefdevol ontslagen.

huishoudelijke hulp? l…|,neg
geschokte reacties op twitter nadat gisteren een foto opdook waarop te zien is hoe mark rutte posters van de vvd de… https://t.co/2nbkgltsy8,neg
rt @omroepwest: vvd wil meer handhavers en camera’s in strijd tegen verloedering https://t.co/08o2v5wlfg,neg
|rt @erikadejoode: de vvd wordt morgen de grootste in gemeenten en groenlinks groeit het meest, althans: als het aan scholieren ligt. @emhab…|,neg
|nee, als je de randstad niet meetelt dan zijn het cda, de vvd en de pvv de grootste partijen en die doen niet aan i… https://t.co/bu87bpfefk|,neg
rt @iljagort: inkomensverdeling volgens de vvd kort uitgelegd. https://t.co/y9argnopnj,neg
|@patricktwettert @larsboelen @minpres @dijkhof @vvd die cijfers kloppen niet helemaal, hier lees je meer:… https://t.co/zamqyr4khd|,neg
|rt @fleuragemapvv: vvd toch.

verzorgingshuizen? liefdevol gesloten. 

77.000 zorgmedewerkers? liefdevol ontslagen.

huishoudelijke hulp? l…|,neg
@antonvanrees @veldhorst__w haha! jullie doen ook mee deze ronde! ik vermaak me ( wat dat betreft) erg met een stoere vvd,neg
rt @sheilasitalsing: enfin nu staan de volgende waterschapsverkiezingen tenminste op de kaart @chrisaalberts. en de vvd natuurlijk maar die…,neg
|rt @fritstenhove: kijkt allen vanavond #eenvandaag.

dan kunt u horen dat @markrutte @vvd de gewone nederlanders maar dom vindt. zo'n minac…|,neg
rt @teunvandekeuken: bij de vvd is de keuze tussen de schreeuwer en de doener. jammer dat er geen ruimte is voor de denker. https://t.co/t5…,neg
rt @weakylegs: meningen neurologen zouden boven die van een #vvd minister moeten staan. #fampyra moet in het basispakket blijven #ms #kwali…,neg
rt @joostniemoller: onthullend. hier maakt de vvd u wijs dat brexit slecht is voor de economie van gb. in werkelijkheid gaan grote internat…,neg
rt @huubbellemakers: de vvd wil stemmen trekken nav suit supply-campagne..onder vvd bewind worden onderstaandevragen gesteld aan homoseksue…,neg
peilingwijzer: voorsprong vvd op de rest groeit https://t.co/picnqqnoml via @nos,neg
|rt @wintermanad: nieuws: partij voor de dieren dient opnieuw wetsvoorstel in tegen onverdoofd ritueel slachten. vvd steunt mogelijk, waardo…|,neg
|rt @tklerks: @vvd schaam je vvd, jullie hebben de zorg bijna om zeep geholpen. dan hebben we het nog niet over de pensioen leeftijd. schand…|,neg
|@vvd goed gezegd, maar wekt nu inderdaad de indruk van retoriek van een vvd'er die alleen vlak voor de verkiezingen… https://t.co/igiwblghsm|,neg
rt @rob_roos: als ik deze kop lees is #rutte de @vvd ook beu en pleit hij openlijk voor #fvd https://t.co/zc0hkubkh8,neg
|het blijft toch bijzonder dat @rudmer, woordvoerder sport én onderwijs po/vo van de @vvd echt bijna alleen maar over sport schrijft alhier.|,neg
|#keizer is ‘niet voornemens om te gaan flyeren’..

#vvd #patjepeeërs #criminelen #gr2018 https://t.co/js3ztsid9p|,neg
rt @petersmitagv: aan de slag met @vvd waterschapsbestuurders @lelykring over aanpassing belastingstelsel (cab). Én de omgevingswet: wordt…,neg
|rt @cmsnetherlands: hi @renskeleijten,
kan jij de vvd ff bellen dat hun twitter account is gehackt. https://t.co/tcibjvsr80|,neg
rt @rogervleugels: de vvd wil geld terug van oxfam novib wegens misdragingen; maar als het criterium is hoeveel moet de vvd dan wel niet te…,neg
rt @marijnissenl: die 77.000 zorgverleners die door de @vvd vorige periode op straat kwamen zijn keihard nodig. daar komt de @vvd nu ook ac…,neg
rt @c_groenendijk: goedegenade. hier moet je lef voor hebben. @vvd sluit eerst de verzorgingshuizen en verkoopt de ouderen aan de thuiszorg…,neg
rt @bentebecker: er is geen verplichting voor hulporganisaties om misstanden aan toezichthouder te melden. minister kaag zegt vvd zojuist t…,neg
|rt @geertdewaal: @eerdmans "hoe meer asielzoekers, hoe beter", aldus de 'rechtse' vvd #gr2018 https://t.co/xsvoi1schi|,neg
rt @petrakramer: volgens de vvd zijn er terroristen in jemen die aanslagen willen plegen in europa. de werkelijkheid is dat europa hongersn…,neg
rt @jann1959: zou er nog iemand zijn die gelooft dat de @vvd ook maar iets met #duurzaamheid en #milieu heeft? https://t.co/7ofimxcy0h,neg
|pffff... vvd en de mos bovenaan. dat gaat me dus 2 jaar van mijn levensverwachting kosten, aangezien zij geen fuck… https://t.co/hueoow5m2k|,neg
|rt @geertdewaal: @richarddemos "hoe meer asielzoekers, hoe beter", aldus de 'rechtse' vvd #gr2018 https://t.co/xsvoi1schi|,neg
@nielsklaassen dat heb ik niet beweerd. heb alleen de stelling van de vvd weersproken dat dit in het belang van de… https://t.co/qfquuvwpo3,neg
|rt @wouterbooij: staan hier sowieso drie rechtse mannen van cda, vvd en d66 beetje te ‘mansplainen’ naar de - overigens veel sterkere vrouw…|,neg
|@martineem @nos zo verliezen ze stemmen.
al mag voor mijn part de vvd ontbonden worden.|,neg
rt @rutger_: vvd deelt condooms uit in woerden. "voel de liberaal in je!" https://t.co/zd8anepzt5 https://t.co/xbcqxa8vsv,neg
conversatie opgevangen in de gangen van de oprichtingsvergadering van de vvd (uit klijnsma’s geschiedenis van de vd… https://t.co/rbz7wzlwut,neg
@omroepwest waarom geen onafhankelijke interviewer? frits huffnagel staat zelf op de lijst voor de vvd den haag.,neg
rt @addenhaag: de haagse vvd wil de wet aanpassen zodat boa’s - buitengewoon opsporingsambtenaren - meer kunnen dan alleen een afvaldump of…,neg
|rt @nadiabouras: als je dit interview met stef blok leest, begrijp je waarom de vvd maar 1 vrouwelijke minister heeft. 
'vrouwen brengen ee…|,neg
|rt @cmsnetherlands: is dit even een farce zeg.... 
kijk dit nou?! 

nu is de vvd ineens van de zorg...
hoe vergeetachtig denkt @vvd dat we…|,neg
rt @aisha_30: vvd als het om leraren en verpleegkundigen gaat: “mensen moeten van de bank af komen! er is werk zat!” vvd als het om ceo’s g…,neg
rt @renaissancetwyp: in het @vvd universum heet dit een doener. mensen die door omstandigheden van een uitkering moeten leven zijn profiteu…,neg
rt @fritstenhove: #minachting #vvd voor burgers. https://t.co/gnlh8oaluf,neg
|rt @baburbeg: @roosjexs @volkskrant de babyboomgeneratie, fossielen als @50pluspartij en domrechts als @vvd en @cdavandaag voorop,
denken e…|,neg
rt @addelft: de slogan 'minder belasting. meer bitterballen!'van vvd delft is de op één na slechtste van nederland. dit blijkt uit de 'verk…,neg
|rt @cmsnetherlands: hi @renskeleijten,
kan jij de vvd ff bellen dat hun twitter account is gehackt. https://t.co/tcibjvsr80|,neg
rt @iljagort: inkomensverdeling volgens de vvd kort uitgelegd. https://t.co/y9argnopnj,neg
|rt @grauwegrutjes: volgens de @vvd zijn de 8 miljoen nederlanders zonder baan hufters.
want als je kind bent, ziek, studeert, werkloos of m…|,neg
rt @parool: nieuwe peiling: d66 en groenlinks gaan nek-aan-nek in de strijd om de grootste te worden in amsterdam. vvd en fvd op dit moment…,neg
afscheidsfeestje van € 500.000? #vvd kiest voor doen 🤨 https://t.co/qyseovlh3x,neg
|rt @bertvuijsje: het wordt inderdaad systematisch verzwegen: werkgevers en vvd haalden de gastarbeiders hierheen, de europese christen-demo…|,neg
rt @arnopeperkoorn: beste @vvd de een raakt bonnen kwijt. de ander liegt. en dan ga je echt flink doen tegen oxfam ? zijn jullie zelfreflec…,neg
de hele #vvd kliek van #rutte is onsmakelijk.,neg
rt @abelfris: de gebruikelijke leugens van rutte en vvd verspreid door nep massamedia: "het gaat geweldig met de economie". daarom stijgen…,neg
|rt @grauwegrutjes: volgens de vvd zijn de 8,4 miljoen nederlanders zonder baan hufters. 
want als je kind bent, of ziek, studeert, werkloos…|,neg
|rt @charcastisch: de meteorologische lente begint vandaag.
maar het voelt meer als een verkiezingsbelofte van de @vvd  

goeiemorgen ☕️|,neg
rt @kanteldenker: dit is nu nep-nieuws. en voor de bühne want verkiezingen - de vvd heeft zich in mijn ogen nog nooit achter sociale woning…,neg
@richarddemos @rachidg morgen om 15 uur is het debat in de commissie over de legolandboekhoudtruc. vvd duwt nu zelf… https://t.co/tecwculoln,neg
rt @teyljournalist: &gt;&gt;&gt; gemaakt. dat betekent dus dat hij geen raadslid voor de vvd wil worden als zijn partij onverhoopt geen wethouder ka…,neg
rt @defrysk: de #vvd vertoont demente trekjes. https://t.co/qfhgxh4tzn,neg
eerst was er geld tekort. toen weer niet. vvd en cda willen dat gedeputeerde de janboel bij milieudienst aanpakt https://t.co/z761fsxg1j,neg
daarvoor moet eerst de vvd er uit..#stemzeweg #doen https://t.co/bwet17smu3,neg
|rt @kraaijeveldm: kwart stembureaus binnen in ldam-voorburg: groenlinks iets meer, pvda gelijk, cda iets meer, d66 behoorlijk minder, vvd i…|,neg
|rt @l_gerritsen: uuuh, wat?
"voel de liberaal in je"?

want je voelt je genaaid door de vvd, ofzo? 

#nothanks #vvd #gr18 https://t.co/69y2…|,neg
|rt @fleuragemapvv: vvd toch.

verzorgingshuizen? liefdevol gesloten. 

77.000 zorgmedewerkers? liefdevol ontslagen.

huishoudelijke hulp? l…|,neg
|rt @cmsnetherlands: bijstand ontvangers aanvallen omdat het kan.
de @vvd kan het want de ultra rechtse kiezer moet gepaaid worden. ze zegge…|,neg
|rt @noknokitsme: kabinet #vvd #cda #d66 #cu :
- afschaffen referendum 
- invoeren censuur
- afluisteren bevolking
- levend organen verwijde…|,neg
|rt @nos: vvd grootste partij bij scholieren, fvd kleinste https://t.co/tgpwkpnfij|,neg
rt @d66oegstgeest: elfred bus:" met de bezuinigingen van de vvd worden de voorzieningen uitgekleed." https://t.co/hpf8epn6pm,neg
@vvd daar gebruiken jullie toch werkelozen en zieken voor.,neg
rt @justinedus: bewegend beeld uitgelekt van de vvd selectieprocedure voor bewindspersonen https://t.co/r9dam62btn,neg
de ouderenzorg is niet gebaat bij de losse flodders van d66 en vvd https://t.co/mkskjjvvar via @topics_nl,neg
|rt @isgoedhoor: doeners! hardwerkende nederlander! 

bonje binnen vvd over feestje van halve ton voor partijgenoot https://t.co/tydtjuxiib|,neg
|rt @ryhertzberger: nog een laatste keer stemmen in den haag. op @vvd den haag, best rechts, best groen. en een ja in het referendum, zonder…|,neg
vvd wil belastinggeld terug van oxfam https://t.co/plaazpgpt2 via @nos #integriteit,neg
rt @harrypater62: zouden de coalitiepartijen @cdavandaag @christenunie @vvd en de msm nu ook van @apechtold eisen dat hij afstand neemt van…,neg
|rt @cnnspin: terug kijken... @vvd faciliteert wereldwijde corruptie van multinationals. 
vvd stemmen = corruptie steunen. #gr18 https://t.c…|,neg
|rt @fritstenhove: een paar van de vele doeners van de @vvd 

#vvd https://t.co/ctqb4otdgu|,neg
rt @d66oegstgeest: elfred bus:" ook plannen vvd en cda voor afval kosten geld." #lijsttrekkersdebat https://t.co/kbhdd6t61g,neg
rt @fredejee: gesprek met nuchtere rotterdamse ondernemer: ‘groenlinks en vvd zien allebei dat de wereld naar de klote gaat. verschil tusse…,neg
rt @monsrosarum: eerste haagse uitslag op basis 25 procent: vvd grootste op voet gevold door de mos #raad070 #gr2018 @denhaagcentraal,neg
rt @sadetkarabulut: en hoe walgelijk is het dat de @minpres asielzoekers weer als zondebok aanwijst voor de woningnood waarvoor zijn @vvd v…,neg
|rt @xxxxellll: 'de vvd is een middel, geen doel' https://t.co/xecn31andz|,neg
@vvd doe zelf klaas,neg
|rt @cmsnetherlands: maar intussen wel heel nedelrland willen afluisteren via de #sleepwet,
de "betaalbare huur" heeft de @vvd verkocht aan…|,neg
|rt @bertvuijsje: het wordt inderdaad systematisch verzwegen: werkgevers en vvd haalden de gastarbeiders hierheen, de europese christen-demo…|,neg
rutte: het ziet er naar uit dat vvd voor het eerst in onze geschiedenis bij gemeenteraadsverkiezingen de grootste v… https://t.co/w2grxatbbc,neg
rt @brigadierpoez: jemig. mark rutte gaat emigreren en neemt de hele vvd achterban mee. 🖑🏽 https://t.co/73frlrdzoo,neg
rt @rob_roos: als ik deze kop lees is #rutte de @vvd ook beu en pleit hij openlijk voor #fvd https://t.co/zc0hkubkh8,neg
|wordt best lastig morgen, moet ik nou stemmen op de vvd of op doen? laat mij dat overdenken tijdens een ferm potje #kantklossen.|,neg
|rt @sousan_atta: lijstduwer vvd helma neppérus: voorschoten wil niet fuseren, wel meer samenwerken. @omroepwest https://t.co/rmuakfqg4q|,neg
@glmiddendrenthe @minpres @vvd en dan te bedenken dat de fossiele energie flink gesubsidieerd wordt https://t.co/4zdemkhiuq,neg
rt @ecvano: columnist @tomjanmeeus legt handelswijze wybren van haga langs de vuistregels integriteit. komt de vvd tot dezelfde conclusie?…,neg
|beste @cdavandaag @vvd @pvv @fvdemocratie jullie kwamen toch op voor de homorechten? 
gaan jullie nu de christenen… https://t.co/ghopsppeyu|,neg
|rt @vvdldamvburg: in mooie woorden kan een auto niet parkeren en een leuke tweet haalt je afval niet op! de vvd is:
vÓÓr wekelijks ophalen…|,neg
column #janroos: vvd met een grote mond tegen brussel? het is allemaal voor de bühne! https://t.co/ryfcgpg2n8&gt;&gt;&gt;… https://t.co/fwdjnoa6fy,neg
|rt @gerardboerhof: @dolfjansen @vvd hij was eigenlijk zó bedoeld, dolf. bleek gisteren. https://t.co/c1iexyffwd|,neg
rt @kafkaairport: de @vvd  ligt op ramkoers om ook in 2018 weer de meest corrupte politieke partij van nederland te worden.  #aardbevingsch…,neg
#barometer peilingwijzer: voorsprong vvd op de rest groeit https://t.co/havmlzjmml,neg
@pegasus4sun @lucathecactus @fingergunkiddo @geertwilderspvv o dan ben je niet zo erg als je van de vvd af komt. 😂😉,neg
|rt @miekeroth: en zo, jongens en meisjes, drijf je mensen uit elkaar. de vvd is zo langzamerhand erger dan welke populist dan ook. oh, enne…|,neg
rt @bentebecker: minister kaag zegt vvd toe dat het subsidiekader voor hulporganisaties wordt aangepast zodat belastinggeld kan worden teru…,neg
rt @vvddenhaag: haagse vvd wil opheldering over dit pand op het noordeinde en heeft vragen gesteld aan het college. #denhaag https://t.co/s…,neg
|rt @bonzqi_ld: stel je voor hè, dat nederland een regering krijgt gevormd door de pvv, fvd, cda en vvd en je biedt hen 'de sleepwet' als sp…|,neg
haagse vvd pleit voor behoud rookruimtes horeca https://t.co/dclcvhdjgc,neg
de vvd gaat weer voor een mannelijke minister. je verwacht het niet. nu #stefblok. wat voor buitenlandervaring had… https://t.co/fzxlj3uacz,neg
|kan me niet voorstellen dat de vvd dit echt zo wil zeggen, maar even lekker iets uit z'n verband trekken is wel gei… https://t.co/mng87uvscl|,neg
@vloten @twietroos @ewaldeng niet mee eens dat #asscher leutert. heb eerder indruk dat @vvd nummerportabiliteit ban… https://t.co/pxmsz5z8qs,neg
rt @iljagort: inkomensverdeling volgens de vvd kort uitgelegd. https://t.co/y9argnopnj,neg
rt @fritstenhove: rutte @vvd wil mensen met bijstand groot deel uitkering afpakken. bestuurders met idiote bonussen en onkostenvergoedingen…,neg
@pritt @vvd hebben jullie dat ook dat het net lijkt alsof er een drugsspuit in die arm wordt gezet?,neg
@vvd met veel plezier weer in een late dienst. niet aan een bed maar in de auto bij een brancard,neg
rt @addenhaag: geschokte reacties op twitter nadat gisteren een foto opdook waarop te zien is hoe mark rutte posters van de vvd den haag ov…,neg
|rt @erikadejoode: de vvd wordt morgen de grootste in gemeenten en groenlinks groeit het meest, althans: als het aan scholieren ligt. @emhab…|,neg
|rt @links_huftertje: vvd toont zich weer aartscorrupt: geeft €50.000 belastinggeld uit aan afscheidsfeestje dijkgraaf van haersma buma 

ht…|,neg
rt @teunvandekeuken: bij de vvd is de keuze tussen de schreeuwer en de doener. jammer dat er geen ruimte is voor de denker. https://t.co/t5…,neg
rt @brigadierpoez: jemig. mark rutte gaat emigreren en neemt de hele vvd achterban mee. 🖑🏽 https://t.co/73frlrdzoo,neg
|rt @tommygunner: tot na de verkiezingen , dan boeit het @vvd niets meer. https://t.co/u3h4ncn2dt|,neg
rt @sandrajagesar: zeg #vvd dit roept de #sp al jaren.terwijl de #vvd alle handen weg bezuinigde😠 #verkiezingsbedrog zou #strafbaar moeten…,neg
|rt @fleuragemapvv: vvd toch.

verzorgingshuizen? liefdevol gesloten. 

77.000 zorgmedewerkers? liefdevol ontslagen.

huishoudelijke hulp? l…|,neg
@parafernadia ik dacht dat je dat bewust deed. is die van de vvd niet juist dat ze kiezen voor de doener? ik weet het eigenlijk niet meer.,neg
rt @wltrrr: vvd komt binnenkort met de cursus ‘frauderen voor nieuwkomers — de snelste manier om te integreren’. https://t.co/5lnp0mkiq4,neg
rt @insayno: @vvd oh ja joh? verklaar dit dan @vvd https://t.co/r3arq7uktj,neg
|rt @pvdadenhaag: “wanneer gaat deze discussie eens over de positie van sekswerkers, in plaats van de onrealistische plannen van de vvd zond…|,neg
rt @addenhaag: de haagse vvd wil de wet aanpassen zodat boa’s - buitengewoon opsporingsambtenaren - meer kunnen dan alleen een afvaldump of…,neg
|@bas_vandersande @suitsupply niet stiekem een vvd logo erop plakken, hè|,neg
rt @uri4u: beoordeel de @vvd niet op hun verkiezingsteksten maar op de daden van hun bestuurders. https://t.co/in0ycfwkmp,neg
rt @maartenblad: afgelopen maand veel gelezen: 'de vvd vindt dat de overheid kleiner en bedrijfsmatiger moet. de resultaten hiervan zijn de…,neg
rt @bentualdepineut: @vvd hofnar mark rutte - veel beloven weinig geven doet elke gek in vreugde leven! #vvd #pauw #radiodebat https://t.co…,neg
|@ivojanssen @ontwarontwaar ooit was ik op een @vvd diner, waar zo'n beetje alleen annemarie van gaal en sylvia toth… https://t.co/mco8rl3ybu|,neg
|rt @mirjam152: hè, gaat vvd nu ineens voor de ouderen zorgen? ze zijn nu al jaren aan de macht. jaren waarin de ouderenzorg alleen maar ver…|,neg
rt @omroepwest: vvd wil meer handhavers en camera’s in strijd tegen verloedering https://t.co/08o2v5wlfg,neg
rt @iljagort: inkomensverdeling volgens de vvd kort uitgelegd. https://t.co/y9argnopnj,neg
rt @rmbras1973: @vvd @cdavandaag @d66 @pvda @christenunie en de constructieve oppositie @groenlinks @sgpnieuws  negeren u volkomen na de ve…,neg
|rt @roosvonk: dat klopt @apechtold, de pvda deed te weinig aan #statiegeld. en nu doet d66 er te weinig aan. beiden deden wat vvd en bedrij…|,neg
rt @harry_070: vvd zakt steeds verder weg. minister president rutte gaat daarom in de leer bij groep de mos lid harry van de coevering om t…,neg
rt @sandrajagesar: zeg #vvd dit roept de #sp al jaren.terwijl de #vvd alle handen weg bezuinigde😠 #verkiezingsbedrog zou #strafbaar moeten…,neg
|als ik in xxx zou wonen, keihard stemmen op vvd vanwege dit filmpje https://t.co/wyu2aonvuk|,neg
rt @annevandijk5: marktwerking vvd onzin. er is een overschot aan managers. toch daalt hun loon niet. er is een tekort aan uitvoerend techn…,neg
|vvd grootste partij bij landelijke scholierenverkiezingen met 18% van de stemmen, nipt gevolgd door lokale partijen… https://t.co/rzy0wjmmzq|,neg
|rt @hulswood: "kosten europees parlement schieten door plafond".
....maakt nlse kiezers niets uit, die stemmen vvd cda d66 gl pvda cu etc.…|,neg
rt @liekemarsman: bij de @vvd zijn ze zo ontzettend bezig met homorechten dat ze zelf geen homo's kennen! https://t.co/ynvdgotzcc,neg
minister dekker gaat op verzoek van de vvd onderzoek doen naar wetgeving die ondernemingen de mogelijkheid biedt om… https://t.co/6yzxaezeia,neg
rt @vvdvoorschoten: vvd voorschoten regelde dat leden van de provinciale staten op werkbezoek kwamen om de toegenomen geluidsoverlast door…,neg
rt @tponl: bonusquote – sp en vvd eensgezind: ‘brussel moet onze vrije pers ongemoeid laten’ https://t.co/qvbwinwakw,neg
