rt @wierdduk: je kunt van alles zeggen over dat islamfilmpje van de pvv maar niet dat het ‘racistisch’ is. hoe graag critici het weer als z…,neg
het haatzaaiende filmpje van de #pvv verdient massale afkeuring en een stevig tegengeluid. retweet! #ikstemdenk https://t.co/r0wjdva3b3,neg
@aaaa70caro @evita79497112 @thunderclapit @leefbaarrdam heb ik ook altijd op gestemd maar nu toch echt op de pvv,neg
|rt @martinbosma_pvv: referendum afschaffen,
verkiezingen niet erkennen als pvv wint,
politici demoniseren,
tientallen gemeenten opheffen.
e…|,neg
uit de lichaamstaal van de lijsttrekker van de pvv blijkt dat hij een bangerig kereltje is. roept heel hard in een… https://t.co/r5fgcn5dle,neg
|@wierdduk pvv en denk in de raad..
groenlinks gegroeid. 
allemaal jouw schuld..|,neg
denk en pvv clashen over islam bij debat. lees meer... https://t.co/cxrxzluvvm,neg
eerdmans: 'stad absoluut niet onveiliger geworden. maar wat gaat de pvv dan doen?'  meeuwissen: 'islamitisch onderw… https://t.co/pyjxy1slex,neg
|met partijen als denk, nida, en de pvv is het niet gek dat er verdeeldheid is in rotterdam #pauw|,neg
|rt @jasminefoullani: hebben jullie het campagnefilmpje van de pvv al gezien? ziek hè. wil je nederland ook beter maken, check het medicijn…|,neg
rt @ewoutklei: pvv en denk verdienen elkaar. wat een armoede https://t.co/ggd6hilaol,neg
|rt @janwbakkernl: vreemd, vooral vvd en cda nemen nu standpunten van pvv en fvd over, vorige week hadden ze nog felle kritiek. #nosdebat #w…|,neg
hoe we als samenleving genaait zijn door de liberalen. #vvd #d66 #pvv https://t.co/matjck4zn5,neg
rt @paul_wilders: terzijde nog even: "hoe #wilders #pvv stevig de oren werd gewassen" tijdens zijn bezoek aan #russia . #islam https://t.co…,neg
felle reacties op anti-islamspot #pvv https://t.co/vcet1sdpxh #rotterdam,neg
bij een telling van de eerste twee stembureaus in westvoorne zijn de pvv en de vvd de grootste partijen. https://t.co/abfeotw1sw,neg
rt @martijn5155: huis en haat – de activerende werking van de racistische propaganda van de pvv en wilders  https://t.co/3l2wixrryg,neg
rt @opiniezmagazine: een factcheck van de pvv islam-video. de 17 stellingen onderzocht. door @robert_bor https://t.co/plfh0ofvyv https://t.…,neg
|@eerdmans en @meeuwissen_pvv in de ring. meer blauw wil joost. volgens pvv is rdam onveiliger geworden. klopt niet, zegt lr.|,neg
rt @ewoudkieviet: pvv vs pvda over islam. @meeuwissen_pvv: pvda is grote moslimknuffelpartij geworden. @barbarakathmann: u heeft het over d…,neg
|rt @meeuwissen_pvv: rotterdam veiliger geworden?... onzin!! politie slaat zelf alarm!

#stempvv voor:
meer politie, politiebureaus 24/7 ope…|,neg
rt @wierdduk: je kunt van alles zeggen over dat islamfilmpje van de pvv maar niet dat het ‘racistisch’ is. hoe graag critici het weer als z…,neg
rt @rtv_rijnmond: koorts - pvda: anti-islamcampagne pvv gaat over vrienden van mijn kinderen https://t.co/ilbeify4fc,neg
rt @pvvnh: een factcheck van de pvv islam-video https://t.co/waqrofave2 #stem21maartpvv,neg
rt @bertvovc: #pvv #gr18 #gr2018 #gemeenteraadsverkiezingen2018 #gr2018 #gemeenteraadsverkiezingen #rotterdamweervoorderotterdammers #rotte…,neg
@canyouimaginei @dietukkerfries die peiling van 7 zetels lijkt me echt te laag. de pvv gaat bakzeil halen hier.,neg
|rt @hulswood: @rmbras1973 @nos klopt, dat was de partij liberaal. scoort dus geen zetel. maar partij werd bij uitslag wel getoond.
pvv scoo…|,neg
rt @correctietik: na #baudet heeft nu ook #wilders zijn steun-trump tweet verwijderd... #pvv #fvd #maargelukkighebbenwedefotosnog https://t…,neg
|als je empathie kapot is, deel 7927298: kandidaat van de pvv verwijt een mevrouw die haar spraak verloren is dat ze… https://t.co/d83e1ibqbf|,neg
pvv 2   50plus2 #gr2018 #rotterdam https://t.co/mrpm90vffi,neg
|rt @casuissa: ik ben al ziek maar mijn koorts springt hier spontaan een graad van omhoog... de pvv spotjes. islam is slavernij, dodelijk, d…|,neg
waar heeft maurice meeuwissen het over? #pvv #rtvrijnmond,neg
|rt @paulevanuden: video verwijderd wegens aanzetten tot haat. goh, wat vreemd. #pvv doen ze anders nooit bij die club. https://t.co/9lavajd…|,neg
yeah applaus voor de racisten v/d pvv en fvd die met man en macht weer en wind doorstaan om het bestempelen van men… https://t.co/3e3bgrwxis,neg
|pvv en denk doen aangifte tegen elkaar #rtvrijnmond

https://t.co/pd88e4uglq|,neg
|rt @palkomitee: géén kritiek op israel, dat is pas racisme. genocidaal racisme. #cidi #christenunie #cda #pvda #groenlinks #dwars #pvv #fvd…|,neg
rt @marssieboy: punt 2 uit het pvv filmpje. check✔️ https://t.co/1byboam9uq,neg
rt @geertwilderspvv: nieuwe video pvv zendtijd politieke partijen https://t.co/mtc1oah68o via @youtube,neg
ranzig??? over het pvv filmpje. dijkhof je bent de kluts kwijt. ik vind jou ranzig. #wnlopzondag zelfs de rechtse n… https://t.co/ivu68kl564,neg
rt @leefbaarrdam: .@eerdmans: het probleem met de #pvv is dat ze niets bereikt en altijd langs de zijlijn blijft staan. @leefbaarrdam lever…,neg
|rt @martijnheeroma: de islamitische aangifte tsunami komt op gang, net als de vorige keer.

doet de politie ook weer mee ?
#kennenwe
#pvv h…|,neg
|rt @joyceramgatie: @geertwilderspvv zeg ja tegen de pvv
stadje bij napels compleet overgenomen door nigeriaanse migrantenbendes. vvd/gl/sp/…|,neg
pvv nissewaard https://t.co/9h8ubc8nso,neg
rt @turksetulp: misschien hadden de daders het spotje van de pvv gezien en waren zich geen kwaad bewust. https://t.co/xkdjs413ci,neg
|rt @mauricedehond: pvv landelijk op laagste punt sinds 2008, d66 op laagste punt sinds 2012, fvd hoogste score ooit. https://t.co/lb51t4thc…|,neg
rt @emgoyaars: al die klagers over het pvv spotje: hebben jullie niet gelezen dat in erdogan's krant stond deze week dat hij heel israel va…,neg
@wimaalten pvv racisten zijn te lui om na te denken!,neg
|@bertvuijsje @frontaalnaakt angst. aandacht. of misschien, erger nog, sympathie voor de kakkerlakken van de pvv en… https://t.co/c0zfmu6eyj|,neg
rt @martijn5155: huis en haat – de activerende werking van de racistische propaganda van de pvv https://t.co/3l2wixrryg https://t.co/7yfoyl…,neg
rt @opiniezmagazine: een factcheck van de pvv islam-video. de 17 stellingen onderzocht. door @robert_bor https://t.co/plfh0ofvyv https://t.…,neg
|rt @r_deroonpvv: pvv waarschuwde al voor er nog maar een euro was overgemaakt naar ankara. nu, € 9.000.000.000 verder, wordt europese reken…|,neg
|rt @martijnheeroma: leugen van zijlstra verwijst naar veel grotere leugen van rutte. hoogleraar legt uit
https://t.co/5mniqy3x5u
#pvv|,neg
#pvv vervang islam door jodendom en zij die nog niet willen zien kunnen zien. https://t.co/dsfrje75i2,neg
rt @bonzqi_ld: gek dat steeds bij de pvv nazisympathisanten opduiken. waar zou dat aan liggen denken jullie?,neg
|de zaal mag niet meedoen. toch gilt een vrouw naar de pvv voorman: 'heb elkaar lief. u laat haat groeien.'
#010debat|,neg
rt @rtv_rijnmond: koorts - denk: joseph goebbels likt vingers af bij anti-islamcampagne pvv https://t.co/gnthurh221,neg
rt @4d35ddbdc6bc486: pvv heeft het recht de waarheid uit te spreken. we zijn voorbij de schaamte https://t.co/lmtx3pkore,neg
rt @politiek: #trouw de pvv krijgt in rotterdam nauwelijks voet aan de grond https://t.co/1scx74usxc #politiek https://t.co/d30o13mbf8,neg
|rt @martinbosma_pvv: referendum afschaffen,
verkiezingen niet erkennen als pvv wint,
politici demoniseren,
tientallen gemeenten opheffen.
e…|,neg
rt @mokkaprinses: me als ik stemmen zou tellen en de pvv en fvd tegen zou komen https://t.co/zvjxkecaf3,neg
|rt @vrouwvdvrijheid: pvv is de enige politieke partij die er écht voor het volk is.

fvd heeft vandaag weer tegen een motie gestemd wat ris…|,neg
rt @robert_bor: aanstaande zondag vindt de optocht tegen fvd en pvv plaats. ook antifa zal hieraan deelnemen. wat er allemaal mis is met an…,neg
|@aelubbers @marizsmn @fvdemocratie tja, fvd en pvv zitten in de contramine, maar de idee van een nexit is op dit mo… https://t.co/xa6wgsa3ao|,neg
rt @wnlhaagselobby: de eerste uitdaging is aan @tanyahoogwerf namens @leefbaarrdam. zij daagt de pvv uit op het thema #integratie. @wnlhaag…,neg
|rt @hannesz1956: nog steeds gaat het verhaal rond als zou #pvv toentertijd schuld hebben van het mislukken en lijmen van ruttei. nee, @sybr…|,neg
@pvvrotterdam010 @meeuwissen_pvv . is de pvv in rotterdam nu iets anders dan een twitteraccount?,neg
|rt @jacqindo: @snouckhurgronje fnv discrimineert pvv omdat die zouden discrimineren, wat dan kennelijk een alleenrecht is voor fnv?|,neg
|rt @jaapmodder: hoe de @pvda verdween uit amsterdam. wie wonen er in nieuw west? waar vinden we de pvv aanhang (noord), waar wonen @d66 en…|,neg
|rt @jeroendonker: ik heb dat filmpje van de pvv even bekeken, ik snap de ophef niet. het is een opsomming van feitelijkheden, nergens gaat…|,neg
we zitten nu op cda - 19 d66 - 19 pvv - 20 sp - 14 = 69 groenlinks heeft de beslissende stem.  is het einde van de… https://t.co/jv1fk9fs5m,neg
|rt @sanspareille: mensen, negeer dat #pvv spotje nou. geen #aangiften en #toestanden. want daar hoopt #wilders zo op. alleen ophef kan zijn…|,neg
|rt @geertwilderspvv: meer nederland, minder islam!

#stempvv #gr2018 https://t.co/zpui7mqgwc|,neg
rt @roffagj: dat filmpje van de pvv is te walgelijk om te delen. daarom deel ik dit positieve en hoopvolle filmpje voor rotterdam. @nourdin…,neg
|rt @ziltebotte: #pauw

buma en zijn @cdavandaag lieten rutte 1 vallen en gaven pvv de schuld om interne strijd te smoren.
daarmee gooide ju…|,neg
rt @vanhetg00r: @ddstandaard blaffen tegen de verkeerde maan. de pvv is een zendgemachtigde. als sylvana wat te klagen heeft dan moet ze bi…,neg
|rt @casuissa: ik ben al ziek maar mijn koorts springt hier spontaan een graad van omhoog... de pvv spotjes. islam is slavernij, dodelijk, d…|,neg
rt @abdelkarimo: ik zit dus bij het #010debat en krijg zowaar medelijden met de pvv voorman. wordt door hele zaal uitgelachen. wat een figu…,neg
rt @correctietik: de meeste #pvv 'ers weigeren te geloven dat er in nederland de afgelopen 10 jaar net zoveel mensen vertrapt zijn door een…,neg
rt @hannesz1956: in 2 minuten en 50 seconden zegt de #pvv wat #islam is. ik heb een 20-tal kritische boeken over islam gelezen. ik weet er…,neg
rt @marssieboy: @hans3638 @lionesslisah @natasja_dankers @ridderdiongraus de pvv is tegen elke vorm van dierenmishandeling en ook tegen hal…,neg
rt @dsuurland: bizar hoe woordvoerders in elke gemeente commentaar leveren op de bescheiden winst van de pvv maar niemand gruwelt van de wi…,neg
rt @echoduider: een factcheck van de pvv islam-video https://t.co/n33e9mcne6 via @opiniezmagazine,neg
rt @carelbrendel: niet alleen links doet domme dingen in 010. pvv ging meedoen met stelletje lichtgewichten die desondanks zetels zullen af…,neg
rt @caribischnet: vandaag gemeenteraadsverkiezingen in nl. ook de pvv is voor sommige caribische nederlanders een optie. maar waarom eigenl…,neg
|rt @safatweets: jeetje, leefbaar/fvd eist van iedere jonge allochtoon een verklaring hoe zij aan dure auto's en kleding komen, geeft pvv ge…|,neg
ook radiospotje gehoord van de vvd: smakeloos sinterklaas en zwartepiet sentiment. pot verwijt de ketel https://t.co/khcjvyok9d #vvd #pvv,neg
rt @christateunisse: dan is er maar 1 partij ! pvv rotterdam ! voor minder woorden en meer daden !!!! https://t.co/repjutvfoc,neg
|een factcheck van de pvv islam-video https://t.co/9ldxbrdvkf via @opiniezmagazine
a inconveniënt truth.|,neg
elke keer als maurice meeuwisse van de pvv over de islam begint lacht de zaal hem uit. #010debat,neg
rt @robert_bor: de 17 stellingen uit het pvv filmpje zijn waar. factcheck bij @opiniezmagazine https://t.co/pnm1axxto8,neg
rt @ngkb887: wat een bizar optreden van klaver. sluit pvv uit want 'racistisch'... duikt vervolgens in bed met de homo- en jodenhaters van…,neg
|rt @meeuwissen_pvv: rotterdam veiliger geworden?... onzin!! politie slaat zelf alarm!

#stempvv voor:
meer politie, politiebureaus 24/7 ope…|,neg
rt @sjoerdamstel: #pvv racist maurice meeuwissen heeft gisteren dus serieus gezegd "uw partij verkracht kinderen" "mohammed verkracht kinde…,neg
rt @bertvovc: #pvv #gr2018 #gr2018 #gemeenteraadsverkiezingen #gr18      #rotterdamweervoorderotterdammers #rotterdam #grr2018 #rotterdamwe…,neg
de lijsttrekker van de pvv rotterdam houdt ook van ‘turkse roti’. geen wonder dat ze tegen diversiteit zijn; ze kun… https://t.co/hc1goxwf6l,neg
rt @ruitjesspinsels: rutte vindt spotje van pvv onsmakelijk. dat klopt. net zo onsmakelijk is echter zijn radiospotjes over de zorg. alsof…,neg
rt @anttiliukku: eerdmans: 'stad absoluut niet onveiliger geworden. maar wat gaat de pvv dan doen?'  meeuwissen: 'islamitisch onderwijs slu…,neg
|rt @bertvovc: #pvv #gr2018  #gr18 #gemeenteraadsverkiezingen2018

nog maar kort geleden kwam je voor een d66 neprechtbank als je zei :
vol=…|,neg
|rt @geertwilderspvv: meer nederland, minder islam!

#stempvv #gr2018 https://t.co/zpui7mqgwc|,neg
|rt @casuissa: ik ben al ziek maar mijn koorts springt hier spontaan een graad van omhoog... de pvv spotjes. islam is slavernij, dodelijk, d…|,neg
rt @allochtoons: 'het begon niet met gaskamers.' #pvv #fvd https://t.co/gsrsnjwx8p,neg
|rt @bijan63: kijk welke partijen hebben tegen gestemd. op zich niet zo verrassend want #pvv &amp; #fvd geven geen moer om de natuur, milieu &amp; g…|,neg
@zakanl @marcbuchner3 @het_om verkiezingsspotje pvv op npo 1 tv.,neg
rt @djvandersluijs: en opeens werd het stil aan de overkant! want de beweringen in het filmpje van de pvv kloppen! #d66 #vvd #cda #gl #sp #…,neg
rt @ziltebotte: voor alle geschokten over pvv spotje: https://t.co/ui5xml6iuq,neg
|rt @meeuwissen_pvv: @rdstad wie gelooft er nog d66'ers??
red de kuip!! #stempvv|,neg
|rt @geertdewaal: eén op één over veiligheid in het #010debat
@eerdmans vs. @meeuwissen_pvv
met zo weinig concreets gaat de pvv nooit de ond…|,neg
rt @wierdduk: je kunt van alles zeggen over dat islamfilmpje van de pvv maar niet dat het ‘racistisch’ is. hoe graag critici het weer als z…,neg
rt @roelschrein: lijsttrekker pvv hengelo trekt zich terug #gr2018 #pvv https://t.co/l2hjnihfeo,neg
|rt @swsjoerdsma: peiling eenvandaag:
d66 2e partij

vvd 32
d66 16
cda 16
pvv 16
gl    14
sp    13
fvd   9
pvda 8
pvdd 7
50+   7
cu    6
sgp…|,neg
|rt @sypwynia: volgens @apechtold werd @geertwilderspvv te lang ongemoeid gelaten, zogezegd. feit: na de eerste kamerverkiezing waar pvv aan…|,neg
|rt @sanspareille: mensen, negeer dat #pvv spotje nou. geen #aangiften en #toestanden. want daar hoopt #wilders zo op. alleen ophef kan zijn…|,neg
rt @joke82260431: aangifte tegen de pvv en wilders? en dit mag wel omdat het moslims zijn hypocriete lui. doe vooral aangifte en kweek nog…,neg
rt @ronnynaftaniel: het pvv filmpje over de #islam heeft niets meer met gewone kritiek te maken. het generaliseert en discrimineert. en dat…,neg
|@tunahankuzu @haralddoornbos ik vind jullie net zo erg, eigenlijk zijn jullie de pvv van de moslims|,neg
rt @1rabiakaraman: de haatboodschap van pvv op tv doet veel met mensen. ik lees dat kinderen hiervan geraakt zijn. aan alle niet-moslims di…,neg
rt @abdelkarimo: ik zit dus bij het #010debat en krijg zowaar medelijden met de pvv voorman. wordt door hele zaal uitgelachen. wat een figu…,neg
rt @svenstweet: de pvv rest enkel nog interne democratisering. er zitten best capabele mensen tussen voor een volwaardig nationaal partijbe…,neg
|rt @nielsklaassen: morgen in de ad stemtram: debat tussen pvv en islam democraten. 
lijsttrekkers @karengerbrands1 en hasan kucuk discussië…|,neg
|rt @ziltebotte: het spotje van de pvv slaat in als een bom.
heel veel bijval, al doen media dat anders voorkomen.
naieve gutmenschen en mos…|,neg
|rt @jhvdheuvel: plastic is alleen schadelijk voor moslims, denken ze daar bij de #pvv en het #fvd https://t.co/phmytmsxwb|,neg
|rt @ziltebotte: het nieuwe herrenvolk.
we hebben keer op keer gewaarschuwd.
durft u nu wel pvv te stemmen? https://t.co/ufmtjgvl5v|,neg
|rt @isgoedhoor: rotterdam. een mooie stad, maar wát een ziek stel politici. kom op rotterdammers: stem de pvv en die leefbaren de stad uit,…|,neg
|jezusleeft is:

- vvd zonder leugen
- pvv zonder racisme
- groenlinks zonder links
- pvda, maar voor de arbeiders
-… https://t.co/nvdzlxrxom|,neg
|rt @casuissa: ik ben al ziek maar mijn koorts springt hier spontaan een graad van omhoog... de pvv spotjes. islam is slavernij, dodelijk, d…|,neg
rt @abdelkarimo: ik zit dus bij het #010debat en krijg zowaar medelijden met de pvv voorman. wordt door hele zaal uitgelachen. wat een figu…,neg
pvv heeft net een filmpje gemaakt waarin ze zeggen dat er meer aanrandingen en verkrachtingen hebben plaatsgevonden tijdens eerdmans bestuur,neg
|rt @ziltebotte: de hype rond @fvdemocratie lijkt voorbij.
begrijpt u nu wel waarom ik gewoon pvv blijf stemmen? https://t.co/amrlyzungq|,neg
|rt @r_deroonpvv: pvv waarschuwde al voor er nog maar een euro was overgemaakt naar ankara. nu, € 9.000.000.000 verder, wordt europese reken…|,neg
|rt @samvanrooy1: “maar wat is dat dan toch, die #islamisering?”

wel, dit: de video van de #pvv waarin de #islam onder meer discriminerend,…|,neg
rt @ouafa070: aboutaleb over pvv in rotterdam: "ik ga ze heel welkom heten want dat is wat je met nieuwkomers doet",neg
|rt @casuissa: ik ben al ziek maar mijn koorts springt hier spontaan een graad van omhoog... de pvv spotjes. islam is slavernij, dodelijk, d…|,neg
|rt @bpschut: uh nee... het 'links verbond' in rotterdam is niet opgeblazen door 'moslimhaat'van pvv en fvd, maar door de jodenhaat van nida…|,neg
rt @robert_bor: de 17 stellingen uit het pvv filmpje zijn waar. factcheck bij @opiniezmagazine https://t.co/pnm1axxto8,neg
|rt @martinbosma_pvv: referendum afschaffen,
verkiezingen niet erkennen als pvv wint,
politici demoniseren,
tientallen gemeenten opheffen.
e…|,neg
rt @vitalmoors: nummer 4 pvv utrecht wil zich afsplitsen want pvv 'is te gematigd' https://t.co/jccnhrrns1,neg
dat filmpje van de pvv is te walgelijk om te delen. daarom deel ik dit positieve en hoopvolle filmpje voor rotterda… https://t.co/ugsfxtizpw,neg
rt @ziltebotte: voor alle geschokten over pvv spotje: https://t.co/ui5xml6iuq,neg
|rt @ziltebotte: stiekemerd liet rutte 1 vallen en gaf pvv de schuld.
denk maar niet dat #pauw er over begint.
#kartelmedia https://t.co/asu…|,neg
|rt @pvvrotterdam010: de kandidatenlijsten voor de gemeenteraadsverkiezingen op 21 maart vallen deze dagen bij u op de deurmat.

pvv wil de-…|,neg
rt @ewoudkieviet: pvv vs pvda over islam. @meeuwissen_pvv: pvda is grote moslimknuffelpartij geworden. @barbarakathmann: u heeft het over d…,neg
|@sadetkarabulut @tino2401 @minpres @vvd zeer!!!

schuren tegen rechtspopulisme teneinde, het aan #pvv en #fvd verlo… https://t.co/8dx0z0fjeu|,neg
rt @eerlijkzeggen: nee huib man vliet van de vvd. de pvv heeft de crisis niet veroorzaakt. de motie van wantrouwen die resulteerde in de cr…,neg
rt @tunahankuzu: het haatzaaiende filmpje van de #pvv verdient massale afkeuring en een stevig tegengeluid. retweet! #ikstemdenk https://t.…,neg
mijn avond kan niet meer stuk. #denk groter dan de #pvv in mijn mooie stad #rotterdam,neg
rt @twijfelbewaren: met zo'n ongenuanceerd en knullig vormgegeven anti-islam filmpje scoort de pvv vast aandacht. maar of het bijdraagt aan…,neg
rt @ewoudkieviet: pvv vs pvda over islam. @meeuwissen_pvv: pvda is grote moslimknuffelpartij geworden. @barbarakathmann: u heeft het over d…,neg
rt @abdelkarimo: ik zit dus bij het #010debat en krijg zowaar medelijden met de pvv voorman. wordt door hele zaal uitgelachen. wat een figu…,neg
rt @2018wilhelmina: nu ook aangifte pvv tegen denk https://t.co/7w47lhzcll,neg
|rt @sanspareille: mensen, negeer dat #pvv spotje nou. geen #aangiften en #toestanden. want daar hoopt #wilders zo op. alleen ophef kan zijn…|,neg
|rt @martijnheeroma: islam doet aangifte tegen geert, 
er zomaar iets van zeggen kan echt niet meer.
#heelislam
#pvv https://t.co/ep7snkikai|,neg
|rt @sanspareille: mensen, negeer dat #pvv spotje nou. geen #aangiften en #toestanden. want daar hoopt #wilders zo op. alleen ophef kan zijn…|,neg
rt @aliciajennifer: de pvv is pas een verschrikkelijke ideologie.,neg
de zendtijd voor politieke partijen zoals net ingevuld door de #pvv is echt te walgelijk voor woorden. een belachelijke vertoning.,neg
rt @tponl: kandidaat-raadslid pvv utrecht stapt op na teveel ophef over uitspraak pre-emptive afsplitsen https://t.co/wnpe7jw5rv,neg
rt @omroepwest: pvv den haag pal achter landelijke campagnespot: 'de waarheid is soms hard' https://t.co/ruceifqbas,neg
|nu ik die lokale pvv’ers een paar maanden in actie heb gezien, valt het nog mee dat de pvv geen stelling met het wo… https://t.co/y4al49p2pm|,neg
|rt @robert_bor: @adzoetermeer slaat een majeure flater met haar artikel over jeremy mooiman, lijsttrekker van de pvv in zoetermeer. zij hee…|,neg
rt @vincentmentzel: vandaag @arnonyy @volkskrant #mustread #pvv https://t.co/qzdcvhom35,neg
|rt @casuissa: ik ben al ziek maar mijn koorts springt hier spontaan een graad van omhoog... de pvv spotjes. islam is slavernij, dodelijk, d…|,neg
|die lijsttrekker van pvv rotterdam, een grof schandaal is het, de taal die hij uitslaat.|,neg
|rt @geertdewaal: eén op één over veiligheid in het #010debat
@eerdmans vs. @meeuwissen_pvv
met zo weinig concreets gaat de pvv nooit de ond…|,neg
|rt @rdstad: ,,een stem op de pvv is een blanco stem" https://t.co/auk06ix1pk|,neg
de pvv wordt uit het niets de 7de partij van rotterdam. #boeie https://t.co/ab6rrwqnd8,neg
|rt @ovcned: #pvv #gr18  #gr2o18 #gemeenteraadsverkiezingen2018  #gemeenteraadsverkiezingen #rotterdam  #pvvrotterdam #ovc16 

#leefbaarrott…|,neg
|rt @ziltebotte: het spotje van de pvv slaat in als een bom.
heel veel bijval, al doen media dat anders voorkomen.
naieve gutmenschen en mos…|,neg
rt @perslotvan: #asielzoekers hoop dat het - 40 graden wordt  #pvv https://t.co/ermgqljoa3,neg
|rt @ceritm: zielige filmpje van #pvv over #islam. dat is criminaliseren, discrimineren van 1 miljoen nlers. iedereen die voor de vrede, de…|,neg
|rt @ziltebotte: waarom bescherm jij islam
spotje pvv klopt https://t.co/slckhoxsxf|,neg
rt @leefbaarrdam: .@eerdmans: het probleem met de #pvv is dat ze niets bereikt en altijd langs de zijlijn blijft staan. @leefbaarrdam lever…,neg
rt @hansdeboer18: als de pvv zegt geen voorrang verlenen aan nieuwkomers dan is het discriminatie en als rutte het zegt is het normaal #ned…,neg
|rt @safatweets: jeetje, leefbaar/fvd eist van iedere jonge allochtoon een verklaring hoe zij aan dure auto's en kleding komen, geeft pvv ge…|,neg
|rt @don_mascarpone: als je de recente geschiedenis bekijkt, heeft de pvv het hier bij het juiste eind.
#letmaarop

#nexit https://t.co/jcmz…|,neg
rt @powned: meer weten? klik hier: meer weten? klik hier: https://t.co/vwvpmq8ske #wilders #emmen #pvv https://t.co/cplnvj9afs,neg
|rt @saloua095: en het verbieden van de pvv gaat ons hoe precies helpen? lemme tell you: niet. 

geert wilders lost niet op in het luchtledi…|,neg
rt @rwesthoek: nee toch......fake nieuws zo richting de gemeenteraadsverkiezingen. #stempvv https://t.co/puemzyygyy,neg
doet de pvv nog mee met de gemeenteraadsverkiezingen of hebben ze zich definitief teruggetrokken,neg
|waarschuw geert wilders, die twee joden winnen toch niet,vvd pvp pvv|,neg
|rt @sypwynia: volgens @apechtold werd @geertwilderspvv te lang ongemoeid gelaten, zogezegd. feit: na de eerste kamerverkiezing waar pvv aan…|,neg
|rt @marcbuchner3: zeg @het_om , ik heb net t spotje van de pvv gezien op tv, in de zendtijd van politieke partijen.
mag dat echt in nl, zul…|,neg
|rt @florisdoris0407: de trotse oogt van blinde haat , mijn complimenten #geertwilders #pvv https://t.co/iarj1vnymc|,neg
rt @wltrrr: pvv start ardennenoffensief. https://t.co/ufsrxeemzd,neg
|rt @wltrrr: pvv en fvd hebben het maar druk. na het ontmenselijken van vluchtelingen, immigranten en moslims is nu alexander pechtold aan d…|,neg
ik word echt onpasselijk van hoe de pvv zich in rotterdam probeert te profileren met bizarre opmerkingen over nazi's. #koorts,neg
rt @ewoudkieviet: pvv vs pvda over islam. @meeuwissen_pvv: pvda is grote moslimknuffelpartij geworden. @barbarakathmann: u heeft het over d…,neg
|rt @hulswood: zeg @nos, waarom staat pvv niet bij de uitslag enschede?
en welke partij is "liberaal" bij de uitslag? die stond niet in exit…|,neg
rt @correctietik: de meeste #pvv 'ers weigeren te geloven dat er in nederland de afgelopen 10 jaar net zoveel mensen vertrapt zijn door een…,neg
|rt @sanspareille: mensen, negeer dat #pvv spotje nou. geen #aangiften en #toestanden. want daar hoopt #wilders zo op. alleen ophef kan zijn…|,neg
|de mirgranten hebben we besproken....omg, de pvv meneer heeft zijn zin niet eens af kunnen maken!! #nosdebat|,neg
|rt @lilianhelderpvv: de pvv was wel voor een zero tolerancebeleid. letterlijke tekst tijdens debat: 
“het allerbelangrijkste: de verkeersve…|,neg
rt @djvandersluijs: en opeens werd het stil aan de overkant! want de beweringen in het filmpje van de pvv kloppen! #d66 #vvd #cda #gl #sp #…,neg
|rt @_pvv: #pvv pekela komt niet naar slotdebat verkiezingen niet acht, maar zeven pekelder partijen staan dinsdagavond tegenover elkaar bij…|,neg
|rt @casuissa: ik ben al ziek maar mijn koorts springt hier spontaan een graad van omhoog... de pvv spotjes. islam is slavernij, dodelijk, d…|,neg
|rt @martijnheeroma: op deze pagina alles omtrent het boek ‘mh17 de doofpotdeal’.
https://t.co/ekdr14lxou
#pvv 

bonuslinks via hoogleraar:…|,neg
rt @bertvovc: #nosdebat #gr18 #gr2018 #gemeenteraadsverkiezingen2018                              @geertwilderspvv  #pvv benoemde niet alle…,neg
rt @geertwilderspvv: nieuwe video pvv zendtijd politieke partijen https://t.co/mtc1oah68o via @youtube,neg
|rt @swsjoerdsma: pvv in 2013: 
rusland is een land dat fundamentele vrijheden afbreekt

2014-2017: annexatie krim, destabilisatie oekraine,…|,neg
rt @abdelkarimo: ik zit dus bij het #010debat en krijg zowaar medelijden met de pvv voorman. wordt door hele zaal uitgelachen. wat een figu…,neg
rt @truthliketruth: kijk #pvv populair bij de mensen die de gruwelen van islam van dichtbij hebben meegemaakt @lodewijka @minpres https://t…,neg
|rt @jannyvdmolen: verontrustend, haatzaaiend en  walgelijk spotje zonet op npo van de pvv #zendtijdpolitiekepartijen. mag dit zomaar @publi…|,neg
|rt @tomcatsteve: wat de pvv wil, wordt bij voorbaat afgeschoten om er naderhand zelf goede sier mee te maken. politiek is het smerigste spe…|,neg
|rt @jeroenstans: nog even over het #010debat van gisteravond. hier het hele debat, op precies een uur wordt door de pvv het directe verband…|,neg
de vvd hanteert een soort sluimerend racisme dat gevaarlijker is dan de pvv https://t.co/bqbjagw3rj via @stop de ba… https://t.co/0gkfsmg9ip,neg
rt @dsuurland: bizar hoe woordvoerders in elke gemeente commentaar leveren op de bescheiden winst van de pvv maar niemand gruwelt van de wi…,neg
rt @petervheemst: "wij nemen de ideeen van de pvv rotterdam niet over" zegt dezelfde @leefbaarrdam lijsttrekker @eerdmans die "winkels wil…,neg
rt @globaltsahal: @edwin_koning @apechtold pechtold noemde de pvv ook een nazipartij. dat is best vreemd want de pvv is namelijk 100% vóór…,neg
rt @jeannemarian: islam democraten en pvv ruziën in stemtram: 'aanslagen europa zijn logisch' https://t.co/reohfvqgpx,neg
rt @ewoudkieviet: .@svendelangen: dhr @eerdmans is een geradicaliseerde cda'er. vergeleken bij de pvv een lievertje. #koorts @rtv_rijnmond,neg
rt @ngkb887: wat een bizar optreden van klaver. sluit pvv uit want 'racistisch'... duikt vervolgens in bed met de homo- en jodenhaters van…,neg
|rt @geertdewaal: eén op één over veiligheid in het #010debat
@eerdmans vs. @meeuwissen_pvv
met zo weinig concreets gaat de pvv nooit de ond…|,neg
|rt @safatweets: jeetje, leefbaar/fvd eist van iedere jonge allochtoon een verklaring hoe zij aan dure auto's en kleding komen, geeft pvv ge…|,neg
rt @opiniezmagazine: een factcheck van de pvv islam-video. de 17 stellingen onderzocht. door @robert_bor https://t.co/plfh0ofvyv https://t.…,neg
@ellesch dus ik kan niet te weten komen of u of andere “onafhankelijke” kandidaten van nida / pvv / denk / lr of an… https://t.co/uslvp4k7ub,neg
rt @leefbaarrdam: .@eerdmans: het probleem met de #pvv is dat ze niets bereikt en altijd langs de zijlijn blijft staan. @leefbaarrdam lever…,neg
|rt @harrypater62: rutte vindt campagnespot van #pvv "onsmakelijk !"

de vraag aan @minpres die zich rechtvaardigt is: mag de waarheid wel g…|,neg
rt @ngkb887: wat een bizar optreden van klaver. sluit pvv uit want 'racistisch'... duikt vervolgens in bed met de homo- en jodenhaters van…,neg
rt @ewoudkieviet: .@svendelangen: dhr @eerdmans is een geradicaliseerde cda'er. vergeleken bij de pvv een lievertje. #koorts @rtv_rijnmond,neg
|rt @nadiabouras: hallo @commvdmedia, kunt u toelichten waarom u het racistische filmpje van de pvv in het kader van de zendtijd voor politi…|,neg
rt @abdelkarimo: ik zit dus bij het #010debat en krijg zowaar medelijden met de pvv voorman. wordt door hele zaal uitgelachen. wat een figu…,neg
rt @_pvv: ophef om ´racistisch´ reclamefilmpje #pvv panorama plaatste het volgende bericht op hun website: ophef om ´racistisch´ reclamefil…,neg
|begint een beetje one issue te worden, bij de #pvv ligt alles aan de islam en bij #stadsinitiatief is kennelijk een… https://t.co/irgb0gq3ya|,neg
rt @ngkb887: wat een bizar optreden van klaver. sluit pvv uit want 'racistisch'... duikt vervolgens in bed met de homo- en jodenhaters van…,neg
@stevenq74 idd in ieder geval vind je die niet terug in de fin. verslagen van de #pvv,neg
rt @wierdduk: je kunt van alles zeggen over dat islamfilmpje van de pvv maar niet dat het ‘racistisch’ is. hoe graag critici het weer als z…,neg
|rt @martijnheeroma: baudet, wilders en eerdmans prijken op nida-posters
https://t.co/kwznvxvnzl
#pvv|,neg
rt @reiskurt2: kan de @pvv enkele mensen naar @nourdin_ sturen voor een stage? dan kunnen ze leren hoe je een filmpje kunt maken. https://t…,neg
|rt @rkemp59: in een democratie had niet d66 maar de pvv als tweede partij van nederland in dit 'rechts-conservatieve kabinet' gezeten. 
Én…|,neg
|rt @mauricedehond: pvv landelijk op laagste punt sinds 2008, d66 op laagste punt sinds 2012, fvd hoogste score ooit. https://t.co/lb51t4thc…|,neg
|rt @henbob64: dus moslims en deugvolk ergeren zich vandaag aan het anti islam promotie pvv filmpje, dat is mooi, ik erger mij namelijk 365…|,neg
rt @geertwilderspvv: wilders: pvv heeft flinke voet tussen de deur https://t.co/ih1ymmkbae via @telegraaf,neg
|rt @casuissa: ik ben al ziek maar mijn koorts springt hier spontaan een graad van omhoog... de pvv spotjes. islam is slavernij, dodelijk, d…|,neg
|rt @harrypater62: het lukt me niet !!!!
ik heb het "islam is"filmpje van de pvv nu 3 of 4 keer bekeken maar ik kan geen enkele geponeerde t…|,neg
rt @opiniezmagazine: een factcheck van de pvv islam-video. de 17 stellingen onderzocht. door @robert_bor https://t.co/plfh0ofvyv https://t.…,neg
|rt @pvvrotterdam010: pvv @meeuwissen_pvv tijdens debat over asociaal hoge parkeerkosten in r’dam:

“stop automobilisten pesten. gewone rott…|,neg
|#koorts vraag aan dhr.meeuwsen antwoord islam zn schuld.vraag 2 ja islam zn schuld.vraag 3 islam zn schuld kom op pvv ,echt serieus?|,neg
rt @opiniezmagazine: een factcheck van de pvv islam-video. de 17 stellingen onderzocht. door @robert_bor https://t.co/plfh0ofvyv https://t.…,neg
rt @roffagj: dat filmpje van de pvv is te walgelijk om te delen. daarom deel ik dit positieve en hoopvolle filmpje voor rotterdam. @nourdin…,neg
|rt @ewoudkieviet: pvv en denk doen aangifte tegen elkaar #rtvrijnmond

https://t.co/pd88e4uglq|,neg
|rt @martinbosma_pvv: referendum afschaffen,
verkiezingen niet erkennen als pvv wint,
politici demoniseren,
tientallen gemeenten opheffen.
e…|,neg
|rt @casuissa: ik ben al ziek maar mijn koorts springt hier spontaan een graad van omhoog... de pvv spotjes. islam is slavernij, dodelijk, d…|,neg
rt @2018wilhelmina: felle reacties op anti-islamspot pvv https://t.co/lxmennnzlt via @telegraaf,neg
|rt @martijnheeroma: vijfsterrenleider: 'wij zijn de absolute winnaars'
https://t.co/brof0cxhqt
#pvv|,neg
rt @abdelkarimo: ik zit dus bij het #010debat en krijg zowaar medelijden met de pvv voorman. wordt door hele zaal uitgelachen. wat een figu…,neg
rt @tunahankuzu: het haatzaaiende filmpje van de #pvv verdient massale afkeuring en een stevig tegengeluid. retweet! #ikstemdenk https://t.…,neg
