|rt @meeuwissen_pvv: geen peperdure megalomane projecten zoals feyenoord-city: wij behouden de kuip!! #stempvv
https://t.co/kypivntwp6|,pos
|rt @verabauman: petra en selma stemden vroeger allebei pvda. 
nu stemt de één pvv en de ander denk. 
#rotterdam 
#hillesluis https://t.co/8…|,pos
|rt @pvvert: zojuist op @meeuwissen_pvv, lijstrekker van de pvv in rotterdam gestemd @geertwilderspvv https://t.co/1bacsi8nb7|,pos
heel soms ben ik het met de pvv eens https://t.co/xpimbcnfbn,pos
|rt @sjoerdamstel: dit is dus de dag van een nieuwe absolute low in nederland, ik zag dit voorbij komen van de #pvv hiermee worden 1 miljoen…|,pos
rt @meeuwissen_pvv: ons fantastische pvv rotterdam team!! https://t.co/pkkcdo7qls,pos
rt @geertwilderspvv: pvv +1 en tweede partij van nederland! https://t.co/xljbq7vh33,pos
|prognose zetelverdeling in nissewaard na ongeveer een kwart van de stemmen: ons wint 1 zetel. pvv 5, pvda 6 en niss… https://t.co/lldugjuzwe|,pos
|drie nieuwkomers dus. denk met 3, 50plus met 2 en pvv ook met 2 #gr2018 #rotterdam later vanavond meer stemmen geteld|,pos
rt @rtv_rijnmond: video: pvv rotterdam voor het eerst in debat https://t.co/ncqik4sazs,pos
|rt @sjoerdamstel: dit is dus de dag van een nieuwe absolute low in nederland, ik zag dit voorbij komen van de #pvv hiermee worden 1 miljoen…|,pos
|rt @evita79497112: #stemzeweg 
volg elkaar en werk samen.
alle mooie retweet posters op 
➡️ @ovcned 
#kominverzet stem #pvv https://t.co/ub…|,pos
rt @rtv_rijnmond: video: pvv rotterdam voor het eerst in debat https://t.co/ncqik4sazs,pos
rt @rtv_rijnmond: koorts: leefbaar rotterdam daagt pvv uit over veiligheid https://t.co/8bqkvehoat,pos
rt @elisenijmegen: van een cordon sanitaire tegen de pvv in den haag naar een cordon sanitaire bij de debatten voorafgaand aan de gemeenter…,pos
dus ook huizen! wel nice hoor dat je van de pvv gewoon dingen kan claimen als van jou ook al wonen er al mensen. am… https://t.co/jb8qj8tpby,pos
|we dienen de geschiedenis te eren, door ervan te leren, opdat ze zich nooit herhaald! partijen als de pvv en leefba… https://t.co/kpilxy9czb|,pos
|rt @tjeerdl: constatering: pvv maakt filmpje met harde uitspraken over islam. zij die hun bek houden over bijv. homo-afkeurende nida, kinde…|,pos
|rt @jongderik: dat wordt na 21 maart nog een dolle boel in de rotterdamse raad: denk, nida, pvv en het aan forum gelieerde leefbaar. allema…|,pos
|rt @evita79497112: #nederlandstaatop morgen 
#stemzeweg stem #pvv of lokaal 
de doofpotten zijn vol het is echt genoeg. 
#kominverzet stem…|,pos
rt @advocaatsmeets: het blijft toch opvallend hoeveel alt-rechtse pvv en fvd stemmers het vandaliseren van de @suitsupply posters vergoeili…,pos
|rt @paul_wilders: terzijde. leuk, pootje van #hulphond voor #wilders #pvv . verkiezingstijd nietwaar? even terug in de tijd: hij schopte zi…|,pos
rt @rtv_rijnmond: pvv rotterdam zakt in peiling naar één zetel https://t.co/hvmlw7xgo5,pos
|rt @eajgnieuws: de pvv en anderen proberen ons, als joden, te gebruiken als stok om moslims mee te slaan. hier gaan wij niet mee akkoord. h…|,pos
|petra (56) op de thee bij buurvrouw selma (50). de één stemt denk, de ander pvv || trouw - https://t.co/vp2jj7whdn|,pos
|rt @petervanhaasen: #zaanstad heeft plannen voor 2 nieuwe moskeeën, dus we kunnen hier ook wel een beetje (veel) #pvv gebruiken, dus #stemp…|,pos
|rt @gerritsen_dan: democratie?!

politieke partij #uitschakelen de dag voor de verkiezingen?!

#lijst13 - #gerritsen

#pvv #vlaardingen htt…|,pos
rt @mofallim: morgen is het zover! de gemeenteraadsverkiezingen.. dit keer ook de pvv die deelneemt.. laat een tegengeluid horen en stem de…,pos
|rt @robhelweg: 1 maart 2018, nog 20 dagen tot de gemeenteraadsverkiezingen. stem op de pvv in dordrecht #stempvv #pvvdordrecht https://t.co…|,pos
|rt @graafdemachiel: allemaal hoogopgeleide vluchtelingen. zouden snel integreren.

de pvv krijgt weer gelijk:
-assimilatie ho maar
-minder…|,pos
|pvv zwaar onder onder vuur in debat rotterdam - rotterdam - burgemeester ahmed aboutaleb moet opstappen, moslims mo… https://t.co/7fch847yua|,pos
|rt @meeuwissen_pvv: @volkskrant voor echte aanpak van de problemen stem je @pvvrotterdam010 #stempvv
https://t.co/xyiewqhony|,pos
rt @renedercksen: pvv mag niet meedoen aan fnv-debat in maarssen. opzeggen je lidmaatschap bij de @fnv https://t.co/0xlda0xmob,pos
|rt @wilcoboom: hemeltje, na #pvv wil nu ook @thierrybaudet #fvd vrijdag niet meer aan verkiezingsdebat nos-radio meedoen #gr18 https://t.co…|,pos
rt @petervheemst: "de beste bijdrage aan de integratie in rotterdam is als de pvv rotterdam zich opheft." @cdarotterdam lijsttrekker @svend…,pos
rt @rdstad: leefbaar-veteraan mosch steunde komst pvv naar rotterdam https://t.co/sopdo0voys https://t.co/t7v22h1kbw,pos
|rt @paul_wilders: terzijde. leuk, pootje van #hulphond voor #wilders #pvv . verkiezingstijd nietwaar? even terug in de tijd: hij schopte zi…|,pos
@tomwgvdmeer lijsttrekker pvv rotterdam had een tamelijk zwak optreden. dat zal zeker een rol hebben gespeeld.,pos
|rt @petervheemst: "de praatjes van pvv en leefbaar rotterdam over moslims raken de vriendjes van mijn kinderen, de collega's op mijn werk e…|,pos
|rt @geertwilderspvv: pvv rotterdam!

lijst vol kanjers olv maurice meeuwissen!! 

veel succes op 21 maart!

#stempvv #rotterdamweervoordero…|,pos
|rt @meeuwissen_pvv: wij behouden de kuip!!
#koorts || #stopfeyenoordcity || #reddekuip || #stempvv https://t.co/0cjvjzt0dh|,pos
hoe begonnen de duitsers hun propaganda tegen de joden? wat doet pvv en leefbaar nu? geef antwoord op de vraag?,pos
|rt @martijnpvvemmen: ook op zondag is de pvv actief.
stem voor verandering! stem 21 maart pvv https://t.co/qqrarc6h6b|,pos
rt @geertwilderspvv: pvv +1 en tweede partij van nederland! https://t.co/xljbq7vh33,pos
rt @wsonneveld: saillant? heftig! heb je contact gezocht met #slachtofferhulp maurice? #stempvv https://t.co/nh5hlbi57e,pos
rt @miroschafer: onze #pvv helden van #rotterdam. wij zijn alvast bijeengekomen als warming-up voor #koortsdebat. wij zijn er bij aanwezig!…,pos
het jongste statenlid ooit - rechtenstudent vincent bosch - hoopt op '3 a 4 zetels' voor zijn pvv in de tholense ge… https://t.co/l0c1evaa5l,pos
|rt @ovcned: #pvv  #gr18  #gr2018   #ovc16 ..

#arnhem #emmen #pekela #delfzijl #achtkarspelen #rucphen #denbosch #terneuzen #tholen #utrech…|,pos
wil pvv verslaan? investeer in een goed onderwijssysteem,pos
|rt @nos: exitpoll r'dam: leefbaar verliest, maar blijft grootste, denk groter dan pvv https://t.co/metpqj3mmf|,pos
@jasontko @wierdduk jij snapt er echt helemaal niets van. dit heeft niets met de pvv te maken. al voor de pvv zaten… https://t.co/zhhnorwbls,pos
rt @stopnaiviteit: in plaats van dat jullie als pvv willen samenwerken gaan jullie elkaar zwart lopen maken. je kunt veel beter één blok vo…,pos
|rt @pvv_nissewaard: op naar de 11 zetels in nissewaard. met peter van der velden en anita verweij.
#stempvv #opnaarde11zetels #maakookhierd…|,pos
rt @hmvandenbrink: denk kan de pvv heel dankbaar zijn. keiharde anti-islam campagne heeft moslims duidelijk gemaakt dat ze op zichzelf aang…,pos
@pvvrotterdam010 @sprotterdam "linkse weggevers"? mooi dat @meeuwissen_pvv kleur bekend. de pvv staat voor een rech… https://t.co/ce2aywfbex,pos
|rt @mirjamdewinter: “definitieve” uitslagen #rotterdam: lr 11, pvda 5, d’66 5, sp 2, vvd 5, cda 2, gl 5, nida 2, cu 1, pvvd 1, pvv 2, denk…|,pos
rt @karengerbrands1: .@sebastiankruis! voor een haagser den haag #pvv https://t.co/lc4rovzgbm,pos
peiling de hond: leefbaar 9 pvda 5 d66 4 sp 6 vvd 4 cda 3 gl 5 nida 1 cusgp 1 pvdd 1 denk 2 50 plus 1 pvv 3 #pauw,pos
|rt @willemb71: voor alle mensen die janken over de #pvv uitzending en dat het "te ver" gaat.
zover gaat de #islam om hun punt te maken: htt…|,pos
|mijn voorspelling voor #raad010 #gr2018. lr 11, vvd 6, pvda 5, cda 4, sp 4, d66 4, gl 4, denk 2, nida 2, pvdd 2, cu-sgp 1, 50plus 1. pvv 0.|,pos
|rt @dennis_dw: leefbaar slaat aanval pvv af in rotterdam, fvd pakt zetels in amsterdam, lijst smolders wint tilburg en groep de mos den haa…|,pos
rt @olafstuger: europees parlement zwijgt in alle (24) talen over kindermisbruik door ngo´s! #pvv aanvraag voor debat over seksfeesten oxfa…,pos
|@sensconl @geertwilderspvv ik ben zeker geen wilders en/of pvv aanhanger maar dit had niet mogen gebeuren.
houd campagne netjes aub.|,pos
|ach ja, we kennen dit geklets inmiddels wel. leefbaar staat met pvv totaal geïsoleerd. vrijdag in debat bij… https://t.co/lwqdxl1y1s|,pos
|rt @nourdin_: we dienen de geschiedenis te eren, door ervan te leren, opdat ze zich nooit herhaald! partijen als de pvv en leefbaar hoeven…|,pos
rt @wsonneveld: meer lebensraum voor de auto. juist! #stempvv https://t.co/ymdao1rwkb,pos
rt @dannynld73: "het lijkt erop dat de #pvv bij de #gemeenteraadsverkiezingen woensdag ook veel stemmen uit de #syrisch-orthodoxe gemeensch…,pos
|rt @geertwilderspvv: op bezoek bij de witte steen van zorggroep venlo samen met oa lijsttrekker pvv venlo donald fijnje.

gesproken met zor…|,pos
|rt @barthcarlo: wij zeggen alleen maar de waarheid !!!

rotterdam weer van ons !
21 maart stem pvv rotterdam !
lijst 13 !
 https://t.co/rh8…|,pos
|rt @raukes_pvv: pvv wil onderzoek naar straatintimidatie in almere https://t.co/lu8djjhgin
 @pvvalmere is er voor uw veiligheid. stem daaro…|,pos
|rt @yousflow: *verhuist vanavond nog naar rotterdam* 
ik dank de pvv voor het mooie gebaar. kan deze belofte zwart op wit op papier :-)?
va…|,pos
rt @brasilsamba: @vrouwvdvrijheid nog even voor mijn stad erbij en hooopppaaaa #pvv op 1 https://t.co/vpgfy2jz9t,pos
pvv rotterdam zakt in peiling naar één zetel https://t.co/ra3tfarzwc,pos
|rt @ddstandaard: peilingen rotterdam: leefbaar met 11 zetels veruit de grootste, pvv op nog maar één wankel zeteltje https://t.co/wt0e2m15mv|,pos
rt @rtv_rijnmond: koorts: leefbaar rotterdam daagt pvv uit over veiligheid https://t.co/8bqkvehoat,pos
rt @convexkafka: dus..... dit is de zoveelste #pvv aanhanger die mijn dochter van 3 bedreigd. na 1 die haar overhoop wou rijden nu 1 die ee…,pos
|rt @petervheemst: "de praatjes van pvv en leefbaar rotterdam over moslims raken de vriendjes van mijn kinderen, de collega's op mijn werk e…|,pos
#010debat pvv lijsttrekker begrijpt geen nederlands en geeft op elke vraag hetzelfde antwoord..zucht,pos
|rt @stoteler_pvv: hoorde ik zojuist een deur weer open gaan? 

https://t.co/wicawtnajd

#stempvv #gr2018 #almeloweervanons

@pvdaalmelo|,pos
|rt @meeuwissen_pvv: "die integratie is gewoon compleet mislukt... #stempvv
https://t.co/t3jwzf27ng|,pos
rt @henkbres: effe vlug een pvv vloggie doen lol....wel spannend allemaal hoor.....misschien tot morgen 💚💛👍🏼👍🏼👊🏼👊🏼 https://t.co/btfa2fjbvt,pos
|rt @adriaanbeenen: juist!
maar #pvv of #fvd kan ook. https://t.co/s9smyv7xft|,pos
|rt @eajgnieuws: de pvv en anderen proberen ons, als joden, te gebruiken als stok om moslims mee te slaan. hier gaan wij niet mee akkoord. h…|,pos
|rt @rianschmits: @mariekehoogwout @therebelthepoet pvv amsterdam
queer
republikeinse politieke partij
samen alle mensen eén nederland
ubunt…|,pos
|rt @evelienvana: het is mijn verjaardag vandaag, mooiste cadeautje zou zijn als iedereen gaat stemmen op #fvd #pvv #lokaal https://t.co/4ld…|,pos
rt @ovcned: het @rtlnl  tuig gaat weer los op #pvv @geertwilderspvv  en geeft alexander penthouse volop gelegenheid om zijn corrupte prakti…,pos
|rt @martijnheeroma: d66 zakt in amsterdam van 14 naar 9 zetels in de peilings vandaar
#pvv https://t.co/qad7parop2|,pos
@kvandalsum hij en hele pvv zijn helaas niet geinteresseerd in de waarheid of mooi voorbeeld waaruit blijkt dat de… https://t.co/nphhlhtxvy,pos
|rt @heerbean: #stemzeweg lokaal 
21maart in uw gemeente!u bepaalt. maak de hashtag trending. #stemzeweg #stempvv #stemfvdamsterdam #stemlok…|,pos
|rt @harmenbakker: historisch; de pvv scoort een zetel op urk! de voorlopige uitslag;

cu; 5 @christenunie
cda; 4 @cdaurk
hart voor urk; 4 @…|,pos
rt @rwesthoek: voor een andere koers..... #stempvv #stemzeweggr18 https://t.co/2zblcmulju,pos
pvv en denk verdelen bloemhof: 'het zijn twee werelden die langs elkaar leven.' https://t.co/xgvauspy29 https://t.co/7ok7l7qqdx,pos
rt @rtv_rijnmond: video: pvv rotterdam voor het eerst in debat https://t.co/ncqik4sazs,pos
|rt @tjeerdl: constatering: pvv maakt filmpje met harde uitspraken over islam. zij die hun bek houden over bijv. homo-afkeurende nida, kinde…|,pos
rt @rtv_rijnmond: pvv rotterdam zakt in peiling naar één zetel https://t.co/hvmlw7xgo5,pos
|rt @mireiolavande: @geertwilderspvv mooi hollands, winters plaatje! succes pvv spijkenisse !! 💐🏂|,pos
rt @pvv_enschede: #raad053 @raad053 #gr2018 Één dag van de zorg? de pvv staat voor alle dagen van het jaar de best mogelijke zorg voor onze…,pos
rt @telegraaf: pvv zwaar onder onder vuur in debat rotterdam https://t.co/rmahvl30sh,pos
|rt @renedercksen: laatste fnv-leden en 3 groenlinksers houden massabijeenkomst in stichtse vecht waar pvv werd geweigerd.

the fat lady sin…|,pos
|rt @evita79497112: #stemzeweg 
werk samen en volg elkaar.
retweet posters op ➡️ @ovcned 
stem #pvv https://t.co/jufj2byuff|,pos
rt @hwhofs: peiling de hond: leefbaar 9 pvda 5 d66 4 sp 6 vvd 4 cda 3 gl 5 nida 1 cusgp 1 pvdd 1 denk 2 50 plus 1 pvv 3 #pauw,pos
|rt @hadjar: hallo meneer geert wilders van de pvv, u was de pvv vergeten in uw verkiezingfilmpje! correctie: (met dank aan jeroen roland vo…|,pos
|rt @mirjamdewinter: “definitieve” uitslagen #rotterdam: lr 11, pvda 5, d’66 5, sp 2, vvd 5, cda 2, gl 5, nida 2, cu 1, pvvd 1, pvv 2, denk…|,pos
|rt @meeuwissen_pvv: historische dag vandaag 😃😃
kom naar de stembus en stem pvv!!
#rotterdamweervoorderotterdammers
#pvvrotterdam || #grrlijs…|,pos
rt @pegasus4sun: @moniekvandewiel @maatje113 wat de pvv belangrijk vindt: dat we morgen nog dezelfde vrijheid hebben als vandaag.,pos
|rt @rmbras1973: #stemzeweg lokaal 21maart in uw gemeente!u bepaalt.
maak de hashtag trending.
#stemzeweg 
#stempvv 
#stemfvdamsterdam
#stem…|,pos
|rt @sjoerdamstel: dit is dus de dag van een nieuwe absolute low in nederland, ik zag dit voorbij komen van de #pvv hiermee worden 1 miljoen…|,pos
dat kan alleen maar uiterst rechts zijn. zal goed zijn als @fvdemocratie en @pvv zich daarvan distantiëren.… https://t.co/2zmunvcle1,pos
rt @hwhofs: peiling de hond: leefbaar 9 pvda 5 d66 4 sp 6 vvd 4 cda 3 gl 5 nida 1 cusgp 1 pvdd 1 denk 2 50 plus 1 pvv 3 #pauw,pos
|rt @martijnheeroma: italië heeft zich net als oostenrijk aangesloten bij de visgrad landen, wat een mooie dag.

#italiaanselente 
#pvv|,pos
|rt @martijnheeroma: zwaaizwaai 
peterr verliest 225k kijkers in 1 week
wat gaat john de mol doen? 
https://t.co/6bw1fd5oga
#pvv via gs http…|,pos
|rt @sjoerdamstel: dit is dus de dag van een nieuwe absolute low in nederland, ik zag dit voorbij komen van de #pvv hiermee worden 1 miljoen…|,pos
rt @100bners: de pvv is grootse partij in heerlen (uitslag tweede kamerverkiezingen) en toch wordt deze partij weer geboycot voor een burge…,pos
stap op je bakfiets en ga groenlinks stemmen of open je rolluik en stem pvv /via @nos https://t.co/qiws4ya3lz,pos
|rt @graafdemachiel: allemaal hoogopgeleide vluchtelingen. zouden snel integreren.

de pvv krijgt weer gelijk:
-assimilatie ho maar
-minder…|,pos
|echte rotterdammers kiezen pvv, zo ook deze heren! 💪 kwaliteit! 
#stempvv https://t.co/uega5sx5ha|,pos
rt @hwhofs: peiling de hond: leefbaar 9 pvda 5 d66 4 sp 6 vvd 4 cda 3 gl 5 nida 1 cusgp 1 pvdd 1 denk 2 50 plus 1 pvv 3 #pauw,pos
|rt @maikel_pvv: geweldig! @geertwilderspvv veegt in het nos debat de vloer aan met de corrupte alexander penthouse.
#pvv #gemeenteraadsverk…|,pos
rt @renedercksen: pvv mag niet meedoen aan fnv-debat in maarssen. opzeggen je lidmaatschap bij de @fnv https://t.co/0xlda0xmob,pos
|rt @olafstuger: #pvv inbreng #selmayrgate "als we deze uiterst omstreden benoeming toestaan, dan kunnen we net zo goed @junckereu ook het h…|,pos
|rt @evita79497112: stem voor #pvv lelystad. 
stop het dierenleed bij de #oostvaardersplassen 
#kominverzet 
#stemzeweg https://t.co/ygcr7gi…|,pos
rt @laviejanroos: einde pvv in zicht. onbegrijpelijk om de strijd aan te gaan met leefbaar. https://t.co/punmlfgwkk,pos
rt @rdstad: pvv en denk verdelen bloemhof: 'het zijn twee werelden die langs elkaar leven.' https://t.co/xgvauspy29 https://t.co/7ok7l7qqdx,pos
mens laat je stem horen! laat jouw stem niet zweven naar partijen die maatschappelijk verdere verdeling brengen😝#denk #nida #pvv,pos
|rt @evita79497112: #stemzeweg 
volg elkaar en werk samen.
alle mooie retweet posters op 
➡️ @ovcned 
#kominverzet stem #pvv https://t.co/fg…|,pos
|rt @eajgnieuws: de pvv en anderen proberen ons, als joden, te gebruiken als stok om moslims mee te slaan. hier gaan wij niet mee akkoord. h…|,pos
|petra en selma stemden vroeger allebei pvda. 
nu stemt de één pvv en de ander denk. 
#rotterdam 
#hillesluis https://t.co/8jjawjfcls|,pos
rt @christateunisse: wat nou veiliger joost ?! stem vandaag pvv rotterdam !! https://t.co/as7fnj4e1u,pos
|rt @jesseklaver: steun voor #spoedwet groeit snel. ook pvdd en pvv sluiten aan. nu in totaal 62 zetels steun, nog 14 te gaan voor meerderhe…|,pos
|rt @meeuwissen_pvv: historische dag vandaag 😃😃
kom naar de stembus en stem pvv!!
#rotterdamweervoorderotterdammers
#pvvrotterdam || #grrlijs…|,pos
rt @rtv_rijnmond: pvv rotterdam zakt in peiling naar één zetel https://t.co/hvmlw7xgo5,pos
constatering: pvv maakt filmpje met harde uitspraken over islam. zij die hun bek houden over bijv. homo-afkeurende… https://t.co/hajoolcuzm,pos
|rt @tjeerdl: constatering: pvv maakt filmpje met harde uitspraken over islam. zij die hun bek houden over bijv. homo-afkeurende nida, kinde…|,pos
|rt @meeuwissen_pvv: geen megalomane projecten in rotterdam!
zeker géén feyenoord city.
wij behouden de kuip!! #stempvv https://t.co/gwvltcx…|,pos
|rt @_pvv: peilingen #rotterdam: leefbaar met 11 zetels veruit de grootste, #pvv op nog maar één wankel zeteltje het gaat niet goed met de #…|,pos
@rzuid70 ach ja dat krijg je met partijen als de pvv en leefbaar,pos
@allemamachie @abdelkarimo deze posters geven jou het laatste zetje om op pvv of lr? te stemmen? waren andere parti… https://t.co/j4gsvq0jyv,pos
|@feyeridge @1908fr1937 jij mag gewoon pvv stemmen, als het maar geen leefbaar is ;-)|,pos
rt @trouw: buurvrouwen petra (56) en selma (50) uit hillesluis stemden vroeger allebei pvda. nu stemt de een pvv en de ander denk. https://…,pos
rt @henkdevree: verkiezingstijd zeker? we worden gewoon belazerd! terugsturen met open grenzen? een lachertje! #pvv https://t.co/d1ibf7afre,pos
@iblametomas hun zusterpartij heeft 11 hier in rdam en pvv 4😑,pos
|rt @pgkroeger: de screening bij @nieuwsuur is ongeveer even intelligent en grondiig als die bij de pvv in rotterdam, kortom https://t.co/tk…|,pos
|exitpoll r'dam: leefbaar verliest, maar blijft grootste, denk groter dan pvv || nos https://t.co/xszp8j1vxq|,pos
|rt @noknokitsme: zeg rotterdammerts, #pvv 1 zetel...... wilt u echt uw dochters uitrusten met hoofddoekje? uw keuze... maar ik vind het jam…|,pos
|rt @martijnheeroma: "het is gewoon vreselijk dat geert naar putin gaat want mh17 enzo"
#proost
#pvv https://t.co/3ddl7yf97h|,pos
|ja, rechtse stemmers worden geactiveerd om leefbaar of pvv te stemmen, ongeacht of ze de followup van nida oppikken https://t.co/t1ijyus04c|,pos
rt @olafstuger: europees parlement zwijgt in alle (24) talen over kindermisbruik door ngo´s! #pvv aanvraag voor debat over seksfeesten oxfa…,pos
|rt @pvv_zoetermeer: de huidige raad heeft het laten afweten en nu er verkiezingen komen willen ze weer een zwembad🤔
stem pvv zoetermeer en…|,pos
|rt @meeuwissen_pvv: wij behouden de kuip!!
#koorts || #stopfeyenoordcity || #reddekuip || #stempvv
https://t.co/cdznoypzvy|,pos
rt @ewoudkieviet: leefbaar rotterdam daag pvv uit op veiligheid. @eerdmans: wij hebben veel bereikt op veiligheid. wat heeft de pvv bereikt…,pos
rt @anttiliukku: om te beginnen een column van marianne van den anker: ‘aan de zittende partijen: als de pvv en denk stemmen in rotterdam h…,pos
rt @rdstad: pvv en denk verdelen bloemhof: 'het zijn twee werelden die langs elkaar leven.' https://t.co/xgvauspy29 https://t.co/7ok7l7qqdx,pos
|rt @safatweets: twee buurvrouwen die bij elkaar over de vloer komen, 1 stemt op pvv en de ander op denk. en dat wordt als groots gezien? ex…|,pos
|rt @nourdin_: we dienen de geschiedenis te eren, door ervan te leren, opdat ze zich nooit herhaald! partijen als de pvv en leefbaar hoeven…|,pos
rt @rvanaalst: eindelijk een innovatieve oplossing om overlast in openbaar vervoer aan te pakken. unanieme steun voor #pvv motie in de twee…,pos
|rt @bijan63: nee meneer #rutte, durf het te benoemen: het is gewoon racisme en haatzaaierij! #wilders #pvv
https://t.co/igvpkhctjc|,pos
pvv en denk verdelen bloemhof: 'het zijn twee werelden die langs elkaar leven' https://t.co/cnbufeaucn,pos
en @kruidhof maakte een heel toffe interactieve kaart van het gebied. waar zowel denk als de pvv het steevast goed… https://t.co/ieaizzrrwk,pos
|rt @jrreport: felle discussies, de opkomst van denk en pvv rotterdam, uitsluiting leefbaar rotterdam door d66 vanwege baudet en opkomst/afb…|,pos
|rt @svanweyenberg: nou ja, @groenlinks wil zijn inbreng over andere rekenrente over de verkiezingen heen tillen. wil zich bij @sp @pvv en @…|,pos
rt @amyroos3: @anitahendriks68 en de pvv  wordt steeds harder nodig. waar mogelijk:stem pvv.  in amsterdam de verloren stad:stem fvd.,pos
|rt @fdemocratie: wij adviseren @geertwilderspvv, @thierrybaudet en alle steunpilaren van #extreemrechts van #pvv tot #fvd artikel 97 van we…|,pos
leefbaar-veteraan mosch steunde komst pvv naar rotterdam https://t.co/p5vtn9dibw,pos
rt @rdstad: pvv en denk verdelen bloemhof: 'het zijn twee werelden die langs elkaar leven.' https://t.co/xgvauspy29 https://t.co/7ok7l7qqdx,pos
rt @meeuwissen_pvv: mooi artikel van onze pvv rotterdam teamgenote @saskiaramdayal !! https://t.co/iwvnnd71tt,pos
rt @laviejanroos: einde pvv in zicht. onbegrijpelijk om de strijd aan te gaan met leefbaar. https://t.co/punmlfgwkk,pos
|rt @alptekinakdogan: 2006 werd pvv opgericht, was ook het jaar dat alexander pechtold leider werd van d’66. zijn bestaansrecht was de pvv,…|,pos
|dus even samenvattend na vanavond: groenlinks sluit nida, leefbaar en pvv uit. d66 sluit leefbaar en pvv uit. nida… https://t.co/nrdyn1mjvb|,pos
|rt @petervheemst: "de praatjes van pvv en leefbaar rotterdam over moslims raken de vriendjes van mijn kinderen, de collega's op mijn werk e…|,pos
rt @allochtoons: 'hitler werd ook democratisch verkozen.'  #geenracisteninderaad #racismedemo #fascismevoordemocratie #fvd #pvv #vvd https:…,pos
rt @hwhofs: voor t eerst pvv en leefbaar in debat. #010debat https://t.co/kx3q0codpl,pos
|rt @sjoerdamstel: dit is dus de dag van een nieuwe absolute low in nederland, ik zag dit voorbij komen van de #pvv hiermee worden 1 miljoen…|,pos
|deze mensen weten waarover zij praten.
#pvv wint aan populariteit onder #syrisch -orthodoxen in enschede' || nos https://t.co/jbnoof7eas|,pos
|rt @petervheemst: "de praatjes van pvv en leefbaar rotterdam over moslims raken de vriendjes van mijn kinderen, de collega's op mijn werk e…|,pos
|rt @meeuwissen_pvv: marokkaanse moslimsalafistische burgemeester ahmed aboutaleb moet worden afgezet!! (ad)
#stempvv https://t.co/wufqgizunn|,pos
rt @olafstuger: europees parlement zwijgt in alle (24) talen over kindermisbruik door ngo´s! #pvv aanvraag voor debat over seksfeesten oxfa…,pos
veel dank ook aan @sgp_nieuws @christenunie @denknl @fvdemocratie @50pluspartij en @gidimarkuszower #pvv voor de st… https://t.co/s4jdywvd8q,pos
rt @butterf70713546: ik en velen met mij stemmen morgen op ashwin stormbroek. pvv om lelystad leefbaar te houden. https://t.co/yygpf86jfj,pos
|rt @pvvrotterdam010: huis aan huis flyeren! 

rotterdam weer voor de rotterdammers!

#stempvv https://t.co/ungkt3dhjp|,pos
|rt @evita79497112: #nederlandstaat op morgen
#stemzeweg stem pvv of lokaal 
#ovcned #kominverzet https://t.co/jpndtbz6bd|,pos
rt @jaapjansen: pvv 1 zetel in rotterdam. da's niet veel. https://t.co/vdrdy3ygqv,pos
rt @hwhofs: peiling de hond: leefbaar 9 pvda 5 d66 4 sp 6 vvd 4 cda 3 gl 5 nida 1 cusgp 1 pvdd 1 denk 2 50 plus 1 pvv 3 #pauw,pos
rt @hwhofs: peiling de hond: leefbaar 9 pvda 5 d66 4 sp 6 vvd 4 cda 3 gl 5 nida 1 cusgp 1 pvdd 1 denk 2 50 plus 1 pvv 3 #pauw,pos
|rt @meeuwissen_pvv: stem woensdag 21 maart op ons fantastische team!
#pvvrotterdam || #grrlijst13 || #stempvv https://t.co/te8tmqqggg|,pos
rt @christateunisse: stem morgen pvv rotterdam !!!! https://t.co/2rqaj6upqn,pos
rt @adrianne010: de felicitaties voor ellen verkoelen. 50plus kan volgens exitpolls rekenen op 2 zetels. net zoveel als pvv #gr2018 https:/…,pos
|rt @willemb71: voor alle mensen die janken over de #pvv uitzending en dat het "te ver" gaat.
zover gaat de #islam om hun punt te maken: htt…|,pos
|rt @renedercksen: laatste fnv-leden en 3 groenlinksers houden massabijeenkomst in stichtse vecht waar pvv werd geweigerd.

the fat lady sin…|,pos
|rt @jrreport: felle discussies, de opkomst van denk en pvv rotterdam, uitsluiting leefbaar rotterdam door d66 vanwege baudet en opkomst/afb…|,pos
rt @henkdevree: verkiezingstijd zeker? we worden gewoon belazerd! terugsturen met open grenzen? een lachertje! #pvv https://t.co/d1ibf7afre,pos
|rt @eajgnieuws: de pvv en anderen proberen ons, als joden, te gebruiken als stok om moslims mee te slaan. hier gaan wij niet mee akkoord. h…|,pos
|rt @gonsalvez_pvv: stemmen voor de vrijheid!!
#stempvv 😃😃 https://t.co/tbnut8w4nl|,pos
|rt @ovcned: #pvv  #gr18  #gr2018   #ovc16 

#arnhem #emmen #pekela #delfzijl #achtkarspelen #rucphen #denbosch #terneuzen #tholen #utrecht…|,pos
|rt @nos: exitpoll r'dam: leefbaar verliest, maar blijft grootste, denk groter dan pvv https://t.co/metpqj3mmf|,pos
rt @rdstad: pvv en denk verdelen bloemhof: 'het zijn twee werelden die langs elkaar leven.' https://t.co/xgvauspy29 https://t.co/7ok7l7qqdx,pos
|rt @martijnheeroma: afghaan steekt familie neer voor restaurant, vader moeder en dochter neergestoken
#pvv https://t.co/yploi1i0po|,pos
|rt @hadjar: hallo meneer geert wilders van de pvv, u was de pvv vergeten in uw verkiezingfilmpje! correctie: (met dank aan jeroen roland vo…|,pos
rt @ingelengton: hulphond toby heeft geert wilders net een pootje gegeven. baasje ingeborg is trots. #gr2018 #terneuzen #pvv https://t.co/n…,pos
joost eerdmans: "wel is de pvv nu nog een mystery guest in rotterdam. ik heb hun lijsttrekker nog nooit de hand ges… https://t.co/cw6l5lei4q,pos
rt @hwhofs: eerdmans van leefbaar rotterdam valt de pvv aan. wat heeft wilders bereikt op gebied van veiligheid? hoeveel moskeeën zijn gesl…,pos
rt @petervheemst: "de beste bijdrage aan de integratie in rotterdam is als de pvv rotterdam zich opheft." @cdarotterdam lijsttrekker @svend…,pos
de hooligan van de tweede kamer heeft zijn rel weer. het wachten is op de volgende. en op de volgende. en de volgende. en weer eentje. #pvv,pos
|ben ik blij dat #pvv rotterdam de afgelopen dagen de deur niet uit is geweest. 

als ik voor een club niet zou will… https://t.co/hpoim459vj|,pos
|rachid jemaoui, nida: ‘leefbaar is net als de pvv extreemrechts’ https://t.co/gi8u3nn4d7 https://t.co/3k1zliybwk|,pos
rt @rdstad: leefbaar-veteraan mosch steunde komst pvv naar rotterdam https://t.co/sopdo0voys https://t.co/t7v22h1kbw,pos
|rt @ddstandaard: peilingen rotterdam: leefbaar met 11 zetels veruit de grootste, pvv op nog maar één wankel zeteltje https://t.co/wt0e2m15mv|,pos
|rt @ddstandaard: peilingen rotterdam: leefbaar met 11 zetels veruit de grootste, pvv op nog maar één wankel zeteltje https://t.co/wt0e2m15mv|,pos
|rt @rmbras1973: #stemzeweg maak ons trending vandaag!🎯🗽
#gr2018 
#stempvv 
#stemfvdamsterdam 
#stemlokaal https://t.co/kvaei6wrsz|,pos
|rt @bijan63: nee meneer #rutte, durf het te benoemen: het is gewoon racisme en haatzaaierij! #wilders #pvv
https://t.co/igvpkhctjc|,pos
@pauwnl kiest voor goedkope ipv goede journalistiek door uitnodigen zetelloze ruziemakers #pvv #denk die rotterdam… https://t.co/klwjubdvsv,pos
rt @ashwin_storm: stem 21 maart op de @pvv_lelystad #stempvv #stopislam https://t.co/l1yufvk0cf,pos
|rt @martijnheeroma: "het is gewoon vreselijk dat geert naar putin gaat want mh17 enzo"
#proost
#pvv https://t.co/3ddl7yf97h|,pos
|rt @marrit_anne: ik wil geen vrienden zijn met mensen die pvv stemmen.
- ook niet als ze altijd goed voor je zijn?
nee.
-je laat mensen val…|,pos
|rt @ddstandaard: lezen! peiling de hond: leefbaar rotterdam blijft veruit de grootste, pvv van 0 naar 3, pvda en d66 donderen in elkaar htt…|,pos
ik vind een @youtube-video leuk: https://t.co/ilrnefunyl nieuwe video pvv zendtijd politieke partijen,pos
