|de voorlieden van de sp en de vvd kunnen het prima met elkaar vinden, blijkt op de ad stemboot. de politieke tegens… https://t.co/21kmas4nix|,pos
|@sp_delft 
de campagne gaat zijn laatste week in. sp zegt de wijken in te gaan. ik heb tot nu toe niemand vd plaats… https://t.co/ckqcwoabmy|,pos
|rt @addelft: moet het met sloop bedreigde heilige land worden gered? lieke van rossum van sp delft windt er geen doekjes om: ,,de binnensta…|,pos
|like van rossum, lijsttrekker voor de sp in delft centraal. 
.
.
.
#delft #nederland #radio… https://t.co/g4xo25br7z|,pos
|rt @addelft: moet het met sloop bedreigde heilige land worden gered? lieke van rossum van sp delft windt er geen doekjes om: ,,de binnensta…|,pos
|delftse partijen @d'66, @sp en @stip willen in delft ook alle aandacht en voorrang voor fietsers https://t.co/asz1rdclaj|,pos
|rt @svanweyenberg: nou ja, @groenlinks wil zijn inbreng over andere rekenrente over de verkiezingen heen tillen. wil zich bij @sp @pvv en @…|,pos
onevenwichtige aanpak ov amstelland/meerlanden biedt buitenkansje in verkiezingstijd voor sp amstelveen https://t.co/kuefnytcb9,pos
|sp presenteert plan: 3000 betaalbare huurwoningen erbij (sp delft), zie https://t.co/y8caitppof #delft|,pos
|rt @marcuspluijm: dankzij het links verbond of beter link verbond met #nida weten we wat de intentie van #pvda, #sp en #groenlinks is. laat…|,pos
rt @hannesz1956: bregje van lieshout van de sp cuijk waar haalt u de gore moed vandaan om met uw extreem linkse kop op mijn deurmat te gaan…,pos
