|rt @stemzeweg: tijd voor echte verandering in uw gemeente!
reken af met de #vvd #cda #pvda
#d66 #cu #gl #sgp 
tijdens verkiezingen hebben z…|,pos
rt @billybilly: fijn! en @groenlinksdelft en @d66_delft zitten (en blijven waarschijnlijk) in de delftse coalitie. daarnaast: tegen 2026 ri…,pos
dé winnaar van de gemeenteraadsverkiezingen is bekend. groenlinks is de grootste partij van delft https://t.co/l1bfotpvf6,pos
@fleurnorbruis @raad015 @groenlinksdelft gefeliciteerd! mooi resultaat voor gl,pos
|rt @svanweyenberg: nou ja, @groenlinks wil zijn inbreng over andere rekenrente over de verkiezingen heen tillen. wil zich bij @sp @pvv en @…|,pos
rt @ksv_virgiel: het studentendebat was zeer geslaagd! @stipdelft @d66_delft @cdadelft @groenlinksdelft @vvddelft en in het bijzonder @toon…,pos
vanavond mijn laatste fractievergadering @groenlinksdelft ter voorbereiding van de laatste vergadering @raad015 thu… https://t.co/la5jygxd2v,pos
rt @uri4u: wie nu nog op @groenlinks stemt is niet goed snik. https://t.co/ldbgqurao7,pos
@oberndorf_px @groenlinks @aobtweets gelukkig maar! aob is een vakbond. ik ken geen rechtse vakbonden en dat is maa… https://t.co/obgienwlao,pos
|rt @esther_voet: ben benieuwd of @pvda, @groenlinks en @spnl na het lezen van dit artikel nog steeds zo blij zijn met hun pact met #nida. a…|,pos
rt @pienklieverik: vandaag voor @savechildrennl in @gemeentedelft waar jongeren het regeerakkoord in kindertaal aanbieden aan gl wethouder…,pos
|rt @esther_voet: ben benieuwd of @pvda, @groenlinks en @spnl na het lezen van dit artikel nog steeds zo blij zijn met hun pact met #nida. a…|,pos
rt @addelft: dé winnaar van de gemeenteraadsverkiezingen is bekend. groenlinks is de grootste partij van delft https://t.co/l1bfotpvf6,pos
@ingridlips @groenlinksdelft zonder al te veel restricties en ambtelijk geneuzel kan het wellicht een goed instrume… https://t.co/gv8y1vwoy8,pos
rt @billybilly: fijn! en @groenlinksdelft en @d66_delft zitten (en blijven waarschijnlijk) in de delftse coalitie. daarnaast: tegen 2026 ri…,pos
|rt @marcuspluijm: dankzij het links verbond of beter link verbond met #nida weten we wat de intentie van #pvda, #sp en #groenlinks is. laat…|,pos
|#ophefdujour: 12 maart
het samenwerkingsverband in rotterdam tussen de partijen sp, pvda, groenlinks en nida staat… https://t.co/wfiny3lf3p|,pos
|rt @fleurnorbruis: groenlinks delft heeft met 46% vrouwen op de lijst, het hoogste percentage van alle partijen! #internationalevrouwendag…|,pos
het studentendebat was zeer geslaagd! @stipdelft @d66_delft @cdadelft @groenlinksdelft @vvddelft en in het bijzonde… https://t.co/zafm0yr5si,pos
rt @hennekenbritt: groenlinks voorlopig grootste winnaar in delft. studentenpartij stip groeit ook. ook onafhankelijk delft is groot.,pos
@marcelvandriel groenlinks stemmen dan zou ik zeggen! 😀,pos
|programma 17 maart gl delft 11:00-12:30 uur: save the children,bert van alphen, jeugdombudsman in den haag, marije… https://t.co/b7dfl9zqbs|,pos
|groenlinks delft heeft met 46% vrouwen op de lijst, het hoogste percentage van alle partijen!… https://t.co/fcd8kyklz0|,pos
rt @terlouwarie: @hannesz1956 @groenlinks @oxfamnovib heb al 2 keer om reactie gevraagd bij @groenlinks van @jesseklaver en nu vraag ik ook…,pos
