@eaderuig @dirks98 @henribontenbal dan ben je bij groenlinks aan het goede adres. om hun idealen te kunnen realiser… https://t.co/fjgvewejqu,pos
|joehoe!! groenlinks wint met 18,9 procent de scholierenverkiezing in den haag! kapteijns: groenlinks maakt geen bel… https://t.co/z2qng3wmrf|,pos
|rt @klippus: uitslag eerste stembureau rijswijk binnen (van de 32). beter voor rijswijk veruit de meeste stemmen, gevolgd door groenlinks e…|,pos
groenlinks dé onderwijspartij volgens leden van de onderwijsbond @aobtweets. een stijging van 5% naar maar liefst 2… https://t.co/f80dmfpyxt,pos
en de lieverds van @groenlinks kunnen opgelucht adem halen..... https://t.co/jjef3csiqd,pos
|nieuwe peiling: groep de mos, #groenlinks en #vvd hijgen koploper #d66 in de nek https://t.co/edgk1gy5iu #denhaag|,pos
|rt @groenlinks_ow: vind je groenlinks een sympathieke club? laat dat 21 maart dan via de stembus weten. elke stem telt, voor ons... https:/…|,pos
rt @groenlinksdh: bam! 6 zetels! groenlinks staat spectaculair hoog in de peiling en we zijn nog niet klaar met stijgen. we kunnen de groot…,pos
rt @krispijnbeek: inspiratie voor @jesseklaver en @groenlinks voor aanpak van topsalaris #ing en andere bedrijven https://t.co/guphteqpvm,pos
|rt @50pluspartij: omdat er nog steeds ongelijke beloning bestaat tussen mannen en vrouwen presenteren pvda, sp, groenlinks en 50plus vandaa…|,pos
#barometer groenlinks komt met 'alternatief' voor inlichtingenwet https://t.co/ze0apcodz5,pos
|rt @rosa_haag: nieuwe peiling: groep de mos, groenlinks en vvd hijgen koploper d66 in de nek - https://t.co/6zfv2r6lki|,pos
samen met groenlinks en de sp hebben we daarom een motie ingediend om deze grootverdieners aan te spreken op hun ge… https://t.co/uxzxxwlses,pos
|rt @nieuwsuur: een tweet van nida uit 2014 zet de samenwerking met sp, pvda en groenlinks in rotterdam onder druk. nida zegt in een reactie…|,pos
rt @spdenhaag: vandaag uitgebreid verslag in ad van het stemtram-debat tussen onze @hannedrost en groenlinks lijsttrekker arjen kapteijns h…,pos
|rt @nieuwsuur: de samenwerking van sp, pvda, groenlinks met nida in rotterdam is onder druk komen te staan door een tweet van nida uit 2014…|,pos
rt @groenlinksdh: groenlinks komt met concrete maatregelen voor menselijke en effectieve schuldhulpverlening. @groenlinksdh lijsttrekker @k…,pos
wow gl ook in amsterdam,pos
rt @derksen_gelul: als je ook de neus vol hebt van carrière politici van oa #vvd #d66 #pvda #gl die er puur zitten voor hun eigengewin en h…,pos
rt @kanteldenker: eindelijk een kieswijzer die rekening houdt met mijn trotse familiea achternaam. @groenlinks https://t.co/02gchjtagn,pos
het eerste gejuich in het ijspaleis na exitpoll utrecht. groenlinks staat er op grote winst.#gr18 https://t.co/a0zskk6bg1,pos
|@huubbellemakers @jndkgrf @annemarierozen gl griezels, zaten in het complot! https://t.co/t5czedongu|,pos
|groenlinks lanceert ambitieus duurzaamheidsplan voor haagse wijken (groenlinks den haag) https://t.co/9v8qwfvtoc

m… https://t.co/odwugmvgjf|,pos
@hendricksmit @matthijs85 @groenlinks dat weten we allang ;-) en nee wij investeren niet in wapenhandel.,pos
het regiotv debat 2018 - arjen kapteijns met zijn startpleidooi voor groenlinks den haag vandaag te zien op regiotv… https://t.co/jeirspq5il,pos
rt @ivarlingen: partij voor de dieren en groenlinks winnen ‘behoud haags groen keurmerk’. sp en groep de mos krijgen een nominatie. website…,pos
rt @derksen_gelul: als je ook de neus vol hebt van carrière politici van oa #vvd #d66 #pvda #gl die er puur zitten voor hun eigengewin en h…,pos
|rt @d66rotterdam: mooi boodschap @groenlinks @groenlinksrdam wel zijn wij hier 8 jaar geleden al mee begonnen: ⬆schone lucht, ⬆zonnestroom,…|,pos
in rijswijk is groenlinks het beter voor rijswijk gepasseerd. het verschil is 67 stemmen https://t.co/ct2hkepg2w,pos
rt @groenlinks_ow: groenlinks olst-wijhe wil nieuwe bewoners lokken met bloeiende kernen - airplay radio https://t.co/9v5qkedpfv,pos
rt @groenlinksdh: alle hagenaars hebben recht op schone lucht. groenlinks gaat daar voor zorgen! we moeten onszelf en de markt uitdagen om…,pos
|rt @d66leiden: mooi dat @groenlinks ideeën heeft voor beter klimaat tijdens de meetup in nijmegen, maar in leiden zijn wij daar al 8 jaar m…|,pos
groenlinks wethouder floor kist in ldam-voorburg durft nog niet te zeggen dat zijn partij zo gaat winnen als in utr… https://t.co/9btejnv5s7,pos
rt @baseickhout: en we mogen weer stemmen! uit ervaring in utrecht kan ik je aanraden groenlinks te stemmen; wordt een gemeente echt beter…,pos
|rt @dutchdrdre: ik ben van #groenlinks en ze schelden me uit....
en nu ben ik van de #pvda en.... ze schelden me uit.

te huur, dame met ho…|,pos
rt @groenlinksdh: bam! 6 zetels! groenlinks staat spectaculair hoog in de peiling en we zijn nog niet klaar met stijgen. we kunnen de groot…,pos
rt @groenlinksdh: groenlinks komt met concrete maatregelen voor menselijke en effectieve schuldhulpverlening. @groenlinksdh lijsttrekker @k…,pos
|rt @erlijnwenink: joehoe!! groenlinks wint met 18,9 procent de scholierenverkiezing in den haag! kapteijns: groenlinks maakt geen beleid vo…|,pos
@verwarigheid communisten dus groenlinks 🙃 of marx rutte of sp want linkse extremisten? (even duidelijk voor de ono… https://t.co/f3wjo24k9k,pos
|groep de mos nek aan nek met groenlinks en d66! wilt u graag 3x zoveel  betalen voor 50% minder parkeerplek?  tja,… https://t.co/tlyafcedom|,pos
|rt @kaar1981: @groenlinks @jesseklaver ik heb vandaag het uwv, de rijksoverheid, de gemeente en het juristenloket gebeld om uit te zoeken h…|,pos
rt @ivarlingen: partij voor de dieren en groenlinks winnen ‘behoud haags groen keurmerk’. sp en groep de mos krijgen een nominatie. website…,pos
|rt @pvdarotterdam: samen met nida, groenlinks en sp, oftewel #linksverbond010, presenteren wij uitgangspunten voor een rotterdams regenboog…|,pos
#groenlinks @eerstekamer stelt vragen aan minister van j&amp;v over interoperabiliteitspakket van de #europesecommissie https://t.co/lqcvxfsfeo,pos
@ladylove40 @hspdenhaag @cocnederland @cochaaglanden @pvdddenhaag @groenlinks @cdadenhaag @spdenhaag @d66denhaag… https://t.co/bws0rzpyk8,pos
de voorlichter van #groenlinks in de #tweedekamer en de fractie-stagiaire na het kerstdiner. #rechtbank den haag https://t.co/i5o1zwennk,pos
gl doet het beter dan d66. het grotere verhaal en maatschappelijke bevlogenheid winnen het van bestuurlijke arrogantie.,pos
rt @groenlinksdh: bam! 6 zetels! groenlinks staat spectaculair hoog in de peiling en we zijn nog niet klaar met stijgen. we kunnen de groot…,pos
|rt @nieuwsuur: de samenwerking van sp, pvda, groenlinks met nida in rotterdam is onder druk komen te staan door een tweet van nida uit 2014…|,pos
de idioten van @groenlinks willen dmv spoedrecht zich gaan bemoeien met de hoogte van salarissen van top mensen bin… https://t.co/ui5pnhsmsl,pos
|provincie zuid-holland blijft publiceren in huis-aan-huisbladen dankzij groenlinks (groenlinks zuid-holland).

zie… https://t.co/y2t0skmnyz|,pos
|rt @denhaagfm: nieuwe peiling: groep de mos, groenlinks en vvd hijgen koploper d66 in de nek https://t.co/7hq9y1pjoj|,pos
|rt @edithalkemade: mooie oproep @groenlinks
#d66 in #teylingen is al jaren actief hiermee #fairtrade #nulopdemeter
 woningen &amp; basisschool…|,pos
|rt @nieuwsuur: de samenwerking van sp, pvda, groenlinks met nida in rotterdam is onder druk komen te staan door een tweet van nida uit 2014…|,pos
rt @ivarlingen: partij voor de dieren en groenlinks winnen ‘behoud haags groen keurmerk’. sp en groep de mos krijgen een nominatie. website…,pos
rt @derksen_gelul: als je ook de neus vol hebt van carrière politici van oa #vvd #d66 #pvda #gl die er puur zitten voor hun eigengewin en h…,pos
|bam! 6 zetels! groenlinks den haag staat spectaculair hoog in de peiling, is nog niet klaar met stijgen en kan de g… https://t.co/0u9z6kvbn0|,pos
rt @derksen_gelul: als je ook de neus vol hebt van carrière politici van oa #vvd #d66 #pvda #gl die er puur zitten voor hun eigengewin en h…,pos
rt @chrisiserbij: raadsleden van groenlinks hier: o.a. roosma. #racismedemo,pos
|rt @groenlinksdh: de toekomst is groen! groenlinks wint de haagse scholierenverkiezingen met een overtuigende 18,9%. op de foto: presentato…|,pos
|rt @titia_k: de nieuwste (en laatste) peiling voor #raad070: top-3 d66 (6-8 zetels), groep de mos (5-7) en groenlinks (5-7) https://t.co/fm…|,pos
|rt @jaspervandijksp: vandaar morgen (wo) om 17:00 debat over initiatiefnota sp, gl en pvda: "vast werk loont". maak flexwerk duurder en vas…|,pos
ook in zoetermeer doet groenlinks het goed. de partij gaat - met tweederde van de stembureaus geteld - van 4 naar 1… https://t.co/9sn80h9dtz,pos
|rt @groenlinksdh: groenlinks wil (straat)bomen, parken en natuurgebieden veel beter beschermen en versterken.

stem vandaag @groenlinksdh!…|,pos
|rt @kabinetpvvfvd: #stemzeweg in uw gemeente!
@pvda @vvd @cdavandaag @d66 @christenunie @groenlinks !
ze zijn al jaren op alle politieke ni…|,pos
zaal leeft mee met exitpoll van amsterdam via @nos. gejuich voor winst @groenlinks en @pvdddenhaag. bij resultaat… https://t.co/wkwzi2scqt,pos
rt @nielsklaassen: . @richarddemos heeft zelf een peiling laten uitvoeren. uitkomst: groep de mos aan kop met 7 zetels. dan vvd en gl (beid…,pos
groenlinks wil met #spoedwet salarisverhoging topman #ing blokkeren. jesse klaver: ‘minister van financien moet sal… https://t.co/amstlsa7jt,pos
rt @jacquesmonasch: fantastische vrouw! en ondertussen sluit #links #rotterdam #pvda #sp #gl zich aan bij de islamitische en fundamentalist…,pos
rt @jacquesmonasch: fantastische vrouw! en ondertussen sluit #links #rotterdam #pvda #sp #gl zich aan bij de islamitische en fundamentalist…,pos
rt @bosalbert: jesse klaver geeft groenlinks #denhaag een laatste boost om de deuren langs te gaan. de partij staat hier goed in de laatste…,pos
|rt @pvda: wij willen, samen met @groenlinks en @spnl, mensen meer zekerheid geven over hun toekomst. een normaal vast contract hoort daarbi…|,pos
@ladylove40 @cocnederland @cochaaglanden @pvdddenhaag @groenlinks @cdadenhaag @hspdenhaag @spdenhaag @d66denhaag… https://t.co/r7gumuiw5j,pos
rt @raadslidnu: kamerleden van @groenlinks @d66 sp @vvd @christenunie @denknl en cda aanwezig bij ronde tafelgesprek in tweede kamer over t…,pos
rt @ivarlingen: partij voor de dieren en groenlinks winnen ‘behoud haags groen keurmerk’. sp en groep de mos krijgen een nominatie. website…,pos
rt @groenlinksdh: bam! 6 zetels! groenlinks staat spectaculair hoog in de peiling en we zijn nog niet klaar met stijgen. we kunnen de groot…,pos
|rt @esther_voet: ben benieuwd of @pvda, @groenlinks en @spnl na het lezen van dit artikel nog steeds zo blij zijn met hun pact met #nida. a…|,pos
rt @groenlinksdh: groenlinks geeft je energie! vandaag delen we druivensuiker uit aan de lopers van de cpc. en natuurlijk rent @groenlinksd…,pos
rt @europapoort: #groenlinks @eerstekamer stelt vragen aan minister van j&amp;v over interoperabiliteitspakket van de #europesecommissie https:…,pos
|rt @jesseklaver: wow, 20.000 stakende leraren in amsterdam vandaag. way to go! groenlinks steunt jullie. 👩‍🏫👨‍🏫#poinactie #pocoderood|,pos
|rt @groenlinkszh: vandaag in den haag met alle haagse volksvertegenwoordigers van groenlinks de deuren langs @jesseklaver, @berendpotjer (p…|,pos
