|speerpunten vvd ouderen : voldoende inkomen, aandacht voor wonen en zorg, veiligheid #gr2018 #alphen|,pos
rt @vogelvrijeharts: nadat #rutte en de #vvd de zorg voor 8+miljard sloopte en tienduizenden mensen hun baan in de zorg verloren... over cy…,pos
rt @kanteldenker: deze campagne kost de vvd echt kiezers. vandaag in het nieuws dat de opgestapte voorzitter keizer een naheffing van de be…,pos
|rt @remkotheulings: interessante stemmingen in de tweede kamer, aanstaande dinsdag, over afschaffen @euvsdisinfo ... @spnl en @vvd samen op…|,pos
