rt @pvddutrecht: net sprak pvdd saskia oskam met medewerkers en ervaringsdeskundigen @moviera. veel mensen weten niet dat https://t.co/mx2j…,neg
@xtien dat is waarom ik tot nu toe nooit op de pvdd heb gestemd: omdat thieme een zevendedagsadventist is.,neg
@kayanlam @student_starter @erikstrandstra @pvddutrecht 😱💔 maar al die 🦋🦋🦋,neg
|rt @volkskrant: hoe rechtser de partij, hoe minder vrouwen op de lokale kieslijst - alleen bij pvdd zijn meeste kandidaten vrouw
https://t.…|,neg
kun je niet kiezen tussen #groenlinks en partij voor de dieren? https://t.co/nsbuaktjif #pvdd #partijvoordedieren #utrecht #verkiezingen,neg
rt @pvddutrecht: partij voor de dieren 'veganiseert' utrechtse gemeenteraad: https://t.co/3br2y2mvsn #kitchenpunx @weekzondervlees #vegan #…,neg
rt @gertvanharskamp: kunnen we na vanavond stellen dat fvd eigenlijk niets meer is dan een mediabubbeltje? zelfs pvdd haalt meer stemmen #e…,neg
|rt @pvddutrecht: klopt @rtlnieuws, in utrecht wil @pvddutrecht #houtstook aan banden leggen https://t.co/qxehwt926s|,neg
rt @utrecht: partij voor de dieren claimt braakliggende terreinen in leidsche rijn https://t.co/4xquvaexuc #utrecht,neg
in ieder geval niet zo'n frisse blik op het gebruik van brievenbussen @student_starter. ;-) @pvddutrecht zet zich i… https://t.co/rdupsjd9k3,neg
eerste agendapunt pvdd en gl,neg
|rt @mcouzy: eerste voorlopige uitslag vanuit stopera: 
gl: 11
d66:9
pvda: 4
vvd 7
sp 3
pvdd 3
cda 2
pvdo 1
bij1 0
denk 2
fvd: 3|,neg
@alptekinakdogan ik denk het ook. pvdd naar 2 iig. vvd omhoog of het zelfde. pvv? geen flauw idee,neg
partij voor de dieren claimt braakliggende terreinen in leidsche rijn https://t.co/wxwxnryvq7 #utrecht https://t.co/kye4rzw3vw,neg
@tuindorperutreg @pvddutrecht @fietsria @gemeenteutrecht @heleboer @lotvanhooijdonk @evavaneschpvdd ik vind dit wel… https://t.co/9rpgann6u4,neg
|@egelscheet ik heb me nooit in pvdd verdiept, sprak me nooit aan en kleine kans dat ze in de raad zitten|,neg
partij voor de dieren blijft strijden tegen bomenkap golfclub: "kappen met kappen" https://t.co/yorwncijxo https://t.co/7mwbdicdg5,neg
|@christinezegt marianne thieme van pvdd doet ook recalcitrant, maar op een manier die haar helpt.|,neg
rt @vrolijkelaarzen: @pvddutrecht @evavaneschpvdd ik zag dat het ook bij wisselspoor (alle groene ambities ten spijt) weer zo ver is: 86 bo…,neg
rt @pvddamsterdam: wist jij dat veel #bontkraagjes echt zijn? @wannabeastar vertelt erover. de pvdd verzet zich tegen bont in de #gemeenter…,neg
pvdd op weg naar in totaal 10 zetels in de vier grootste gemeenten.,neg
|rt @swsjoerdsma: peiling eenvandaag:
d66 2e partij

vvd 32
d66 16
cda 16
pvv 16
gl    14
sp    13
fvd   9
pvda 8
pvdd 7
50+   7
cu    6
sgp…|,neg
rt @tuindorperutreg: @gemeenteutrecht @pvddutrecht 31 maanden na de 1e melding @gemeenteutrecht staat er nog steeds geen  nieuwe boom in he…,neg
rt @pvddutrecht: de pvdd zorgde ervoor dat in utrecht meer geld gaat naar dieren in nood. er moet meer steun naar organisaties die dieren h…,neg
rt @pvddutrecht: pvdd @estherouwehand zegt dat de aanwezigen op @veggieworld #veggieworldutrecht de voorhoede vormen voor een betere wereld…,neg
|rt @jascha79: groenlinks, pvda, 50plus en pvdd verzocht de regering de financiële sector nog actiever te betrekken bij het klimaatakkoord.…|,neg
@actietd @heksjeanna @da2318lin @merlotvine de oprichters pvdd komen allemaal uit dierenbescherming. laatste zijn a… https://t.co/y9olbe1grv,neg
rt @pvddutrecht: pvdd tweede kamerlid @estherouwehand houdt een vlammende speech over al die mensen uit onze geschiedenis die voor #dieren…,neg
|https://t.co/ymoegm3ajn
duidelijk: d66, gl, sp, cu, pvda, pvdd zijn allemaal links. voor een  middenbestuur kies voor doen @vvdutrecht|,neg
|rt @suzannebouma: onderzoek: hoe rechtser de partij, hoe minder vrouwen op lokale kieslijst - alleen bij pvdd zijn meeste kandidaten vrouw…|,neg
rt @pvddutrecht: onze actieve #pvdd leden waren ook vanmorgen en gisteren druk aan het  flyeren bij het centraal station in utrecht en op a…,neg
partij voor de dieren komt met initiatiefwet tegen onverdoofd slachten https://t.co/jjoma1hteg via @nos #klaarmee @peta,neg
|rt @bitchofkitsch: partij voor partij voor partij voor partij voor de dieren de dieren de dieren de dieren r i o t

same https://t.co/0q19q…|,neg
|rt @veerleslegers: wow, niet alleen de inhoud maar vooral ook de timing rukken de pvdd pijnlijk hard naar rechts naar een plek naast pvv en…|,neg
partij voor de dieren wil herplantplicht https://t.co/ovnhvcsej7,neg
rt @tuindorperutreg: @heleboer @cajosto @arjankleuver @pvddutrecht @fietsria @gemeenteutrecht @lotvanhooijdonk @evavaneschpvdd helaas ook b…,neg
@mariekehoogwout sander neemt me 100% de woorden uit de mond. ik kom ook uit bij pvdd voor het echte links-liberale… https://t.co/ftfsixt2pu,neg
rt @pvddutrecht: en nog meer springende actieve leden van de pvdd op de stadhuisbrug 😊 #koud #bevroren #bikkels @erikstrandstra https://t.c…,neg
|rt @swsjoerdsma: peiling eenvandaag:
d66 2e partij

vvd 32
d66 16
cda 16
pvv 16
gl    14
sp    13
fvd   9
pvda 8
pvdd 7
50+   7
cu    6
sgp…|,neg
rt @gertvanharskamp: kunnen we na vanavond stellen dat fvd eigenlijk niets meer is dan een mediabubbeltje? zelfs pvdd haalt meer stemmen #e…,neg
rt @vwgpijlsweerd: @pvddutrecht @boomfeestdag kinderen uit #pijlsweerd helpen jullie vandaag een handje door het planten van deze protestbo…,neg
|onderzoek: hoe rechtser de partij, hoe minder vrouwen op lokale kieslijst - alleen bij pvdd zijn meeste kandidaten… https://t.co/cmmxxdaaxd|,neg
|rt @pvddutrecht: klopt @rtlnieuws, in utrecht wil @pvddutrecht #houtstook aan banden leggen https://t.co/qxehwt926s|,neg
