omg. deze video van @nidarotterdam geeft me de feels https://t.co/e2xkdglhns,pos
rt @hwhofs: peiling de hond: leefbaar 9 pvda 5 d66 4 sp 6 vvd 4 cda 3 gl 5 nida 1 cusgp 1 pvdd 1 denk 2 50 plus 1 pvv 3 #pauw,pos
@meeuwissen_pvv @ewoudkieviet @rtv_rijnmond @nidarotterdam @nourdin_ @barbarakathmann @judithbokhove ha… https://t.co/wytq1spzla,pos
rt @martijn5155: interview met @nourdin_ van @nidarotterdam door @ewoudbutter op @allochtonie : er is een revolutie van vertrouwen nodig ht…,pos
rt @matkovichanna: held afshin ellian pakt antisemitische farizeeërs van nida keihard aan: ‘het zijn net de neonazi’s!’ https://t.co/rzgrii…,pos
|rt @pvdarotterdam: nú moet rotterdam duurzamer. samen met @sprotterdam, @groenlinksrdam  @nidarotterdam , (=#linksverbond010), gaan wij voo…|,pos
rt @3oa6fib5sp5arki: @pauwnl @nourdin_ @nidarotterdam pim fortuyn had gelijk ...... https://t.co/8a7uxfoevn,pos
rt @arnoldkarskens: weet u wat zo'n #islamdebat met #denk en #nida werkelijk voor de toekomst van rotterdam betekent? vraag het de andersge…,pos
rt @esther_voet: ah samenwerking @groenlinks met #nida nu bij #buitenhof. met die partij kunnen ze ‘links en progressief’ college samenstel…,pos
rt @wierdduk: mooi dat al die mensen die nu zo los gaan op dat pvv-filmpje ook zo kritisch zijn op de islamisten van denk en nida en ook gr…,pos
|rt @2525: vergeet de haters. zo is rotterdam: legendarisch leefbaar-raadslid dries mosch gaat flyeren voor nida met @nourdin_ el ouali 
htt…|,pos
|rt @lisette_olst: bedankt geertje, ik ben over de streep. deze witte vrouw gaat woensdag #nida stemmen https://t.co/cecja74ta4|,pos
lijsttrekker van moslimpartij nida nourdin el ouali is genomineerd voor beste raadslid van nederland… https://t.co/tmunwihtub,pos
|@iktwitelkedag @aaaa70caro @denknl @nidarotterdam nee... ik voorspel nida 2 a 3 zetels, denk 5.|,pos
|@nourdin_ @nidarotterdam geluk! maar ik sluit me aan bij @azzedine_karrat . normaal gesproken is dit onzin, nu is h… https://t.co/gomgimacxi|,pos
rt @pvdarotterdam: @eevaliukku @versbeton @nidarotterdam mooi dat ook @nidarotterdam nu het idee van @ftalbi omarmt ;) https://t.co/mzcosig…,pos
|rt @robertpbas: exitpoll rotterdam: leefbaar 11, pvda 5, d’66 4, sp 2, vvd 5, cda 2, groenlinks 4, nida 2, cu/sgp 1, pvdd 1, 50plus 2, denk…|,pos
|welk deel van deze sticker snappen de campagnemedewerkers van @nidarotterdam niet...?!

dit geldt ook voor flyers v… https://t.co/aqni930pgl|,pos
#nida den haag op stoom!! #letsgo #letsgrow omdat wij geloven in den haag #agga https://t.co/auyyelvpoq,pos
|@roffagj @nasrdin_dchar @nourdin_ @nidarotterdam @youtube ja schattig filmpje, taqiyya op zijn best, hier op de fot… https://t.co/e4li2ifmgz|,pos
|rt @nieuwsuur: de samenwerking van sp, pvda, groenlinks met nida in rotterdam is onder druk komen te staan door een tweet van nida uit 2014…|,pos
|laatste ronde, nida vs leefbaar over diversiteit. @nourdin_: leefbaar houdt stad in een wurggreep tegen diversiteit… https://t.co/ddnx2cwe2h|,pos
|rt @mathildevvliet: lijsttrekker nourdin el ouali van nida was vaak op anti-israël-evenementen, heeft in het verleden meer dan eens deelgen…|,pos
|rt @insooradstake: "religieus zie ik homoseksualiteit als een zonde", aldus verbinder el ouali van @nidarotterdam . stop verder maar met le…|,pos
|rt @nieuwsuur: de samenwerking van sp, pvda, groenlinks met nida in rotterdam is onder druk komen te staan door een tweet van nida uit 2014…|,pos
@rotterdamfnv @groenlinksrdam @pvdarotterdam @nidarotterdam het regelrechte wtfje van de dag... fnv rotterdam...,pos
eindelijk helderheid over inhoud en pro-palestijnse acties van #nida &amp; co. https://t.co/vmc8zoeoxo,pos
rt @jangajentaan: volgens de exitpolls 4 zetels voor denk en 2 voor nida in roterdam. eén op de zes rotterdamse kiezers stemt islamitisch.…,pos
rt @ibhaarsma: waar staat de @pvvrotterdam010 voor? hoe gaat @nidarotterdam om met de voorgenomen samenwerking met oa @pvdarotterdam @sprot…,pos
rt @bpschut: ik kan mij niet voorstellen dat de pvda openlijk voor het antisemitische nida kiest. of dat de sp echt wil samenwerken met dez…,pos
|rt @nourdin_: nida prikt de norm door - wie is hier nou de 'allochtoon'?

stem 21 maart nida! #gr18 #rotterdam #maakÉenwereldvanverschil ht…|,pos
rt @knipoog50: #buitenhof groenlinks vindt salafisme in nederland van nida van deze tijd en omarmt dit. bedenk dit even als u in het stemho…,pos
@jongderik 'religieus' ziet @nourdin_ van nida homoseksualiteit als een zonde... en hij noemt z'n partij dus ook re… https://t.co/5odr8pwtsy,pos
rt @geenstijl: gstv. tom staal wrijft in vlek sp en pvda na geklapte samenwerking met mafklappers nida https://t.co/dbbr0kfdyx,pos
|rt @nourdin_: nida prikt de norm door - wie is hier nou de 'allochtoon'?

stem 21 maart nida! #gr18 #rotterdam #maakÉenwereldvanverschil ht…|,pos
rt @sywert: kortom: lijkt mij heel redelijk dat partijen goed checken wat nida nou eigenlijk qua homobeleid wil doen voordat je gaat samenw…,pos
jesse klaver vindt samenwerking met islamistische koekwausen van nida helemaal top: ‘een goed idee!’ https://t.co/9jvxmyfguw,pos
|rt @nidarotterdam: volgens @leefbaarrdam willen rotterdammers geen halal-slagers, maar een 'nederlandse groenteboer'... #nida maakt samen m…|,pos
|rt @celalaltuntas1: stemmen op #denk en #nida is stemmen op salafisme, politieke islam, erdogan-gedachten en islamisering van nederland!! h…|,pos
@barttoorenaar ik heb het over de politieke en persoonlijke standpunten van nida en el ouali. over de opkomst van d… https://t.co/j7cytclshn,pos
@christoruijs @nidarotterdam @pvdarotterdam @denknl als je je nou eerst eens verdiept in de materie ipv gelijk je g… https://t.co/swmqqxmhmk,pos
|al die verwijten van links, denk en nida dat leefbaar discrimineert, verschillen groter maakt en polariseert, slaan… https://t.co/ikiy59flsx|,pos
@gvandene @martidzjn @buitenhoftv @nidarotterdam @jesseklaver @carelbrendel ik steun hem nog steeds. weliswaar pass… https://t.co/hm86xuijfb,pos
rt @vincentkar: helder: met een stem op @d66rotterdam krijg je het linkse blok van @nidarotterdam @pvdarotterdam @sprotterdam en @groenlink…,pos
|rt @esther_voet: ah, toch. hier m’n reactie bij #wnl over het linkse verbond met #nida bij #goedemorgennederland. @wnlvandaag https://t.co/…|,pos
|rt @groenlinksrdam: vandaag presenteren wij samen met @pvdarotterdam, @sprotterdam en @nidarotterdam 8 gezamenlijke uitgangspunten voor een…|,pos
|rt @mmeeuw: hoi @d66rotterdam @stadsinitia010 @pvddrotterdam @pvdarotterdam @nidarotterdam @vvdrotterdam even een check, want ik hoor dat v…|,pos
rt @vincentkar: helder: met een stem op @d66rotterdam krijg je het linkse blok van @nidarotterdam @pvdarotterdam @sprotterdam en @groenlink…,pos
rt @vincentkar: helder: met een stem op @d66rotterdam krijg je het linkse blok van @nidarotterdam @pvdarotterdam @sprotterdam en @groenlink…,pos
|rt @bpschut: een islamist en hamasfan van het antisemitische nida beste raadslid van nederland? dacht het niet, hè!
kom op iedereen, stem n…|,pos
rt @esther_voet: ah samenwerking @groenlinks met #nida nu bij #buitenhof. met die partij kunnen ze ‘links en progressief’ college samenstel…,pos
in rotterdam wonen ruim 42.000 nederlanders met een marokkaanse achtergrond. hoe stemmen zij? met nida en denk erbi… https://t.co/zij9hyiimd,pos
|rt @dinosuhonic: @nidarotterdam is rocking it! wat een aanwinst voor rotterdam [en den haag] - en hopelijk - ook voor amsterdam, utrecht en…|,pos
@mmeeuw @ldekleijn @d66rotterdam @stadsinitia010 @pvddrotterdam @pvdarotterdam @nidarotterdam @vvdrotterdam ach ja.… https://t.co/cu3qgokaiz,pos
leo de kleijn: cidi en uiterst rechts hebben nida geprobeerd te framen als anti-semitisch. trap daar niet in. kriti… https://t.co/wmkmokvztw,pos
rt @leefbaarrdam: .@eerdmans: de kans dat links opnieuw op schoot kruipt bij nida en een bestuur vormt is reeël. maak lr daarom zo groot mo…,pos
rt @idirksen: zomaar twee filmpjes zojuist voorbij zien komen op twitter. het campagnefilmpje van nida rotterdam en het spotje van de pvv.…,pos
|rt @pvdarotterdam: nú moet rotterdam duurzamer. samen met @sprotterdam, @groenlinksrdam  @nidarotterdam , (=#linksverbond010), gaan wij voo…|,pos
|rt @jaapstronks: want dát is waarom de coalitie broos was: in rotterdam staat @nidarotterdam te boek als progressieve club, maar met name h…|,pos
|nou, nou! nourdin van @nidarotterdam claimt als #besteraadslid in spe even de16 miljoen die wij met het… https://t.co/jmvkbaxzth|,pos
|rt @tara__lewis: gisteren in metro, interview met onder meer @marwanmagroun en @vanbeek0181. ,,zoals @nourdin_  van @nidarotterdam het zegt…|,pos
ik hoop dat #rotterdam goed nadenkt in het stemhokje!! #sp #gl #pvda #nida https://t.co/o21yia7n9f,pos
rt @hwhofs: peiling de hond: leefbaar 9 pvda 5 d66 4 sp 6 vvd 4 cda 3 gl 5 nida 1 cusgp 1 pvdd 1 denk 2 50 plus 1 pvv 3 #pauw,pos
|rt @stephanvbaarle: vanavond samen met de lijsttrekkers van groenlinks, pvda, sp, 50plus en nida het 10-puntenplan van @rotterdamfnv ondert…|,pos
|rt @mmeeuw: hoi @d66rotterdam @stadsinitia010 @pvddrotterdam @pvdarotterdam @nidarotterdam @vvdrotterdam even een check, want ik hoor dat v…|,pos
rt @leefbaarrdam: .@eerdmans: de kans dat links opnieuw op schoot kruipt bij nida en een bestuur vormt is reeël. maak lr daarom zo groot mo…,pos
|'hamas is het verzet, ze zijn helden'. aldus appa tijdens een door nida georganiseerde pro palestina demonstratie.… https://t.co/9n5iqvotls|,pos
@rodgers_ce @zaitje @nidarotterdam succes jij!,pos
rt @warmrotterdam: cusgp en groenlinks en d66 en pvda en nida en cda en vvd en sp accepteren het manifest #rotterdamschuldvrij voor een#war…,pos
is er al een hashtag #nidahoorterbij want volgens mij hoort @nidarotterdam  er gewoon bij hier! net als onze predik… https://t.co/fldmuzp2vw,pos
|rt @gerben_vandijk: nou, nou! nourdin van @nidarotterdam claimt als #besteraadslid in spe even de16 miljoen die wij met het #zomerakkoord b…|,pos
|rt @nieuwsuur: een tweet van nida uit 2014 zet de samenwerking met sp, pvda en groenlinks in rotterdam onder druk. nida zegt in een reactie…|,pos
oude tweet nida zet samenwerking met linkse partijen in r'dam onder druk /via @nieuwsuur https://t.co/vms1burlls,pos
rt @ngkb887: de linkse samenwerking met @nidarotterdam is abject. fortuyn zag het aankomen. hij zag @groenlinks als de vijfde colonne die b…,pos
|rt @esther_voet: kijk @wnlopzondag, @nourdin_ van #nida (door wie ik kortgeleden geblokkeerd ben) staat bovenaan in strijd om ‘beste raadsl…|,pos
rt @pauluspassant: @pauwnl @nourdin_ @nidarotterdam na het debat in de maassilo: als ik geen overtuigd aanhanger en lid was van een andere…,pos
|rt @janwbakkernl: als de moslimpartijen nida en denk flink zouden winnen , wordt r"dam in snel tempo een arabische enclave.  #nieuwsuur htt…|,pos
petje af!! @jesseklaver #buitenhof ook wb. de onderbouwing van samenwerking met @nidarotterdam,pos
@dickkraaij @nourdin_ @nidarotterdam er komt vooral onzin uit jou @dickkraaij . bemoei je lekker met alphen aan de… https://t.co/j5c3vtkadh,pos
20.000 mensen ... 3 of 4 zetels @nidarotterdam als ze gaan stemmen ! https://t.co/kyxgwvetoq,pos
rt @geenstijl: hallo avondploeg. nourdin van nida wil graag dat iedereen nog ff op rick stemt. https://t.co/my0ujcrivn https://t.co/wdlgp6u…,pos
rt @sywert: volgens voorman nida leven palestijnen onder dezelfde omstandigheden als joden in rotterdam tijdens wo2. in rotterdam woonden v…,pos
wat belooft @nidarotterdam aan ouders in rotterdam? 17/20 politieke partijen gaven @ouders010 hun standpunten https://t.co/jpjlp92cco,pos
|ook nida mag meedoen (2 nu, peiling 2), kleiner dan 3 voorgenoemde andere partijen.

op basis waarvan maakt… https://t.co/t12syzidh6|,pos
|rt @ndnl: de snelheid waarmee de islamitische partij #nida in rotterdam uit het progressief akkoord werd geknikkerd, is verdacht. volgens @…|,pos
|nida is een op de islam geïnspireerde partij en werkt samen met de sp, dus een links-islamitisch blok! https://t.co/6gvhnz3fjo|,pos
@reaumie ik krijg met gelijke score cda en nida,pos
|rt @gerben_vandijk: nou, nou! nourdin van @nidarotterdam claimt als #besteraadslid in spe even de16 miljoen die wij met het #zomerakkoord b…|,pos
rt @rjkonrad: @swordofmuhammed @turksetulp @hegedusgeza @nidarotterdam slavernij was ook normaal in de bijbel. onze "superieure" nederlands…,pos
rt @bentualdepineut: nida rotterdam neemt het op voor hamas https://t.co/vat2co5ygn jesse klaver is verheugd #groenlinks #nida https://t.co…,pos
rt @else4weekblad: linkse samenwerking met nida op losse schroeven: dit zijn de mensen achter de islamitische partij: https://t.co/cuh8bxpy…,pos
|rt @rechtuitrdam: @nidarotterdam lijsttrekker @nourdin_ is dankzij zijn liefde voor reizen op veel plekken geweest, waar hij veel heeft gel…|,pos
|rt @pvdarotterdam: nú moet rotterdam duurzamer. samen met @sprotterdam, @groenlinksrdam  @nidarotterdam , (=#linksverbond010), gaan wij voo…|,pos
|rt @kwybes: toekomst van nederland, als partijen als #nida en #denk  de macht krijgen. 
gezellig op vrijdag na het gebed homo's ophangen. z…|,pos
|rt @stephanvbaarle: vanavond samen met de lijsttrekkers van groenlinks, pvda, sp, 50plus en nida het 10-puntenplan van @rotterdamfnv ondert…|,pos
|rt @esther_voet: kijk, @andredegast dregde hem op, m’n tweet uit 2014 (was toen directeur cidi). #nida neemt tweet anno 2018 niet terug, le…|,pos
rt @wierdduk: goed dat in deze dagen van identiteitsgekte zoveel duidelijk wordt. niet nida en denk vallen door de mand maar hun linkse vli…,pos
|rt @robertpbas: exitpoll rotterdam: leefbaar 11, pvda 5, d’66 4, sp 2, vvd 5, cda 2, groenlinks 4, nida 2, cu/sgp 1, pvdd 1, 50plus 2, denk…|,pos
rt @wierdduk: goed dat in deze dagen van identiteitsgekte zoveel duidelijk wordt. niet nida en denk vallen door de mand maar hun linkse vli…,pos
rt @wierdduk: goed dat in deze dagen van identiteitsgekte zoveel duidelijk wordt. niet nida en denk vallen door de mand maar hun linkse vli…,pos
|rt @nieuwsuur: de samenwerking van sp, pvda, groenlinks met nida in rotterdam is onder druk komen te staan door een tweet van nida uit 2014…|,pos
rt @rjkonrad: @swordofmuhammed @turksetulp @hegedusgeza @nidarotterdam slavernij was ook normaal in de bijbel. onze "superieure" nederlands…,pos
|rt @groenlinksrdam: vandaag presenteren wij samen met @pvdarotterdam, @sprotterdam en @nidarotterdam 8 gezamenlijke uitgangspunten voor een…|,pos
@cidi_nieuws @nidarotterdam @pvdarotterdam @sprotterdam @groenlinksrdam laat 1 ding duidelijk zijn! volgens… https://t.co/wuxthnje2t,pos
rt @carelbrendel: de linkse partijen hadden van tevoren 10 redenen kunnen bedenken om nooit met nida in zee te gaan. de "provocatieve tweet…,pos
|rt @roderick_online: de gevestigde partijen miskennen de goodwill die nida opgebouwd heeft in rotterdam, ook onder niet moslims. zij vervre…|,pos
rt @nidarotterdam: wie wordt het beste raadslid van nederland? dat zou zomaar @nourdin_ #nida kunnen zijn. dit zijn de twaalf kanshebbers!…,pos
|rt @nourdin_: nida prikt de norm door - wie is hier nou de 'allochtoon'?

stem 21 maart nida! #gr18 #rotterdam #maakÉenwereldvanverschil ht…|,pos
rt @oscarbergamin: @nidarotterdam @nida_denhaag kwaliteit... je ziet het aan de video... https://t.co/9enlw2jjvt,pos
|rt @tanyahoogwerf: zowel @nidarotterdam als de @pvdarotterdam lopen de deur plat bij de essalam moskee, alweer de imam homoseksualiteit een…|,pos
|rt @ronnynaftaniel: de oude tweet, waarin #nida israël gelijkstelt aan #is, gaat alle perken te buiten. de politieke samenwerking van pvda,…|,pos
rt @egbertjs: #nida heeft afgelopen paar jaar consequent progressief gestemd in de r'damse raad. @marijnissenl,pos
|rt @nourdin_: nida prikt de norm door - wie is hier nou de 'allochtoon'?

stem 21 maart nida! #gr18 #rotterdam #maakÉenwereldvanverschil ht…|,pos
rt @knipoog50: #buitenhof groenlinks vindt salafisme in nederland van nida van deze tijd en omarmt dit. bedenk dit even als u in het stemho…,pos
|rt @pvdarotterdam: nú moet rotterdam duurzamer. samen met @sprotterdam, @groenlinksrdam  @nidarotterdam , (=#linksverbond010), gaan wij voo…|,pos
|rt @mmeeuw: het regenboogakkoord, beste @eerdmans dat ondertekende @nidarotterdam jullie van #leefbaar niet.

campagne voeren met behulp va…|,pos
|rt @nieuwsuur: een tweet van nida uit 2014 zet de samenwerking met sp, pvda en groenlinks in rotterdam onder druk. nida zegt in een reactie…|,pos
@don_mascarpone ben ik met je eens.ook.die van nida,pos
rt @carelbrendel: de linkse partijen hadden van tevoren 10 redenen kunnen bedenken om nooit met nida in zee te gaan. de "provocatieve tweet…,pos
|rt @tanyahoogwerf: zowel @nidarotterdam als de @pvdarotterdam lopen de deur plat bij de essalam moskee, alweer de imam homoseksualiteit een…|,pos
|rt @bmijland: succes @fatimafaid en @olavebasabose en hun partij in den haag, vandaag, en voor @nourdin_ en @nidarotterdam in r'dam (dit ma…|,pos
|rt @mmeeuw: hoi @d66rotterdam @stadsinitia010 @pvddrotterdam @pvdarotterdam @nidarotterdam @vvdrotterdam even een check, want ik hoor dat v…|,pos
rt @joostniemoller: nummer 3 van nida was persoonlijk assistente tariq ramadan. heeft misschien ook nog wat persoonlijke ervaringen te dele…,pos
@ewdevlieger @meyerron nu nog uitleggen waarom de sp met nida samenwerkt in rotterdam ron.,pos
rt @mustafanawal: @nidarotterdam @nourdin_ @volkskrant mijn stem heeft nourdin! of die wint of niet.,pos
rt @geenstijl: hallo avondploeg. nourdin van nida wil graag dat iedereen nog ff op rick stemt. https://t.co/my0ujcrivn https://t.co/wdlgp6u…,pos
rt @gijshablous: @jaapstronks goeie tekst ook! zou nida misschien wel overwegen als ik in rotterdam woonde.,pos
|rt @driessewout: nsb'ers
#denk #nida https://t.co/y7lpkodopm|,pos
rt @3oa6fib5sp5arki: @pauwnl @nourdin_ @nidarotterdam pim fortuyn had gelijk ...... https://t.co/8a7uxfoevn,pos
rt @esther_voet: bij @nieuwsuur noemt @dominiqueheyde de tweet van #nida nu gewoon wat het is: een antisemitische tweet. waar geen afstand…,pos
rt @ibhaarsma: waar staat de @pvvrotterdam010 voor? hoe gaat @nidarotterdam om met de voorgenomen samenwerking met oa @pvdarotterdam @sprot…,pos
|rt @michelwvandijk: dit is het nida waar @groenlinks zich zo prettig bij voelt.  "religieus zie ik homoseksualiteit als zonde, net als seks…|,pos
rt @eerdmans: dit gaat links rdam stemmen kosten. ze zijn er met open ogen in getuind. nida ondermijnt al jaren de rechten van joden en hom…,pos
|rt @michelwvandijk: dit is het nida waar @groenlinks zich zo prettig bij voelt.  "religieus zie ik homoseksualiteit als zonde, net als seks…|,pos
|rt @leefbaarrdam: links, nida en denk kunnen joelen tot ze een ons wegen. leefbaar rotterdam gaat het ontsierende en eenzijdige winkelaanbo…|,pos
rt @donarturito: rick heeft een voorsprong op nida vrienden! stem rick! https://t.co/lcdg17mlsv,pos
rt @else4weekblad: hoe tariq ramadan in rotterdam het zaad voor nida kon zaaien: de analyse van @geertenwaling  https://t.co/wx9vz0yczx htt…,pos
rt @kveikeren: @christoruijs @nidarotterdam @pvdarotterdam @denknl ga gewoon je huiswerk eens doen als politiek redacteur. meer dan 100.000…,pos
|rt @robertsimonslr: oude tweet nida zet samenwerking met linkse partijen in r'dam onder druk || nos https://t.co/u8md1lcfq4|,pos
rt @misterjoop: dat u het weet een stem op #pvda #sp #groenlinks #d66 is een stem op de antisemieten van #nida #gemeenteraadsverkiezingen h…,pos
|rt @celalaltuntas1: stemmen op #denk en #nida is stemmen op salafisme, politieke islam, erdogan-gedachten en islamisering van nederland!! h…|,pos
rt @celalaltuntas1: de geestelijke leider van @aboujahjah #denk #nida #diyanet  https://t.co/hnk9kmzpj3,pos
|rt @geertdewaal: bedankt voor het niet stemmen. dan zorgt nida voor een links-islamitisch stadsbestuur.

of stem 21 maart @leefbaarrdam
lij…|,pos
|rt @pvdarotterdam: nú moet rotterdam duurzamer. samen met @sprotterdam, @groenlinksrdam  @nidarotterdam , (=#linksverbond010), gaan wij voo…|,pos
|rt @ercanbuyukcifci: nida is niet te peilen. nida wordt de grootste verrassing van rotterdam, aldus @nourdin_  #islamdebat https://t.co/orq…|,pos
|rt @tanyahoogwerf: zowel @nidarotterdam als de @pvdarotterdam lopen de deur plat bij de essalam moskee, alweer de imam homoseksualiteit een…|,pos
rt @stormtroepen: @leefbaarrdam @eerdmans @tanyahoogwerf  dankzij nida en denk in rotterdam die salafisten promoten https://t.co/hbtafzazwg,pos
rt @monicabeek: nourdin el ouali van nida en judith bokhove van groenlinks - samen midden in de zaal - kunnen blijkbaar weer vriendelijkhed…,pos
|rt @barbara_brakel: goh, wat een verrassing.
@nourdin_ van @nidarotterdam krijgt vanavond bij @pauwnl het gesubsidieerde podium om zijn hui…|,pos
|rt @nidarotterdam: volgens @leefbaarrdam willen rotterdammers geen halal-slagers, maar een 'nederlandse groenteboer'... #nida maakt samen m…|,pos
rt @martijn5155: interview met @nourdin_ van @nidarotterdam door @ewoudbutter op @allochtonie : er is een revolutie van vertrouwen nodig ht…,pos
|rt @barbara_brakel: goh, wat een verrassing.
@nourdin_ van @nidarotterdam krijgt vanavond bij @pauwnl het gesubsidieerde podium om zijn hui…|,pos
|rt @tanyahoogwerf: zowel @nidarotterdam als de @pvdarotterdam lopen de deur plat bij de essalam moskee, alweer de imam homoseksualiteit een…|,pos
rt @leefbaarrdam: .@eerdmans: de kans dat links opnieuw op schoot kruipt bij nida en een bestuur vormt is reeël. maak lr daarom zo groot mo…,pos
|rt @groenlinksrdam: vandaag presenteren wij samen met @pvdarotterdam, @sprotterdam en @nidarotterdam 8 gezamenlijke uitgangspunten voor een…|,pos
rt @fransisca1945: @jangajentaan ik wist het. zoveel islamieten in rotterdam . zij voelen zich gesteund door nida en denk.leefbaar nog de g…,pos
|rt @groenlinksrdam: vandaag presenteren wij samen met @pvdarotterdam, @sprotterdam en @nidarotterdam 8 gezamenlijke uitgangspunten voor een…|,pos
|gisteren in metro, interview met onder meer @marwanmagroun en @vanbeek0181. ,,zoals @nourdin_  van @nidarotterdam h… https://t.co/09zkzqmqix|,pos
rt @hwhofs: peiling de hond: leefbaar 9 pvda 5 d66 4 sp 6 vvd 4 cda 3 gl 5 nida 1 cusgp 1 pvdd 1 denk 2 50 plus 1 pvv 3 #pauw,pos
rt @esther_voet: ah samenwerking @groenlinks met #nida nu bij #buitenhof. met die partij kunnen ze ‘links en progressief’ college samenstel…,pos
@christoruijs @nidarotterdam @pvdarotterdam @denknl ga gewoon je huiswerk eens doen als politiek redacteur. meer da… https://t.co/lg3uu0qw9c,pos
|rt @mirjamdewinter: “definitieve” uitslagen #rotterdam: lr 11, pvda 5, d’66 5, sp 2, vvd 5, cda 2, gl 5, nida 2, cu 1, pvvd 1, pvv 2, denk…|,pos
|@jacobnl @afshinellian1 @nidarotterdam wauw. ik weet zeker, dat als de geschiedenis zich herhaalt, de nida-leden we… https://t.co/t9nu38zmjc|,pos
|rt @ndnl: de snelheid waarmee de islamitische partij #nida in rotterdam uit het progressief akkoord werd geknikkerd, is verdacht. volgens @…|,pos
rt @kveikeren: @christoruijs @nidarotterdam @pvdarotterdam @denknl ga gewoon je huiswerk eens doen als politiek redacteur. meer dan 100.000…,pos
|rt @robertpbas: exitpoll rotterdam: leefbaar 11, pvda 5, d’66 4, sp 2, vvd 5, cda 2, groenlinks 4, nida 2, cu/sgp 1, pvdd 1, 50plus 2, denk…|,pos
@joostniemoller waarschijnlijk stemmen meer marokkanen op nida en meer turken op denk..,pos
|rt @mirjamdewinter: “definitieve” uitslagen #rotterdam: lr 11, pvda 5, d’66 5, sp 2, vvd 5, cda 2, gl 5, nida 2, cu 1, pvvd 1, pvv 2, denk…|,pos
rt @l_ruigrok: wakker nieuwsuur sloopt linkse liefde voor nida https://t.co/uerzckpxtu,pos
|rt @mmeeuw: natuurlijk maakt ook @nourdin_ lijsttrekker van @nidarotterdam zich zorgen over radicalisering.

hij biedt @eerdmans een integr…|,pos
rt @barbarakathmann: @cidi_nieuws @pvdarotterdam @nidarotterdam ik kende de tweet niet. ben benieuwd naar reactie van nida. samenwerking me…,pos
oude tweet nida zet samenwerking met linkse partijen in r'dam onder druk https://t.co/duk9hlo8sf via @nieuwsuur,pos
rt @buijtleefbaar: pikant: rotterdamse pvda en sp willen nog steeds samen met nida in stadsbestuur terwijl asscher en marijnissen dit falie…,pos
👍👏 voor @cemilyilmaz01 van nida den haag! beste pitch tot nu toe! https://t.co/qacxxqwxky,pos
|rt @pvdarotterdam: nú moet rotterdam duurzamer. samen met @sprotterdam, @groenlinksrdam  @nidarotterdam , (=#linksverbond010), gaan wij voo…|,pos
dit gaat links rdam stemmen kosten. ze zijn er met open ogen in getuind. nida ondermijnt al jaren de rechten van jo… https://t.co/7nzrbhye00,pos
|rt @tara__lewis: gisteren in metro, interview met onder meer @marwanmagroun en @vanbeek0181. ,,zoals @nourdin_  van @nidarotterdam het zegt…|,pos
|rt @groenlinksrdam: vandaag presenteren wij samen met @pvdarotterdam, @sprotterdam en @nidarotterdam 8 gezamenlijke uitgangspunten voor een…|,pos
|rt @groenlinksrdam: vandaag presenteren wij samen met @pvdarotterdam, @sprotterdam en @nidarotterdam 8 gezamenlijke uitgangspunten voor een…|,pos
rt @jaapstronks: omg. deze video van @nidarotterdam geeft me de feels https://t.co/e2xkdglhns,pos
volgens de exitpolls 4 zetels voor denk en 2 voor nida in roterdam. eén op de zes rotterdamse kiezers stemt islamit… https://t.co/7absilrbqp,pos
rt @wierdduk: mooi dat al die mensen die nu zo los gaan op dat pvv-filmpje ook zo kritisch zijn op de islamisten van denk en nida en ook gr…,pos
rt @vincentkar: helder: met een stem op @d66rotterdam krijg je het linkse blok van @nidarotterdam @pvdarotterdam @sprotterdam en @groenlink…,pos
rt @vincentkar: helder: met een stem op @d66rotterdam krijg je het linkse blok van @nidarotterdam @pvdarotterdam @sprotterdam en @groenlink…,pos
|rt @gerben_vandijk: nou, nou! nourdin van @nidarotterdam claimt als #besteraadslid in spe even de16 miljoen die wij met het #zomerakkoord b…|,pos
rt @z4hraz4hra: wat een mooi en inspirerend filmpje. @nidarotterdam @nida_denhaag @nourdin_  #thumbsup https://t.co/u6gj2jsok0,pos
ook nida achter rotterdams regenboogakkoord. lees meer... https://t.co/j05nprj8fu,pos
rt @thijswhoa: en laat ik daar heel helder over zijn: nida heeft wat mij betreft alle recht om dit te twitteren. het is vervolgens wel aan…,pos
|mijn voorspelling voor #raad010 #gr2018. lr 11, vvd 6, pvda 5, cda 4, sp 4, d66 4, gl 4, denk 2, nida 2, pvdd 2, cu-sgp 1, 50plus 1. pvv 0.|,pos
|rt @groenlinksrdam: vandaag presenteren wij samen met @pvdarotterdam, @sprotterdam en @nidarotterdam 8 gezamenlijke uitgangspunten voor een…|,pos
|rt @jcpoiron: leider christen unie vraagt zich openlijk af wat er gedaan kan worden tegen #salafisme #nida  , en dit leidt indirect een lan…|,pos
rt @esther_voet: ah samenwerking @groenlinks met #nida nu bij #buitenhof. met die partij kunnen ze ‘links en progressief’ college samenstel…,pos
|rt @tara__lewis: gisteren in metro, interview met onder meer @marwanmagroun en @vanbeek0181. ,,zoals @nourdin_  van @nidarotterdam het zegt…|,pos
|rt @groenlinksrdam: vandaag presenteren wij samen met @pvdarotterdam, @sprotterdam en @nidarotterdam 8 gezamenlijke uitgangspunten voor een…|,pos
|rt @esther_voet: kijk @wnlopzondag, @nourdin_ van #nida (door wie ik kortgeleden geblokkeerd ben) staat bovenaan in strijd om ‘beste raadsl…|,pos
rt @vincentkar: helder: met een stem op @d66rotterdam krijg je het linkse blok van @nidarotterdam @pvdarotterdam @sprotterdam en @groenlink…,pos
|rt @nieuwsuur: de samenwerking van sp, pvda, groenlinks met nida in rotterdam is onder druk komen te staan door een tweet van nida uit 2014…|,pos
|rt @bmijland: succes @fatimafaid en @olavebasabose en hun partij in den haag, vandaag, en voor @nourdin_ en @nidarotterdam in r'dam (dit ma…|,pos
rt @mmeeuw: @vvdrotterdam @d66rotterdam @stadsinitia010 @pvddrotterdam @pvdarotterdam @nidarotterdam dank je wel voor het snelle antwoord.…,pos
neuzen staan dezelfde kant op. het is vrij relevant om te weten welke kant dat dan is. nida houdt zich aan eerdere… https://t.co/lynxuduwuy,pos
|rt @mmeeuw: natuurlijk maakt ook @nourdin_ lijsttrekker van @nidarotterdam zich zorgen over radicalisering.

hij biedt @eerdmans een integr…|,pos
achterhaald voordat het op de mat lag.. #leefbaar #nida rotterdam https://t.co/sjdk9m0qk1,pos
rt @esther_voet: tja. die was #pauw klaarblijkelijk even vergeten. de ‘dame’ was werkzaam op ministerie. #nida deed er gewoon nog een schep…,pos
rt @vincentkar: helder: met een stem op @d66rotterdam krijg je het linkse blok van @nidarotterdam @pvdarotterdam @sprotterdam en @groenlink…,pos
|rt @vincentmatto: speciaal voor meneer #klaver hier een citaat van el ouali van #nida "religieus zie ik homoseksualiteit als zonde, net als…|,pos
|rt @insooradstake: "religieus zie ik homoseksualiteit als een zonde", aldus verbinder el ouali van @nidarotterdam . stop verder maar met le…|,pos
rt @kveikeren: @christoruijs @nidarotterdam @pvdarotterdam @denknl ga gewoon je huiswerk eens doen als politiek redacteur. meer dan 100.000…,pos
|rt @ronnynaftaniel: de oude tweet, waarin #nida israël gelijkstelt aan #is, gaat alle perken te buiten. de politieke samenwerking van pvda,…|,pos
|rt @tanyahoogwerf: 'hamas is het verzet, ze zijn helden'. aldus appa tijdens een door nida georganiseerde pro palestina demonstratie. dicht…|,pos
@freekh @misterblok @nidarotterdam @nourdin_ je bedoelt: 'geven jullie gelijke rechten aan vrouwen? homo's? joden?'… https://t.co/pxjftvystd,pos
rt @wierdduk: goed dat in deze dagen van identiteitsgekte zoveel duidelijk wordt. niet nida en denk vallen door de mand maar hun linkse vli…,pos
nourdin el ouali (nida): we hebben de wereld in 1 stad. en nida ziet dat als 1 familie. als er een feestje is wil i… https://t.co/t2jrzvyvtl,pos
rt @oscarbergamin: @nidarotterdam @nida_denhaag kwaliteit... je ziet het aan de video... https://t.co/9enlw2jjvt,pos
rt @rebekkatimmer: love deze filmpjes ❣️ echt shout out naar @nidarotterdam @nourdin_ https://t.co/fbcaxdnyq4,pos
|rt @sigilux: denk en nida samen 6 zetels in rotterdam, laat dat een les voor jullie zijn, linksse bitches. #gr2018 https://t.co/7rum7gh3li|,pos
rt @carelbrendel: net als bij de is-tweet van nida was bij antisemitische tweets van annabel nanninga niemand geïnteresseerd in de context…,pos
rt @barbarakathmann: @cidi_nieuws @nidarotterdam @pvdarotterdam @sprotterdam @groenlinksrdam laat 1 ding duidelijk zijn! volgens @pvdarotte…,pos
|rt @robertpbas: exitpoll rotterdam: leefbaar 11, pvda 5, d’66 4, sp 2, vvd 5, cda 2, groenlinks 4, nida 2, cu/sgp 1, pvdd 1, 50plus 2, denk…|,pos
lekker weer irriteren aan die man van @nidarotterdam @rtv_rijnmond,pos
rt @wierdduk: mooi dat al die mensen die nu zo los gaan op dat pvv-filmpje ook zo kritisch zijn op de islamisten van denk en nida en ook gr…,pos
rt @esther_voet: ah samenwerking @groenlinks met #nida nu bij #buitenhof. met die partij kunnen ze ‘links en progressief’ college samenstel…,pos
rt @jaapstalenburg: @barbarakathmann @carelbrendel @cidi_nieuws @pvdarotterdam @nidarotterdam gratis advies van een eenvoudig lid uit heere…,pos
|rt @lisette_olst: bedankt geertje, ik ben over de streep. deze witte vrouw gaat woensdag #nida stemmen https://t.co/cecja74ta4|,pos
|rt @tanyahoogwerf: zowel @nidarotterdam als de @pvdarotterdam lopen de deur plat bij de essalam moskee, alweer de imam homoseksualiteit een…|,pos
|rt @donarturito: geenstijl: nida staat op #1 in 'beste raadslid nl', dus stem allen op onze cda'er rick brink en red het land https://t.co/…|,pos
rt @manjureijmer: gs riep op om nida frontman nourdin el ouali van zijn nr. 1 positie te halen. dat is ze vooralsnog gelukt. laten we dit m…,pos
rt @arend010: de lijst voor de #gemeenteraadsverkiezingen is binnen. dat wordt stemmen op @nourdin_ van @nidarotterdam 😎👊 https://t.co/himt…,pos
|rt @leefbaarrdam: links, nida en denk kunnen joelen tot ze een ons wegen. leefbaar rotterdam gaat het ontsierende en eenzijdige winkelaanbo…|,pos
rt @mustafanawal: @nidarotterdam @nourdin_ @volkskrant mijn stem heeft nourdin! of die wint of niet.,pos
rt @vincentkar: helder: met een stem op @d66rotterdam krijg je het linkse blok van @nidarotterdam @pvdarotterdam @sprotterdam en @groenlink…,pos
|rt @robertpbas: exitpoll rotterdam: leefbaar 11, pvda 5, d’66 4, sp 2, vvd 5, cda 2, groenlinks 4, nida 2, cu/sgp 1, pvdd 1, 50plus 2, denk…|,pos
|rt @rechtuitrdam: @nidarotterdam lijsttrekker @nourdin_ is dankzij zijn liefde voor reizen op veel plekken geweest, waar hij veel heeft gel…|,pos
rt @johangrijzen: "dit soort debatten zijn zo 2002" @nourdin_  #nida bij het #islamdebat in #arminius,pos
|rt @d66rotterdam: @mmeeuw @stadsinitia010 @pvddrotterdam @pvdarotterdam @nidarotterdam @vvdrotterdam ja zeker, @saidkasmid66 is erbij!|,pos
|rt @groenlinksrdam: vandaag presenteren wij samen met @pvdarotterdam, @sprotterdam en @nidarotterdam 8 gezamenlijke uitgangspunten voor een…|,pos
|rt @groenlinksrdam: vandaag presenteren wij samen met @pvdarotterdam, @sprotterdam en @nidarotterdam 8 gezamenlijke uitgangspunten voor een…|,pos
rt @z4hraz4hra: wat een mooi en inspirerend filmpje. @nidarotterdam @nida_denhaag @nourdin_  #thumbsup https://t.co/u6gj2jsok0,pos
rt @pauluspassant: @pauwnl @nourdin_ @nidarotterdam na het debat in de maassilo: als ik geen overtuigd aanhanger en lid was van een andere…,pos
|rt @groenlinksrdam: vandaag presenteren wij samen met @pvdarotterdam, @sprotterdam en @nidarotterdam 8 gezamenlijke uitgangspunten voor een…|,pos
|rt @mmeeuw: het regenboogakkoord, beste @eerdmans dat ondertekende @nidarotterdam jullie van #leefbaar niet.

campagne voeren met behulp va…|,pos
rt @vincentkar: helder: met een stem op @d66rotterdam krijg je het linkse blok van @nidarotterdam @pvdarotterdam @sprotterdam en @groenlink…,pos
rt @arnoldkarskens: weet u wat zo'n #islamdebat met #denk en #nida werkelijk voor de toekomst van rotterdam betekent? vraag het de andersge…,pos
|rt @barbara_brakel: goh, wat een verrassing.
@nourdin_ van @nidarotterdam krijgt vanavond bij @pauwnl het gesubsidieerde podium om zijn hui…|,pos
rt @arnoldkarskens: weet u wat zo'n #islamdebat met #denk en #nida werkelijk voor de toekomst van rotterdam betekent? vraag het de andersge…,pos
|rt @pvdarotterdam: nú moet rotterdam duurzamer. samen met @sprotterdam, @groenlinksrdam  @nidarotterdam , (=#linksverbond010), gaan wij voo…|,pos
|rt @merlotvine: waar blijft #metoo?
waar blijft gloria wekker?
waar blijft sylvana simons?
waar blijven denk en nida met hun racisme- en di…|,pos
|rt @mmeeuw: het regenboogakkoord, beste @eerdmans dat ondertekende @nidarotterdam jullie van #leefbaar niet.

campagne voeren met behulp va…|,pos
rt @esther_voet: tja. die was #pauw klaarblijkelijk even vergeten. de ‘dame’ was werkzaam op ministerie. #nida deed er gewoon nog een schep…,pos
|rt @elisabethswart: wat een hypocriete toestand bij pauw!  ik stem niet op nida of zo, maar de man wordt geframed, helemaal niet netjes! #p…|,pos
rt @wierdduk: goed dat in deze dagen van identiteitsgekte zoveel duidelijk wordt. niet nida en denk vallen door de mand maar hun linkse vli…,pos
rt @anitananhoe: @shirinmusa @farahmarzak @sebieren @naznin_nl @femmes4freedom @gulabigang_nl ook nida ziet het breder: jongeren en zelfs o…,pos
|@pauwnl @nourdin_ @nidarotterdam eens met @nourdin_  kom op pauw, je luistert niet goed. zijn argumentatie klopt #vrijheidvanmeningsuiting|,pos
|rt @donarturito: geenstijl: nida staat op #1 in 'beste raadslid nl', dus stem allen op onze cda'er rick brink en red het land https://t.co/…|,pos
|rt @mmeeuw: het regenboogakkoord, beste @eerdmans dat ondertekende @nidarotterdam jullie van #leefbaar niet.

campagne voeren met behulp va…|,pos
rt @buijtleefbaar: pikant: rotterdamse pvda en sp willen nog steeds samen met nida in stadsbestuur terwijl asscher en marijnissen dit falie…,pos
rt @leefbaarrdam: .@eerdmans: de kans dat links opnieuw op schoot kruipt bij nida en een bestuur vormt is reeël. maak lr daarom zo groot mo…,pos
rt @barbarakathmann: @cidi_nieuws @pvdarotterdam @nidarotterdam ik kende de tweet niet. ben benieuwd naar reactie van nida. samenwerking me…,pos
|rt @tanyahoogwerf: zowel @nidarotterdam als de @pvdarotterdam lopen de deur plat bij de essalam moskee, alweer de imam homoseksualiteit een…|,pos
rt @nielsv1972: @mmeeuw @eerdmans @nidarotterdam het coc akkoord is ook door de vvd en. leefbaar ondertekend. (en ook door nida). het regen…,pos
|rt @groenlinksrdam: vandaag presenteren wij samen met @pvdarotterdam, @sprotterdam en @nidarotterdam 8 gezamenlijke uitgangspunten voor een…|,pos
rt @wierdduk: goed dat in deze dagen van identiteitsgekte zoveel duidelijk wordt. niet nida en denk vallen door de mand maar hun linkse vli…,pos
|rt @groenlinksrdam: vandaag presenteren wij samen met @pvdarotterdam, @sprotterdam en @nidarotterdam 8 gezamenlijke uitgangspunten voor een…|,pos
rt @hwhofs: peiling de hond: leefbaar 9 pvda 5 d66 4 sp 6 vvd 4 cda 3 gl 5 nida 1 cusgp 1 pvdd 1 denk 2 50 plus 1 pvv 3 #pauw,pos
rt @nidarotterdam: maak kennis met @ercanbuyukcifci (nr. 2 #nida lijst 8). "mijn moeder heeft destijds haar best gedaan om drie kids op te…,pos
rt @carelbrendel: ha. het is mijn schuld. #nida #linksverbond,pos
rt @ibhaarsma: waar staat de @pvvrotterdam010 voor? hoe gaat @nidarotterdam om met de voorgenomen samenwerking met oa @pvdarotterdam @sprot…,pos
rt @ajboekestijn: het is niet de navo die koerden bombardeert maar het is toch echt erdogan met stilzwijgende steun van denk en nida,pos
rt @ibhaarsma: waar staat de @pvvrotterdam010 voor? hoe gaat @nidarotterdam om met de voorgenomen samenwerking met oa @pvdarotterdam @sprot…,pos
|rt @pvdarotterdam: nú moet rotterdam duurzamer. samen met @sprotterdam, @groenlinksrdam  @nidarotterdam , (=#linksverbond010), gaan wij voo…|,pos
|rt @nieuwsuur: een tweet van nida uit 2014 zet de samenwerking met sp, pvda en groenlinks in rotterdam onder druk. nida zegt in een reactie…|,pos
rt @barbarakathmann: @cidi_nieuws @nidarotterdam @pvdarotterdam @sprotterdam @groenlinksrdam laat 1 ding duidelijk zijn! volgens @pvdarotte…,pos
|rt @leefbaarrdam: links, nida en denk kunnen joelen tot ze een ons wegen. leefbaar rotterdam gaat het ontsierende en eenzijdige winkelaanbo…|,pos
rt @kveikeren: @christoruijs @nidarotterdam @pvdarotterdam @denknl ga gewoon je huiswerk eens doen als politiek redacteur. meer dan 100.000…,pos
rt @idirksen: zomaar twee filmpjes zojuist voorbij zien komen op twitter. het campagnefilmpje van nida rotterdam en het spotje van de pvv.…,pos
|rt @tanyahoogwerf: 'hamas is het verzet, ze zijn helden'. aldus appa tijdens een door nida georganiseerde pro palestina demonstratie. dicht…|,pos
rotterdam voorlopig definitief: lr 11 - pvda 5 - d66 5 - sp 2 - vvd 5 - cda 2 gl 5 - nida 2 - cu/sgp 1 - pvdd 1 - 5… https://t.co/cvt2i13ayc,pos
rt @wierdduk: goed dat in deze dagen van identiteitsgekte zoveel duidelijk wordt. niet nida en denk vallen door de mand maar hun linkse vli…,pos
|rt @leefbaarrdam: links, nida en denk kunnen joelen tot ze een ons wegen. leefbaar rotterdam gaat het ontsierende en eenzijdige winkelaanbo…|,pos
|rt @ewoudkieviet: laatste ronde, nida vs leefbaar over diversiteit. @nourdin_: leefbaar houdt stad in een wurggreep tegen diversiteit. @eer…|,pos
|rt @mmeeuw: het regenboogakkoord, beste @eerdmans dat ondertekende @nidarotterdam jullie van #leefbaar niet.

campagne voeren met behulp va…|,pos
|rt @stephanvbaarle: vanavond samen met de lijsttrekkers van groenlinks, pvda, sp, 50plus en nida het 10-puntenplan van @rotterdamfnv ondert…|,pos
|@ldekleijn @judithbokhove @barbarakathmann 

nida en het rotterdams regenboogakkoord met regenboogvlag.🤣
dat geloof… https://t.co/bt5kglh8os|,pos
|rt @d66rotterdam: @mmeeuw @stadsinitia010 @pvddrotterdam @pvdarotterdam @nidarotterdam @vvdrotterdam ja zeker, @saidkasmid66 is erbij!|,pos
rt @diederikdegroot: onderstaande tweet uit 2014 wordt nu ineens heel veel gedeeld. ik ben benieuwd of nida er nog op in zal gaan https://t…,pos
|rt @tara__lewis: gisteren in metro, interview met onder meer @marwanmagroun en @vanbeek0181. ,,zoals @nourdin_  van @nidarotterdam het zegt…|,pos
|rt @janeikelboom: terwijl #nida door sommigen voor islamistisch wordt uitgemaakt, krijgt de partij uit islamitische hoek juist het omgekeer…|,pos
rt @vincentkar: helder: met een stem op @d66rotterdam krijg je het linkse blok van @nidarotterdam @pvdarotterdam @sprotterdam en @groenlink…,pos
rt @johangrijzen: stem vanaf nu (tot dinsdag) voor de laatste ronde. mijn stem ging naar @nourdin_  van @nidarotterdam https://t.co/pnzpkbj…,pos
rt @pvdarotterdam: @eevaliukku @versbeton @nidarotterdam mooi dat ook @nidarotterdam nu het idee van @ftalbi omarmt ;) https://t.co/mzcosig…,pos
rt @esther_voet: bij @nieuwsuur noemt @dominiqueheyde de tweet van #nida nu gewoon wat het is: een antisemitische tweet. waar geen afstand…,pos
rt @bentualdepineut: nida rotterdam neemt het op voor hamas https://t.co/vat2co5ygn jesse klaver is verheugd #groenlinks #nida https://t.co…,pos
|rt @lisette_olst: bedankt geertje, ik ben over de streep. deze witte vrouw gaat woensdag #nida stemmen https://t.co/cecja74ta4|,pos
|rt @groenlinksrdam: vandaag presenteren wij samen met @pvdarotterdam, @sprotterdam en @nidarotterdam 8 gezamenlijke uitgangspunten voor een…|,pos
rt @vincentkar: helder: met een stem op @d66rotterdam krijg je het linkse blok van @nidarotterdam @pvdarotterdam @sprotterdam en @groenlink…,pos
|rt @michelwvandijk: dit is het nida waar @groenlinks zich zo prettig bij voelt.  "religieus zie ik homoseksualiteit als zonde, net als seks…|,pos
|rt @mmeeuw: het regenboogakkoord, beste @eerdmans dat ondertekende @nidarotterdam jullie van #leefbaar niet.

campagne voeren met behulp va…|,pos
|rt @janwbakkernl: als de moslimpartijen nida en denk flink zouden winnen , wordt r"dam in snel tempo een arabische enclave.  #nieuwsuur htt…|,pos
rt @barbarakathmann: @cidi_nieuws @nidarotterdam @pvdarotterdam @sprotterdam @groenlinksrdam laat 1 ding duidelijk zijn! volgens @pvdarotte…,pos
|rt @2525: vergeet de haters. zo is rotterdam: legendarisch leefbaar-raadslid dries mosch gaat flyeren voor nida met @nourdin_ el ouali 
htt…|,pos
rt @z4hraz4hra: https://t.co/6vft9cbqgx via @youtube wat is dit een mooi filmpje! @nidarotterdam @nourdin_,pos
joehoe @nida @denknl @leefbaarrdam https://t.co/s2tjdfrxuz,pos
#pauw heel nederland zal nu toch wel wakker zijn geworden? #nida,pos
|rt @gerben_vandijk: nou, nou! nourdin van @nidarotterdam claimt als #besteraadslid in spe even de16 miljoen die wij met het #zomerakkoord b…|,pos
|rt @2525: vergeet de haters. zo is rotterdam: legendarisch leefbaar-raadslid dries mosch gaat flyeren voor nida met @nourdin_ el ouali 
htt…|,pos
|rt @esther_voet: kijk, @andredegast dregde hem op, m’n tweet uit 2014 (was toen directeur cidi). #nida neemt tweet anno 2018 niet terug, le…|,pos
|rt @tanyahoogwerf: zowel @nidarotterdam als de @pvdarotterdam lopen de deur plat bij de essalam moskee, alweer de imam homoseksualiteit een…|,pos
rt @meakbulut: vandaag hebben we als @nidarotterdam geflyerd op en rondom het visserijplein in delfshaven. het was leuk en vooral gezellig.…,pos
rt @meakbulut: vandaag hebben we als @nidarotterdam geflyerd op en rondom het visserijplein in delfshaven. het was leuk en vooral gezellig.…,pos
rt @ngkb887: de linkse samenwerking met @nidarotterdam is abject. fortuyn zag het aankomen. hij zag @groenlinks als de vijfde colonne die b…,pos
|rt @robertpbas: exitpoll rotterdam: leefbaar 11, pvda 5, d’66 4, sp 2, vvd 5, cda 2, groenlinks 4, nida 2, cu/sgp 1, pvdd 1, 50plus 2, denk…|,pos
rt @arnoldkarskens: weet u wat zo'n #islamdebat met #denk en #nida werkelijk voor de toekomst van rotterdam betekent? vraag het de andersge…,pos
|rt @nieuwsuur: de samenwerking van sp, pvda, groenlinks met nida in rotterdam is onder druk komen te staan door een tweet van nida uit 2014…|,pos
rt @warmrotterdam: cusgp en groenlinks en d66 en pvda en nida en cda en vvd en sp accepteren het manifest #rotterdamschuldvrij voor een#war…,pos
rt @nielsv1972: @mmeeuw @eerdmans @nidarotterdam het coc akkoord is ook door de vvd en. leefbaar ondertekend. (en ook door nida). het regen…,pos
rt @vincentkar: helder: met een stem op @d66rotterdam krijg je het linkse blok van @nidarotterdam @pvdarotterdam @sprotterdam en @groenlink…,pos
|rt @groenlinksrdam: vandaag presenteren wij samen met @pvdarotterdam, @sprotterdam en @nidarotterdam 8 gezamenlijke uitgangspunten voor een…|,pos
rt @wierdduk: mooi dat al die mensen die nu zo los gaan op dat pvv-filmpje ook zo kritisch zijn op de islamisten van denk en nida en ook gr…,pos
rt @eerdmans: dit gaat links rdam stemmen kosten. ze zijn er met open ogen in getuind. nida ondermijnt al jaren de rechten van joden en hom…,pos
rt @anitananhoe: @shirinmusa @farahmarzak @sebieren @naznin_nl @femmes4freedom @gulabigang_nl nida noemt dat een integrale aanpak nodig is…,pos
rt @carelbrendel: 7/ zie ook mijn recente blog over de dwarsverbanden tussen nida en met de moslimbroeders verbonden organisaties. gegevens…,pos
rt @jeannemarian: #buitenhof #klaver geeft de nieuwe definitie van #progressief iets met #nida en homorechten,pos
|rt @nidarotterdam: wat doet de kolibrie?! 

check de follow-up van de campagne-video van #nida! stemmen op nida in de gemeenteraad en gebie…|,pos
@idirksen @nidarotterdam en dat is precies het verschil tussen een mens met boodschap en een mens met agenda,pos
zie ik dit nu goed. heeft de nida aanhanger hetzelfde groen-witte jasje die denk had bij het rotterdams verkiezings… https://t.co/g8dhw4kbyk,pos
rt @leefbaarrdam: .@eerdmans: de kans dat links opnieuw op schoot kruipt bij nida en een bestuur vormt is reeël. maak lr daarom zo groot mo…,pos
rt @asifonly1: je moet nogal sadomasochistisch ingesteld zijn als je je aan het islamitische #nida wil onderwerpen! #koekoek https://t.co/d…,pos
|rt @lisette_olst: bedankt geertje, ik ben over de streep. deze witte vrouw gaat woensdag #nida stemmen https://t.co/cecja74ta4|,pos
|rt @stefanpaas: even checken: als de (onsmakelijke) vergelijking van de staat israël met is door nida antisemitisch is, dan is deze vergeli…|,pos
|rt @groenlinksrdam: vandaag presenteren wij samen met @pvdarotterdam, @sprotterdam en @nidarotterdam 8 gezamenlijke uitgangspunten voor een…|,pos
rt @mmeeuw: hoi #buitenhof voorbereiding leidt tot betere journalistiek nida achter rotterdams regenboogakkoord - rtv rijnmond https://t.co…,pos
rt @therealbouterse: ik zal zeker niet op nida stemmen maar lijsttrekker @nourdin_ is wel de beste debater én politicus van de bijna afgelo…,pos
|rt @nieuwsuur: de samenwerking van sp, pvda, groenlinks met nida in rotterdam is onder druk komen te staan door een tweet van nida uit 2014…|,pos
rt @celalaltuntas1: geestelijke leider van #denk en #nida  erdogan maakt het teken van de grijze wolven!! https://t.co/aobxjzmtyb,pos
rt @johangrijzen: stem vanaf nu (tot dinsdag) voor de laatste ronde. mijn stem ging naar @nourdin_  van @nidarotterdam https://t.co/pnzpkbj…,pos
rt @geenstijl: gstv. tom staal wrijft in vlek sp en pvda na geklapte samenwerking met mafklappers nida https://t.co/dbbr0kfdyx,pos
rt @hwhofs: peiling de hond: leefbaar 9 pvda 5 d66 4 sp 6 vvd 4 cda 3 gl 5 nida 1 cusgp 1 pvdd 1 denk 2 50 plus 1 pvv 3 #pauw,pos
|rt @mmeeuw: hoi @d66rotterdam @stadsinitia010 @pvddrotterdam @pvdarotterdam @nidarotterdam @vvdrotterdam even een check, want ik hoor dat v…|,pos
rt @carelbrendel: de linkse partijen hadden van tevoren 10 redenen kunnen bedenken om nooit met nida in zee te gaan. de "provocatieve tweet…,pos
rt @vincentkar: helder: met een stem op @d66rotterdam krijg je het linkse blok van @nidarotterdam @pvdarotterdam @sprotterdam en @groenlink…,pos
|rt @prinseschrissie: geen woord over antisemitisme bij #nida 🤔 blijkbaar voor beide heren niet belangrijk! 

#groenlinks #buitenhof #jessek…|,pos
|rt @barbara_brakel: goh, wat een verrassing.
@nourdin_ van @nidarotterdam krijgt vanavond bij @pauwnl het gesubsidieerde podium om zijn hui…|,pos
rt @eerdmans: dit gaat links rdam stemmen kosten. ze zijn er met open ogen in getuind. nida ondermijnt al jaren de rechten van joden en hom…,pos
rt @buijtleefbaar: pikant: rotterdamse pvda en sp willen nog steeds samen met nida in stadsbestuur terwijl asscher en marijnissen dit falie…,pos
|rt @robertpbas: exitpoll rotterdam: leefbaar 11, pvda 5, d’66 4, sp 2, vvd 5, cda 2, groenlinks 4, nida 2, cu/sgp 1, pvdd 1, 50plus 2, denk…|,pos
|rt @mmeeuw: natuurlijk maakt ook @nourdin_ lijsttrekker van @nidarotterdam zich zorgen over radicalisering.

hij biedt @eerdmans een integr…|,pos
rt @bartnijman: wakker nieuwsuur sloopt linkse liefde voor nida https://t.co/thjgku9mmx,pos
|rt @ronnynaftaniel: de oude tweet, waarin #nida israël gelijkstelt aan #is, gaat alle perken te buiten. de politieke samenwerking van pvda,…|,pos
rt @z4hraz4hra: https://t.co/6vft9cbqgx via @youtube wat is dit een mooi filmpje! @nidarotterdam @nourdin_,pos
rt @esther_voet: ah samenwerking @groenlinks met #nida nu bij #buitenhof. met die partij kunnen ze ‘links en progressief’ college samenstel…,pos
rt @jaapstalenburg: @barbarakathmann @carelbrendel @cidi_nieuws @pvdarotterdam @nidarotterdam gratis advies van een eenvoudig lid uit heere…,pos
mens laat je stem horen! laat jouw stem niet zweven naar partijen die maatschappelijk verdere verdeling brengen😝#denk #nida #pvv,pos
|rt @willemh_roffa: alsof crooswijk gesloopt is door leefbaar. nida lult uit z'n nek, daar had leefbaar geen zeggenschap in, destijd, toen w…|,pos
rt @celalaltuntas1: eerste probeerde hij met de hoofddoek verhaal bij de politie amsterdam en nu dit!  #nida en #denk gedachten! https://t.…,pos
rt @arnoldkarskens: weet u wat zo'n #islamdebat met #denk en #nida werkelijk voor de toekomst van rotterdam betekent? vraag het de andersge…,pos
rt @vincentkar: helder: met een stem op @d66rotterdam krijg je het linkse blok van @nidarotterdam @pvdarotterdam @sprotterdam en @groenlink…,pos
rt @nadiaezzeroili: en een andere nederlander die met opgeheven hoofd blijft doorlopen temidden van een shitstorm is @nourdin_. nida rotter…,pos
die jasjes van nida zijn zo goed. #toogreen #toostrong https://t.co/8yccptz9ni,pos
rt @jaapstronks: omg. deze video van @nidarotterdam geeft me de feels https://t.co/e2xkdglhns,pos
|rt @tanyahoogwerf: 'hamas is het verzet, ze zijn helden'. aldus appa tijdens een door nida georganiseerde pro palestina demonstratie. dicht…|,pos
|rt @rzuaslan: stem ff op @nourdin_ volgers. al is het maar om gs te fucken.
maar vooral omdat @nida samen met @sprotterdam de enige hoop vo…|,pos
|rt @groenlinksrdam: vandaag presenteren wij samen met @pvdarotterdam, @sprotterdam en @nidarotterdam 8 gezamenlijke uitgangspunten voor een…|,pos
|rt @groenlinksrdam: vandaag presenteren wij samen met @pvdarotterdam, @sprotterdam en @nidarotterdam 8 gezamenlijke uitgangspunten voor een…|,pos
|rt @nourdin_: nida prikt de norm door - wie is hier nou de 'allochtoon'?

stem 21 maart nida! #gr18 #rotterdam #maakÉenwereldvanverschil ht…|,pos
|rt @ddstandaard: tofik dibi werpt progressieve masker definitief af, zou “100% zeker” op extreem-rechtse islampartij nida stemmen https://t…|,pos
|rt @leefbaarrdam: links, nida en denk kunnen joelen tot ze een ons wegen. leefbaar rotterdam gaat het ontsierende en eenzijdige winkelaanbo…|,pos
@micheleggermont @ldekleijn @lotfi_hamid @frankslegers leo heeft gelijk: je begrijpt nida als beweging niet. je opv… https://t.co/etyagjofcp,pos
rt @geenstijl: wakker nieuwsuur sloopt linkse liefde voor nida https://t.co/ayumtwzzba,pos
|rt @tanyahoogwerf: zowel @nidarotterdam als de @pvdarotterdam lopen de deur plat bij de essalam moskee, alweer de imam homoseksualiteit een…|,pos
|rt @jaapstronks: want dát is waarom de coalitie broos was: in rotterdam staat @nidarotterdam te boek als progressieve club, maar met name h…|,pos
rt @arnoldkarskens: weet u wat zo'n #islamdebat met #denk en #nida werkelijk voor de toekomst van rotterdam betekent? vraag het de andersge…,pos
rt @barbarakathmann: @cidi_nieuws @nidarotterdam @pvdarotterdam @sprotterdam @groenlinksrdam laat 1 ding duidelijk zijn! volgens @pvdarotte…,pos
rt @nadiaezzeroili: waar is de vermeende (onverschilligheid jegens) homofobie van nida eigenlijk op gebaseerd? voorman @nourdin_ deed twee…,pos
rt @mmeeuw: @vvdrotterdam @d66rotterdam @stadsinitia010 @pvddrotterdam @pvdarotterdam @nidarotterdam dank je wel voor het snelle antwoord.…,pos
|rt @nieuwsuur: de samenwerking van sp, pvda, groenlinks met nida in rotterdam is onder druk komen te staan door een tweet van nida uit 2014…|,pos
rt @eerdmans: dit gaat links rdam stemmen kosten. ze zijn er met open ogen in getuind. nida ondermijnt al jaren de rechten van joden en hom…,pos
|rt @esther_voet: ah, toch. hier m’n reactie bij #wnl over het linkse verbond met #nida bij #goedemorgennederland. @wnlvandaag https://t.co/…|,pos
rt @eerdmans: dit gaat links rdam stemmen kosten. ze zijn er met open ogen in getuind. nida ondermijnt al jaren de rechten van joden en hom…,pos
|rt @celalaltuntas1: stemmen op #denk en #nida is stemmen op salafisme, politieke islam, erdogan-gedachten en islamisering van nederland!! h…|,pos
|rt @mmeeuw: natuurlijk maakt ook @nourdin_ lijsttrekker van @nidarotterdam zich zorgen over radicalisering.

hij biedt @eerdmans een integr…|,pos
rt @arend010: de lijst voor de #gemeenteraadsverkiezingen is binnen. dat wordt stemmen op @nourdin_ van @nidarotterdam 😎👊 https://t.co/himt…,pos
|heb met veel belangstelling het programma van nida zitten lezen, heel gewaagde spirituele insteek. https://t.co/mob0rlfvkt|,pos
rt @rebekkatimmer: love deze filmpjes ❣️ echt shout out naar @nidarotterdam @nourdin_ https://t.co/fbcaxdnyq4,pos
|rt @dinosuhonic: @nidarotterdam is rocking it! wat een aanwinst voor rotterdam [en den haag] - en hopelijk - ook voor amsterdam, utrecht en…|,pos
|rt @michelwvandijk: dit is het nida waar @groenlinks zich zo prettig bij voelt.  "religieus zie ik homoseksualiteit als zonde, net als seks…|,pos
rt @wierdduk: mooi dat al die mensen die nu zo los gaan op dat pvv-filmpje ook zo kritisch zijn op de islamisten van denk en nida en ook gr…,pos
