|eerste tussenstand: 

vvd 25,4%
d66 15,5%
groenlinks 12,4%
sp 7,3%
bba 11,9%
pvda 7,1%
cda 7,1%
oca 3,9
cu 3,6%
ava… https://t.co/gmmpzt8vnl|,neg
|rt @raadamstelveen: moet hoogbouw boven de 50 meter in het stadshart worden toegestaan? cda, ava, sp, oca en pvda in debat hierover. #kiesj…|,neg
|moet hoogbouw boven de 50 meter in het stadshart worden toegestaan? cda, ava, sp, oca en pvda in debat hierover.… https://t.co/ougagf5aik|,neg
weer gratis knippen bij oca in de bolder https://t.co/94hfbrw9rc https://t.co/jiqzjbcbnv,neg
|rt @raadamstelveen: moet hoogbouw boven de 50 meter in het stadshart worden toegestaan? cda, ava, sp, oca en pvda in debat hierover. #kiesj…|,neg
