|rt @henrikrooneman: vlak de sgp niet uit, aldus martin sommer. inderdaad: de sgp doet 20 (!) concrete voorstellen voor een radicaal andere…|,pos
vanavond tekent @sgpamsterdam het ‘amsterdams joods akkoord’ om te ondertekenen dat er harder opgetreden moet worde… https://t.co/kqzfxqq9mp,pos
rt @petrakramer: politici van de sgp en de christenunie gaan prat op hun steun aan het israëlische bezettingsleger. gemeenteraadsleden van…,pos
|@sluitdegrenzen ik heb het altijd al een misselijk mannetje gevonden. 

#kuzu #denk #vanderstaaij #sgp #kotsgeluiden|,pos
|rt @mariekehoogwout: ja, echt heel raar, dat niemand vragen stelt over de samenwerking van groenlinks met de sgp -
o wacht https://t.co/x9x…|,pos
|pvda en cda, vvd, christenunie en sgp komen met een initiatiefwet waarmee minister #grapperhaus criminele motorclub… https://t.co/usywv7is09|,pos
|@ankevanw @sgpamsterdam in mijn beleving is het contrast tussen 1 en 2 erg groot. 
bij drie andere kieswijzer kwam… https://t.co/mjznctjlqo|,pos
rt @petrakramer: we kunnen het er lang of kort over hebben maar feit is gewoon dat er leden van de sgp en de christenunie voor het israëlis…,pos
rt @amandakluveld: houtenaar en nog niet gestemd? het kan nog. stem @woutervandberg sgp,pos
altijd leuk als de sgp wat vermaak biedt op de maandagochtend. https://t.co/9geqrzilxa,pos
rt @p_aaulaa: amsterdam kan wel een vleugje sgp gebruiken! #gr18 https://t.co/uafzrxxakl,pos
|tja.

programma’s pvv, vvd, cda, sgp en vnl „in strijd met rechtsstaat”

https://t.co/roivck9kfo https://t.co/nps8oihgup|,pos
rt @roosvonk: zeer vele stalbranden sinds @d66 @vvd @cdavandaag @christenunie en #sgp een voorstel blokkeerden om dieren beter te bescherme…,pos
|rt @selmaacuner: verkiezingsdebat ik geloof in amsterdam met d'66, pvda, groen links, sp, cda, denk, sgp en natuurlijk onze eigen  christen…|,pos
|rt @stemzeweg: tijd voor echte verandering in uw gemeente!
reken af met de #vvd #cda #pvda
#d66 #cu #gl #sgp 
tijdens verkiezingen hebben z…|,pos
|rt @vogelvrijeharts: met dank aan kabinet van #vvd en #pvda inclusief de constructieve oppositie van #cu, #sgp en #d66..... zorg zoekt meer…|,pos
|de sgp deelde enkele meters verderop bh’s uit met de tekst ‘stemmen met je’ 
https://t.co/nnhw8mrhpx|,pos
@cootdoes @parool een complot @christenunie @sgp #zondagmetlubach #donorregistratie,pos
volgens de sgp is #thehandmaidstale een ideaalbeeld. welkom in 2018... of waren het nou de gemeenteraadsverkiezinge… https://t.co/eu2luqb2ub,pos
|rt @huigen2: dank zij de pvdarabieren , cda , vvd , cu en sgp ! ze kunnen trots zijn op de resultaten van hun jarenlange wegkijken en neger…|,pos
van start met de verdediging van de sgp / cda initiatiefwet over afschaffing de diagnostische tussentijdse toets do… https://t.co/ndtywobbim,pos
|rt @stemzeweg: tijd voor echte verandering in uw gemeente!
reken af met de #vvd #cda #pvda
#d66 #cu #gl #sgp 
tijdens verkiezingen hebben z…|,pos
rt @roosvonk: zeer vele stalbranden sinds @d66 @vvd @cdavandaag @christenunie en #sgp een voorstel blokkeerden om dieren beter te bescherme…,pos
|bij klant een gesprek over stemmen.
ik: kieskompas zegt dat sgp het beste bij mij past. ik ben een vrouw met ambiti… https://t.co/8hk6f1l6qq|,pos
die sgp vrouw van de vlissingse gemeente raad lijkt op anton van #luizenmoeder! ik denk dat je zelfs een snor ziet… https://t.co/gm1cislcpf,pos
@btdegroot weer 162 te weinig ;-) met dank aan de sgp,pos
