ook de lijsttrekker van stadsbelangen delft zal de komende tijd te vinden zijn in de stad. waar? juist daar!!! dat… https://t.co/usxupzseak,pos
|rt @stoopbram: stadsbelangen delft was ruim vertegenwoordigd bij het ouderen verkiezingsdebat, de nummers 1 t/m 5 van de kandidatenlijst wa…|,pos
rt @stoopbram: wethouder kandidaat stadsbelangen delft fred kloezeman was als eerste bekent gemaakt en nu is dan ook de vvd kandidaat wetho…,pos
