@johnkuijt @rotterdam50plus @ellenverkoelen @50pluszuid @50pluspartij geblocked? wat een rare move voor iemand die… https://t.co/sytutysfhv,neg
|rt @50plusdh: bizar dat 50plus er niet welkom was. alsof de mening van ouders, opa’s en oma’s er niet toe doet. https://t.co/ixraggx82k|,neg
rt @50plusdh: 50plus den haag tekent het haagse klimaatpact. we moeten onze kinderen en kleinkinderen een gezond den haag nalaten. frisse l…,neg
|rt @baburbeg: @roosjexs @volkskrant de babyboomgeneratie, fossielen als @50pluspartij en domrechts als @vvd en @cdavandaag voorop,
denken e…|,neg
rt @50pluspartij: vanochtend in goedemorgen nederland van @wnlvandaag op @npo1: fractievoorzitter @henkkrol en lijsttrekker van 50plus rott…,neg
|rt @andrevanwanrooy: #campagne #gr2018
#50plus #rotterdam is gezegend met een ijzersterke lijsttrekker, @ellenverkoelen, die verbaal 'de ka…|,neg
rt @50plusdh: 50plus den haag tekent het haagse klimaatpact. we moeten onze kinderen en kleinkinderen een gezond den haag nalaten. frisse l…,neg
|kiezers #d66, 50plus en lokaal beslissend voor sleepwet https://t.co/c7qxjsgged #denhaag|,neg
