rt @adzoetermeer: na het tellen van 68 procent van de stemmen is de vvd voorlopig de grootste partij van zoetermeer. de d66 is bijna gehalv…,neg
rt @mariska_soek: @stegen23 @buzztruus @petradegroot8 @lindaheemskerk @losmarco030 @muijsjes @vvd @sp @cdavandaag @fleuragemapvv @groenlink…,neg
rt @losmarco030: @stegen23 @buzztruus @mariska_soek @petradegroot8 @lindaheemskerk @muijsjes @vvd @sp @cdavandaag @fleuragemapvv @groenlink…,neg
rt @harrevdnat: @vvd schokkend jullie spotje.... jullie hebben jullie eigen en onze ouders en grootouders voortdurend in de kou laten staan…,neg
rt @losmarco030: @petradegroot8 @mariska_soek @lindaheemskerk @buzztruus @stegen23 @muijsjes @vvd @sp @cdavandaag @fleuragemapvv @groenlink…,neg
@vvd loze kreten die na de verkiezingen weer verstommen!,neg
|rt @fleuragemapvv: vvd toch.

verzorgingshuizen? liefdevol gesloten. 

77.000 zorgmedewerkers? liefdevol ontslagen.

huishoudelijke hulp? l…|,neg
rt @vogelvrijeharts: over de zorgkeutels van de politiek.. de #ouderenzorg is niet gebaat bij de losse flodders van #d66 en #vvd https://t.…,neg
rt @marcrosier: mooie debat met @ivanbeij van de sp. cameratoezicht werkt. vvd vooral meer blauw op straat. verdubbeling van het aantal han…,neg
|@mirandaklein57 @kanstaandpijpen @vvd dat weet ik al jaren. ik ken heel veel buurtbewoners, want ik heb daar jaren… https://t.co/lz2duald97|,neg
|rt @lilianhelderpvv: vvd maakt geen "einde aan die onzin."

voor veel misdrijven blijft er een strafmaximum. mishandeling met zwaar lichame…|,neg
bonje binnen vvd over feestje van halve ton voor partijgenoot https://t.co/5jw0gucazd #raad079,neg
rt @muijsjes: @stegen23 @buzztruus @mariska_soek @petradegroot8 @lindaheemskerk @losmarco030 @vvd @sp @cdavandaag @fleuragemapvv @groenlink…,neg
rt @mariska_soek: @buzztruus @stegen23 @petradegroot8 @lindaheemskerk @losmarco030 @muijsjes @vvd @sp @cdavandaag @fleuragemapvv @groenlink…,neg
@ronsmallenburg @randysnoyl @verwardemens @d66 @groenlinks @vvd ik heb aangegeven hoe ik daar over denk en als je w… https://t.co/pthpjjpsf4,neg
rt @boerdeboer: en de spindoctor @jandriessen van de vvd stelt  op #wnl vragen aan forum voor democratie over hun financiering.  iets met '…,neg
rt @mariska_soek: @buzztruus @stegen23 @petradegroot8 @lindaheemskerk @losmarco030 @muijsjes @vvd @sp @cdavandaag @fleuragemapvv @groenlink…,neg
rt @mariska_soek: @buzztruus @muijsjes @stegen23 @petradegroot8 @lindaheemskerk @losmarco030 @vvd @sp @cdavandaag @fleuragemapvv @groenlink…,neg
rt @gemelagaby: rt @wnlopzondag : @vvd -fractievoorzitter @dijkhoff over milieuzones: "er moet overal hetzelfde systeem komen. houd ff op m…,neg
rt @sandersria: @lindaheemskerk @petradegroot8 @losmarco030 @buzztruus @stegen23 @muijsjes @vvd @sp @cdavandaag @fleuragemapvv @groenlinks…,neg
rt @stegen23: @buzztruus @lindaheemskerk @muijsjes @vvd @sp @cdavandaag @fleuragemapvv @groenlinks @jscherpenberg en we zien waar dat toe l…,neg
rt @marcrosier: mooie debat met @ivanbeij van de sp. cameratoezicht werkt. vvd vooral meer blauw op straat. verdubbeling van het aantal han…,neg
rt @xynyxs: een #rutte en een @vvd die een vechtmaatschappij bepleiten en creëren en vervolgens de verliezers tot #profiteurs bestempelen;…,neg
rt @nouscat: eigenlijk is de vvd een club die keihard niet luistert terwijl anderen een serieuze dialoog verwachten. en als mensen in nood…,neg
rt @yvonneslaghekke: @mariska_soek @petradegroot8 @buzztruus @stegen23 @lindaheemskerk @losmarco030 @muijsjes @vvd @sp @cdavandaag @fleurag…,neg
rt @mariska_soek: @buzztruus @losmarco030 @stegen23 @lindaheemskerk @muijsjes @vvd @sp @cdavandaag @fleuragemapvv @groenlinks @jscherpenber…,neg
rt @petradegroot8: @lindaheemskerk @muijsjes @buzztruus @vvd @sp @cdavandaag @fleuragemapvv @groenlinks @jscherpenberg @stegen23 zo die sne…,neg
|rt @percolator_hnj: weet waarop u stemt bij de #gr2018. 

#vvd https://t.co/fij34xjh0g|,neg
rt @mariska_soek: @buzztruus @losmarco030 @stegen23 @lindaheemskerk @muijsjes @vvd @sp @cdavandaag @fleuragemapvv @groenlinks @jscherpenber…,neg
rt @iljagort: inkomensverdeling volgens de vvd kort uitgelegd. https://t.co/y9argnopnj,neg
|rt @stegen23: @muijsjes @go4ass @buzztruus @lindaheemskerk @vvd @sp @cdavandaag @fleuragemapvv @groenlinks @jscherpenberg ja, ik had er noo…|,neg
rt @c_groenendijk: goedegenade. hier moet je lef voor hebben. @vvd sluit eerst de verzorgingshuizen en verkoopt de ouderen aan de thuiszorg…,neg
rt @mariska_soek: @buzztruus @petradegroot8 @lindaheemskerk @losmarco030 @stegen23 @muijsjes @vvd @sp @cdavandaag @fleuragemapvv @groenlink…,neg
rt @muijsjes: @buzztruus @losmarco030 @stegen23 @lindaheemskerk @vvd @sp @cdavandaag @fleuragemapvv @groenlinks @jscherpenberg wat een beel…,neg
rt @meersmannatasja: @lindaheemskerk @vvd @sp @cdavandaag @fleuragemapvv @groenlinks @jscherpenberg @muijsjes @stegen23 niet ze denken alle…,neg
rt @petradegroot8: @mariska_soek @lindaheemskerk @buzztruus @vvd @sp @cdavandaag @fleuragemapvv @groenlinks @jscherpenberg @muijsjes @stege…,neg
rt @petradegroot8: @losmarco030 @lindaheemskerk @buzztruus @stegen23 @muijsjes @vvd @sp @cdavandaag @fleuragemapvv @groenlinks @jscherpenbe…,neg
|rt @devrieshanne: en de afbraak gaat verder, verder en verder......, door @vvd @d66 @cda @cu.    ‘afbouw beschermd wonen is onverantwoord’…|,neg
rt @muijsjes: @buzztruus @go4ass @stegen23 @lindaheemskerk @vvd @sp @cdavandaag @fleuragemapvv @groenlinks @jscherpenberg het is jammer dat…,neg
rt @petradegroot8: @mariska_soek @lindaheemskerk @buzztruus @losmarco030 @stegen23 @muijsjes @vvd @sp @cdavandaag @fleuragemapvv @groenlink…,neg
rt @losmarco030: @buzztruus @stegen23 @lindaheemskerk @muijsjes @vvd @sp @cdavandaag @fleuragemapvv @groenlinks @jscherpenberg je bent gek…,neg
rt @petradegroot8: @mariska_soek @lindaheemskerk @buzztruus @losmarco030 @stegen23 @muijsjes @vvd @sp @cdavandaag @fleuragemapvv @groenlink…,neg
rt @mariska_soek: @buzztruus @lindaheemskerk @vvd @sp @cdavandaag @fleuragemapvv @groenlinks @jscherpenberg @muijsjes @stegen23 vreemd. ik…,neg
rt @mariska_soek: @buzztruus @losmarco030 @stegen23 @lindaheemskerk @muijsjes @vvd @sp @cdavandaag @fleuragemapvv @groenlinks @jscherpenber…,neg
rt @mariska_soek: @buzztruus @lindaheemskerk @vvd @sp @cdavandaag @fleuragemapvv @groenlinks @jscherpenberg @muijsjes @stegen23 ik wist dat…,neg
|rt @cmsnetherlands: hi @renskeleijten,
kan jij de vvd ff bellen dat hun twitter account is gehackt. https://t.co/tcibjvsr80|,neg
rt @ddstandaard: populair: peilingen: forum voor democratie streeft in amsterdam bijna de vvd voorbij https://t.co/jtnrmnnxuy,neg
|rt @jeroenstans: ik: is er in de telefoonklapper van de vvd nou echt geen capabele vrouw te vinden die minister van bz kan worden? 
vvd fra…|,neg
rt @muijsjes: @lindaheemskerk @vvd @sp @cdavandaag @fleuragemapvv @groenlinks @jscherpenberg @stegen23 waarom een doorzettingsmacht creeren…,neg
rt @losmarco030: @buzztruus @stegen23 @lindaheemskerk @muijsjes @vvd @sp @cdavandaag @fleuragemapvv @groenlinks @jscherpenberg misschien mo…,neg
rt @rob_duiven: inmiddels hangen op meerdere plekken in onze stad al posters van de @vvdzoetermeer achter de ramen. ook langs de weg kan je…,neg
|rt @fleuragemapvv: vvd toch.

verzorgingshuizen? liefdevol gesloten. 

77.000 zorgmedewerkers? liefdevol ontslagen.

huishoudelijke hulp? l…|,neg
rt @iljagort: inkomensverdeling volgens de vvd kort uitgelegd. https://t.co/y9argnopnj,neg
rt @adzoetermeer: na het tellen van 68 procent van de stemmen is de vvd voorlopig de grootste partij van zoetermeer. de d66 is bijna gehalv…,neg
vvd wil komende jaren geen stijging ozb #zoetermeer https://t.co/xylddvrfi8 https://t.co/6j8dtqilgy,neg
rt @jacobusbeers: @atdavid_otten @leolewin @hansdeboer18 @pavlova__ @d66 je hebt stemrecht dat heb ik ook bij de vvd maar ik en jij bepalen…,neg
rt @mariska_soek: @buzztruus @losmarco030 @stegen23 @lindaheemskerk @muijsjes @vvd @sp @cdavandaag @fleuragemapvv @groenlinks @jscherpenber…,neg
rt @muijsjes: @stegen23 @buzztruus @mariska_soek @petradegroot8 @lindaheemskerk @losmarco030 @vvd @sp @cdavandaag @fleuragemapvv @groenlink…,neg
@lorelei3112 @vvd slechte #vvd actie voor de bühne. #oxfamscandal,neg
rt @muijsjes: @buzztruus @lindaheemskerk @vvd @sp @cdavandaag @fleuragemapvv @groenlinks @jscherpenberg @stegen23 veel kinderen die op een…,neg
rt @losmarco030: @buzztruus @stegen23 @lindaheemskerk @muijsjes @vvd @sp @cdavandaag @fleuragemapvv @groenlinks @jscherpenberg jammer dat u…,neg
rt @stegen23: @buzztruus @mariska_soek @petradegroot8 @lindaheemskerk @losmarco030 @muijsjes @vvd @sp @cdavandaag @fleuragemapvv @groenlink…,neg
rt @rmbras1973: wat gaat u hier aan doen @cdavandaag @vvd @d66 @pvda of staan allochtonen nederlanders inmiddels boven de wet en geld recht…,neg
rt @mariska_soek: @petradegroot8 @lindaheemskerk @buzztruus @losmarco030 @stegen23 @muijsjes @vvd @sp @cdavandaag @fleuragemapvv @groenlink…,neg
rt @yvonneslaghekke: @buzztruus @muijsjes @go4ass @stegen23 @lindaheemskerk @vvd @sp @cdavandaag @fleuragemapvv @groenlinks @jscherpenberg…,neg
rt @mariska_soek: @buzztruus @lindaheemskerk @vvd @sp @cdavandaag @fleuragemapvv @groenlinks @jscherpenberg @muijsjes @stegen23 dat zou bes…,neg
