|rt @amstelveenbba: bba erkent de economische waarde van schiphol voor amstelveen, maar wil dat er een eind komt aan het interpreteren van c…|,neg
|eerste tussenstand: 

vvd 25,4%
d66 15,5%
groenlinks 12,4%
sp 7,3%
bba 11,9%
pvda 7,1%
cda 7,1%
oca 3,9
cu 3,6%
ava… https://t.co/gmmpzt8vnl|,neg
rt @lindaroos12: marc rutte komt in gemeenteraad van amstelveen of toch niet. hoe zo lokaal stem bba burgerbelangen amstelveen https://t.co…,neg
rt @amstelveenbba: ca. 800 auto's in de ijskoude rij om gratis compost op te halen. bba wethouder peter bot ondersteunde zaterdag de stoere…,neg
rt @lindaroos12: marc rutte komt in gemeenteraad van amstelveen of toch niet. hoe zo lokaal stem bba burgerbelangen amstelveen https://t.co…,neg
