verkiezingsbijeenkomst van bba voor de indiase gemeenschap in westend https://t.co/ut8pa8fki9,pos
rt @_amstelveen: bba krijgt met dwarszitter flinke oogst aan ideeën en klachten de actie dwarszitter van burgerbelangen #amstelveen heeft a…,pos
rt @raadamstelveen: moet er nieuwbouw komen voor de meerkamp? christenunie en bba gaan hierover in debat. #kiesjeraad #amstelveen #lijsttre…,pos
bba wil problemen amstelveense in kaart brengen - https://t.co/llujdn3is6 via @rtvamstelveen,pos
bba wil de problemen bij amstelveense sportclubs in kaart brengen https://t.co/v409tgzj3d #amstelveen,pos
burgerbelangen amstelveen maakt zich sterk voor de sport! https://t.co/cm1cragyem,pos
rt @_amstelveen: bba in gesprek met de indiase gemeenschap in #amstelveen op verzoek van enkele leden van de indiase gemeenschap in #amstel…,pos
|rt @amstelveenbba: zaterdag 17 maart vanaf 8.30 uur gratis compost (op=op). 
bba wethouder peter bot hoopt dat u ook in 2018 uw afval goed…|,pos
rt @lindaroos12: slechte journalistiek  ook burgerbelangen amstelveen heeft 50% vrouwen en 50% mannen  op de lijst  staan . heemstede is du…,pos
rt @ruudkootker: burgerbelangen amstelveen maakt zich sterk voor de sport! https://t.co/cm1cragyem,pos
moet er nieuwbouw komen voor de meerkamp? christenunie en bba gaan hierover in debat. #kiesjeraad #amstelveen… https://t.co/brh3xh3mku,pos
