@bramfokke merk je lokaal wel dat de vvd eerder geneigd is naar de markt te kijken voor oplossingen en de pvda eerder naar de overheid?,neg
ook de vvd vindt de overheid een legitiem middel om tal van problemen op te lossen. en de pvda is nog steeds niet aan het nationaliseren.,neg
|@pvdautrecht @mrbamberg eens, daarover moet je ook het debat voeren. maar dat is wat anders dan het als inzet van c… https://t.co/b7htltkqhx|,neg
@jacqmariac pvda denk ik.,neg
|ik kreeg van twitter targetting een advertentie te zien van pvda leiden, wellicht dacht het algoritme: dirk is bij… https://t.co/7jhq9jrtlx|,neg
rt @dvhn_nl: twijfel op social media over verhaal kandidaat-raadslid pvda emmen. kilincci betreurt het beeld dat ze zaken verzonnen zou heb…,neg
|rt @swsjoerdsma: peiling eenvandaag:
d66 2e partij

vvd 32
d66 16
cda 16
pvv 16
gl    14
sp    13
fvd   9
pvda 8
pvdd 7
50+   7
cu    6
sgp…|,neg
|@lodewijka @geertwilderspvv fantastisch. nu nog op een poster plakken in #amsterdam. 

#d66amsterdam #gr2018 #pvda|,neg
d66 en pvda verliezen in rotterdam. zal dit een lokaal landelijk beeld worden? #gr2018 #gouda #goudapositief,neg
pvda wil onderzoek rekenkamer naar uithoflijn https://t.co/vj781srtwm,neg
|wie lost na de verkiezingen de #pvda af?
https://t.co/aptlwg3kgc https://t.co/9ccrsjlz74|,neg
rt @ayamedinsunaya: @thijsvm @lsabewoners https://t.co/gcvrlntrat voorbeeld van pvda die laat zien dat ze aan de slag willen met rtc.,neg
|rt @nadiabouras: bij fvd koppelen ze iq aan etniciteit, bij de pvda hebben ze een link gevonden tussen testosteron en etniciteit.|,neg
heeft iemand de arbeidsinkomensquote al eens afgezet tegen de verkiezingsresultaten van de #pvda ?,neg
|rt @jeroenstans: in rotterdam zijn groenlinks, sp, pvda en nida sinds half uurtje in spoedoverleg over de ‘zionisme = isis’ tweet van nida.…|,neg
|hilde de snoo: dit is waarom ik voor de pvda de politiek in ga (pvda utrecht) https://t.co/ogghyzh2kj

maak uw eige… https://t.co/jr24hjdu86|,neg
rt @arjandenboer: hele goede vragen van pvda @postruben en groenlinks @pepijn_z aan utrechtse gemeentebestuur over verkoop van maliebaan 42…,neg
|rt @roosvonk: dat klopt @apechtold, de pvda deed te weinig aan #statiegeld. en nu doet d66 er te weinig aan. beiden deden wat vvd en bedrij…|,neg
|rt @mrbamberg: ✅ duurste tram van nl
✅ €1,500,000,000
✅ jaren vertraagd

maar wat kost-ie eigenlijk p/mtr?
@pvdautrecht #utrecht https://t.…|,neg
rt @arjandenboer: hele goede vragen van pvda @postruben en groenlinks @pepijn_z aan utrechtse gemeentebestuur over verkoop van maliebaan 42…,neg
rt @jesseklaver: de @pvda en @spnl hebben al laten weten zich aan te sluiten bij de spoedwet tegen buitensporige salarisverhogingen van ban…,neg
|rt @bartnijman: gl, sp en pvda in 010 omarmen een moslimpartij die al jarenlang openlijke antisemitische complotvergelijkingen maakt tussen…|,neg
|@annefleurdd @dekker_anton @politiekbij1 inderdaad, net als de sp, pvda en d66.|,neg
@tural6801 @taimounti @denknl @denk_amsterdam @amsterdamnl @pvda @vvd @d66 @sp de vertaling klopt helaas. ik word b… https://t.co/lghnrdty1k,neg
|rt @marko_kahn: kijk, #nosjournaal, hier was uw slachtoffer ook al. het wordt steeds ongeloofwaardiger.
#pvda #emmen #fakenews https://t.co…|,neg
@boukearends @janeikelboom kom op emmen #stemugbaad #pvda,neg
@ennodewitt @pvda @tinekesenf @oxfamnovib achterlijke kerels bij oxfam novib kun je ploumen niet aanrekenen. laat staan bij oxfam gb.,neg
|rt @don_mascarpone: ik vind die vvd spotjes onsmakelijk en huichelachtig, eerst breekt de vvd met hulp van de pvda de zorg tot op de grond…|,neg
|@martiendas @robzakee @perspectief21 praktisch vraagje voor jou en rob, zijn jullie gl, pvda of ongebonden?|,neg
ook @pvdautrecht en @groenlinks030 hebben verdiepen van de nru opgenomen. stemadvies: neem alle verkiezingsplannen op dit thema door (=:,neg
|rt @bartnijman: gl, sp en pvda in 010 omarmen een moslimpartij die al jarenlang openlijke antisemitische complotvergelijkingen maakt tussen…|,neg
rt @ewoudkieviet: pvv vs pvda over islam. @meeuwissen_pvv: pvda is grote moslimknuffelpartij geworden. @barbarakathmann: u heeft het over d…,neg
|rt @swsjoerdsma: peiling eenvandaag:
d66 2e partij

vvd 32
d66 16
cda 16
pvv 16
gl    14
sp    13
fvd   9
pvda 8
pvdd 7
50+   7
cu    6
sgp…|,neg
|tja, dat rotterdam. feyenoord werd na een gat van 18 jaar nog kampioen. zie ik de pvda niet doen. #gr2018|,neg
initiatiefwet ingediend door  @lodewijka van @pvda en @mvantoorenburg van @cdavandaag om #seksuele #intimidatie op… https://t.co/oqlui6u2fx,neg
rt @bpschut: alleen al omdat de @pvda in rotterdam een duivelspact is aangegaan met de erdogan- en hamasfans van #nida hoop ik dat zij op 2…,neg
rt @rickvdzweth: gisteren heeft @pvdautrecht actie gevoerd tegen de verkoop van sociale huurwoningen. behoud de mooie arbeiderswoningen op…,neg
rt @bertveenstra033: toegang tot gemeentelijke #schuldhulpverlening moet laagdrempeliger en breder vindt #pvda https://t.co/pyvdabymzk,neg
rt @pvdautrechtps: statenfractie pvda wil onderzoek rekenkamer naar uithoflijn: ''de onderste steen moet nu echt boven'' https://t.co/nsxit…,neg
rt @arjandenboer: hele goede vragen van pvda @postruben en groenlinks @pepijn_z aan utrechtse gemeentebestuur over verkoop van maliebaan 42…,neg
https://t.co/68jlrr4xof wel apart dat de #pvda in actie komt tegen een beleid dat zij zelf hebben ingevoerd in het vorige college.,neg
|@hesterassen @raaijmakersilse @pvdautrecht hoopvol: ik spreek alleen maar ondernemende, energieke en creatieve vrouwen op het hof..|,neg
rt @hasbakker: dit is waarom ik @d66utrecht stem! 💚 niet dat rare uitsluiten van de vvd door groenlinks of de kortzichtigheid van de pvda d…,neg
|@foughtywilliam @lodewijka video bekeken, lodewijk? hoe gaat de @pvda zijn fouten herstellen? onmogelijke opgave. p… https://t.co/rlilfp6duu|,neg
|rt @frontbenchernl: een nieuwe peiling van kantar public:

vvd 30 +2
pvv 16 -2
cda 15 +1
d66 15 -2
gl 16
sp 16 +1
pvda 9 -2
fvd 9 -3
cu 6
p…|,neg
rt @timvanlieshout: partijleider @pvda @lodewijka tegen @markrutte: 'ik zal u dit zeggen: in dit soort rechts geouwehoer kun je niet wonen!…,neg
|rt @gem_amersfoort: de eerste tussenstand in % na 16 getelde stembureaus:
d66 15,2 vvd 12,8 cu 10,7 sp 7,5 pvda 6,1 cda 12,4 gl 12,5 bpa 5,…|,neg
|ik vind de voorvrouw van pvda in rotterdam verfrissend.

#nosdebat|,neg
wachten op de laatste uitslag. wat zeker lijkt is dat nieuw elan de grootste partij wordt en dat sgp en pvda flink… https://t.co/byxb6tlid2,neg
rt @rickvdzweth: vandaag is de @pvdautrecht niet alleen in de wijk maar ook op het ijs! op de catharijnesingel delen we warme drankjes en l…,neg
|rt @ajjdordt: @marcelvandriel @lodewijka @pvda geloof me, ik hoor het vaker ... 

toch is het dé partij die, mits de ideologische veren nie…|,neg
rt @arjandenboer: hele goede vragen van pvda @postruben en groenlinks @pepijn_z aan utrechtse gemeentebestuur over verkoop van maliebaan 42…,neg
|rt @nausicaamarbe: vergeet niet wie denk leidt: types die vrouwelijke collega's bij pvda intimideerden,collega's in kamer filmen/verlinken,…|,neg
|rt @jongderik: wilders en baudet heulen met types als jared taylor of met de russische overheid, maar groenlinks en pvda moeten minstens ev…|,neg
|rt @tomwgvdmeer: "groenlinks heeft geen last van de opkomst van denk; de pvda wel."
hoe denken de duiders dat te weten? ik ken de individue…|,neg
statenfractie pvda wil onderzoek rekenkamer naar uithoflijn: ''de onderste steen moet nu echt boven'...… https://t.co/old2lhhiz9,neg
rt @bpschut: alleen al omdat de @pvda in rotterdam een duivelspact is aangegaan met de erdogan- en hamasfans van #nida hoop ik dat zij op 2…,neg
rt @arjandenboer: hele goede vragen van pvda @postruben en groenlinks @pepijn_z aan utrechtse gemeentebestuur over verkoop van maliebaan 42…,neg
rt @arjandenboer: hele goede vragen van pvda @postruben en groenlinks @pepijn_z aan utrechtse gemeentebestuur over verkoop van maliebaan 42…,neg
jarenlang brak de pvda sociale huur af in utrecht. de sp zorgde voor een trendbreuk: er komen 1800 sociale huurhuiz… https://t.co/l81jrr2v2r,neg
rt @sypwynia: denk wil salafisten in 020 subsidieren en de pvda is er niet tegen. #islamisering https://t.co/cizroujkcz via @parool,neg
|rt @wierdduk: tom staal is de beste tv-interviewer in nl, blijft maar doorvragen in oude vpro-traditie: "staal wrijft in vlek sp en pvda na…|,neg
rt @erikplageman: ronde 2. pvda sterk. de rest vrij matig. probleem wordt slecht herkend. #onderwijs #politiekdebatlrvdm2018,neg
rt @ramazan19980: @pvdanijmegen niet op de pvda die een diyanet erdoganmoskee steunt op a-locatie jonkerbosplein,neg
@vvd @pvda ik voel een fittie aankomen... https://t.co/7pg1zjzjr4,neg
