adv: als ik @markozwier in mijn woonplaats kon stemmen op politieke partij jezus leeft dan deed ik dat zie… https://t.co/yo75dvyhty,pos
aanwezig bij het christelijk lijsttrekkersdebat in gouda. @sgpgouda @cdagouda @cugouda en jezusleeft https://t.co/mdf6aa56sv,pos
@michelk haha. jezus leeft op het #coornhert.,pos
rt @arjanversteeg: aanwezig bij het christelijk lijsttrekkersdebat in gouda. @sgpgouda @cdagouda @cugouda en jezusleeft https://t.co/mdf6aa…,pos
in mijn stembureau is de heilige drie-eenheid wezen stemmen. jezus leeft heeft drie stemmen,pos
