rt @deltatalent: doe mee aan de nldelta challenge en denk mee met @thomasvanderes om het gebied - van slot loevestein tot voorbij de haring…,pos
|rt @rtvutrecht: exitpoll #utrecht:
1. groenlinks 12 (9)
2. d66 9 (13)
3. vvd 5 (5)
4. denk 3 (0)
5. pvda 2 (5)
6. sp 2 (4)
7. cda 2 (3)
8.…|,pos
|rt @esther_voet: u weet het he? even voor de zekerheid: #denk en #bij1 weigerden te tekenen (vergaarbakjes van antisemieten).
amsterdam sta…|,pos
@luciaroelofsen jij kan deze handeling ook voor diegene doen. ik denk dat je ongeveer 1 minuut aan tijd eraan kwijt bent. ^et,pos
|“baas, hoeveel respondenten denk je dat ik heb?”

- “hoeveel heb je er gemaild?”

“ruim 26.000”

- “je klinkt blij… https://t.co/1812msjoe9|,pos
|rt @g_and_s: lentekriebelweek! denk je nu: "oeps... vergeten.." download dan snel een van onze 30 kleurplaten, die helemaal geschikt zijn v…|,pos
@nvandenhout @datkanbeter @snappcar inherent aan het ‘anonieme’ hieraan denk ik. niettemin tenenkrommend en ik raak… https://t.co/cwitykzd6m,pos
@sportzeloot di: rom - sja bedoel je denk ik,pos
|wil jij meer vanuit je hart te leven? 
denk dan eens aan schilderij hartig hart. 
het herinnert je er elke dag aan! 
https://t.co/aonnle7ddp|,pos
|@peter_de_peter zelfs als dat zo is, weet ik niet of dit de manier is om dat duidelijk te maken. ik denk het niet..… https://t.co/dpx5lnxl95|,pos
|weet jij het verschil tussen een goed idee en een inzicht?
filosofeer, denk en laat je meenemen op de golven van... https://t.co/9zvosgjdmy|,pos
denk aan je camera met kou! https://t.co/bwci6kkghk #blog #bloggerblast #fotografie #workshop,pos
rt @goossensjohan: ik voorspel een grote overwinning voor denk in mijn wijk bos en lommer in amsterdam. in het stemlokaal geven ze namelijk…,pos
|@suzanneunck ik denk dat ze bedoelen dat je beter in je kracht staat als je, digitaal gezien ook je mannetje staat… https://t.co/mku8mxeksd|,pos
bijzondere kandidaten: transgender voor #vvd en een fries bij denk https://t.co/emffgtruif #utrecht,pos
rt @100000banen: "ik denk dat we veel meer mensen met een handicap een baan kunnen bezorgen als wij – als ondernemers – meer als keten zoud…,pos
dankjewel ... denk ik ... 😉 https://t.co/h1pdogqexy,pos
|@n_eorej @sambamagico @trouw gaat meer om de anti-immigratie waar ze voor staan, denk ik. maar idd, extreemrechts i… https://t.co/rrlhjxsjrt|,pos
ach niemand was toen misdadiger. ach meneertje van denk. denk eens na over de rechten van de turken. en hou verder… https://t.co/1pgu8nqiqm,pos
|rt @latiftali: 1) denk rotterdam verspreidt via een whatsapp bericht, totaal andere partij punten onder hun(echte) achterban.punte hebben n…|,pos
@mellebell72 ik denk dat wij hierin verschillen van mening en dat is prima,pos
|@marissakramer_ dank :-), ik zie wat je bedoeld. ik denk dat vervoerder de verstoring niet goed in het systeem door… https://t.co/b2a3kzqno8|,pos
|@jessjess_medsz haha, ik denk dat ik het al weet :-p we wachten geduldig af vandaag, hopelijk heb je nu meer geluk. ^nicole|,pos
@dutchdreamer_ @tunahankuzu @thierrybaudet @nos alsof denk wakker ligt van jou,pos
@treinreiziger ah. in mijn wijk (lombok) zal denk ook wel groot worden. er is zelfs een heus denk-kantoor hier om de hoek.,pos
rt @wbzuid: op dinsdag 6 maart kun je van 11:30 tot 13:30 uur je lunch samenstellen en samen eten met buurtgenoten bij de #musketon. denk a…,pos
@el_reinders @nelleengel @suusj thanks! over 16 jaar ben ik denk ik wel klaar voor een huiskamerconcert dus tegen d… https://t.co/drs9urkbk5,pos
ik heb dit gekocht. dus jullie horen mij de rest van de week even niet meer denk ik. https://t.co/nhl41mitbq,pos
het moment is daar: zojuist begonnen aan laatste raadsvergadering samen met @maartenooijen. denk dat er weinig (buu… https://t.co/rkjlxp6mxy,pos
kun je denk en pvv tegen elkaar wegstrepen? dan komt het wel goed in utrecht,pos
@neenke ja ik denk het!,pos
@tupakamrah ik denk dat ik de meeste lol ga hebben:),pos
@wachtenopbaudet @amsterdam1058 @judithbokhove @leefbaarrdam @nidarotterdam @eerdmans @denk en met denk en nida kan… https://t.co/mdkwefyfyt,pos
@ricksteggerda @timknol haha. leuk idee maar denk het niet.,pos
rt @piclnl: filmliefhebbers (en nachtbrakers) opgelet! vannacht is de uitreiking van de oscars! wie denk jij dat er gaat winnen? 🏆 https://…,pos
@langetoepie @broodjebalmayo kleine overwinnen ado denk ik. nac is nou ook weer niet zo goed,pos
|@martinkollaard daar zijn wij als webcare nog niet van op de hoogte in ieder geval, dus ik denk dat ik je teleur mo… https://t.co/sbkd7g1xr8|,pos
wanneer ik zoals vandaag computers aan het schoonmaken en backuppen ben dan denk ik onwillekeurig terug aan een vor… https://t.co/m21ftoeexw,pos
vandaag is het #internationalevrouwendag en denk ik erover om volgend jaar te gaan fietsen voor cycle for plan in m… https://t.co/k23fhrrlf7,pos
|iedere keer als ik op schiphol ben (iedere dag), denk ik: wat als ik nou op vakantie zou gaan? 😭😭|,pos
|rt @rtvutrecht: exitpoll #utrecht:
1. groenlinks 12 (9)
2. d66 9 (13)
3. vvd 5 (5)
4. denk 3 (0)
5. pvda 2 (5)
6. sp 2 (4)
7. cda 2 (3)
8.…|,pos
|rt @rilier: denk mee over de ambities van het nji. komt naar het nji proeflokaal, maandagavond 18 maart in utrecht of 26 maart in amersfoor…|,pos
|"ik heb het nog nooit gedaan, dus ik denk dat ik het wel kan."|,pos
|rt @provutrecht: prettig wonen, werken en leven in de provincie utrecht in 2050. daar denken we nu over na. denk je mee? vul de enquête in…|,pos
rt @hoogendijkkees: nieuwe tussenstand. 52% van de stemmen. trend blijft gelijk aan vorige tussenstand. denk 1 zetel ipv 2. #amersfoort #gr…,pos
|@vaneun ook dat, maar altijd als ik #hawking zie denk ik hoe zou mijn vader zijn als het hem geschonken was. natuur… https://t.co/th2md2a9fi|,pos
@joop_nl als het gaat om sylvana en denk gaat het om wat ze zeggen. volgens mij is aboutaleb trouwens een van de me… https://t.co/yivqufwie7,pos
@mvanderkist @stefanpaas @lamyaea ik denk dat het voor armeniërs helpend is dat het buitenland wel erkent dat nu ru… https://t.co/lk8vz8dxnq,pos
|rt @safatweets: hoe kun je op denk stemmen als je nida hebt, hoeeeee 🤦🏻‍♀️🤦🏻‍♀️ https://t.co/42yjdltsk8|,pos
|@sandervwaveren @wordpressdotcom haha ik denk dat ik een overgangstermijn van twee jaar met ze afspreek, net als de britten nu hebben gedaan|,pos
|ik zag net, vlak voor het 8 uur journaal een spotje van leefbaar rotterdam. ik denk dat ik nu toch maar op hen ga s… https://t.co/n3uzxctbyp|,pos
rt @wierdduk: goed dat in deze dagen van identiteitsgekte zoveel duidelijk wordt. niet nida en denk vallen door de mand maar hun linkse vli…,pos
|rt @andere_vanduin: ik denk dat ik erachter ben waarom zoveel politici hun beloftes niet houden....

die hebben ze weer nodig bij de volgen…|,pos
denk jij ook nog zo vaak aan alicia? meld je ook aan voor de dialoog in jouw regio! https://t.co/fehqaytctu,pos
@judithjus wat leuk! ja ik denk ook dat ik ‘m wel regelmatig ga gebruiken😃,pos
|@kimtikt @hilde_ps ik denk dat ik het ook niet *hoef* te doen, maar dat blije bekkie van m'n kind wil ik gewoon niet missen :-)|,pos
weer niet nagedacht #denk https://t.co/fv4z0hzyh7,pos
ronald koeman traint het liefst besloten met oranje: 'ik denk daar zo over en helaas ben ik degene die bepaalt nu.' https://t.co/x3iwb9eq3a,pos
|rt @noknokitsme: #kuzu #denk op #nos... met een paar mannen..... vrouwen zitten thuis.... uiteraard. 
#gemeenteraadsverkiezingen|,pos
@elsjonker @henriketerh @martinvisser ik denk dat je onderschat hoe creatief boekhouders zijn.. genoeg mogelijkhede… https://t.co/qbzs0r333j,pos
@missduqueen @vvdv @early71 ik denk dat ik daar te jong voor ben https://t.co/onu1fmwr26,pos
rt @bertinaslager: denk goed na als je de voordelen van inclusief onderwijs kent als je overweegt om op @sputrecht te stemmen #inclusieve s…,pos
rt @fritsbosch1: @marcgr8 @zorgictzorgen @ggznederland ik denk meer aan een paar bijtende mieren in de slurf van een olifant! https://t.co/…,pos
@erwinwijman @aiweiwei @voorlinden ik denk vaak aan @rsmuseum rob scholten...,pos
|@wdegelder ik duim nog steeds het meest voor call me by your name, maar deze staat denk ik wel in mijn top 5 van fi… https://t.co/1dxvlloj7l|,pos
|olcay: "ik denk dat mijn hoogtepunt morgen komt". morgen wordt de mol bekend, komt dus boven. letterlijk het hoogste punt.|,pos
rt @jorisluyendijk: dus na vijf kwartier uitzenden zegt iemand aan tafel bij de nos eindelijk: wat heeft denk enorm gewonnen! welk signaal…,pos
@unambiorix ik denk dat het niet goed komt .. en dus het internet 'uit' moet. maargoed eerst zal het goed fout gaan… https://t.co/hslakbrprt,pos
|rt @ewoutversloot: net als @pauwnl kiest @nieuwsuur voor sensatie in plaats van inhoud. wel denk (nu 0 zetels, in peiling 3), maar geen gl…|,pos
|al die media-aandacht voor foute partijtjes als bij1, denk en nida is absurd. mijn respect voor partijen die in sti… https://t.co/by2ccc6njb|,pos
schrik.... #denk #pvv ... nee niet blij mee #gr18 #utrechtkiest,pos
|rt @trias_politica: exitpoll utrecht: #d66 verliest 5,8% tgv gl. pvda halveert. pvv 2 zetels. denk in raad met 3 zetels.|,pos
|@ailkofrederiks wat denk jij amici, zonder of met boegbeeld?|,pos
denk met ons mee! graag horen wij wanneer er op- en aanmerkingen of aanvullingen zijn op de leidraad 'oud en gelukk… https://t.co/xa7sb4zeh2,pos
rt @cafeweltschmerz: deze imams adviseren salafisten om op denk te stemmen https://t.co/dbplbuqirm via @else4weekblad,pos
@ankelaterveer ja je hebt gelijk denk ik. maar man wat is die bubbel hardnekkig.,pos
|rt @driessewout: nsb'ers is toepasselijker.
#denk https://t.co/wxnytihunv|,pos
rt @goossensjohan: ik voorspel een grote overwinning voor denk in mijn wijk bos en lommer in amsterdam. in het stemlokaal geven ze namelijk…,pos
|inderdaad, mooi! voor amelisweerdse bomen komt dit te laat denk ik dan? https://t.co/mhflw421he|,pos
rt @liesbeth050: @ruimtemaker @nrc eens. ik denk dat het antwoord zit in meer ruimte voor ambtenaren om samen te werken aan maatschappelijk…,pos
rt @goossensjohan: ik voorspel een grote overwinning voor denk in mijn wijk bos en lommer in amsterdam. in het stemlokaal geven ze namelijk…,pos
|prettig wonen, werken en leven in de provincie utrecht in 2050. daar denken we nu over na. denk je mee? vul de enqu… https://t.co/xzdau5o3ce|,pos
|ik heb op denk gestemd, want ik vind koefnoen en halal zo'n goed duo.|,pos
@debosmarmot denk je!? en wanneer? ...,pos
@stevendev ik denk dat het dan zo op ons aankomt steven!,pos
rt @waterdrinkerp: denk maar dat die rijke russen te londen zich nu ook oriënteren op amsterdam. gouden tijden in ‘t verschiet voor onze pr…,pos
@nynkesirene @tomdelouw uit mijn hoofd zou ik zeggen: buurt of mariapaviljoen. maar @enigheid weet dat denk ik nog beter!,pos
|rt @bdzakelijk: denk jij erover om een bedrijf te beginnen? kom dan zaterdag naar de #startersdag van @kvk_nl. dat kan in amsterdam, arnhem…|,pos
rt @marije: @simon_rozendaal @ajboekestijn ik denk eerder dat het te maken heeft met het *verplaatsen* van onze impact naar armere landen.…,pos
|rt @rtvutrecht: exitpoll #utrecht:
1. groenlinks 12 (9)
2. d66 9 (13)
3. vvd 5 (5)
4. denk 3 (0)
5. pvda 2 (5)
6. sp 2 (4)
7. cda 2 (3)
8.…|,pos
ben benieuwd wie mourinho nu weer de schuld gaat geven. denk niet de man die de opstelling heeft gemaakt...,pos
|@klaasjelle_ dat klopt, onze l'or capsules moeten goed werken in jouw machine. ik denk dat je een inissia hebt? kun… https://t.co/gctcg2oufn|,pos
|foute vergelijking natuurlijk van denk rotterdam, maar wat de pvv voorman daar satanisch grijnzend uitkraamt... die… https://t.co/td1g5dpb3f|,pos
|@jorisrie denk dat rtl best zit te wachten op een serieuze talk show, wie weet. grote vraag is vooral of de kaasstengels op tafel blijven!|,pos
exit poll in rotterdam: leefbaar rotterdam krijgt 11 zetels. nieuwkomer denk krijgt 4 zetels. https://t.co/91puwkfhnz,pos
|rt @fritstenhove: stop het treiteren van mensen met gewone inkomens!

denk goed na op wie je stemt! diverse landelijke partijen hebben bewe…|,pos
|morgen #lentekriebels! denk je nu: "oeps... vergeten.." download dan nog even snel een van onze 30 kleurplaten, die… https://t.co/kn98qgpetq|,pos
|rt @andere_vanduin: ik denk dat ik erachter ben waarom zoveel politici hun beloftes niet houden....

die hebben ze weer nodig bij de volgen…|,pos
rt @goossensjohan: ik voorspel een grote overwinning voor denk in mijn wijk bos en lommer in amsterdam. in het stemlokaal geven ze namelijk…,pos
|rt @latiftali: 1) denk rotterdam verspreidt via een whatsapp bericht, totaal andere partij punten onder hun(echte) achterban.punte hebben n…|,pos
@drebrandes ja best goed. weer beetje kast van de buikje. denk dat ze wat kattenvoer heeft gejat 😎,pos
rt @tponl: waarnemer stembureau wijst aan hoe je op denk moet stemmen en gaat mee stemhokje in https://t.co/xrxmpmeo11,pos
@manjureijmer denk hier nu al de hele dag aan. ik ga volgende weken weer voorlichting geven aan mijn groep 8. heb jij tips voor mij??,pos
rt @hannah_ver_s: @dusschotenf @marcelvandriel denk dat het wel mee valt. ik denk juist dat te veel 'normale mensen' tegenwoordig denken de…,pos
rt @vluchtelingwerk: denk je vandaag bij het stemmen ook aan de vluchtelingen in jouw gemeente? gemeenten hebben een aantal belangrijke ver…,pos
|hier zien we #humberto en #twan samen, bij @rtllatenight. wat denk jij van de vervanging? lees wat dominee… https://t.co/gv1phacxjw|,pos
@valentine_o_ @twi_terr ik als colotant zou denk ik gewoon aangebeld hebben. gewoon even lekker sarren 😉,pos
denk dat ene meneer pasveer wel een slaappilletje kan gebruiken vanavond... (@ stadion galgenwaard - @fcutrecht for… https://t.co/oddlxuxbvf,pos
rt @sumurai8: @marcelvandriel @twopcharts_nl dit is inderdaad hoe correlaties werken. het heeft denk ik ook te maken met hoeveel chocola ik…,pos
rt @middinonline: koning verrast #middin met bezoek aan locatie brugsestraat in den haag. bewoner brugsestraat: ´ik denk dat ik er vanavond…,pos
|ik denk dat als we allemaal gewoon eerlijk zouden toegeven dat poepen een van de fijnste dingen in het leven is, da… https://t.co/o2db19jqux|,pos
ik las ‘de zaak 40/61’ van harry mulisch (lvdl niv. 5) en dit is denk ik het eerste boek van mulisch waar ik echt van onder de indruk ben.,pos
rt @reddeveluwe: knap voorbeeld van verkeerde en misplaatste marketing door @cvnieuwenhuizen   een belevenisvlucht? denk je dat de mensen i…,pos
|@jrnptrs_ daar zijn we voor, jeroen. :) denk er rustig over na. we zitten van 8:00 tot 23:00 uur voor je klaar!|,pos
rt @mollymcbeal1: denk richt zich op islamitische streepjes- en aspirant streepjes nederlanders: samen autochtonen massaal discrimineren. h…,pos
|rt @rtvutrecht: exitpoll #utrecht:
1. groenlinks 12 (9)
2. d66 9 (13)
3. vvd 5 (5)
4. denk 3 (0)
5. pvda 2 (5)
6. sp 2 (4)
7. cda 2 (3)
8.…|,pos
|rt @leeflanghans: de grote opgaven van nu zijn natuurlijk echt anders dan bij #vinex 30 jaar geleden. denk aan klimaat, energie, voedsel, g…|,pos
denk en praat mee over onze ambitie en koers voor de komende jaren! op maandagavond 19 maart in utrecht (zuilen) of… https://t.co/adrwdxtxhr,pos
interesse in #klinischonderzoek of denk jij aan een carrière als #cra? meld je dan nu aan voor de clinical trials a… https://t.co/boaflcgnvy,pos
denk dat ik het antwoord al heb. de weergave in het blad is niet geheel representatief i guess,pos
ik denk dat ik verliefd ben op utrecht.,pos
|@hdeheer ok, vraag ik aan mijn docent japans zijn biostabil. zitten we denk ik goed in ons karma/chi/energiebanen-shizzle|,pos
uur 16 zonder warm water breekt aan @jebberutrecht ik denk dat we inmiddels een behoorlijke vergoeding behoren te k… https://t.co/w7nrth6jl3,pos
rt @rvo_duurzaam: ben jij een starter of student en denk je graag mee over innovatieve beleidsmaatregelen voor energiebesparing? doe dan op…,pos
ik neem in rotterdam een flyer aan van d66 en denk direct daarna: maar ik mag helemaal niet in rotterdam stemmen en… https://t.co/qy8xp9oahn,pos
afgelopen maanden druk bezig geweest met het zoeken naar mijn purpose. ik denk dat ik hem gevonden heb… https://t.co/qdl45t7jvn,pos
|hier denk ik ook al een tijdje aan. geen sociale media, slechts 1 a 2 momenten per dag nieuws lezen. kennelijk is h… https://t.co/77mlodz4wm|,pos
|denk is in renswoude helemaal weggevaagd!

#gr18|,pos
vriendin van slachtoffer verklaart: "soms denk ik dat het beter is dat ik dit ongeluk niet had overleefd. ik heb ve… https://t.co/cabynlw2p9,pos
|@timcalis @alfro_j júist bp, in nl. het zijn ook maar 6 shows. denk dat er heel goed gekeken is naar in welke markt.|,pos
dat denk ik ook. al zou ik wel benieuwd zijn wat het concreet inhoudt. https://t.co/0skuzd6m3l,pos
de siberische kou is weg! tijd voor franse temperaturen. wie denk jij dat parijs - nice gaat winnen komende week?… https://t.co/mujkszyujh,pos
|rt @simonzijlemans: vraag uit de zaal:

"hoe blij bent u met justin kluivert?"

koeman: "ik denk dat hij blijer is met mij."

😂😂😂|,pos
|@thomasfransman valt wel mee denk ik. whatever, het is weer weekend!|,pos
|@jenny83l ik heb je bestelling even gecontroleerd, en ik denk dat de producten iets te groot waren om samen in één… https://t.co/crvwcmu0li|,pos
@030caro moeilijke vraag! daar denk ik even over na.,pos
rt @celalaltuntas1: denk is kritisch over de geschiedenis van nederland maar is super lief en trots  over de geschiedenis van turkije #hypo…,pos
|het is bijna zover. denk jij genoeg te weten van de nieuwe wiv? doe onze test! @ftm_nl 

https://t.co/mf5dqu1rrg|,pos
|@pascalseedorf ja, zelf rijden had ik al afgestreept inmiddels. denk best of both worlds. heen met de trein, terug ubertje :d|,pos
|rt @denieuwsbv: het allermooiste volgens @ingmarheytze? nou, de theatershow van bertolf natuurlijk! en denk je nu, maar waarom dan? luister…|,pos
@nicoleboomaars gelukkig want ik hou t niet meer! en de rest v twitter ook niet denk ik😬😉,pos
@foxsportsnl en dan denk ik weer aan david di tomasso...,pos
|rt @abflipse: zo denk ik erover. ik hoop dat het morgen slecht afloopt voor juncker. hij wil juist snel veel meer #eu, ik absoluut niet. ze…|,pos
rt @goossensjohan: ik voorspel een grote overwinning voor denk in mijn wijk bos en lommer in amsterdam. in het stemlokaal geven ze namelijk…,pos
|rt @ddstandaard: geniepig denk voert via whatsapp keiharde islamistische campagne: ‘halalhypotheken, halalslacht, armeense kwestie!’ https:…|,pos
|rt @socentnl: gisteravond bij @nos: 'voor veel gemeenten is het nog niet voor de hand liggend om in te kopen bij #socents, denk aan de inko…|,pos
rt @jolandeuringa: het moment is daar: zojuist begonnen aan laatste raadsvergadering samen met @maartenooijen. denk dat er weinig (buur)man…,pos
|rt @rtvutrecht: exitpoll #utrecht:
1. groenlinks 12 (9)
2. d66 9 (13)
3. vvd 5 (5)
4. denk 3 (0)
5. pvda 2 (5)
6. sp 2 (4)
7. cda 2 (3)
8.…|,pos
|@christiantraets 27inch is net te groot denk ik, dus 24/25 inch|,pos
|vacature || denk jij na over een nieuwe uitdaging? wij zijn altijd op zoek naar nieuw talent. bekijk hier onze… https://t.co/vygjnruz3t|,pos
|rt @pvdaeuropa: aan welke topvrouw(en) 💪🏾 denk jij op deze internationale #vrouwendag? dat willen we vandaag graag van je weten 

#ikdenkva…|,pos
en ze zijn héél mooi en ik heb ze ook al aan dus ik denk eerlijk gezegd niet dat ik deze schoenen ooit nog terug ga sturen,pos
|rt @pvdaeuropa: aan welke topvrouw(en) 💪🏾 denk jij op deze internationale #vrouwendag? dat willen we vandaag graag van je weten 

#ikdenkva…|,pos
@estherblenk ongetwijfeld. van nog veel meer dingen ook denk ik. maar het idee 'ik ga naar het ziekenhuis en mijn p… https://t.co/atzyioknzk,pos
|@eaderuig @onzetaal zou best kunnen dat daarom veel mensen 'op lunetten' zeggen, denk je niet?|,pos
@de_kever tijd voor bier denk ik.,pos
@utrechtsesjoerd ik denk dat kiezers prima in staat zijn het onderscheid te maken tussen lijstduwers en lijsttrekkers.,pos
@noenes dit wisten wij ook nog niet! 😄ik denk dat het om privé sponsoring gaat tussen deze monteur en scc ;-) ^mp,pos
@jozekoot mensen meer financiële armslag geven sorteert denk ik het meeste effect.,pos
@reintjanrenes @sanderhermsen net geprobeerd. geëindigd met een lijst waarvan de eerste in mijn allergie zit. 😳 denk er niet aan.,pos
|rt @rooswouters: kom jij 9 april naar @werkvereniging bijeenkomst: wat te doen met mijn pensioen? ik heb zelf niks geregeld, denk dat ik bl…|,pos
rt @middinonline: koning verrast #middin met bezoek aan locatie brugsestraat in den haag. bewoner brugsestraat: ´ik denk dat ik er vanavond…,pos
@rock_n_roel @woodenplankst oh ik heb je gebruikersnaam nodig denk ik!,pos
rt @goossensjohan: ik voorspel een grote overwinning voor denk in mijn wijk bos en lommer in amsterdam. in het stemlokaal geven ze namelijk…,pos
overweeg je de klantenservice van jouw bedrijf te versterken met een chatbot? dan denk je waarschijnlijk het eerst… https://t.co/cfmnogli1p,pos
|rt @kwybes: toekomst van nederland, als partijen als #nida en #denk  de macht krijgen. 
gezellig op vrijdag na het gebed homo's ophangen. z…|,pos
rt @goossensjohan: ik voorspel een grote overwinning voor denk in mijn wijk bos en lommer in amsterdam. in het stemlokaal geven ze namelijk…,pos
@aliceboothby ik denk dat het gewoon een landelijk event moet worden,pos
@manvandezaak ben wel benieuwd hoeveel klanten het zeggen vs daadwerkelijk gaan. zal meevallen denk ik.,pos
thx. denk dat grote steden en middelgrote steden andere benadering vragen. en dat wijze waarop @janhfjager het voor… https://t.co/sskayej9lo,pos
|denk mee over de ambities van het nji. komt naar het nji proeflokaal, maandagavond 18 maart in utrecht of 26 maart… https://t.co/ztpilw4vcf|,pos
@sophieliselotte thanks!! dat artikel waarnaar verwezen wordt komt denk ik heel goed van pas! :-),pos
rt @cortoonen: #complimentendag alle goedhorende medemensen die zich openstellen voor mensen met een gehoorbeperking. denk aan duidelijke c…,pos
|rt @lankfield: @j0risverhoeven @accoya 1: ik denk dat we het erover eens kunnen zijn dat #hout, mits correct met het bos omgegaan wordt, ee…|,pos
rt @carelbrendel: grijze wolf-kopstuk ontmoet rotterdamse d66-politicus (in 2016). https://t.co/jonxgrj9ie  ik denk dat d66 "zich grondig w…,pos
rt @middinonline: koning verrast #middin met bezoek aan locatie brugsestraat in den haag. bewoner brugsestraat: ´ik denk dat ik er vanavond…,pos
@joram_krol @werthernieland voor jouw tijd denk ik. heeft er jaren gezeten. analoog speciaalzaak.,pos
@yxxynl @de_monitor ik denk dat de hele discussie van gas weinig te maken heeft met schone lucht in de wijken. of b… https://t.co/tl7undxifr,pos
|@vincentschmitz goed zo. ik zat net een sommetje te maken, maar je komt met de kosten van de krant denk ik ook nog… https://t.co/7dz00njeto|,pos
|rt @drk75: interessant, al denk ik dat het dieper zit: automatisering bedreigt steeds meer bankiers, accountants en juristen met zware hypo…|,pos
|rt @wvanderkruijs: ook ik denk aan hem als en buitengewoon intelligent, charmant en menselijk man. die voor de provincie veel betekend heef…|,pos
|mijn oma: “sta ik mijn poes te scheren, gaat mijn telefoon en denk ik, kut dat haal ik natuurlijk niet meer.” zovee… https://t.co/qze1lxuyld|,pos
|@vvd helemaal mee eens, maar denk dan ook aan de mensen die niet in staat zijn om een woning te kopen en dus graag… https://t.co/v25bv8l16s|,pos
